<?xml version="1.0" encoding="UTF-8" standalone="no"?>
<!-- Created with Inkscape (http://www.inkscape.org/) -->

<svg
   xmlns:dc="http://purl.org/dc/elements/1.1/"
   xmlns:cc="http://creativecommons.org/ns#"
   xmlns:rdf="http://www.w3.org/1999/02/22-rdf-syntax-ns#"
   xmlns:svg="http://www.w3.org/2000/svg"
   xmlns="http://www.w3.org/2000/svg"
   xmlns:xlink="http://www.w3.org/1999/xlink"
   xmlns:sodipodi="http://sodipodi.sourceforge.net/DTD/sodipodi-0.dtd"
   xmlns:inkscape="http://www.inkscape.org/namespaces/inkscape"
   id="svg2"
   version="1.1"
   inkscape:version="0.48.3.1 r9886"
   width="142.55083"
   height="279.42102"
   sodipodi:docname="Curvy Linear.svg"
   inkscape:export-filename="/home/parclytaxel/Pictures/Curvy Linear.png"
   inkscape:export-xdpi="4040.627"
   inkscape:export-ydpi="4040.627">
  <metadata
     id="metadata8">
    <rdf:RDF>
      <cc:Work
         rdf:about="">
        <dc:format>image/svg+xml</dc:format>
        <dc:type
           rdf:resource="http://purl.org/dc/dcmitype/StillImage" />
        <dc:title></dc:title>
      </cc:Work>
    </rdf:RDF>
  </metadata>
  <defs
     id="defs6">
    <inkscape:path-effect
       effect="skeletal"
       id="path-effect4462"
       is_visible="true"
       pattern="m 489.99999,821.99998 0,3 225.85095,0 c 4.73166,0 9.06306,-0.32322 13.73832,-1.5 -4.55026,-1.25 -9.25666,-1.5 -13.73832,-1.5 z"
       copytype="single_stretched"
       prop_scale="1"
       scale_y_rel="false"
       spacing="0"
       normal_offset="0"
       tang_offset="0"
       prop_units="false"
       vertical_pattern="false"
       fuse_tolerance="0"
       pattern-nodetypes="ccscsc" />
    <inkscape:path-effect
       effect="skeletal"
       id="path-effect5877"
       is_visible="true"
       pattern="m 603.31098,830.95454 c 10.98166,0 33.43806,0.375 43.73832,1.5 -10.17526,0.80178 -32.50666,1.5 -43.73832,1.5 l -111.896,0 c -7.16301,0 -30.51674,-0.41161 -37.95495,-0.41161 l 0,-2.17678 c 7.33661,0 30.79194,-0.41161 37.95495,-0.41161 z"
       copytype="single_stretched"
       prop_scale="1"
       scale_y_rel="false"
       spacing="0"
       normal_offset="0"
       tang_offset="0"
       prop_units="false"
       vertical_pattern="false"
       fuse_tolerance="0"
       pattern-nodetypes="scssccss" />
    <inkscape:path-effect
       effect="skeletal"
       id="path-effect5855"
       is_visible="true"
       pattern="m 462.11161,780.99944 0,3 145.85095,0 c 6.98166,0 11.68806,-0.57322 17.73832,-1.5 -6.05026,-1 -10.88166,-1.5 -17.73832,-1.5 z"
       copytype="single_stretched"
       prop_scale="1"
       scale_y_rel="false"
       spacing="0"
       normal_offset="0"
       tang_offset="0"
       prop_units="false"
       vertical_pattern="false"
       fuse_tolerance="0"
       pattern-nodetypes="ccscsc" />
    <inkscape:path-effect
       effect="skeletal"
       id="path-effect5736"
       is_visible="true"
       pattern="m 572.46874,656.19509 c -8.53716,0 -32.39036,0.46339 -41.41073,1.5 8.98376,1.03661 32.87357,1.5 41.41073,1.5 l 93.85095,0 c 9.73166,0 37.68806,-0.32322 45.73832,-1.5 -8.05026,-1 -36.00666,-1.5 -45.73832,-1.5 z"
       copytype="single_stretched"
       prop_scale="1"
       scale_y_rel="false"
       spacing="0"
       normal_offset="0"
       tang_offset="0"
       prop_units="false"
       vertical_pattern="false"
       fuse_tolerance="0"
       pattern-nodetypes="scsscss" />
    <inkscape:path-effect
       effect="skeletal"
       id="path-effect5172"
       is_visible="true"
       pattern="m 728.66179,718.31693 c -8.53716,0 -20.39036,0.46339 -29.41073,1.5 8.98376,1.03661 20.87357,1.5 29.41073,1.5 l 93.85095,0 c 9.73166,0 46.73832,-0.5 59.73832,-1.5 -13,-1 -50.00666,-1.5 -59.73832,-1.5 z"
       copytype="single_stretched"
       prop_scale="1"
       scale_y_rel="false"
       spacing="0"
       normal_offset="0"
       tang_offset="0"
       prop_units="false"
       vertical_pattern="false"
       fuse_tolerance="0"
       pattern-nodetypes="scsscss" />
    <linearGradient
       inkscape:collect="always"
       id="linearGradient3818">
      <stop
         style="stop-color:#8a2171;stop-opacity:1"
         offset="0"
         id="stop3820" />
      <stop
         style="stop-color:#e26ec6;stop-opacity:1"
         offset="1"
         id="stop3822" />
    </linearGradient>
    <clipPath
       clipPathUnits="userSpaceOnUse"
       id="clipPath3814">
      <path
         sodipodi:type="arc"
         style="fill:none;stroke:#ffffff;stroke-width:0.5;stroke-miterlimit:4;stroke-dasharray:none"
         id="path3816"
         sodipodi:cx="677.35168"
         sodipodi:cy="690.7627"
         sodipodi:rx="13.655849"
         sodipodi:ry="19.280746"
         d="m 691.00753,690.7627 a 13.655849,19.280746 0 1 1 -27.31169,0 13.655849,19.280746 0 1 1 27.31169,0 z"
         transform="matrix(0.86790976,-0.49672186,0.49672186,0.86790976,-256.07234,428.50734)" />
    </clipPath>
    <linearGradient
       inkscape:collect="always"
       xlink:href="#linearGradient3818"
       id="linearGradient4863"
       gradientUnits="userSpaceOnUse"
       x1="671.18237"
       y1="678.57703"
       x2="672.84418"
       y2="705.81281" />
    <clipPath
       clipPathUnits="userSpaceOnUse"
       id="clipPath4944">
      <path
         sodipodi:type="arc"
         style="fill:#ffffff;stroke:none"
         id="path4946"
         sodipodi:cx="676.35425"
         sodipodi:cy="697.04462"
         sodipodi:rx="15.166812"
         sodipodi:ry="21.763145"
         d="m 691.52106,697.04462 a 15.166812,21.763145 0 1 1 -30.33362,0 15.166812,21.763145 0 1 1 30.33362,0 z"
         transform="matrix(0.70615683,-0.70805544,0.70805544,0.70615683,-301.69676,681.48265)" />
    </clipPath>
    <clipPath
       clipPathUnits="userSpaceOnUse"
       id="clipPath4959">
      <path
         style="fill:none;stroke:#ffff00;stroke-width:0.1;stroke-miterlimit:4;stroke-dasharray:none"
         d="m 643.73233,684.90409 52.06074,2.12132 0.97228,26.07456 -39.06765,8.04334 z"
         id="path4961"
         inkscape:connector-curvature="0"
         sodipodi:nodetypes="ccccc" />
    </clipPath>
    <clipPath
       clipPathUnits="userSpaceOnUse"
       id="clipPath5071">
      <path
         sodipodi:type="arc"
         style="fill:none;stroke:#ffffff;stroke-width:0.1;stroke-linecap:butt;stroke-linejoin:miter;stroke-miterlimit:4;stroke-opacity:1;stroke-dasharray:none"
         id="path5073"
         sodipodi:cx="706.78125"
         sodipodi:cy="687.46875"
         sodipodi:rx="5.7809386"
         sodipodi:ry="13.223634"
         d="m 712.56219,687.46875 a 5.7809386,13.223634 0 1 1 -11.56188,0 5.7809386,13.223634 0 1 1 11.56188,0 z"
         transform="matrix(0.93311971,-0.3595658,0.3595658,0.93311971,-200.60799,302.42496)" />
    </clipPath>
    <linearGradient
       inkscape:collect="always"
       xlink:href="#linearGradient3818"
       id="linearGradient5081"
       x1="705.2066"
       y1="679.27356"
       x2="705.4826"
       y2="696.29932"
       gradientUnits="userSpaceOnUse" />
    <clipPath
       clipPathUnits="userSpaceOnUse"
       id="clipPath5132">
      <path
         transform="matrix(0.96287487,-0.26994797,0.26994797,0.96287487,-158.46961,220.51089)"
         d="m 710.78423,687.29059 a 5.6220012,16.434874 0 1 1 -11.244,0 5.6220012,16.434874 0 1 1 11.244,0 z"
         sodipodi:ry="16.434874"
         sodipodi:rx="5.6220012"
         sodipodi:cy="687.29059"
         sodipodi:cx="705.16223"
         id="path5134"
         style="fill:none;stroke:#ffffff;stroke-width:0.1;stroke-linecap:butt;stroke-linejoin:miter;stroke-miterlimit:4;stroke-opacity:1;stroke-dasharray:none"
         sodipodi:type="arc" />
    </clipPath>
    <clipPath
       clipPathUnits="userSpaceOnUse"
       id="clipPath5180">
      <path
         style="fill:none;stroke:#ffff00;stroke-width:0.5;stroke-miterlimit:4;stroke-dasharray:none"
         d="m 711.88481,681.3582 -13.9003,3.68318 c -3.55673,7.85218 -0.62589,19.43458 6.4839,17.75295 10.4056,6.63089 16.73495,0.29607 7.4164,-21.43613 z"
         id="path5182"
         inkscape:connector-curvature="0"
         sodipodi:nodetypes="cccc" />
    </clipPath>
  </defs>
  <sodipodi:namedview
     pagecolor="#ffffff"
     bordercolor="#666666"
     borderopacity="1"
     objecttolerance="10"
     gridtolerance="10"
     guidetolerance="10"
     inkscape:pageopacity="0"
     inkscape:pageshadow="2"
     inkscape:window-width="1364"
     inkscape:window-height="698"
     id="namedview4"
     showgrid="true"
     fit-margin-top="0"
     fit-margin-left="0"
     fit-margin-right="0"
     fit-margin-bottom="0"
     inkscape:zoom="1.9110946"
     inkscape:cx="71.275414"
     inkscape:cy="139.71051"
     inkscape:window-x="0"
     inkscape:window-y="0"
     inkscape:window-maximized="1"
     inkscape:current-layer="layer2"
     showguides="true"
     inkscape:guide-bbox="true" />
  <g
     inkscape:groupmode="layer"
     id="layer2"
     inkscape:label="Drawing"
     style="display:inline"
     transform="translate(-578.49859,-641.81273)">
    <g
       id="g3876">
      <path
         sodipodi:nodetypes="cccc"
         inkscape:connector-curvature="0"
         id="path4923"
         d="M 661.23277,779.42937 C 592.03712,726.76055 536.08248,824.30644 628.5,902.77655 614.67541,815.4842 624.82734,783.8281 657.11188,788.38451 z"
         style="fill:#371f79;fill-opacity:1;stroke:none" />
      <path
         style="fill:#46289b;fill-opacity:1;stroke:none"
         d="M 619.23292,894.66401 628.5,902.77655 C 614.67541,815.4842 624.82734,783.8281 657.11188,788.38451 l 1.95345,-4.24505 c -48.25827,-12.76394 -52.82708,40.65665 -39.83241,110.52455 z"
         id="path3874"
         inkscape:connector-curvature="0"
         sodipodi:nodetypes="ccccc" />
      <path
         style="fill:none;stroke:#230f57;stroke-width:3;stroke-miterlimit:20;stroke-opacity:1;stroke-dasharray:none"
         d="M 661.23277,779.42937 C 592.03712,726.76055 536.08248,824.30644 628.5,902.77655 614.67541,815.4842 624.82734,783.8281 657.11188,788.38451 z"
         id="path3872"
         inkscape:connector-curvature="0"
         sodipodi:nodetypes="cccc" />
    </g>
    <path
       style="fill:#d0abdb;fill-opacity:1;stroke:#c889da;stroke-width:3;stroke-linecap:butt;stroke-linejoin:miter;stroke-miterlimit:4;stroke-opacity:1;stroke-dasharray:none"
       d="m 654.59096,824.78034 c 4.41944,36.59277 10.5229,84.34815 11.99481,84.80544 9.85139,3.06066 20.10094,2.81063 29.10354,-0.23223 2.81045,-0.94993 -11.20404,-47.38424 -18.80544,-89.63387 z"
       id="path4713"
       inkscape:connector-curvature="0"
       sodipodi:nodetypes="csscc" />
    <g
       id="g4560">
      <path
         style="fill:#d0abdb;fill-opacity:1;stroke:none"
         d="m 621.03048,835.79995 c -12.56696,21.08209 -19.58056,42.59625 -18.39874,73.25699 0.13562,3.51856 31.63451,4.37153 30.78617,-0.15427 -6.33216,-33.78154 1.77677,-64.80861 24.895,-110.1726 7.9729,-15.64492 -16.61172,-28.73101 -27.00883,-11.12096 -10.96594,18.57351 -4.73541,35.60764 -3.45306,45.54895 -4.95251,0.1718 -5.87897,1.06232 -6.82054,2.64189 z"
         id="path4470"
         inkscape:connector-curvature="0"
         sodipodi:nodetypes="ssssscs" />
      <path
         inkscape:original-d="m 627.93409,833.28776 c -5.03558,0.0421 -5.96204,0.93262 -6.90361,2.51219 -12.56696,21.08209 -19.58056,42.59625 -18.39874,73.25699 0.13562,3.51856 31.63451,4.37153 30.78617,-0.15427 -6.33216,-33.78154 1.77677,-64.80861 24.895,-110.1726 7.9729,-15.64492 -16.61172,-28.73101 -27.00883,-11.12096 -12.52326,21.21121 -2.61894,40.41478 -3.39327,49.14616"
         inkscape:path-effect="#path-effect4462"
         sodipodi:nodetypes="csssssc"
         inkscape:connector-curvature="0"
         id="path4446"
         d="m 627.94663,834.78771 -0.0251,-2.9999 c -1.67494,-0.0239 -3.62176,0.0103 -5.57236,0.80378 -1.20391,0.57901 -2.0626,1.48084 -2.60716,2.44032 -10e-6,0 -10e-6,10e-6 -10e-6,10e-6 -6.22663,10.43857 -11.34743,21.61931 -14.51552,33.41603 0,0 0,10e-6 0,10e-6 -3.54572,13.24515 -4.62377,27.03366 -4.09365,40.66675 0.15275,0.9067 0.50669,1.48682 0.91565,1.72208 0,0 0,0 10e-6,0 0.51133,0.40338 1.00383,0.64988 1.41972,0.80087 0,0 1e-5,10e-6 1e-5,10e-6 1.32785,0.52408 2.65481,0.79131 3.89844,0.99469 10e-6,0 10e-6,1e-5 10e-6,1e-5 3.66824,0.62212 7.3611,0.82593 11.01029,0.86398 10e-6,0 10e-6,0 10e-6,0 3.57775,0.0454 7.23196,-0.0507 10.86876,-0.68837 0,-1e-5 0,-1e-5 0,-1e-5 1.18093,-0.19103 2.49062,-0.47627 3.78663,-1.12214 0.42083,-0.18677 0.90893,-0.53114 1.37391,-1.08746 0.40982,-0.51892 0.59016,-1.20358 0.48594,-1.97205 -3.10424,-16.53394 -2.4446,-33.71227 1.38991,-50.12512 4.80471,-20.60106 13.69966,-40.10117 23.36723,-59.09005 1.89024,-3.67942 2.2813,-8.15753 0.64853,-12.0845 -1.55571,-3.5841 -4.50883,-6.38055 -7.96351,-7.98563 -3.6146,-1.69954 -7.81101,-2.13169 -11.70172,-1.06952 -10e-6,0 -10e-6,0 -2e-5,0 -4.57792,1.30426 -8.2973,4.59651 -10.62024,8.575 -1e-5,0 -1e-5,10e-6 -1e-5,10e-6 -2.88838,4.89004 -4.92496,10.29361 -5.89125,15.90849 -0.80724,4.72435 -0.86547,9.53048 -0.41279,14.24937 0.0421,0.43935 0.0887,0.87755 0.13898,1.31467 0.41615,3.61443 1.15881,6.97028 2.0596,10.26065 0.3639,1.36356 0.79185,2.68955 1.16735,4.02824 0.3755,1.33869 0.70005,2.68873 0.83652,4.14734 0.40193,-1.36484 0.53571,-2.82699 0.52832,-4.28422 -0.007,-1.45723 -0.15522,-2.9102 -0.30696,-4.30464 -0.36259,-3.48567 -0.92778,-6.89377 -1.30562,-10.18967 -0.048,-0.41903 -0.0921,-0.83797 -0.13171,-1.25686 -0.42612,-4.50624 -0.37781,-9.04832 0.38305,-13.45723 0.89672,-5.236 2.80884,-10.30038 5.51786,-14.89093 2.0318,-3.39733 5.15608,-6.23402 8.83496,-7.20831 0,-10e-6 10e-6,-10e-6 10e-6,-10e-6 3.13768,-0.87738 6.64331,-0.50389 9.62939,0.89354 2.84375,1.35007 5.30199,3.63398 6.47887,6.44802 1.29988,2.93961 0.93748,6.57089 -0.56253,9.54403 0,0 0,0 0,0 -9.72274,19.05996 -18.70047,38.78651 -23.61557,59.76939 -3.92633,16.79015 -4.59511,34.38032 -1.41729,51.36064 -0.001,-0.2192 0.006,-0.3251 0.077,-0.39962 0.0193,0.0282 -0.13235,0.0903 -0.36462,0.2408 -0.78372,0.42798 -1.80876,0.61705 -2.93267,0.83361 0,0 -10e-6,0 -10e-6,0 -3.3385,0.59591 -6.80736,0.67681 -10.31269,0.64272 -3.56251,-0.0429 -7.09866,-0.23252 -10.54015,-0.82156 0,0 -10e-6,0 -10e-6,0 -1.19427,-0.21193 -2.31577,-0.42104 -3.28209,-0.82034 -10e-6,0 -10e-6,0 -10e-6,0 -0.30645,-0.13974 -0.5319,-0.22657 -0.61857,-0.32187 0,0 0,0 0,0 0.0226,-0.087 0.0274,0.0624 0.16082,0.46641 -0.51184,-13.39913 0.53282,-26.89014 3.99351,-39.77423 0,0 0,-10e-6 0,-10e-6 3.07166,-11.47338 8.08555,-22.40109 14.19479,-32.65693 0,0 0,-10e-6 0,-10e-6 0.37838,-0.58885 0.77667,-1.08557 1.22594,-1.22497 1.14497,-0.55177 2.70159,-0.50318 4.40176,-0.55531 z"
         style="fill:#c889da;fill-opacity:1;stroke:none" />
    </g>
    <path
       style="fill:#d9b8e3;fill-opacity:1;stroke:#c889da;stroke-width:3;stroke-linecap:butt;stroke-linejoin:miter;stroke-miterlimit:4;stroke-opacity:1;stroke-dasharray:none"
       d="m 677.37497,812.62501 c 10.5,0.125 14.625,-2.75 13.25,-9.875 4.25,-4.75 3.25,-13.25 -1.625,-15.25 -2.25,-8 -6.875,-9.625 -15.25,-7.375 z"
       id="path3840"
       inkscape:connector-curvature="0"
       sodipodi:nodetypes="ccccc" />
    <g
       style="display:inline"
       id="g4915">
      <path
         sodipodi:nodetypes="ccccc"
         inkscape:connector-curvature="0"
         id="path4722"
         d="m 639.83847,781.60983 c -7.7849,-5.04226 -12.81415,-3.77772 -15.19803,5.55959 -4.55851,5.11028 -3.625,10.38953 1.41421,14.93763 1.75889,6.60139 5.1573,9.17093 11.2823,8.17093 z"
         style="fill:#d9b8e3;fill-opacity:1;stroke:#c889da;stroke-width:3;stroke-miterlimit:4;stroke-opacity:1;stroke-dasharray:none" />
      <path
         sodipodi:nodetypes="cccccccccc"
         inkscape:connector-curvature="0"
         d="m 626.99998,804.62501 4.625,-0.0625 m -6.3125,-19.5625 4.8125,1.0625 m -8.4375,8.375 4.3125,0 m 11.3595,-14.20788 c -4.34176,0.90977 -6.5988,3.06901 -7.61841,7.2225 -6.70603,4.00521 -3.85171,10.66119 1.63389,16.13531 0.8321,2.98375 0.97227,4.00228 3.84987,6.86028"
         style="fill:none;stroke:#c889da;stroke-width:1;stroke-linecap:butt;stroke-linejoin:miter;stroke-miterlimit:4;stroke-opacity:1;stroke-dasharray:none"
         id="path4900" />
    </g>
    <path
       sodipodi:nodetypes="scscsscs"
       inkscape:connector-curvature="0"
       id="path3842"
       d="m 626.44584,693.81575 c 7.69442,-58.70096 86.69371,-50.23562 86.06286,11.05722 3.91694,0.0873 7.03813,-0.88096 7.03813,4.36721 0,3.73953 -2.2711,24.07018 -32.58751,32.98897 -1.59609,28.05809 13.67427,48.35081 -3.18708,77.55556 -7.34389,12.72001 -34.27493,15.10319 -45.69699,0.86196 -9.82987,-12.25605 -7.71143,-45.28269 9.86097,-47.49013 -1.75565,-25.2736 -26.1049,-44.13648 -21.49038,-79.34079 z"
       style="fill:#d9b8e3;fill-opacity:1;stroke:none" />
    <path
       style="fill:#c889da;fill-opacity:1;stroke:none"
       d="m 711.03515,704.558 2.99986,0.0297 c 0.0746,-7.06196 -0.91648,-14.18944 -3.29664,-20.89892 -2.04615,-5.75968 -5.13878,-11.16541 -9.19178,-15.774 -7.33038,-8.32159 -17.7516,-13.80705 -28.77056,-15.09558 0,0 -10e-6,0 -10e-6,0 -10.69852,-1.24887 -21.87143,1.57187 -30.46099,8.14586 -4.63785,3.56467 -8.44905,8.13343 -11.25061,13.23506 -3.29964,6.01793 -5.22926,12.6857 -6.10586,19.42063 0,0 0,10e-6 0,10e-6 -1.24009,9.48309 -0.41267,19.19352 2.28033,28.35498 2.36535,8.01821 5.98358,15.51286 9.5809,22.87945 3.02412,6.2218 6.05548,12.40668 7.91235,18.87541 0.19547,0.68094 0.37618,1.34829 0.54314,2.00414 0,0 0,0 0,0 1.00217,3.91515 1.53064,7.39909 1.71777,10.80353 0.11046,1.9796 0.0993,3.93824 -0.0335,5.94575 -0.13272,2.0075 -0.38731,4.06492 -0.81045,6.23084 1.75582,-4.02711 2.76603,-7.97249 3.05945,-12.15439 0,0 0,0 0,0 0.25172,-3.62879 -0.048,-7.41961 -1.03734,-11.54203 0,0 0,0 0,0 -0.1681,-0.69665 -0.35498,-1.40168 -0.56131,-2.11636 -1.96366,-6.80162 -5.05542,-13.14854 -8.09355,-19.36155 -3.58504,-7.3658 -7.14272,-14.70423 -9.39927,-22.41078 -2.57782,-8.7711 -3.37314,-18.06957 -2.18401,-27.11909 0.84917,-6.43094 2.6636,-12.74697 5.7603,-18.36542 2.61788,-4.75755 6.16164,-9.01477 10.44829,-12.30042 7.89545,-6.07968 18.34381,-8.70038 28.28734,-7.54575 0,0 1e-5,0 1e-5,0 10.25694,1.18877 20.0432,6.34168 26.8657,14.09794 3.7867,4.29741 6.68774,9.37746 8.61702,14.79694 2.25246,6.31773 3.18579,13.10025 3.12337,19.86401 z"
       id="path5841"
       inkscape:connector-curvature="0"
       sodipodi:nodetypes="csc"
       inkscape:path-effect="#path-effect5855"
       inkscape:original-d="m 712.53508,704.57287 c 0.60447,-60.99274 -78.39482,-69.45808 -86.08924,-10.75712 -5.50381,41.98873 30.19539,60.73062 19.70331,94.89915" />
    <g
       id="g5184">
      <path
         inkscape:connector-curvature="0"
         d="m 710.49697,688.52381 c 1.39879,-0.33665 2.65295,-2.41991 2.16333,-5.97284 -0.39963,2.80527 -1.30166,4.16139 -2.62654,4.33982 z m -0.98568,-2.68032 c 1.38172,-0.40104 2.53813,-2.54011 1.88463,-6.06657 -0.26936,2.82078 -1.10767,4.21716 -2.4229,4.45668 z"
         style="fill:#000000;stroke:none"
         id="path5036" />
      <g
         clip-path="url(#clipPath5180)"
         id="g5136">
        <path
           sodipodi:type="arc"
           style="fill:#ffffff;stroke:none"
           id="path4977"
           sodipodi:cx="705.16223"
           sodipodi:cy="687.29059"
           sodipodi:rx="5.6220012"
           sodipodi:ry="16.434874"
           d="m 710.78423,687.29059 c 0,9.07673 -2.51705,16.43487 -5.622,16.43487 -3.10494,0 -5.622,-7.35814 -5.622,-16.43487 0,-9.07673 2.51706,-16.43488 5.622,-16.43488 3.10495,0 5.622,7.35815 5.622,16.43488 z"
           transform="matrix(0.96287487,-0.26994797,0.26994797,0.96287487,-158.46961,220.51089)" />
        <g
           id="g5083"
           clip-path="url(#clipPath5132)">
          <path
             sodipodi:type="arc"
             style="fill:url(#linearGradient5081);fill-opacity:1;stroke:none"
             id="path5053"
             sodipodi:cx="706.78125"
             sodipodi:cy="687.46875"
             sodipodi:rx="5.7809386"
             sodipodi:ry="13.223634"
             d="m 712.56219,687.46875 c 0,7.30321 -2.58822,13.22363 -5.78094,13.22363 -3.19272,0 -5.78094,-5.92042 -5.78094,-13.22363 0,-7.30321 2.58822,-13.22363 5.78094,-13.22363 3.19272,0 5.78094,5.92042 5.78094,13.22363 z"
             transform="matrix(0.93311971,-0.3595658,0.3595658,0.93311971,-200.60799,302.42496)" />
          <g
             clip-path="url(#clipPath5071)"
             id="g5061">
            <path
               style="fill:#f3c2e8;fill-opacity:1;stroke:none"
               d="m 705.5,692.1875 1.25,1.9375 -2.75,7.3125 -4.0625,-6.1875 z"
               id="path5059"
               inkscape:connector-curvature="0"
               sodipodi:nodetypes="ccccc" />
            <path
               style="fill:#e578cb;fill-opacity:1;stroke:none"
               d="m 698.5,693.375 2.375,4.25 5,-4.6875 -0.6875,-1.5 z"
               id="path5057"
               inkscape:connector-curvature="0"
               sodipodi:nodetypes="ccccc" />
          </g>
          <path
             transform="matrix(0.95482375,-0.29717262,0.29717262,0.95482375,-172.30464,241.28077)"
             d="m 710.54584,687.46875 c 0,5.32352 -1.68546,9.63909 -3.76459,9.63909 -2.07913,0 -3.76459,-4.31557 -3.76459,-9.63909 0,-5.32352 1.68546,-9.63909 3.76459,-9.63909 2.07913,0 3.76459,4.31557 3.76459,9.63909 z"
             sodipodi:ry="9.6390877"
             sodipodi:rx="3.7645941"
             sodipodi:cy="687.46875"
             sodipodi:cx="706.78125"
             id="path5051"
             style="fill:#000000;stroke:none"
             sodipodi:type="arc" />
          <path
             transform="matrix(1.0358095,-0.25213051,0.25213051,1.0358095,-191.99935,156.91544)"
             d="m 702.13001,685.9375 c 0,0.75939 -0.36601,1.375 -0.81751,1.375 -0.4515,0 -0.81751,-0.61561 -0.81751,-1.375 0,-0.75939 0.36601,-1.375 0.81751,-1.375 0.4515,0 0.81751,0.61561 0.81751,1.375 z"
             sodipodi:ry="1.375"
             sodipodi:rx="0.8175053"
             sodipodi:cy="685.9375"
             sodipodi:cx="701.3125"
             id="path5043"
             style="fill:#ffffff;stroke:none"
             sodipodi:type="arc" />
          <path
             sodipodi:type="arc"
             style="fill:#ffffff;stroke:none"
             id="path5045"
             sodipodi:cx="701.3125"
             sodipodi:cy="685.9375"
             sodipodi:rx="1.8274009"
             sodipodi:ry="4.0934067"
             d="m 703.1399,685.9375 c 0,2.26073 -0.81815,4.09341 -1.8274,4.09341 -1.00925,0 -1.8274,-1.83268 -1.8274,-4.09341 0,-2.26073 0.81815,-4.09341 1.8274,-4.09341 1.00925,0 1.8274,1.83268 1.8274,4.09341 z"
             transform="matrix(1.1750929,-0.20107309,0.20107309,1.1750929,-258.74353,18.880896)" />
        </g>
      </g>
      <path
         sodipodi:nodetypes="ccccccccsccc"
         inkscape:connector-curvature="0"
         d="m 701.44095,678.75759 -1.89778,-0.13021 c -1.22551,6.70789 -0.76026,12.8956 1.16678,18.69964 -0.83442,-5.93987 -0.82293,-12.07822 0.731,-18.56943 z m -4.32396,-8.019 c -0.48324,3.32106 -0.49476,5.78496 0.40648,8.79152 l 12.26032,0.0902 c 1.34346,0.01 2.69624,-1.8015 2.68585,-5.56958 -0.67133,2.52495 -1.59612,3.96998 -2.95213,3.8931 l -10.773,-0.61074 c -0.89657,-1.90042 -1.41165,-3.93811 -1.62752,-6.59448 z"
         style="fill:#000000;stroke:none"
         transform="matrix(0.96287487,-0.26994797,0.26994797,0.96287487,-158.46961,220.51089)"
         id="path5040" />
    </g>
    <g
       id="g4963">
      <path
         d="m 651.5527,688.87748 c -3.78255,0.47068 -6.6628,-0.18993 -9.79297,-2.98687 3.57103,1.4891 6.19654,1.74754 9.73738,1.18724 z m 0.39827,2.55169 c -3.43206,1.20984 -6.68616,1.07183 -10.36724,-0.92071 3.81379,0.65747 6.73024,0.51348 9.98481,-0.83868 z"
         style="fill:#000000;stroke:none"
         id="path4883"
         inkscape:connector-curvature="0" />
      <g
         clip-path="url(#clipPath4959)"
         id="g4948">
        <path
           transform="matrix(0.70615683,-0.70805544,0.70805544,0.70615683,-301.69676,681.48265)"
           d="m 691.52106,697.04462 c 0,12.01945 -6.79041,21.76314 -15.16681,21.76314 -8.3764,0 -15.16681,-9.74369 -15.16681,-21.76314 0,-12.01946 6.79041,-21.76315 15.16681,-21.76315 8.3764,0 15.16681,9.74369 15.16681,21.76315 z"
           sodipodi:ry="21.763145"
           sodipodi:rx="15.166812"
           sodipodi:cy="697.04462"
           sodipodi:cx="676.35425"
           id="path4878"
           style="fill:#ffffff;stroke:none"
           sodipodi:type="arc" />
        <g
           id="g4854"
           clip-path="url(#clipPath4944)">
          <path
             sodipodi:type="arc"
             style="fill:url(#linearGradient4863);fill-opacity:1;stroke:none"
             id="path3802"
             sodipodi:cx="677.35168"
             sodipodi:cy="690.7627"
             sodipodi:rx="13.655849"
             sodipodi:ry="19.280746"
             d="m 691.00753,690.7627 c 0,10.64846 -6.11393,19.28074 -13.65585,19.28074 -7.54191,0 -13.65584,-8.63228 -13.65584,-19.28074 0,-10.64847 6.11393,-19.28075 13.65584,-19.28075 7.54192,0 13.65585,8.63228 13.65585,19.28075 z"
             transform="matrix(0.86790976,-0.49672186,0.49672186,0.86790976,-256.07234,428.50734)" />
          <g
             clip-path="url(#clipPath3814)"
             id="g3808">
            <path
               style="fill:#f3c2e8;fill-opacity:1;fill-rule:evenodd;stroke:none"
               d="m 659.94636,700.94882 3.86511,6.74148 10.69649,-8.26955 -2.96625,-2.15728 z"
               id="path3806"
               inkscape:connector-curvature="0" />
            <path
               style="fill:#e578cb;fill-opacity:1;fill-rule:evenodd;stroke:none"
               d="m 657.24976,697.17359 13.03354,-0.89887 1.52807,1.79773 -14.29195,5.84262 z"
               id="path3804"
               inkscape:connector-curvature="0" />
          </g>
          <path
             transform="matrix(0.90540905,-0.42454023,0.42454023,0.90540905,-229.54479,352.54335)"
             d="m 687.27712,690.7627 c 0,8.83442 -4.44377,15.99613 -9.92544,15.99613 -5.48166,0 -9.92543,-7.16171 -9.92543,-15.99613 0,-8.83443 4.44377,-15.99614 9.92543,-15.99614 5.48167,0 9.92544,7.16171 9.92544,15.99614 z"
             sodipodi:ry="15.996138"
             sodipodi:rx="9.9254379"
             sodipodi:cy="690.7627"
             sodipodi:cx="677.35168"
             id="path3800"
             style="fill:#000000;stroke:none"
             sodipodi:type="arc" />
          <path
             transform="matrix(1.1496265,-0.37053639,0.37053639,1.1496265,-355.40025,144.11117)"
             d="m 673.3161,688.34747 c 0,3.25988 -1.76449,5.90254 -3.9411,5.90254 -2.17661,0 -3.9411,-2.64266 -3.9411,-5.90254 0,-3.25988 1.76449,-5.90253 3.9411,-5.90253 2.17661,0 3.9411,2.64265 3.9411,5.90253 z"
             sodipodi:ry="5.9025354"
             sodipodi:rx="3.9410973"
             sodipodi:cy="688.34747"
             sodipodi:cx="669.375"
             id="path3026"
             style="fill:#ffffff;stroke:none"
             sodipodi:type="arc" />
          <path
             sodipodi:type="arc"
             style="fill:#ffffff;stroke:none"
             id="path3796"
             sodipodi:cx="669.375"
             sodipodi:cy="688.34747"
             sodipodi:rx="1.1234251"
             sodipodi:ry="1.5619342"
             d="m 670.49843,688.34747 c 0,0.86264 -0.50298,1.56194 -1.12343,1.56194 -0.62045,0 -1.12343,-0.6993 -1.12343,-1.56194 0,-0.86263 0.50298,-1.56193 1.12343,-1.56193 0.62045,0 1.12343,0.6993 1.12343,1.56193 z"
             transform="matrix(1.0403187,-0.61373865,0.61373865,1.0403187,-440.92149,392.51415)" />
        </g>
      </g>
      <path
         d="m 651.49585,686.21159 c -3.38821,-0.12066 -6.67981,-1.57734 -9.09084,-4.89326 3.17321,2.10933 5.69032,3.01724 9.51193,3.11966 l 32.12258,0.86089 c 0,-2.282 -0.37063,-4.24049 -1.1822,-6.3241 2.675,2.55399 3.73345,5.16644 3.75411,8.48721 z m 31.92594,0.10863 c 3.76713,4.56114 7.4576,12.90911 3.96491,19.91073 1.16675,-7.60518 -1.803,-14.86745 -6.40166,-19.99164 z"
         style="fill:#000000;stroke:none"
         id="path4875"
         inkscape:connector-curvature="0" />
    </g>
    <path
       style="fill:#c889da;fill-opacity:1;stroke:none"
       d="m 718.6228,704.01738 c -0.7309,-0.33309 -1.48845,-0.50293 -2.2122,-0.54644 -0.72375,-0.0435 -1.41286,0.0387 -2.00956,0.15656 -1.5884,0.19103 -3.14094,0.5031 -4.64975,0.50532 -1.81966,0.0188 -3.69302,-0.47539 -5.28288,-1.33849 0.51164,0.74306 1.21906,1.44669 2.08036,2.02224 0.86129,0.57556 1.87528,1.02157 2.96296,1.27527 1.75673,0.40119 3.54413,0.37126 5.09297,0.33381 0.63991,0.0278 1.21011,0.002 1.66374,0.0155 0.45363,0.013 0.79074,0.0653 1.00463,0.21539 0.0274,0.0192 0.0529,0.0401 0.0765,0.063 0.15656,0.0622 0.30398,0.29668 0.42791,0.56625 0,0 0,0 0,0 0.22227,0.49417 0.24885,1.17721 0.2694,1.95438 0,0 0,0 0,0 0.0102,2.13284 -0.49883,4.3138 -1.18647,6.47656 0,0 0,0 0,0 -1.27167,3.94486 -3.42299,7.61352 -6.14623,10.78581 0,0 0,0 0,0 -4.03882,4.71649 -9.36229,8.30398 -15.09073,10.95637 -0.30678,0.14191 -0.6147,0.28121 -0.92372,0.41796 -1.04319,0.46162 -2.81846,1.24366 -5.03758,2.0777 -2.21913,0.83405 -4.88525,1.71317 -7.65045,2.48846 -2.7652,0.7753 -5.62631,1.45045 -8.18087,2.014 -2.55457,0.56355 -4.79967,1.02196 -6.33078,1.41796 1.57822,0.10177 3.88224,0.0796 6.52112,-0.11637 2.63889,-0.19595 5.61044,-0.57323 8.50415,-1.12436 2.8937,-0.55114 5.70606,-1.28007 8.05504,-2.02758 2.34897,-0.74751 4.23563,-1.5056 5.32978,-1.98729 0.32412,-0.14269 0.64727,-0.28804 0.96943,-0.43612 6.03808,-2.77279 11.70111,-6.61646 16.10943,-11.72492 0,0 0,0 0,0 2.96688,-3.44595 5.3114,-7.45879 6.72581,-11.81836 0.76429,-2.3261 1.32186,-4.81482 1.33207,-7.39982 0.0205,-0.92254 -0.0764,-1.97413 -0.48057,-3.06002 0,0 0,0 0,0 -0.29287,-0.78176 -0.85188,-1.50307 -1.66269,-2.02673 -0.0938,-0.0482 -0.1874,-0.0935 -0.28077,-0.13605 z"
       id="path5114"
       inkscape:connector-curvature="0"
       sodipodi:nodetypes="csc"
       inkscape:path-effect="#path-effect5172"
       inkscape:original-d="m 704.46841,702.79433 c 6.65399,5.98018 15.07842,-2.17634 15.07842,6.44585 0,4.4193 -3.17183,32.00982 -52.04683,36.63482" />
    <path
       id="path5200"
       style="fill:#c889da;fill-opacity:1;fill-rule:evenodd;stroke:none"
       d="m 701.44964,715.87048 c 4.30685,4.16065 8.21942,5.68774 14.85176,5.06829 l -1.65606,2.47991 c -5.72415,0.27785 -10.42237,-2.08303 -13.1957,-7.5482 z m 9.93726,-6.08116 c 1.08383,1.16659 2.26942,1.1161 3.17855,-0.1236 0.31083,2.4116 -2.92872,2.82698 -3.17855,0.1236 z"
       inkscape:connector-curvature="0" />
    <path
       style="fill:none;stroke:#c889da;stroke-width:3;stroke-linecap:butt;stroke-linejoin:miter;stroke-miterlimit:4;stroke-opacity:1;stroke-dasharray:none"
       d="m 686.95422,742.17974 c -1.59099,28.1075 13.67937,48.40022 -3.18198,77.60497 -7.34389,12.72001 -34.27493,15.10319 -45.69699,0.86196 -9.93546,-12.38771 -7.46021,-45.30339 9.81132,-47.53101"
       id="path4572"
       inkscape:connector-curvature="0"
       sodipodi:nodetypes="cssc" />
    <g
       id="g4564">
      <path
         inkscape:connector-curvature="0"
         d="m 664.58395,822.53152 c -5.65686,48.6136 -11.59013,93.95938 -10.32139,94.85496 5.16527,3.64607 24.77114,3.06986 30.56327,-1.97227 1.22852,-1.06944 -0.8375,-46.90318 -2.83839,-104.24632 z m -5.9375,-0.4375 c -5.12653,66.64482 -6.64027,92.89428 -7.90901,93.78986 -4.25,3 -25.07262,2.89965 -29.76777,-1.35355 -1.75131,-1.58646 8.72487,-46.34252 22.53033,-103.65533 z"
         style="fill:#d9b8e3;fill-opacity:1;stroke:none"
         id="path4437" />
      <path
         sodipodi:nodetypes="ccc"
         inkscape:connector-curvature="0"
         id="path5885"
         d="m 656.1951,821.19892 c 4.24263,1.19324 7.99914,1.32583 12.46275,0.17678 -4.35691,3.13778 -8.68573,2.98153 -12.46275,-0.17678 z"
         style="fill:#c889da;fill-opacity:1;fill-rule:evenodd;stroke:none" />
      <path
         inkscape:original-d="m 658.64645,822.09402 c -5.12653,66.64482 -6.64027,92.89428 -7.90901,93.78986 -4.25,3 -25.07262,2.89965 -29.76777,-1.35355 -1.75131,-1.58646 8.72487,-46.34252 22.53033,-103.65533"
         inkscape:path-effect="#path-effect5877"
         sodipodi:nodetypes="cssc"
         inkscape:connector-curvature="0"
         id="path5863"
         d="m 629.93529,861.32151 c 1.48413,-6.38723 3.86651,-16.08194 6.39286,-25.63487 2.52635,-9.55293 5.18538,-18.96688 7.17185,-24.81164 -1.0324,5.99784 -2.9449,15.51557 -4.97121,25.16554 -2.02631,9.64996 -4.155,19.43399 -5.67138,25.95995 -1.69666,7.30186 -3.36512,14.60927 -4.99214,21.9252 -1.63466,7.35186 -3.25897,14.68863 -4.57894,22.0632 -0.36932,2.07011 -0.72824,4.10819 -0.92477,6.12907 -0.0528,0.57489 -0.10173,1.09597 -0.0802,1.56022 0.0113,0.14346 0.0106,0.22418 0.0202,0.23605 0,0 0,0 0,0 0.0835,0.0402 -0.0382,-0.11062 -0.32485,-0.49559 1.18401,1.17584 3.21853,1.56583 5.33455,2.07119 2.84414,0.59806 5.78485,0.84976 8.75231,0.93784 2.92458,0.0822 5.83765,-2e-4 8.69377,-0.37867 1.13191,-0.15149 2.2303,-0.33854 3.26868,-0.63188 0.75857,-0.23341 1.4188,-0.42799 1.84639,-0.75869 -1e-5,0 -1e-5,1e-5 -2e-5,2e-5 -0.38117,0.47751 -0.52712,0.53793 -0.32273,0.30177 10e-6,0 10e-6,0 10e-6,0 0.0814,-0.24438 0.13817,-0.54938 0.20666,-0.90305 0.23977,-1.2875 0.38763,-2.62619 0.54027,-3.9984 0.60508,-5.47927 1.01859,-10.99716 1.45326,-16.53124 0.68975,-8.78681 1.35554,-17.57636 2.01323,-26.36744 0.6378,-8.52537 3.11709,-36.29554 3.79817,-45.14955 l 2.17036,0.16696 c -0.67153,8.72997 -2.33895,36.67923 -2.97689,45.2064 -0.65783,8.79294 -1.3239,17.58614 -2.01407,26.3784 -0.4336,5.52718 -0.85008,11.07651 -1.46217,16.62557 -0.15052,1.37456 -0.30905,2.78557 -0.57228,4.21536 -0.0668,0.37695 -0.15391,0.80323 -0.29786,1.2669 0,0 10e-6,0 10e-6,0 0.0964,0.10311 -0.13385,0.55634 -0.80589,1.23919 -10e-6,0 -10e-6,10e-6 -2e-5,10e-6 -0.94303,0.63679 -1.91015,0.97732 -2.76705,1.19654 -1.23726,0.34425 -2.47467,0.5598 -3.68574,0.71737 -3.05969,0.40187 -6.13226,0.49243 -9.17227,0.4032 -3.08321,-0.0858 -6.20004,-0.35831 -9.28068,-1.00023 -2.171,-0.39187 -4.67204,-1.01952 -6.7341,-2.78419 -0.43838,-0.52243 -0.61897,-0.88489 -0.58212,-1.04412 0,0 0,-10e-6 0,-10e-6 -0.0702,-0.32934 -0.0951,-0.60044 -0.097,-0.80716 0,-1e-5 0,-1e-5 0,-1e-5 -0.0226,-0.71235 0.0303,-1.36851 0.0924,-1.96543 0,0 0,0 0,-10e-6 0.21444,-2.17173 0.58425,-4.2885 0.95742,-6.36514 1.33519,-7.45444 2.9677,-14.83206 4.60353,-22.18574 1.62953,-7.32692 3.30009,-14.64356 4.99847,-21.95289 z"
         style="fill:#c889da;fill-opacity:1;stroke:none" />
      <path
         style="fill:#c889da;fill-opacity:1;stroke:none"
         d="m 682.39659,863.50465 c -0.47153,-13.12519 -1.10382,-39.98435 -0.40915,-52.33676 1.22573,12.13579 2.9248,38.80084 3.40722,52.22905 0.25082,6.98171 0.49399,13.96421 0.7222,20.94776 0.24346,7.44613 0.4919,14.90513 0.56506,22.37908 0.0208,2.08202 0.0378,4.18804 -0.0444,6.3144 0,0 0,0 0,0 -0.021,0.57929 -0.0503,1.19717 -0.13108,1.848 0,0 0,1e-5 0,1e-5 -0.0197,0.18045 -0.0562,0.41043 -0.12594,0.68529 0,0 0,0 0,0 0.0853,0.0475 -0.0885,0.3871 -0.56979,0.97411 -2.14067,1.80605 -4.70877,2.68818 -7.1024,3.26899 -3.07224,0.79087 -6.20892,1.18652 -9.32309,1.34191 -3.04315,0.15707 -6.12905,0.0903 -9.19506,-0.34607 0,0 0,0 0,0 -2.17807,-0.26554 -4.6261,-0.7368 -6.79262,-2.19849 -0.61305,-0.66865 -0.82773,-1.05578 -0.69575,-1.1059 0,0 0,0 1e-5,0 -0.0612,-0.29356 -0.0853,-0.52969 -0.0916,-0.70368 -0.0385,-0.64678 -0.0219,-1.25105 5.4e-4,-1.80961 0.0761,-2.06455 0.25716,-4.09808 0.4399,-6.10447 0.64408,-7.09433 1.46796,-14.15783 2.28547,-21.20776 0.78269,-6.75089 1.58189,-13.49909 2.38758,-20.24578 0.50807,-4.25441 1.69995,-13.30324 2.89213,-22.392 1.19218,-9.08877 2.37295,-18.21931 2.887,-22.63701 l 2.1622,0.2516 c -0.5073,4.35953 -1.48396,13.51808 -2.47375,22.64796 -0.9898,9.12987 -1.98082,18.232 -2.48874,22.48519 -0.80547,6.74475 -1.60427,13.48954 -2.38639,20.23554 -0.81738,7.05138 -1.6387,14.0901 -2.27778,21.13343 -0.18123,2.00374 -0.35884,3.98338 -0.42962,5.94276 -0.018,0.54793 -0.0359,1.05262 -0.005,1.51087 0,10e-6 0,10e-6 0,10e-6 0.0135,0.13858 0.0147,0.21615 0.0229,0.22799 0,1e-5 1e-5,1e-5 1e-5,1e-5 0.16724,0.10503 -0.0165,-0.10315 -0.49961,-0.68005 1.36883,1.03385 3.38185,1.33217 5.48755,1.67964 10e-6,0 10e-6,0 10e-6,0 2.82459,0.40656 5.7181,0.4645 8.61788,0.31968 2.96569,-0.15346 5.90298,-0.51861 8.72493,-1.25042 2.24695,-0.61801 4.4086,-1.28618 5.883,-2.6271 -0.3524,0.47479 -0.48804,0.63097 -0.35855,0.51334 10e-6,0 10e-6,0 10e-6,-10e-6 0.0155,-0.0437 0.0261,-0.14121 0.0479,-0.28788 0,0 0,0 0,-10e-6 0.0638,-0.48811 0.0858,-1.01894 0.10945,-1.58687 0.0798,-2.03184 0.0621,-4.08917 0.0423,-6.16832 -0.0724,-7.42686 -0.32035,-14.86296 -0.5636,-22.3104 -0.22806,-6.97926 -0.47112,-13.95852 -0.72187,-20.93803 z"
         id="path3665"
         inkscape:connector-curvature="0"
         sodipodi:nodetypes="cssc"
         inkscape:path-effect="#path-effect5877"
         inkscape:original-d="m 664.58395,822.53152 c -5.65686,48.6136 -11.59013,93.95938 -10.32139,94.85496 5.16527,3.64607 24.77114,3.06986 30.56327,-1.97227 1.22852,-1.06944 -0.8375,-46.90318 -2.83839,-104.24632" />
    </g>
    <g
       id="g3839">
      <path
         sodipodi:nodetypes="cccc"
         inkscape:connector-curvature="0"
         id="path4218"
         d="m 635.68899,674.63202 c 31.65504,-5.05857 55.52814,-2.09107 80.83095,10.1195 10.915,-38.69968 -43.57461,-61.39301 -91.7911,-17.34833 z"
         style="fill:#371f79;fill-opacity:1;stroke:none" />
      <path
         style="fill:#46289b;fill-opacity:1;stroke:none"
         d="m 635.68899,674.63202 c 31.65504,-5.05857 55.52814,-2.09107 80.83095,10.1195 0.55432,-1.96537 0.93995,-3.88946 1.16629,-5.76562 -28.33355,-13.61263 -54.5987,-15.99168 -86.7583,-7.50351 z"
         id="path3069"
         inkscape:connector-curvature="0"
         sodipodi:nodetypes="ccccc" />
      <path
         style="fill:none;stroke:#230f57;stroke-width:3;stroke-linecap:butt;stroke-linejoin:miter;stroke-miterlimit:20;stroke-opacity:1;stroke-dasharray:none"
         d="m 635.68899,674.63202 c 31.65504,-5.05857 55.52814,-2.09107 80.83095,10.1195 10.915,-38.69968 -43.57461,-61.39301 -91.7911,-17.34833 z"
         id="path3067"
         inkscape:connector-curvature="0"
         sodipodi:nodetypes="cccc" />
    </g>
    <g
       id="g3867">
      <path
         sodipodi:nodetypes="cccc"
         inkscape:connector-curvature="0"
         id="path4226"
         d="m 617.5,688.75 c -10.26717,70.34448 11.80775,109.33193 53.89831,92.29948 -27.34961,-19.56219 -40.09658,-42.34786 -43.419,-74.32017 z"
         style="fill:#371f79;fill-opacity:1;stroke:none" />
      <path
         style="fill:#46289b;fill-opacity:1;stroke:none"
         d="m 664.51826,783.38804 6.88005,-2.33856 c -27.34961,-19.56219 -40.09658,-42.34786 -43.419,-74.32017 l -4.71052,-8.08182 c -0.83722,41.98025 16.31571,67.29147 41.24947,84.74055 z"
         id="path3865"
         inkscape:connector-curvature="0"
         sodipodi:nodetypes="ccccc" />
      <path
         style="fill:none;stroke:#230f57;stroke-width:3;stroke-linecap:butt;stroke-linejoin:miter;stroke-miterlimit:20;stroke-opacity:1;stroke-dasharray:none"
         d="m 617.5,688.75 c -10.26717,70.34448 11.80775,109.33193 53.89831,92.29948 -27.34961,-19.56219 -40.09658,-42.34786 -43.419,-74.32017 z"
         id="path3863"
         inkscape:connector-curvature="0"
         sodipodi:nodetypes="cccc" />
    </g>
    <g
       id="g5836">
      <path
         style="fill:#d9b8e3;fill-opacity:1;stroke:none"
         d="m 632.50702,715.48646 c -28.46105,-18.91511 -18.56156,-54.97756 -12.72792,-57.09888 2.32586,-0.84577 13.96536,6.18719 21.38998,20.32932 z"
         id="path5744"
         inkscape:connector-curvature="0"
         sodipodi:nodetypes="cscc" />
      <path
         inkscape:original-d="m 632.50702,715.48646 c -28.46105,-18.91511 -18.56156,-54.97756 -12.72792,-57.09888 2.32586,-0.84577 13.96536,6.18719 21.38998,20.32932"
         inkscape:path-effect="#path-effect5736"
         sodipodi:nodetypes="csc"
         inkscape:connector-curvature="0"
         id="path5720"
         d="m 616.62385,700.10083 c 0.53436,1.04425 1.38361,2.51869 2.52062,4.11167 1.13701,1.59298 2.56537,3.29931 4.14488,4.85727 1.57952,1.55797 3.30643,2.96543 4.93309,4.06804 1.62666,1.1026 3.14703,1.9038 4.28458,2.34865 -0.84663,-0.87384 -2.07996,-2.02189 -3.42027,-3.37857 -1.34031,-1.35669 -2.78357,-2.925 -4.10711,-4.56346 -1.32354,-1.63846 -2.52495,-3.34535 -3.49114,-4.8966 -0.96619,-1.55125 -1.70123,-2.94346 -2.19387,-3.91065 -0.0871,-0.17103 -0.1729,-0.34276 -0.25733,-0.51517 -2.67963,-5.44561 -4.06674,-11.52495 -4.25544,-17.62818 0,0 0,0 0,0 -0.14488,-4.95335 0.41728,-9.93167 1.94786,-14.58205 0.54124,-1.6283 1.16163,-3.18566 2.02272,-4.5372 0,0 0,-10e-6 0,-10e-6 0.30819,-0.47915 0.61429,-0.90976 0.95521,-1.2423 0,0 0,0 1e-5,0 0.26697,-0.23399 0.4544,-0.41666 0.58405,-0.435 -0.15024,-0.0391 0.0121,0.0696 0.40558,0.0961 0.53482,0.12707 1.09502,0.37809 1.69435,0.6688 0.76665,0.37762 1.51131,0.81501 2.23946,1.2959 0.77712,0.51321 1.81736,1.26046 2.9991,2.19858 1.24055,0.98882 2.61261,2.18295 3.96923,3.50152 1.35662,1.31856 2.69705,2.76095 3.92344,4.18949 2.45277,2.85708 4.42438,5.66532 5.64621,6.96926 -0.22137,-0.85648 -0.68286,-2.08598 -1.36652,-3.51099 -0.68367,-1.42501 -1.59236,-3.04342 -2.67523,-4.67289 -1.08287,-1.62946 -2.34075,-3.2676 -3.66215,-4.76182 -1.32139,-1.49422 -2.70522,-2.8435 -3.98131,-3.95216 -1.20323,-1.04959 -2.33269,-1.89457 -3.20337,-2.46623 -0.81582,-0.53564 -1.66576,-1.03373 -2.55531,-1.47798 -0.68335,-0.34581 -1.4453,-0.67115 -2.29958,-0.89173 -0.4474,-0.18393 -1.19423,-0.26233 -2.15912,-0.005 0,0 0,0 0,0 -0.73888,0.29749 -1.291,0.71217 -1.67814,1.13104 0,0 0,0 0,0 -0.55822,0.5649 -1.00368,1.16976 -1.37326,1.76506 0,0 0,0 0,0 -1.04116,1.66403 -1.76595,3.44325 -2.33594,5.20278 -1.64911,5.04364 -2.26062,10.36397 -2.09591,15.6081 0,0 0,0 0,0 0.19391,6.49879 1.68297,12.98861 4.5613,18.85964 0.0917,0.18622 0.18481,0.37166 0.27931,0.55632 z"
         style="fill:#c889da;fill-opacity:1;stroke:none" />
      <path
         sodipodi:nodetypes="ccc"
         inkscape:connector-curvature="0"
         id="path5722"
         d="m 622.57352,671.77598 c -1.62432,10.90493 0.7994,21.34747 7.19884,29.25723 -4.43131,-8.77111 -6.5417,-18.63185 -7.19884,-29.25723 z"
         style="fill:#c889da;fill-opacity:1;stroke:none" />
    </g>
  </g>
</svg>
