<?xml version="1.0" encoding="UTF-8" standalone="no"?>
<!-- Created with Inkscape (http://www.inkscape.org/) -->

<svg
   xmlns:dc="http://purl.org/dc/elements/1.1/"
   xmlns:cc="http://creativecommons.org/ns#"
   xmlns:rdf="http://www.w3.org/1999/02/22-rdf-syntax-ns#"
   xmlns:svg="http://www.w3.org/2000/svg"
   xmlns="http://www.w3.org/2000/svg"
   xmlns:xlink="http://www.w3.org/1999/xlink"
   xmlns:sodipodi="http://sodipodi.sourceforge.net/DTD/sodipodi-0.dtd"
   xmlns:inkscape="http://www.inkscape.org/namespaces/inkscape"
   id="svg3039"
   version="1.1"
   inkscape:version="0.48.3.1 r9886"
   width="723.72571"
   height="468.65445"
   sodipodi:docname="Eta Carinae.svg"
   inkscape:export-filename="/home/parclytaxel/Pictures/Eta Carinae.png"
   inkscape:export-xdpi="1229.0416"
   inkscape:export-ydpi="1229.0416">
  <metadata
     id="metadata3045">
    <rdf:RDF>
      <cc:Work
         rdf:about="">
        <dc:format>image/svg+xml</dc:format>
        <dc:type
           rdf:resource="http://purl.org/dc/dcmitype/StillImage" />
        <dc:title></dc:title>
      </cc:Work>
    </rdf:RDF>
  </metadata>
  <defs
     id="defs3043">
    <inkscape:path-effect
       effect="skeletal"
       id="path-effect3073"
       is_visible="true"
       pattern="m 699.85195,989.94949 c -12.70607,0 -21.39339,1.14384 -32,3 10.60661,2.47487 19.4707,3 32,3 l 140,0 c 13.76674,0 20.07843,-0.94822 30.93934,-3 -10.86092,-2.05178 -17.34938,-3 -30.93934,-3 z"
       copytype="single_stretched"
       prop_scale="1"
       scale_y_rel="false"
       spacing="0"
       normal_offset="0"
       tang_offset="0"
       prop_units="false"
       vertical_pattern="false"
       fuse_tolerance="0"
       pattern-nodetypes="scsscss" />
    <inkscape:path-effect
       effect="skeletal"
       id="path-effect4044"
       is_visible="true"
       pattern="m 319.22612,902.2683 c -14.55536,0 -57.20842,0.9267 -84.46667,3 27.43503,1.6464 69.91131,3 84.46667,3 l 310.73743,0 -17.23744,-6 z"
       copytype="single_stretched"
       prop_scale="1"
       scale_y_rel="false"
       spacing="0"
       normal_offset="0"
       tang_offset="0"
       prop_units="false"
       vertical_pattern="false"
       fuse_tolerance="0"
       pattern-nodetypes="scsccs" />
    <inkscape:path-effect
       effect="skeletal"
       id="path-effect4024"
       is_visible="true"
       pattern="m 688.33586,838.62864 c -14.55536,0 -57.20842,0.92678 -84.46667,3 27.43503,1.64645 69.91131,3 84.46667,3 l 459.50004,0 0,-6 z"
       copytype="single_stretched"
       prop_scale="1"
       scale_y_rel="false"
       spacing="0"
       normal_offset="0"
       tang_offset="0"
       prop_units="false"
       vertical_pattern="false"
       fuse_tolerance="0"
       pattern-nodetypes="scsccs" />
    <inkscape:path-effect
       effect="skeletal"
       id="path-effect3998"
       is_visible="true"
       pattern="m 641.66681,981.46421 c -14.55536,0 -57.20842,0.92678 -84.46667,3 27.43503,1.64645 69.91131,3 84.46667,3 l 399.49999,0 0,-6 z"
       copytype="single_stretched"
       prop_scale="1"
       scale_y_rel="false"
       spacing="0"
       normal_offset="0"
       tang_offset="0"
       prop_units="false"
       vertical_pattern="false"
       fuse_tolerance="0"
       pattern-nodetypes="scsccs" />
    <inkscape:path-effect
       effect="skeletal"
       id="path-effect3969"
       is_visible="true"
       pattern="m 304.5925,800.80274 c -14.55536,0 -70.46667,0.75 -84.46667,3 14,2 69.91131,3 84.46667,3 l 213.5,0 c 16.21542,0 53.87647,-0.67678 70.03333,-3 -16.15686,-2.07322 -53.81791,-3 -70.03333,-3 z"
       copytype="single_stretched"
       prop_scale="1"
       scale_y_rel="false"
       spacing="0"
       normal_offset="0"
       tang_offset="0"
       prop_units="false"
       vertical_pattern="false"
       fuse_tolerance="0"
       pattern-nodetypes="scsscss" />
    <inkscape:path-effect
       effect="skeletal"
       id="path-effect3877"
       is_visible="true"
       pattern="m 473.56843,832.90455 c -7.40277,0 -27.92372,1.67417 -38,3 10.60661,2.47487 19.99062,3 38,3 l 140,0 c 23.13591,0 88.65381,-0.77145 108,-3 -19.52297,-2.75889 -85.04087,-3 -108,-3 z"
       copytype="single_stretched"
       prop_scale="1"
       scale_y_rel="false"
       spacing="0"
       normal_offset="0"
       tang_offset="0"
       prop_units="false"
       vertical_pattern="false"
       fuse_tolerance="0"
       pattern-nodetypes="scsscss" />
    <linearGradient
       inkscape:collect="always"
       id="linearGradient3857">
      <stop
         style="stop-color:#1e3178;stop-opacity:1;"
         offset="0"
         id="stop3859" />
      <stop
         style="stop-color:#9dc6f1;stop-opacity:1"
         offset="1"
         id="stop3861" />
    </linearGradient>
    <linearGradient
       inkscape:collect="always"
       xlink:href="#linearGradient3857"
       id="linearGradient3784"
       x1="656.70129"
       y1="772.25067"
       x2="706.73804"
       y2="766.92163"
       gradientUnits="userSpaceOnUse" />
    <clipPath
       clipPathUnits="userSpaceOnUse"
       id="clipPath3792">
      <path
         sodipodi:type="arc"
         style="fill:none;stroke:#000000;stroke-width:1;stroke-linecap:butt;stroke-linejoin:miter;stroke-miterlimit:4;stroke-opacity:1;stroke-dasharray:none;stroke-dashoffset:0"
         id="path3794"
         sodipodi:cx="681.06744"
         sodipodi:cy="765.44244"
         sodipodi:rx="36.551979"
         sodipodi:ry="21.885551"
         d="m 717.61942,765.44244 a 36.551979,21.885551 0 1 1 -73.10396,0 36.551979,21.885551 0 1 1 73.10396,0 z"
         transform="matrix(0.96592779,0.25881169,-0.25881169,0.96592779,214.47082,-142.29539)" />
    </clipPath>
    <clipPath
       clipPathUnits="userSpaceOnUse"
       id="clipPath3040">
      <path
         transform="matrix(0.97039114,0.24153891,-0.24153891,0.97039114,207.59523,-142.80513)"
         d="m 727.07265,799.16339 a 55.460228,40.390591 0 1 1 -110.92045,0 55.460228,40.390591 0 1 1 110.92045,0 z"
         sodipodi:ry="40.390591"
         sodipodi:rx="55.460228"
         sodipodi:cy="799.16339"
         sodipodi:cx="671.61243"
         id="path3042"
         style="fill:none;stroke:#ff00ff;stroke-width:1;stroke-linecap:butt;stroke-linejoin:miter;stroke-miterlimit:4;stroke-opacity:1;stroke-dasharray:none;stroke-dashoffset:0"
         sodipodi:type="arc" />
    </clipPath>
    <linearGradient
       inkscape:collect="always"
       xlink:href="#linearGradient3857"
       id="linearGradient3830"
       x1="687.52386"
       y1="689.76654"
       x2="690.08344"
       y2="732.12543"
       gradientUnits="userSpaceOnUse" />
    <clipPath
       clipPathUnits="userSpaceOnUse"
       id="clipPath3834">
      <path
         sodipodi:type="arc"
         style="fill:none;stroke:#000000"
         id="path3836"
         sodipodi:cx="692.79297"
         sodipodi:cy="711.45673"
         sodipodi:rx="14.868157"
         sodipodi:ry="28.094696"
         d="m 707.66113,711.45673 a 14.868157,28.094696 0 1 1 -29.73632,0 14.868157,28.094696 0 1 1 29.73632,0 z"
         transform="matrix(0.62024758,-0.78440608,0.78440608,0.62024758,-280.00441,806.239)" />
    </clipPath>
    <clipPath
       clipPathUnits="userSpaceOnUse"
       id="clipPath3856">
      <path
         transform="matrix(0.76569871,0.64319943,-0.64319943,0.76569871,606.70636,-297.9362)"
         d="m 785.91054,707.90802 a 47.641071,13.939134 0 1 1 -95.28214,0 47.641071,13.939134 0 1 1 95.28214,0 z"
         sodipodi:ry="13.939134"
         sodipodi:rx="47.641071"
         sodipodi:cy="707.90802"
         sodipodi:cx="738.26947"
         id="path3858"
         style="fill:none;stroke:#ffff00;stroke-width:1;stroke-linecap:butt;stroke-linejoin:miter;stroke-miterlimit:4;stroke-opacity:1;stroke-dasharray:none;stroke-dashoffset:0"
         sodipodi:type="arc" />
    </clipPath>
    <clipPath
       clipPathUnits="userSpaceOnUse"
       id="clipPath3913">
      <path
         sodipodi:nodetypes="ccc"
         inkscape:connector-curvature="0"
         d="m 786.51751,700.5417 c -147.14445,-88.8686 -142.51432,87.20774 -10.96497,16.04466 5.0173,-5.52533 8.40018,-10.53725 10.96497,-16.04466 z"
         style="fill:none;stroke:#ffff00;stroke-width:0.5;stroke-miterlimit:4;stroke-dasharray:none"
         id="path3915" />
    </clipPath>
    <clipPath
       clipPathUnits="userSpaceOnUse"
       id="clipPath4392">
      <path
         sodipodi:nodetypes="ccc"
         inkscape:connector-curvature="0"
         id="path4394"
         d="m 598.27386,670.93825 c -15.1796,-113.94164 5.83297,-115.22524 49.82809,3.36676 -12.65322,-7.68826 -34.64074,-8.98669 -49.82809,-3.36676 z"
         style="fill:none;stroke:#000000;stroke-width:0.5;stroke-miterlimit:4;stroke-dasharray:none" />
    </clipPath>
  </defs>
  <sodipodi:namedview
     pagecolor="#ffffff"
     bordercolor="#666666"
     borderopacity="1"
     objecttolerance="10"
     gridtolerance="10"
     guidetolerance="10"
     inkscape:pageopacity="0"
     inkscape:pageshadow="2"
     inkscape:window-width="1364"
     inkscape:window-height="698"
     id="namedview3041"
     showgrid="true"
     inkscape:zoom="1.1394323"
     inkscape:cx="361.86285"
     inkscape:cy="234.32722"
     inkscape:window-x="0"
     inkscape:window-y="0"
     inkscape:window-maximized="1"
     inkscape:current-layer="layer2"
     showguides="true"
     inkscape:guide-bbox="true"
     fit-margin-top="0"
     fit-margin-left="0"
     fit-margin-right="0"
     fit-margin-bottom="0" />
  <g
     inkscape:groupmode="layer"
     id="layer2"
     inkscape:label="Drawing"
     style="display:inline"
     transform="translate(-198.40543,-548.47006)">
    <path
       style="fill:#729dcc;fill-opacity:1;stroke:#538bbf;stroke-width:6;stroke-linecap:butt;stroke-linejoin:miter;stroke-miterlimit:4;stroke-opacity:1;stroke-dasharray:none"
       d="m 711.7985,874.84126 c 56.00537,-6.39048 101.70278,-16.11427 153.4932,-38.17674 l 9.99246,65.88169 c -56.6056,15.22993 -106.63348,21.67434 -170.59775,22.72736 z"
       id="path3892"
       inkscape:connector-curvature="0"
       sodipodi:nodetypes="ccccc" />
    <g
       id="g3849">
      <path
         transform="translate(200,550)"
         sodipodi:nodetypes="cccc"
         inkscape:connector-curvature="0"
         id="path3980"
         d="m 550,440 c 55,15 105,15 160,0 L 630,15 z"
         style="fill:#f0f0f0;fill-opacity:1;stroke:none" />
      <path
         transform="translate(200,550)"
         style="fill:#1e3db3;fill-opacity:1;stroke:none"
         d="m 576.35923,446.10531 c 8.68367,1.64203 17.27873,2.891 25.82761,3.7469 L 630,15 z"
         id="path4001"
         inkscape:connector-curvature="0"
         sodipodi:nodetypes="cccc" />
      <path
         id="path3113"
         style="fill:#f0f0f0;fill-opacity:1;stroke:none;display:inline"
         d="m 801.07634,989.49682 -0.098,0.91113 0.91114,0.0979 0.098,-0.91112 z m -5.46681,-0.58783 -0.0979,0.91113 0.91111,0.0981 -0.098,0.91114 0.91113,0.0979 0.29393,-2.73341 -0.91115,-0.0979 0.0979,-0.91114 1.82228,0.19592 -0.0979,0.91115 0.91115,0.0979 -0.0981,0.91111 0.91113,0.098 -0.29389,2.73342 1.82226,0.19593 0.0979,-0.91111 -2.73342,-0.29394 0.0979,-0.91112 -0.91112,-0.0979 0.098,-0.91114 z m -1.82226,-0.19594 -0.91115,-0.098 0.19596,-1.82227 1.82225,0.19593 -0.0979,0.91114 -0.91114,-0.0979 z m -2.53747,-2.11619 -0.0979,0.91113 0.91112,0.0979 0.0979,-0.91114 z m -5.95668,3.96784 -0.91113,-0.0979 0.0979,-0.91112 2.7334,0.29391 -0.098,0.91111 -0.91113,-0.0979 0.29391,-2.7334 2.73341,0.29389 0.0979,-0.91111 0.91113,0.0979 -0.19595,1.82229 2.7334,0.29391 -0.0979,0.91114 2.73341,0.29391 -0.098,0.91113 -0.91111,-0.098 0.19594,-1.82227 -0.91113,-0.098 -0.19594,1.82228 -1.82227,-0.19596 0.0979,-0.91113 -0.91114,-0.0979 -0.0979,0.91114 -0.91112,-0.0979 0.0979,-0.91115 -1.82229,-0.19592 -0.0979,0.91112 0.91113,0.0979 0.19593,-1.82229 -3.64453,-0.39188 z m 0.48987,-4.55567 -0.0979,0.91112 1.82229,0.19597 0.0979,-0.91115 z m -1.82228,-0.19595 -0.0979,0.91114 0.91112,0.0979 0.0979,-0.91113 z m -5.66277,1.23445 -0.19592,1.82227 0.91111,0.098 0.0979,-0.91112 1.82227,0.19593 -0.19594,1.82227 -0.91112,-0.0979 0.0979,-0.91114 1.82227,0.19594 0.0979,-0.91113 0.91113,0.0979 -0.098,0.91112 0.91115,0.098 0.19593,-1.82226 -0.91114,-0.0979 0.0979,-0.91112 -0.91113,-0.0979 -0.0979,0.91112 -0.91114,-0.0979 0.0979,-0.91113 -1.82227,-0.19593 -0.098,0.91113 z"
         inkscape:connector-curvature="0" />
    </g>
    <path
       sodipodi:nodetypes="ccsscc"
       inkscape:connector-curvature="0"
       id="path3886"
       d="m 592.70674,962.32719 c -25.78069,18.06474 -37.30435,17.61736 -63.40318,1.4042 -49.89542,19.97648 -98.05366,25.60604 -116.71598,12.57046 -17.9452,-12.53452 4.01047,-63.29906 39.35093,-58.75166 23.53034,3.02775 63.56219,-2.79529 89.90125,-13.90656 z"
       style="fill:#729dcc;fill-opacity:1;stroke:#538bbf;stroke-width:6;stroke-linecap:butt;stroke-linejoin:miter;stroke-miterlimit:4;stroke-opacity:1;stroke-dasharray:none" />
    <g
       id="g3846"
       transform="matrix(0.985943,0.16708204,-0.16708204,0.985943,156.42752,-137.16815)">
      <path
         style="fill:#dff1f7;fill-opacity:1;stroke:none"
         d="m 522.5,911 c -36.72051,-31.05837 -72.28688,-19.07532 -85.90181,52.23673 -11.69299,61.24537 -47.27218,96.44627 -117.44743,94.10647 30.27386,-11.7678 47.85965,-27.8181 57.04163,-55.9498 -52.48959,54.747 -101.47919,56.7427 -160.00001,5.1508 C 292.94974,1017.13 330.50323,987.20791 339.91674,896.46804 351.90848,780.87587 499.72183,783.55278 536,900 z"
         id="path3844"
         inkscape:connector-curvature="0"
         sodipodi:nodetypes="cscccscc" />
      <path
         style="fill:#ffffff;fill-opacity:1;stroke:none"
         d="m 313.57653,1041.8279 c -30.91297,7.2158 -62.45036,-4.4861 -97.38415,-35.2837 C 292.94974,1017.13 330.50323,987.20791 339.91674,896.46804 351.90848,780.87587 499.72183,783.55278 536,900 l -8.23578,6.71063 c -26.1235,-74.21431 -136.05466,-69.74763 -145.85147,17.57392 -6.33439,56.4601 -20.45629,88.89585 -68.33622,117.54335 z"
         id="path3074"
         inkscape:connector-curvature="0"
         sodipodi:nodetypes="ccsccsc" />
      <path
         sodipodi:nodetypes="cscccscc"
         inkscape:connector-curvature="0"
         id="path3845"
         d="m 522.5,911 c -36.72051,-31.05837 -72.28688,-19.07532 -85.90181,52.23673 -11.69299,61.24537 -47.27218,96.44627 -117.44743,94.10647 30.27386,-11.7678 47.85965,-27.8181 57.04163,-55.9498 -52.48959,54.747 -101.47919,56.7427 -160.00001,5.1508 C 292.94974,1017.13 330.50323,987.20791 339.91674,896.46804 351.90848,780.87587 499.72183,783.55278 536,900 z"
         style="fill:none;stroke:#cce2ee;stroke-width:6;stroke-linecap:butt;stroke-linejoin:miter;stroke-miterlimit:20;stroke-opacity:1;stroke-dasharray:none" />
    </g>
    <path
       sodipodi:nodetypes="scsccsscscscs"
       inkscape:connector-curvature="0"
       id="path3896"
       d="m 797.64036,726.0765 c 12.71624,34.22621 -17.00445,86.06027 -82.80675,107.01914 14.16929,50.28791 11.24602,138.11555 -84.6259,141.2907 -42.582,1.41024 -65.72693,-8.36944 -78.02568,-23.98485 -30.88243,37.15651 -60.74038,38.51093 -75.66219,10.19949 -73.62596,29.98999 -105.82749,29.6208 -119.32825,18.44477 -15.38659,-12.73717 8.37591,-69.54625 44.7678,-63.37913 20.8493,3.53321 65.81232,-4.66877 87.14979,-12.3088 -2.00303,-19.80892 -1.21217,-40.27513 22.09705,-61.38004 25.00162,-22.63726 62.80458,-20.31318 108.65301,1.22321 -19.14628,-24.7754 -44.13767,-44.57077 -46.21145,-88.82054 -6.51341,-138.98161 156.1743,-159.3223 204.69155,-31.11999 9.94764,-2.17842 16.61576,-4.41142 19.30102,2.81604 z"
       style="fill:#96b7d6;fill-opacity:1;stroke:none" />
    <path
       style="fill:#538bbf;fill-opacity:1;stroke:none"
       d="m 590.12063,811.07933 c 1.3426,1.92835 3.26113,4.51658 5.66861,7.47073 2.58464,3.17576 5.7241,6.77257 9.15731,10.57377 3.43321,3.8012 7.15221,7.81256 10.79899,11.94541 0,0 0,0 10e-6,0 3.46956,3.93732 6.869,8.0175 9.9178,12.09234 3.04879,4.07485 5.74033,8.1482 7.97024,11.98193 -1.57386,-4.16007 -3.71131,-8.62829 -6.29048,-13.10971 -2.57918,-4.48143 -5.59217,-8.97625 -8.73645,-13.26823 0,0 -1e-5,-10e-6 -1e-5,-10e-6 -3.30467,-4.51725 -6.72356,-8.84426 -9.87759,-12.85525 -3.15403,-4.011 -6.0356,-7.71197 -8.41094,-10.90778 -2.20242,-2.96763 -3.97936,-5.50432 -5.26986,-7.35584 -4.13313,-5.92999 -7.78949,-12.12986 -10.62254,-18.67302 -4.74444,-10.89442 -7.21388,-22.77358 -7.78122,-34.73366 -0.71156,-15.39939 0.58995,-30.9157 4.84139,-45.59727 10e-6,-10e-6 10e-6,-2e-5 10e-6,-2e-5 3.55922,-12.2995 9.20255,-24.01631 17.02065,-34.04647 7.06046,-9.07071 15.89748,-16.77252 25.88662,-22.42371 9.71568,-5.50291 20.52622,-9.08757 31.60965,-10.61419 0,0 10e-6,0 2e-5,0 23.33375,-3.24194 47.7305,2.912 67.68334,15.66029 11.30353,7.225 21.27789,16.52972 29.61245,27.11219 9.58125,12.16187 16.99388,26.02285 22.4479,40.60153 l 5.62042,-2.1002 C 775.735,707.7431 768.02048,693.34521 758.0134,680.61991 c -8.71198,-11.07533 -19.18015,-20.82782 -31.09388,-28.45553 -21.07318,-13.49715 -46.82038,-19.94767 -71.73466,-16.55002 0,0 0,0 -10e-6,10e-6 -11.82017,1.62523 -23.34328,5.45072 -33.74733,11.33666 -10.69697,6.05825 -20.12709,14.2722 -27.66595,23.96012 -8.32923,10.71747 -14.31573,23.1078 -18.05016,36.06703 0,1e-5 0,1e-5 0,2e-5 -4.44913,15.44954 -5.82695,31.61432 -5.07033,47.54269 0.5838,12.60282 3.21672,25.18538 8.27166,36.84386 3.04474,6.98432 6.89287,13.53138 11.19789,19.71458 z"
       id="path4010"
       inkscape:connector-curvature="0"
       sodipodi:nodetypes="csc"
       inkscape:path-effect="#path-effect4024"
       inkscape:original-d="M 633.63359,865.14351 C 616.1332,827.43935 576.28993,810.75776 573.64779,754.38045 567.12299,615.15544 730.39243,594.98727 778.55674,723.88226" />
    <path
       sodipodi:type="arc"
       style="fill:#ffffff;stroke:none"
       id="path3805"
       sodipodi:cx="671.61243"
       sodipodi:cy="799.16339"
       sodipodi:rx="55.460228"
       sodipodi:ry="40.390591"
       d="m 727.07265,799.16339 c 0,22.30711 -24.83039,40.39059 -55.46022,40.39059 -30.62984,0 -55.46023,-18.08348 -55.46023,-40.39059 0,-22.30711 24.83039,-40.39059 55.46023,-40.39059 30.62983,0 55.46022,18.08348 55.46022,40.39059 z"
       transform="matrix(0.91639354,0.40027853,-0.40027853,0.91639354,384.96476,-243.28043)" />
    <g
       id="g3796"
       clip-path="url(#clipPath3040)"
       transform="matrix(0.985943,0.16708204,-0.16708204,0.985943,156.42752,-137.16815)">
      <path
         sodipodi:type="arc"
         style="fill:url(#linearGradient3784);fill-opacity:1;stroke:none"
         id="path3770"
         sodipodi:cx="681.06744"
         sodipodi:cy="765.44244"
         sodipodi:rx="36.551979"
         sodipodi:ry="21.885551"
         d="m 717.61942,765.44244 c 0,12.08706 -16.36488,21.88556 -36.55198,21.88556 -20.1871,0 -36.55198,-9.7985 -36.55198,-21.88556 0,-12.08705 16.36488,-21.88555 36.55198,-21.88555 20.1871,0 36.55198,9.7985 36.55198,21.88555 z"
         transform="matrix(0.96592779,0.25881169,-0.25881169,0.96592779,214.47082,-142.29539)" />
      <g
         clip-path="url(#clipPath3792)"
         id="g3788">
        <path
           sodipodi:nodetypes="ccccc"
           inkscape:connector-curvature="0"
           id="path3776"
           d="m 688.27248,780.16853 11.3764,18.70787 -17.57022,5.05618 2.9073,-24.64888 z"
           style="fill:#c1e3f1;fill-opacity:1;stroke:none" />
        <path
           style="fill:#87c6df;fill-opacity:1;stroke:none"
           d="m 683.84832,780.16853 -7.33146,23.63765 10.74438,-0.12641 -1.13764,-23.38483 z"
           id="path3774"
           inkscape:connector-curvature="0"
           sodipodi:nodetypes="ccccc" />
      </g>
      <path
         transform="matrix(0.95131838,0.30820987,-0.30820987,0.95131838,264.88677,-172.84613)"
         d="m 709.24885,765.44244 c 0,8.52235 -12.61725,15.43107 -28.18141,15.43107 -15.56416,0 -28.1814,-6.90872 -28.1814,-15.43107 0,-8.52234 12.61724,-15.43107 28.1814,-15.43107 15.56416,0 28.18141,6.90873 28.18141,15.43107 z"
         sodipodi:ry="15.43107"
         sodipodi:rx="28.181404"
         sodipodi:cy="765.44244"
         sodipodi:cx="681.06744"
         id="path3772"
         style="fill:#000000;stroke:none"
         sodipodi:type="arc" />
      <path
         style="fill:#ffffff;stroke:none"
         d="m 676.75292,773.68921 c 0,5.19111 -7.59932,9.39933 -16.97356,9.39933 -9.37424,0 -16.97356,-4.20822 -16.97356,-9.39933 0,-5.19111 7.59932,-9.39933 16.97356,-9.39933 9.37424,0 16.97356,4.20822 16.97356,9.39933 z"
         id="path2999"
         inkscape:connector-curvature="0"
         sodipodi:cx="659.77936"
         sodipodi:cy="773.68921"
         sodipodi:rx="16.973562"
         sodipodi:ry="9.399334"
         sodipodi:type="arc"
         transform="matrix(0.87580911,0.48265763,-0.48265763,0.87580911,454.86397,-222.27252)" />
      <path
         transform="matrix(0.71502783,0.69909598,-0.69909598,0.71502783,751.02654,-244.47148)"
         sodipodi:type="arc"
         sodipodi:ry="3.8003287"
         sodipodi:rx="5.5657544"
         sodipodi:cy="773.68921"
         sodipodi:cx="659.77936"
         inkscape:connector-curvature="0"
         id="path2998"
         d="m 665.34511,773.68921 c 0,2.09886 -2.49187,3.80033 -5.56575,3.80033 -3.07388,0 -5.56576,-1.70147 -5.56576,-3.80033 0,-2.09886 2.49188,-3.80033 5.56576,-3.80033 3.07388,0 5.56575,1.70147 5.56575,3.80033 z"
         style="fill:#ffffff;stroke:none" />
    </g>
    <path
       id="path3036"
       style="fill:#000000;stroke:none"
       d="m 633.10636,768.26348 -2.07644,-4.07315 c -27.49263,12.51465 -26.46617,15.73009 2.07644,4.07315 z m -3.58055,-7.56593 -1.41109,-4.29377 c -28.17404,8.48294 -27.52928,10.99735 1.41109,4.29377 z m 100.93668,-8.27776 c -29.25993,-66.40023 -134.88617,-44.5641 -96.96095,20.87261 -25.24685,13.96475 -22.12598,18.78905 6.05599,1.19772 -38.93986,-58.4901 52.88759,-83.43146 90.90496,-22.07033 z"
       inkscape:connector-curvature="0"
       sodipodi:nodetypes="cccccccccc" />
    <g
       id="g3917"
       transform="matrix(0.985943,0.16708204,-0.16708204,0.985943,156.42752,-137.16815)">
      <path
         clip-path="url(#clipPath3913)"
         transform="matrix(0.76569871,0.64319943,-0.64319943,0.76569871,606.70636,-297.9362)"
         d="m 785.91054,707.90802 c 0,7.69837 -21.32963,13.93913 -47.64107,13.93913 -26.31144,0 -47.64107,-6.24076 -47.64107,-13.93913 0,-7.69837 21.32963,-13.93913 47.64107,-13.93913 26.31144,0 47.64107,6.24076 47.64107,13.93913 z"
         sodipodi:ry="13.939134"
         sodipodi:rx="47.641071"
         sodipodi:cy="707.90802"
         sodipodi:cx="738.26947"
         id="path3033"
         style="fill:#ffffff;stroke:none"
         sodipodi:type="arc" />
      <g
         clip-path="url(#clipPath3856)"
         id="g3838">
        <path
           transform="matrix(0.62024758,-0.78440608,0.78440608,0.62024758,-280.00441,806.239)"
           d="m 707.66113,711.45673 c 0,15.51627 -6.6567,28.09469 -14.86816,28.09469 -8.21146,0 -14.86816,-12.57842 -14.86816,-28.09469 0,-15.51628 6.6567,-28.0947 14.86816,-28.0947 8.21146,0 14.86816,12.57842 14.86816,28.0947 z"
           sodipodi:ry="28.094696"
           sodipodi:rx="14.868157"
           sodipodi:cy="711.45673"
           sodipodi:cx="692.79297"
           id="path3031"
           style="fill:url(#linearGradient3830);fill-opacity:1;stroke:none"
           sodipodi:type="arc" />
        <g
           id="g3817"
           clip-path="url(#clipPath3834)">
          <path
             sodipodi:nodetypes="ccccc"
             inkscape:connector-curvature="0"
             id="path3037"
             d="m 716.23838,714.371 -1.54162,13.23627 7.78737,0.18066 -3.74096,-13.37405 z"
             style="fill:#c1e3f1;fill-opacity:1;stroke:none" />
          <path
             sodipodi:nodetypes="ccccc"
             inkscape:connector-curvature="0"
             id="path3035"
             d="m 709.92505,726.05394 5.3991,-11.84046 1.83452,0.2004 -1.13086,13.0049 z"
             style="fill:#87c6df;fill-opacity:1;stroke:none" />
        </g>
        <path
           sodipodi:type="arc"
           style="fill:#000000;stroke:none"
           id="path3029"
           sodipodi:cx="692.79297"
           sodipodi:cy="711.45673"
           sodipodi:rx="9.4164553"
           sodipodi:ry="22.169245"
           d="m 702.20942,711.45673 c 0,12.24373 -4.21589,22.16924 -9.41645,22.16924 -5.20057,0 -9.41646,-9.92551 -9.41646,-22.16924 0,-12.24374 4.21589,-22.16925 9.41646,-22.16925 5.20056,0 9.41645,9.92551 9.41645,22.16925 z"
           transform="matrix(0.58637228,-0.81004169,0.81004169,0.58637228,-274.78088,845.7471)" />
        <path
           sodipodi:type="arc"
           style="fill:#ffffff;stroke:none"
           id="path3023"
           sodipodi:cx="697.78198"
           sodipodi:cy="702.11224"
           sodipodi:rx="5.7332883"
           sodipodi:ry="10.622667"
           d="m 703.51527,702.11224 c 0,5.86674 -2.56688,10.62267 -5.73329,10.62267 -3.16641,0 -5.73329,-4.75593 -5.73329,-10.62267 0,-5.86673 2.56688,-10.62266 5.73329,-10.62266 3.16641,0 5.73329,4.75593 5.73329,10.62266 z"
           transform="matrix(0.83978685,-0.54291627,0.54291627,0.83978685,-270.84006,490.79914)" />
        <path
           transform="matrix(0.86818851,-0.49623454,0.49623454,0.86818851,-242.72892,442.86859)"
           d="m 700.23798,702.11224 c 0,2.01338 -1.09958,3.64554 -2.456,3.64554 -1.35641,0 -2.456,-1.63216 -2.456,-3.64554 0,-2.01337 1.09959,-3.64554 2.456,-3.64554 1.35642,0 2.456,1.63217 2.456,3.64554 z"
           sodipodi:ry="3.6455388"
           sodipodi:rx="2.4560025"
           sodipodi:cy="702.11224"
           sodipodi:cx="697.78198"
           id="path3025"
           style="fill:#ffffff;stroke:none"
           sodipodi:type="arc" />
      </g>
      <path
         sodipodi:nodetypes="cccccccccc"
         inkscape:connector-curvature="0"
         d="m 693.19312,688.20364 3.20835,1.12188 c 6.81964,-20.14756 4.76838,-20.98464 -3.20835,-1.12188 z m -5.74309,-1.58517 3.42056,0.76069 c 4.3516,-20.34439 2.26308,-20.62604 -3.42056,-0.76069 z m 13.27455,6.2948 c 10.32449,-20.32268 7.57583,-21.17817 -1.47902,-3.90316 -46.15052,-20.10207 -12.69134,41.27879 40.39244,60.57789 -49.22646,-23.61872 -82.30453,-78.72187 -38.91342,-56.67473 z"
         style="fill:#000000;stroke:none"
         id="path3851" />
    </g>
    <path
       style="fill:#538bbf;fill-opacity:1;stroke:none"
       d="m 788.43377,718.20507 c -1.14528,0.0972 -2.58437,0.39443 -4.04736,0.83332 -1.55129,0.41353 -3.28269,0.95269 -5.09054,1.54549 -1.80784,0.59279 -3.69342,1.23566 -5.5917,1.821 -2.39291,0.73627 -4.83197,1.3985 -7.11606,1.91397 -2.2841,0.51546 -4.41351,0.88316 -6.16237,1.14427 2.19808,0.73891 4.41408,1.18786 6.73108,1.39373 2.31699,0.20587 4.73829,0.16651 7.36801,-0.12254 1.66197,-0.18244 3.3926,-0.46671 5.21902,-0.81538 1.82641,-0.34867 3.7481,-0.76467 5.80256,-1.16005 0,0 0,0 0,0 1.19152,-0.19129 2.36938,-0.42429 3.48828,-0.56005 1.18192,-0.1434 2.23866,-0.15833 3.13337,0.12818 0.57644,0.15487 1.10898,0.41334 1.44706,0.76248 0.48106,0.40092 0.8499,1.15129 1.21306,2.03183 0,0 0,0 0,0 3.54265,9.39601 3.31982,20.11221 0.73254,30.08865 -3.12362,11.97351 -9.63938,23.01767 -17.76622,32.61557 -4.87936,5.77073 -10.32248,10.98847 -16.20987,15.67834 -3.31067,2.63726 -8.26953,6.33689 -14.35388,10.0976 -6.08436,3.76071 -13.2999,7.56366 -20.72446,10.82774 -7.42456,3.26408 -15.03679,5.99542 -21.66697,8.12058 -6.63018,2.12517 -12.26681,3.66824 -15.7705,4.83264 3.74674,0.059 9.65534,-0.50782 16.61375,-1.88969 6.95841,-1.38188 14.95067,-3.6073 22.75863,-6.5679 7.80797,-2.9606 15.40707,-6.66249 21.80786,-10.43254 6.40079,-3.77005 11.60709,-7.58533 15.04868,-10.32927 6.16735,-4.91715 11.89691,-10.39295 17.06919,-16.45253 8.61688,-10.10869 15.54271,-21.93914 18.99646,-34.97442 2.90914,-10.92237 3.07254,-22.84382 -0.91085,-33.70441 0,-1e-5 0,-1e-5 0,-1e-5 -0.50683,-1.46106 -1.37051,-2.96256 -2.69758,-4.28519 -1.20681,-1.12347 -2.63232,-1.87408 -4.12596,-2.23889 -1.82842,-0.39712 -3.57244,-0.4403 -5.19523,-0.30252 z"
       id="path3860"
       inkscape:connector-curvature="0"
       sodipodi:nodetypes="csc"
       inkscape:path-effect="#path-effect3877"
       inkscape:original-d="m 760.42574,725.46312 c 19.86671,0.4852 33.13568,-10.36521 37.21462,0.61338 14.27093,38.41073 -24.90614,98.99802 -108.57154,113.30594" />
    <path
       id="path3887"
       style="fill:#538bbf;fill-opacity:1;fill-rule:evenodd;stroke:none"
       d="m 778.42147,736.96175 c 2.69534,2.28804 5.62818,2.11104 7.26902,-1.59744 0.96093,6.07941 -5.77339,7.62062 -7.26902,1.59744 z m -9.97869,20.05917 c 9.06981,7.18307 19.9954,9.29981 29.1302,3.75315 l -1.767,5.46691 c -9.06405,2.84759 -20.69411,1.94581 -27.3632,-9.22006 z"
       inkscape:connector-curvature="0" />
    <path
       style="fill:#538bbf;fill-opacity:1;stroke:none"
       d="m 562.16128,956.30438 c -0.8325,-0.6512 -1.83556,-1.46343 -2.94143,-2.45381 -2.21685,-1.95968 -4.82753,-4.65948 -7.31413,-8.0711 -2.4866,-3.41163 -4.84021,-7.53401 -6.7085,-12.01656 0,0 0,0 0,0 -1.73353,-4.1557 -3.08983,-8.59762 -4.15501,-12.97408 -1.06518,-4.37645 -1.84973,-8.68043 -2.51723,-12.53922 -0.11978,3.92317 -0.0593,8.33405 0.3829,12.91473 0.44218,4.58069 1.27833,9.32738 2.61739,13.89758 0,0 0,0 0,0 1.46197,4.97853 3.6057,9.68064 6.06157,13.64018 2.45588,3.95955 5.21134,7.17313 7.63436,9.50131 1.2134,1.15297 2.32532,2.08704 3.26123,2.81571 7.5386,5.86927 16.42066,9.73381 25.46832,12.14251 15.18404,4.06685 30.93769,4.75403 46.35626,4.22307 10.93468,-0.35454 21.92918,-1.84021 32.51605,-5.04813 8.75555,-2.65406 17.19635,-6.55162 24.76569,-11.83712 6.7612,-4.73007 12.7451,-10.54888 17.66991,-17.16579 0,0 0,-10e-6 1e-5,-10e-6 4.7544,-6.39583 8.51174,-13.46989 11.33189,-20.86098 5.66607,-14.88376 7.72739,-30.86499 7.48654,-46.59591 -0.20912,-14.7417 -2.34862,-29.45277 -6.33902,-43.64445 l -5.77606,1.62394 c 3.84845,13.68975 5.91351,27.88791 6.11569,42.10571 0.19786,15.15733 -1.73192,30.3963 -7.09193,44.36913 -2.6506,6.92653 -6.14412,13.5204 -10.54045,19.42041 0,0 0,1e-5 -10e-6,1e-5 -4.54,6.10096 -10.06577,11.47493 -16.2955,15.83126 -6.97192,4.88529 -14.84785,8.50813 -23.07108,11.01295 -9.96152,3.03557 -20.44078,4.43595 -30.97032,4.79226 0,0 -10e-6,0 -10e-6,0 -15.1151,0.48028 -30.28226,-0.13914 -44.5968,-4.01977 -8.46274,-2.30894 -16.6388,-5.81391 -23.35033,-11.06383 z"
       id="path3979"
       inkscape:connector-curvature="0"
       sodipodi:nodetypes="csc"
       inkscape:path-effect="#path-effect3998"
       inkscape:original-d="m 538.52498,908.24961 c 2.15579,36.76957 17.12449,68.606 91.68273,66.13673 95.87192,-3.17509 98.79519,-91.00279 84.64234,-141.34206" />
    <path
       style="fill:#538bbf;fill-opacity:1;stroke:none"
       d="m 485.44703,894.89585 c 0.0931,2.39449 0.40864,6.03926 1.00688,10.328 0.59823,4.28873 1.47452,9.2158 2.29494,14.28725 0.65604,4.11741 1.26325,8.36166 1.58854,12.45812 0.32529,4.09646 0.35314,8.04542 0.1035,11.61237 1.06938,-3.41802 1.81003,-7.40751 2.16919,-11.61688 0.35915,-4.20936 0.35009,-8.63002 0.17363,-12.8649 -0.2062,-5.22715 -0.60043,-10.21991 -0.86434,-14.45337 -0.26391,-4.23346 -0.39377,-7.71266 -0.47774,-9.97842 -0.006,-0.17171 -0.0123,-0.34337 -0.0177,-0.51499 -0.25926,-8.45249 0.64202,-16.92888 3.57778,-24.62115 3.62545,-9.69674 10.35662,-18.17258 18.21811,-25.33023 5.97386,-5.41107 13.11789,-9.54575 20.78663,-12.01991 0,0 10e-6,0 10e-6,-10e-6 8.10212,-2.63158 16.80711,-3.46189 25.46617,-3.08517 22.11217,0.94151 43.55128,9.19366 63.82353,19.15559 -2.08225,-3.25166 -4.23403,-6.503 -6.48539,-9.73365 -17.96948,-8.17467 -37.09482,-14.47448 -57.06889,-15.4159 -9.23065,-0.42688 -18.63997,0.49817 -27.57915,3.36944 -10e-6,0 -10e-6,0 -10e-6,0 -8.48704,2.74274 -16.35887,7.29807 -22.97002,13.28187 -8.4076,7.57291 -15.66715,16.82402 -19.80326,27.65607 0,0 0,0 0,10e-6 -3.24874,8.66525 -4.27818,17.91471 -3.96226,26.94038 0.006,0.18194 0.0128,0.36376 0.0199,0.54548 z"
       id="path4008"
       inkscape:connector-curvature="0"
       sodipodi:nodetypes="csc"
       inkscape:path-effect="#path-effect4044"
       inkscape:original-d="m 490.44089,943.58159 c 6.46511,-31.86324 -18.7612,-65.8152 20.76534,-101.60381 25.85699,-23.41175 65.40626,-20.12494 113.41823,3.58448" />
    <path
       style="fill:none;stroke:#538bbf;stroke-width:6;stroke-linecap:butt;stroke-linejoin:miter;stroke-miterlimit:4;stroke-opacity:1;stroke-dasharray:none"
       d="m 552.30517,950.28382 c -31.00557,37.27418 -60.86352,38.6286 -75.78533,10.31716 -73.62596,29.98999 -105.82749,29.6208 -119.32825,18.44477 -15.38659,-12.73717 8.37591,-69.54625 44.7678,-63.37913 20.8493,3.53321 65.81232,-4.66877 87.2038,-12.27568"
       id="path3068"
       inkscape:connector-curvature="0"
       sodipodi:nodetypes="ccssc" />
    <g
       id="g3951"
       transform="matrix(0.04138235,8.6969301e-4,-0.00328068,0.08512592,461.50585,925.51744)">
      <path
         sodipodi:nodetypes="ccc"
         inkscape:connector-curvature="0"
         id="path3049"
         d="m 954.89657,-585.29566 c 1586.21503,324.59497 -409.10751,-827.40504 665.10753,384 -1586.215031,-324.59499 409.1075,827.40504 -665.10753,-384 z"
         style="fill:#ffffff;fill-opacity:1;stroke:none" />
      <path
         d="m 1645.7272,-629.84943 1.9897,444.55376 -385.9897,220.553771 55.4256,31.99999 358.2769,-236.553761 25.7231,-428.55375 z m -332.5538,-191.99998 -385.98964,220.55375 1.9897,444.55376 -55.42563,-32 25.72312,-428.55376 358.27685,-236.55376 z"
         style="fill:#243352;fill-opacity:1;stroke:none"
         id="use3823"
         inkscape:connector-curvature="0" />
    </g>
    <g
       id="g4396"
       transform="matrix(0.985943,0.16708204,-0.16708204,0.985943,156.42752,-137.16815)">
      <path
         style="fill:#dff1f7;fill-opacity:1;stroke:none"
         d="m 610.10112,790.57039 c 9.82592,-19.2477 6.76369,-39.67773 -13.42146,-56.27694 19.98177,0.0894 30.92732,8.99527 35.88106,25.8926 28.31216,-28.73259 31.9586,-57.56461 20.17063,-94.53315 10.58004,10.30477 17.42829,24.35426 20.17811,41.25575 37.89842,-83.44598 -90.82915,-149.14922 -153.16077,53.68305 l 43.06469,9.12254 c 22.67224,-12.47333 40.69994,-4.24507 47.28774,20.85615 z"
         id="path4382"
         inkscape:connector-curvature="0"
         sodipodi:nodetypes="cccccccc" />
      <path
         style="fill:#ffffff;fill-opacity:1;stroke:none"
         d="m 649.13163,738.81374 c 12.60117,-22.05907 12.48383,-45.29918 3.59972,-73.16084 10.58004,10.30477 17.42829,24.35426 20.17811,41.25575 37.89842,-83.44598 -90.82915,-149.14922 -153.16077,53.68305 l 18.66567,3.95401 C 579.90534,647.7211 646.37937,662.03676 649.13163,738.81374 z"
         id="path3976"
         inkscape:connector-curvature="0"
         sodipodi:nodetypes="cccccc" />
      <path
         sodipodi:nodetypes="cccccccc"
         inkscape:connector-curvature="0"
         id="path3967"
         d="m 610.10112,790.57039 c 9.82592,-19.2477 6.76369,-39.67773 -13.42146,-56.27694 19.98177,0.0894 30.92732,8.99527 35.88106,25.8926 28.31216,-28.73259 31.9586,-57.56461 20.17063,-94.53315 10.58004,10.30477 17.42829,24.35426 20.17811,41.25575 37.89842,-83.44598 -90.82915,-149.14922 -153.16077,53.68305 l 43.06469,9.12254 c 22.67224,-12.47333 40.69994,-4.24507 47.28774,20.85615 z"
         style="fill:none;stroke:#cce2ee;stroke-width:6;stroke-linecap:butt;stroke-linejoin:miter;stroke-miterlimit:20;stroke-opacity:1;stroke-dasharray:none" />
      <g
         clip-path="url(#clipPath4392)"
         id="g3882">
        <path
           style="fill:#96b7d6;fill-opacity:1;stroke:#538bbf;stroke-width:6;stroke-linecap:butt;stroke-linejoin:miter;stroke-miterlimit:4;stroke-opacity:1;stroke-dasharray:none"
           d="m 610.6206,694.99212 34.14878,-10.76389 C 596.47025,564.58065 590.71184,566.1602 610.6206,694.99212 z"
           id="path3838"
           inkscape:connector-curvature="0"
           sodipodi:nodetypes="ccc" />
        <path
           id="path3846"
           style="fill:none;stroke:#538bbf;stroke-width:3;stroke-linecap:butt;stroke-linejoin:miter;stroke-miterlimit:4;stroke-opacity:1;stroke-dasharray:none"
           d="m 601.16766,627.18403 c 5.12746,-3.70555 9.75881,-7.95425 13.96714,-12.83502 m -10.48214,39.32355 c 7.74853,-4.50676 14.54666,-10.11158 20.61176,-17.0507 m -16.9867,43.33245 c 10.18577,-4.72356 18.96019,-11.1814 26.76485,-19.80261"
           inkscape:connector-curvature="0"
           sodipodi:nodetypes="cccccc" />
      </g>
      <path
         sodipodi:nodetypes="ccc"
         inkscape:connector-curvature="0"
         id="path4388"
         d="m 598.27386,670.93825 c 14.50101,-7.8661 37.28297,-6.66875 49.82809,3.36676 -14.25243,-6.25739 -33.71488,-7.47165 -49.82809,-3.36676 z"
         style="fill:#cce2ee;fill-opacity:1;stroke:none" />
    </g>
    <g
       id="g4414"
       transform="matrix(0.985943,0.16708204,-0.16708204,0.985943,156.42752,-137.16815)">
      <path
         style="fill:#dff1f7;fill-opacity:1;stroke:none"
         d="m 530.88745,815.7466 c 41.13955,73.41548 49.98569,134.51939 26.4739,206.6909 33.77913,-7.6955 44.97733,-22.81966 48.55203,-52.92821 5.81706,11.57289 5.36374,21.95162 1.13503,34.40611 41.53677,-22.81771 41.16894,-72.34265 -28.10543,-163.68883 z"
         id="path4412"
         inkscape:connector-curvature="0"
         sodipodi:nodetypes="cccccc" />
      <path
         style="fill:#ffffff;fill-opacity:1;stroke:none"
         d="m 530.88745,815.7466 c 41.13955,73.41548 49.98569,134.51939 26.4739,206.6909 20.43064,-4.6545 32.60073,-12.0265 39.81974,-23.78783 3.29778,-68.88908 -8.16311,-114.88198 -49.03265,-174.11015 z"
         id="path4410"
         inkscape:connector-curvature="0"
         sodipodi:nodetypes="ccccc" />
      <path
         sodipodi:nodetypes="cccccc"
         inkscape:connector-curvature="0"
         id="path4405"
         d="m 530.88745,815.7466 c 41.13955,73.41548 49.98569,134.51939 26.4739,206.6909 33.77913,-7.6955 44.97733,-22.81966 48.55203,-52.92821 5.81706,11.57289 5.36374,21.95162 1.13503,34.40611 41.53677,-22.81771 41.16894,-72.34265 -28.10543,-163.68883 z"
         style="fill:none;stroke:#cce2ee;stroke-width:6;stroke-linecap:butt;stroke-linejoin:miter;stroke-miterlimit:20;stroke-opacity:1;stroke-dasharray:none" />
    </g>
    <g
       id="g3993"
       transform="matrix(0.985943,0.16708204,-0.16708204,0.985943,156.42752,-137.16815)">
      <path
         style="fill:#96b7d6;fill-opacity:1;stroke:none"
         d="m 597.50523,850.54385 c -89.16778,-6.29289 -107.61981,-82.31195 -103.29825,-95.14876 2.53587,-7.53259 56.29646,-3.02817 83.47413,16.16727"
         id="path3977"
         inkscape:connector-curvature="0"
         sodipodi:nodetypes="csc" />
      <path
         inkscape:original-d="m 597.50523,850.54385 c -89.16778,-6.29289 -107.61981,-82.31195 -103.29825,-95.14876 2.53587,-7.53259 56.29646,-3.02817 83.47413,16.16727"
         inkscape:path-effect="#path-effect3969"
         sodipodi:nodetypes="csc"
         inkscape:connector-curvature="0"
         id="path3932"
         d="m 542.79373,838.0814 c 2.1562,1.20822 5.91252,3.15313 10.61497,5.05879 4.70245,1.90566 10.35518,3.74884 16.10877,5.08521 5.75358,1.33637 11.59458,2.17243 16.56872,2.51147 4.97414,0.33903 9.07334,0.20533 11.41904,-0.19302 -2.2709,-0.66151 -6.25059,-1.4327 -11.02139,-2.51352 -4.7708,-1.08082 -10.32637,-2.49209 -15.75208,-4.23577 -5.4257,-1.74368 -10.71056,-3.82531 -15.09414,-5.84358 -4.38358,-2.01827 -7.87408,-3.95326 -9.90688,-5.09812 -0.36441,-0.20524 -0.72757,-0.4128 -1.08945,-0.62269 -12.33759,-7.13358 -23.14409,-16.93634 -31.39903,-28.54559 -6.41688,-9.03148 -11.41694,-19.08474 -14.36733,-29.69691 -1.04233,-3.76423 -1.84187,-7.54577 -2.13691,-11.31554 -0.10597,-1.37087 -0.15352,-2.69948 -0.0688,-3.97147 0,0 0,0 0,-10e-6 0.0784,-0.93948 0.15571,-1.74391 0.38099,-2.34839 -10e-6,10e-6 -10e-6,10e-6 -10e-6,10e-6 -0.2205,0.32358 -0.17825,0.40575 -0.0712,0.23346 0,0 0,0 0,0 0.25121,-0.20685 0.72568,-0.36894 1.33539,-0.58641 1.87392,-0.61882 4.04162,-0.80584 6.35681,-0.96028 7.1032,-0.42231 14.33939,0.30274 21.58534,1.38321 2.68139,0.40434 5.35244,0.87324 8.00852,1.40935 2.20813,0.4457 5.03762,1.03497 8.20559,1.78052 3.16796,0.74554 6.67337,1.65014 10.24301,2.68379 4.764,1.38724 9.6337,2.98949 13.96604,4.65292 4.33234,1.66342 8.12747,3.39644 11.00143,4.61353 -2.14917,-2.24326 -5.51558,-4.92311 -9.62764,-7.40589 -4.11206,-2.48277 -8.95413,-4.76337 -13.73367,-6.62007 -3.58531,-1.3982 -7.15626,-2.57693 -10.40431,-3.50777 -3.24806,-0.93084 -6.17185,-1.61671 -8.46299,-2.07928 -2.75593,-0.55642 -5.5249,-1.04226 -8.30228,-1.46017 -7.44625,-1.13262 -15.09595,-1.87663 -22.82586,-1.44011 -2.47138,0.12271 -5.1283,0.40004 -7.82448,1.23119 -0.89461,0.2598 -1.90775,0.68739 -2.95136,1.38288 -10e-6,0 -10e-6,0 -10e-6,10e-6 -0.81242,0.46847 -1.60665,1.38904 -2.18474,2.77477 -0.44866,1.39741 -0.62651,2.71283 -0.68243,3.88135 0,0 0,0 0,0 -0.10197,1.65892 -0.0521,3.27389 0.0757,4.83055 0.34762,4.27688 1.21416,8.43587 2.33791,12.44786 3.16604,11.34581 8.46298,22.02164 15.25797,31.56462 0,1e-5 0,1e-5 0,1e-5 8.76601,12.32037 20.20109,22.69526 33.28477,30.26195 0.38412,0.22151 0.76947,0.44055 1.15601,0.65714 z"
         style="fill:#538bbf;fill-opacity:1;stroke:none" />
      <path
         sodipodi:nodetypes="ccc"
         inkscape:connector-curvature="0"
         id="path3934"
         d="m 520.22089,779.12055 c 14.19279,20.48356 32.94609,34.07127 56.30597,42.60762 -23.00833,-2.99317 -47.0844,-19.62261 -56.30597,-42.60762 z"
         style="fill:#538bbf;fill-opacity:1;stroke:none" />
    </g>
    <path
       style="fill:#96b7d6;fill-opacity:1;stroke:#538bbf;stroke-width:6;stroke-linecap:butt;stroke-linejoin:miter;stroke-miterlimit:4;stroke-opacity:1;stroke-dasharray:none"
       d="m 850.99993,843.11294 c 11.56285,-25.23427 60.10423,-34.645 67.63215,13.1544 4.81874,30.59715 -26.57952,59.67152 -37.39234,59.07825 -14.60103,-0.80114 -41.21692,-48.27667 -30.23981,-72.23265 z"
       id="path3888"
       inkscape:connector-curvature="0"
       sodipodi:nodetypes="ssss" />
    <g
       id="g3063"
       transform="matrix(0.985943,0.16708204,-0.16708204,0.985943,156.42752,-137.16815)">
      <path
         style="fill:#96b7d6;fill-opacity:1;stroke:none"
         d="m 688.72201,964.91837 c 15.69824,8.47687 29.82492,13.2804 46.60326,17.36254 C 782.04842,901.50461 848.2475,905.88396 851,909.5 c 14.1656,18.60974 -2.54994,77.9643 -33.5,82.25 -37.02022,5.12624 -57.0295,46.4285 -75.75,50.25 -19.03595,3.8859 -46.53769,-9.7626 -74.57322,-44.60355 z"
         id="path3061"
         inkscape:connector-curvature="0"
         sodipodi:nodetypes="ccssscc" />
      <path
         inkscape:original-d="m 667.17678,997.39645 c 28.03553,34.84095 55.53727,48.48945 74.57322,44.60355 18.7205,-3.8215 38.72978,-45.12376 75.75,-50.25 30.95006,-4.2857 47.6656,-63.64026 33.5,-82.25 -2.91029,-3.82333 -76.75,-8.5 -123.5,87.5"
         inkscape:path-effect="#path-effect3073"
         inkscape:export-ydpi="90"
         inkscape:export-xdpi="90"
         sodipodi:nodetypes="csssc"
         inkscape:connector-curvature="0"
         id="path3050"
         d="m 722.49314,1037.5272 c -4.77246,-1.555 -9.18868,-3.6469 -13.22738,-5.8079 -4.31569,-2.3547 -8.24863,-4.8746 -11.95742,-7.4978 -3.70878,-2.6233 -7.19225,-5.3521 -10.56555,-8.1885 -6.74661,-5.6727 -13.07365,-11.7686 -19.56601,-18.63655 5.11211,7.94965 10.54721,15.06505 16.84915,21.60155 3.15097,3.2682 6.5212,6.3904 10.20924,9.3621 3.68804,2.9716 7.69291,5.7947 12.14956,8.4077 4.1998,2.5064 8.95539,4.8423 14.26572,6.5153 6.95021,2.1897 14.32231,3.0697 21.69958,1.6563 3.03093,-0.648 5.73265,-1.9343 8.09991,-3.4407 2.85656,-1.7922 5.41806,-3.8699 7.81288,-5.9923 0,0 10e-6,0 10e-6,0 5.85826,-5.1769 11.13162,-10.7702 16.57293,-15.9737 6.12597,-5.8436 12.45949,-11.3763 19.44376,-15.7687 10e-6,0 10e-6,0 2e-5,0 7.26304,-4.56405 15.29929,-7.90959 23.63195,-9.04235 0,0 0,-10e-6 1e-5,-10e-6 4.3247,-0.61135 8.42259,-2.1832 12.05769,-4.41212 3.83602,-2.35293 7.17947,-5.33427 10.06381,-8.61727 6.35023,-7.22863 10.83601,-15.81632 13.96285,-24.69306 3.10697,-8.72913 5.02131,-17.98861 5.09816,-27.37799 0,-1e-5 0,-1e-5 0,-2e-5 0.0372,-4.00635 -0.30226,-8.10106 -1.28355,-12.13537 -0.80123,-3.3778 -2.17204,-6.79217 -4.42335,-9.80286 -0.65769,-0.72969 -1.16973,-1.11651 -1.47818,-1.20113 -1e-5,0 -2e-5,0 -2e-5,-10e-6 -0.52637,-0.26424 -0.98943,-0.43875 -1.37325,-0.54927 -1.19921,-0.36226 -2.33723,-0.55861 -3.37886,-0.68363 -10e-6,0 -2e-5,0 -2e-5,0 -3.49766,-0.44008 -6.95446,-0.40937 -10.30175,-0.18369 -11.19475,0.73869 -22.10907,3.68447 -32.32613,7.98479 -14.95304,6.28644 -28.48423,15.60516 -40.14706,26.74181 -0.11695,0.11167 -0.23335,0.22322 -0.34922,0.33465 -5.48071,5.27316 -9.79704,10.23457 -13.45843,14.92221 -3.66138,4.68764 -6.6619,9.11121 -9.33536,13.49672 -2.67346,4.3855 -5.01754,8.73733 -7.25089,13.36808 -2.23336,4.63074 -4.35591,9.54303 -6.48794,15.08652 3.04931,-5.09635 5.94863,-9.57764 8.81961,-13.80397 2.87098,-4.22634 5.71411,-8.19981 8.74457,-12.22994 3.03047,-4.03012 6.24598,-8.12039 9.96791,-12.49057 3.72194,-4.37018 7.94418,-9.02843 13.15583,-14.02105 0.11147,-0.10684 0.2234,-0.21381 0.33579,-0.32092 11.20988,-10.68323 24.13444,-19.60503 38.32717,-25.55106 9.7304,-4.07161 20.00042,-6.86576 30.39322,-7.5299 10e-6,0 10e-6,0 10e-6,0 3.13315,-0.19543 6.20591,-0.23817 9.14965,0.1476 0.89707,0.12355 1.69703,0.2464 2.36467,0.4631 10e-6,0 10e-6,0 10e-6,0 0.21585,0.0755 0.34694,0.11327 0.37733,0.13921 0,0 0,0 0,0 0.047,0.10065 -0.10797,-0.0747 -0.52288,-0.48545 1.62529,2.08211 2.64526,4.76219 3.37077,7.6 0.84592,3.40458 1.12773,7.008 1.11051,10.66148 0,0 0,10e-6 0,10e-6 -0.051,8.5917 -1.85036,17.19695 -4.75328,25.4153 -2.97594,8.33269 -7.07642,16.2656 -12.80695,22.72872 -2.58455,2.91517 -5.4701,5.51249 -8.69009,7.46521 -10e-6,10e-6 -10e-6,10e-6 -2e-5,10e-6 -3.02323,1.83406 -6.35366,3.13205 -9.75532,3.59057 -9.34833,1.31555 -18.17745,4.9507 -26.01057,9.91122 0,10e-6 0,10e-6 -10e-6,10e-6 -7.49305,4.74182 -14.14147,10.52042 -20.38848,16.50632 -5.59389,5.3468 -10.80858,10.8863 -16.39692,15.812 -1e-5,0 -1e-5,0 -1e-5,0 -2.28474,2.0076 -4.58188,3.8883 -7.01984,5.4011 -2.03093,1.2393 -4.07359,2.2626 -6.12271,2.6516 -6.07646,1.333 -12.43431,0.4939 -18.65683,-1.5334 z"
         style="fill:#538bbf;fill-opacity:1;stroke:none" />
      <path
         sodipodi:nodetypes="cccc"
         inkscape:connector-curvature="0"
         id="path3057"
         d="m 688.72201,964.91837 c 16.52862,7.24785 32.08497,12.10921 47.90648,15.11441 l -2.38648,4.15425 c -14.4073,-4.06586 -30.84754,-9.104 -45.52,-19.26866 z"
         style="fill:#538bbf;fill-opacity:1;stroke:none" />
    </g>
  </g>
</svg>
