<svg xmlns="http://www.w3.org/2000/svg" xmlns:inkscape="http://www.inkscape.org/namespaces/inkscape" xmlns:sodipodi="http://sodipodi.sourceforge.net/DTD/sodipodi-0.dtd" xmlns:xlink="http://www.w3.org/1999/xlink" height="250" viewBox="0 0 700 250" width="700">
  <defs>
    <linearGradient gradientTransform="matrix(1.658037,0.22561564,-0.22561564,1.658037,-498.75689,-177.12942)" gradientUnits="userSpaceOnUse" y2="345.46024" x2="633.92865" y1="253.37041" x1="669.36664" id="linearGradient970" xlink:href="#linearGradient1155" />
    <linearGradient id="linearGradient1155">
      <stop offset="0" stop-color="#4a1767" />
      <stop offset="1" stop-color="#794897" />
    </linearGradient>
    <linearGradient gradientTransform="matrix(1.658037,0.22561564,-0.22561564,1.658037,-498.75689,-177.12942)" gradientUnits="userSpaceOnUse" y2="370.91083" x2="720.396" y1="406.18387" x1="692.82654" id="linearGradient937" xlink:href="#linearGradient1155" />
    <inkscape:path-effect effect="powerstroke" id="path-effect2714" offset_points="0.2,5 | 1.63,5" interpolator_type="CubicBezierSmooth" linejoin_type="extrp_arc" lpeversion="0" />
    <inkscape:path-effect effect="powerstroke" id="path-effect2703" offset_points="0,5 | 0.9,5" interpolator_type="CubicBezierSmooth" start_linecap_type="butt" linejoin_type="extrp_arc" lpeversion="0" />
    <linearGradient gradientTransform="matrix(1.6686838,-0.12442754,0.12442754,1.6686838,-622.403,-25.498435)" xlink:href="#linearGradient1155" id="linearGradient1257" x1="482.7081" y1="597.88971" x2="406.55658" y2="566.75146" gradientUnits="userSpaceOnUse" />
    <linearGradient gradientTransform="matrix(1.6686838,-0.12442754,0.12442754,1.6686838,-622.403,-25.498435)" xlink:href="#linearGradient1155" id="linearGradient1245" x1="423.80624" y1="589.72241" x2="439.30408" y2="595.34271" gradientUnits="userSpaceOnUse" />
    <clipPath id="clipPath2165">
      <use xlink:href="#path973" />
    </clipPath>
    <clipPath id="clipPath2149">
      <use xlink:href="#path1680" />
    </clipPath>
    <linearGradient gradientTransform="matrix(1.4871436,0,0,1.4871436,111.77339,631.21932)" xlink:href="#linearGradient5973" y2="-736.53564" y1="-736.62347" x2="384.10754" x1="314.15482" id="linearGradient3084" gradientUnits="userSpaceOnUse" />
    <linearGradient id="linearGradient5973">
      <stop offset="0" stop-color="#20476b" />
      <stop offset="1" stop-color="#3977b8" />
    </linearGradient>
    <clipPath id="clipPath2181">
      <use xlink:href="#path13732" />
    </clipPath>
    <clipPath id="clipPath2129">
      <use xlink:href="#path305" />
    </clipPath>
    <linearGradient xlink:href="#linearGradient5973" y2="-562.10718" y1="-575.18451" x2="523.87067" x1="446.96011" id="linearGradient3123" gradientUnits="userSpaceOnUse" gradientTransform="matrix(1.4804194,0,0,1.4804194,-20.318807,709.72028)" />
    <inkscape:path-effect effect="powerstroke" id="path-effect1616" offset_points="0.45,5 | 1.78,5" interpolator_type="CubicBezierSmooth" linejoin_type="extrp_arc" lpeversion="0" />
  </defs>
  <rect width="700" height="250" fill="#f0f0f0" />
  <text x="-97.467834" y="472.94168" xml:space="preserve" style="font-size:56px;line-height:1.25;font-family:Junction;text-align:center;text-anchor:middle"><tspan x="-97.467834" y="472.94168" sodipodi:role="line" /></text>
  <text x="479.78271" y="109.17122" xml:space="preserve" style="font-size:30px;line-height:1.25;font-family:'IBM Plex Mono';text-align:center;text-anchor:middle"><tspan x="479.78271" y="109.17122" sodipodi:role="line">parclytaxel.fanbox.cc</tspan></text>
  <text xml:space="preserve" x="289.02112" y="64.687485" font-size="22px" line-height="1.25" font-family="'IBM Plex Sans'"><tspan sodipodi:role="line" x="289.02112" y="64.687485">THERE’S BETTER OUT THERE</tspan><tspan sodipodi:role="line" x="289.02112" y="92.187485" /><tspan sodipodi:role="line" x="289.02112" y="119.68748" /><tspan sodipodi:role="line" x="289.02112" y="147.18748">· From only ¥150 (~ US$1.40)/month!</tspan><tspan sodipodi:role="line" x="289.02112" y="174.68748">· Bigger rewards</tspan><tspan sodipodi:role="line" x="289.02112" y="202.18748">· Closer to home – and to anime</tspan></text>
  <path d="M 381.56296,68.414575 H 460.85443" fill="none" stroke="#5693cf" stroke-width="1.5" />
  <g transform="translate(-9.139559-94.361134)scale(.41500022)">
    <g>
      <path d="M 149.07334,424.6609 C 203.28249,328.2405 285.97423,288.9269 323.22476,293.78797 360.47528,298.64904 345.60424,367.42389 310.62837,461.20148 229.19742,486.49255 161.74233,464.58657 149.07334,424.6609 Z" fill="#5e50a0" />
      <path d="M 310.62837,461.20148 C 345.60424,367.42389 360.47528,298.64904 323.22476,293.78797 301.83207,300.85032 262.4678,394.58989 269.36191,470.34796 282.82449,468.54983 296.51657,465.58436 310.62837,461.20148 Z" fill="#4a1767" />
      <path d="M 323.22476,293.78797 C 301.83207,300.85032 262.4678,394.58989 268.95929,470.4462 M 149.07334,424.6609 C 203.28249,328.2405 285.97423,288.9269 323.22476,293.78797 360.47528,298.64904 345.60424,367.42389 310.62837,461.20148 229.19742,486.49255 161.74233,464.58657 149.07334,424.6609 Z" fill="none" stroke="#4a1767" stroke-width="10" />
      <path d="M 224.34025,334.64805 C 225.05261,381.25738 233.04702,428.03275 248.89671,471.99643 M 247.76421,317.3648 C 235.96151,373.56095 240.27076,433.05518 254.48719,471.99374" fill="none" stroke="#4a1767" stroke-width="5" />
      <path d="M 199.46015,897.37933 C 107.45186,833.43908 57.989836,687.4169 66.608711,617.86764 72.274202,572.15039 85.094621,524.35601 110.14102,478.66053 L 213.33586,618.70067 Z" fill="#5e50a0" stroke="#4a1767" stroke-width="10" />
      <path d="M 137.52711,548.60261 C 114.81335,626.98046 126.08079,728.68079 163.81411,804.22597 M 124.96607,535.11018 C 88.614049,619.42152 90.1428,705.34835 112.56585,795.22489" fill="none" stroke="#4a1767" stroke-width="5" />
    </g>
    <g>
      <path d="M 467.06046,517.74099 C 472.9371,581.60644 502.0459,653.42155 559.81078,661.61632 525.73345,638.38985 540.5841,593.33441 565.44727,569.42092 594.98274,541.01362 617.54858,528.72484 624.40738,495.24767 636.80011,372.52017 486.63196,336.27791 378.76856,460.4576 Z" fill="url(#linearGradient970)" />
      <path d="M 624.46562,580.01003 C 610.02597,578.94189 582.54579,580.27274 565.44727,569.42092 540.5841,593.33441 525.73345,638.38985 559.81078,661.61632 645.40756,673.75946 669.28122,583.32518 624.46562,580.01003 Z" fill="url(#linearGradient937)" stroke="#20476b" stroke-width="1.67" />
      <path d="M 613.58206,613.97558 C 607.15549,609.08654 600.25628,605.61217 591.58083,603.06262 577.48542,611.31833 567.37626,619.05689 573.07183,634.63239 585.57796,639.37232 601.47298,631.14001 613.58206,613.97558 Z" fill="#4a1767" />
      <path d="M 565.44727,569.42092 C 553.60759,580.80838 544.03833,596.99001 540.9296,613.38997 554.95407,622.89526 560.92875,630.03006 573.07183,634.63239 562.97601,607.02369 602.53894,604.03874 624.46562,580.01003 610.02597,578.94189 582.54579,580.27274 565.44727,569.42092 Z" fill="#5e50a0" />
      <path d="M 273.80263,451.40534 C 282.38294,353.86908 326.44457,293.31227 340.10602,287.83692 548.36522,204.36898 646.37387,388.03144 624.40738,495.24767 636.80011,372.52017 486.63196,336.27791 378.76856,460.4576 Z" fill="#5e50a0" />
      <path d="M 615.15482,437.06735 C 548.1467,485.28461 498.3452,588.18436 534.674,653.43134 M 552.46713,387.13738 C 559.37099,441.75278 534.90859,520.22006 473.69173,557.51178 M 525.79345,384.36932 C 527.17462,438.4562 502.50086,479.02909 467.6986,516.50836 M 598.22228,358.24246 C 511.77616,342.43242 418.19783,379.05277 353.8946,458.59108 M 315.97286,455.03818 C 359.58235,365.87121 432.00739,313.7972 552.6715,305.18015 M 418.46534,267.98329 C 349.54915,316.15911 313.59765,369.83118 288.30633,452.84538" fill="none" stroke="#4a1767" stroke-width="5" />
      <path d="M 573.07183,634.63239 C 562.97601,607.02369 602.53894,604.03874 624.46562,580.01003 M 540.91747,613.45423 C 554.95407,622.89526 560.92875,630.03006 573.07183,634.63239 585.57796,639.37232 601.47298,631.14001 613.58206,613.97558 607.15549,609.08654 600.25628,605.61217 591.84519,602.9082 M 467.06046,517.74099 C 472.9371,581.60644 502.0459,653.42155 559.81078,661.61632 645.40756,673.75946 669.28122,583.32518 624.46562,580.01003 610.02597,578.94189 582.54579,580.27274 565.44727,569.42092 M 624.40738,495.24767 C 636.80011,372.52017 486.63196,336.27791 378.76856,460.4576 M 273.80263,451.40534 C 282.38294,353.86908 326.44457,293.31227 340.10602,287.83692 548.36522,204.36898 646.37387,388.03144 624.40738,495.24767 617.54858,528.72484 594.98274,541.01362 565.44727,569.42092 540.5841,593.33441 525.73345,638.38985 559.81078,661.61632" fill="none" stroke="#4a1767" stroke-width="10" />
    </g>
    <path d="M 278.98643,1151.1675 C 373.15109,1036.5327 376.685,892.72146 324.66459,788.16664 L 487.27014,687.21697 C 519.22022,571.80312 484.74694,490.27306 424.46471,449.87106 L 399.14826,468.37993 C 330.05861,373.461 130.99144,431.9447 138.18837,626.86429 143.29434,765.15122 192.54986,866.59832 91.697334,1002.147 35.833446,1077.2288 33.71887,1163.2578 74.702903,1236.9092 Z" fill="#eaeef0" stroke="#bdc1c2" stroke-width="10.02" />
    <g>
      <path d="M 156.86835,619.97188 C 45.044474,525.27757 120.76733,369.99962 142.98586,367.58383 156.32543,366.13344 208.5762,422.89428 221.9466,479.07182 Z" fill="#eaeef0" />
      <path d="M 156.86835,619.97188 C 156.86835,619.97188 154.45133,617.04723 149.17971,610.60791 144.38113,604.74642 135.4059,593.62548 127.05925,579.58443 L 127.05924,579.58441 C 122.98731,572.73446 118.79659,564.77228 114.95989,555.6537 V 555.6537 C 112.91418,550.79172 110.94472,545.4119 109.1926,539.50494 V 539.50494 C 102.50577,516.96139 100.03033,490.07829 104.60465,459.9233 V 459.9233 C 106.4271,447.90926 109.26326,436.16061 112.88216,425.08769 L 112.88218,425.08763 C 116.28969,414.66152 120.29269,405.14312 124.49679,397.02055 V 397.02055 C 126.53833,393.07617 128.60305,389.50853 130.63138,386.37468 L 130.63138,386.37467 C 132.64413,383.26489 134.5952,380.62233 136.42003,378.484 V 378.484 C 138.25233,376.33691 139.87638,374.79371 141.22555,373.79554 V 373.79554 C 141.89448,373.30063 142.44044,372.98106 142.85936,372.78653 L 142.85936,372.78653 C 143.2683,372.59663 143.50935,372.55638 143.52632,372.55453 L 143.52632,372.55453 C 143.46397,372.56131 143.51751,372.54972 143.67557,372.57117 L 143.67557,372.57117 C 143.84044,372.59355 144.08984,372.64491 144.43199,372.75188 L 144.43199,372.75188 C 145.13706,372.97232 146.06833,373.37572 147.22532,374.02082 L 147.22533,374.02082 C 149.62766,375.36027 152.5545,377.48747 155.81397,380.28572 V 380.28572 C 159.29434,383.2736 162.97294,386.86865 166.64593,390.81569 L 166.64593,390.8157 C 170.80153,395.28135 174.80797,400.04274 178.51189,404.79217 L 178.5119,404.79219 C 183.43879,411.1098 187.57882,417.07952 190.88261,422.17388 V 422.17388 C 195.02407,428.55991 198.62713,434.52495 201.73181,439.92501 L 201.73181,439.92502 C 209.42703,453.30952 214.91476,464.80328 217.5499,470.25974 220.55572,476.48375 221.9466,479.07182 221.9466,479.07182 221.9466,479.07182 222.29251,476.12758 221.18118,469.12889 220.10176,462.3312 217.33922,450.7229 209.95664,435.57092 L 209.95664,435.57091 C 207.11251,429.73364 203.58359,423.37999 199.27272,416.73274 V 416.73274 C 195.83655,411.43424 191.52933,405.22301 186.39744,398.64253 L 186.39743,398.64251 C 182.54115,393.69772 178.34707,388.71068 173.96658,384.00334 L 173.96657,384.00333 C 170.10231,379.85075 166.15381,375.98284 162.32781,372.69823 V 372.69823 C 158.79197,369.66273 155.30022,367.07373 152.09514,365.28669 L 152.09513,365.28669 C 150.54281,364.42118 148.9662,363.69215 147.41607,363.2075 L 147.41606,363.2075 C 146.64273,362.96571 145.83948,362.77319 145.02057,362.66203 L 145.02056,362.66203 C 144.20695,362.5516 143.338,362.51608 142.44541,362.61312 L 142.44539,362.61313 C 141.08697,362.76083 139.80843,363.17768 138.64761,363.71674 L 138.6476,363.71674 C 137.48485,364.25669 136.35823,364.95726 135.27792,365.75653 V 365.75653 C 133.13015,367.34555 130.95811,369.47936 128.81337,371.99256 V 371.99256 C 126.64722,374.53085 124.43685,377.54125 122.23634,380.94114 L 122.23633,380.94115 C 120.01302,384.37626 117.78819,388.22684 115.61585,392.42393 V 392.42393 C 111.14618,401.05961 106.93969,411.08001 103.37695,421.98108 L 103.37693,421.98115 C 99.590876,433.56551 96.624894,445.85123 94.717756,458.42352 V 458.42352 C 89.929214,489.99069 92.489481,518.35832 99.605463,542.34867 V 542.34867 C 101.46811,548.62827 103.5636,554.35326 105.74256,559.53195 V 559.53195 C 109.83791,569.26526 114.62256,577.54765 119.45044,584.49264 L 119.45045,584.49267 C 129.56416,599.04142 140.29367,608.31451 146.68606,613.19387 153.4686,618.37105 156.86835,619.97188 156.86835,619.97188 Z" inkscape:path-effect="#path-effect2714" inkscape:original-d="M 156.86835,619.97188 C 45.044474,525.27757 120.76733,369.99962 142.98586,367.58383 156.32543,366.13344 208.5762,422.89428 221.9466,479.07182" fill="#bdc1c2" />
      <path d="M 146.88058,435.97965 C 127.06576,474.92382 133.74813,524.09522 159.73671,556.30683 141.76512,516.8273 138.01797,477.26503 146.88058,435.97965 Z" fill="#bdc1c2" />
    </g>
    <g>
      <path d="M 362.07823,461.36163 C 521.33757,286.89231 549.63029,310.63607 420.75862,511.84404 Z" fill="#eaeef0" />
      <path d="M 365.77107,464.73253 C 381.09201,447.94837 400.04631,427.68992 419.13356,408.73407 V 408.73407 C 433.58714,394.37998 447.47538,381.41073 459.75504,371.19403 L 459.75507,371.194 C 465.32232,366.56203 470.45566,362.58225 475.0906,359.32419 V 359.32419 C 479.58819,356.16268 483.51629,353.75163 486.85123,352.08112 L 486.85124,352.08112 C 488.48884,351.26083 489.9417,350.64019 491.215,350.19817 V 350.19817 C 492.48787,349.75629 493.52032,349.51426 494.33493,349.41144 L 494.33494,349.41144 C 495.15067,349.30848 495.65518,349.35676 495.92785,349.41708 L 495.92785,349.41708 C 496.19342,349.47583 496.19757,349.50647 496.22173,349.52709 V 349.52709 C 496.24601,349.54782 496.32941,349.60693 496.47308,349.94905 L 496.47308,349.94906 C 496.62311,350.30633 496.78813,350.90376 496.86839,351.83069 V 351.83069 C 497.03645,353.77164 496.78782,356.5805 495.93922,360.34839 L 495.93922,360.3484 C 495.06418,364.2337 493.62115,368.83882 491.65119,374.07587 V 374.07587 C 489.54917,379.66397 486.89851,385.83637 483.82315,392.42093 L 483.82314,392.42094 C 476.32647,408.47185 466.67518,426.18668 457.43496,442.25802 V 442.25802 C 455.02829,446.4439 452.67253,450.47827 450.42562,454.28459 V 454.28459 C 427.49621,493.12762 420.75862,511.84404 420.75862,511.84404 420.75862,511.84404 435.90809,498.54928 459.03715,459.36806 V 459.36806 C 461.30092,455.53318 463.67612,451.46553 466.10421,447.24241 V 447.24241 C 475.40518,431.0654 485.21433,413.07318 492.88362,396.65269 L 492.88363,396.65268 C 496.03437,389.90671 498.7942,383.48962 501.01091,377.59661 V 377.59661 C 503.08005,372.09591 504.68554,367.02709 505.69486,362.54555 L 505.69487,362.54554 C 506.65059,358.30198 507.1248,354.35991 506.83112,350.96805 V 350.96805 C 506.68556,349.28694 506.34202,347.62256 505.69316,346.07736 L 505.69316,346.07735 C 505.04084,344.52392 504.0742,343.08199 502.71338,341.92061 V 341.92061 C 501.35292,340.75954 499.76899,340.02506 498.08786,339.65315 L 498.08785,339.65315 C 496.44073,339.28877 494.74546,339.28029 493.08272,339.49015 L 493.0827,339.49016 C 491.41549,339.70059 489.69086,340.14185 487.93549,340.75122 V 340.75122 C 486.16614,341.36545 484.30783,342.17073 482.3726,343.1401 L 482.37259,343.14011 C 478.45269,345.10362 474.08638,347.80668 469.33988,351.14316 V 351.14316 C 464.42671,354.5968 459.07378,358.75227 453.35926,363.50676 L 453.35923,363.50678 C 440.76811,373.98263 426.65059,387.17524 412.08695,401.63862 V 401.63862 C 392.83781,420.75526 373.76176,441.14585 358.38539,457.99073 Z" inkscape:path-effect="#path-effect2703" inkscape:original-d="M 362.07823,461.36163 C 521.33757,286.89231 549.63029,310.63607 420.75862,511.84404" fill="#bdc1c2" />
      <path d="M 443.32311,378.18411 C 457.73007,387.83765 477.47814,386.36867 497.03268,373.46092 M 410.5196,409.99714 C 424.53256,429.78073 451.29724,432.48106 478.32488,414.84957 M 380.12094,441.47762 C 390.13329,468.23346 420.33206,475.5989 455.2024,456.94804" fill="none" stroke="#bdc1c2" stroke-width="5" />
      <path d="M 358.38539,457.99073 C 357.21424,471.01671 364.09184,483.74884 375.82784,490.19123 368.30148,479.34186 365.25224,466.46967 369.07884,454.52693 Z" fill="#bdc1c2" />
    </g>
    <g>
      <path d="M 66.608711,617.86764 C 52.600188,730.90822 67.165446,813.573 113.36179,890.37551 165.77741,967.18642 248.2985,964.07945 266.17016,921.95757 281.09062,886.79137 233.55902,833.26375 165.195,794.70167 101.78414,758.9335 78.311844,711.44443 66.608711,617.86764" fill="url(#linearGradient1257)" />
      <path d="M 266.17016,921.95757 C 248.2985,964.07945 241.50277,1011.5883 243.32856,1061.021 194.33423,1079.2666 138.80409,1066.3781 104.96607,1030.1939 107.32123,930.30074 110.41902,873.42842 126.94474,848.81251 147.41342,818.32336 219.44261,862.88651 200.59648,895.64816 195.67726,904.19961 189.83949,916.62725 184.62993,928.74367 209.6286,935.90799 239.17115,934.43477 266.17016,921.95757 Z" fill="#5e50a0" />
      <path d="M 157.79254,873.322 C 159.23625,863.67082 171.14938,861.51483 184.60306,870.15784 179.01051,876.81412 174.32531,883.37355 170.82016,891.58626 165.28325,887.52464 160.79509,881.45082 157.79254,873.322 Z" fill="#4a1767" />
      <path d="M 200.59648,895.64816 C 182.23002,901.18425 165.33008,893.72845 157.79254,873.322 155.74308,887.02255 154.98385,900.49797 154.92799,914.45927 163.62157,920.81897 173.80629,925.66736 184.73974,928.77502 189.83949,916.62725 195.67726,904.19961 200.59648,895.64816 Z" fill="url(#linearGradient1245)" />
      <path d="M 66.608711,617.86764 C 52.600188,730.90822 67.165446,813.573 113.36179,890.37551 M 157.79254,873.322 C 165.33008,893.72845 182.23002,901.18425 200.59648,895.64816 M 154.90006,914.4388 C 154.98385,900.49797 155.74308,887.02255 157.79254,873.322 159.23625,863.67082 171.14938,861.51483 184.60306,870.15784 179.01051,876.81412 174.32531,883.37355 170.88238,891.63167 M 126.94474,848.81251 C 117.25533,916.45115 199.47378,952.78033 266.17016,921.95757 M 66.608711,617.86764 C 78.311844,711.44443 101.78414,758.9335 165.195,794.70167 233.55902,833.26375 281.09062,886.79137 266.17016,921.95757 248.2985,964.07945 241.50277,1011.5883 243.32856,1061.021 194.33423,1079.2666 138.80409,1066.3781 104.96607,1030.1939 107.32123,930.30074 110.41902,873.42842 126.94474,848.81251 147.41342,818.32336 219.44261,862.88651 200.59648,895.64816 195.67726,904.19961 189.83949,916.62725 184.59113,928.73254" fill="none" stroke="#4a1767" stroke-width="10" />
      <path d="M 105.73754,1004.1814 C 149.7092,1058.4268 190.8888,1054.1387 243.80301,1034.4243 M 108.14646,945.51019 C 137.13805,1010.0923 190.64867,1029.178 245.04127,1023.7232 M 111.23193,902.79996 C 149.21129,967.64087 197.88432,981.56621 254.02101,961.22045 M 70.108721,779.20553 C 174.43,804.92581 239.2825,859.80848 253.7107,927.00013" fill="none" stroke="#4a1767" stroke-width="5" />
    </g>
    <g>
      <path d="M 487.96596,653.03311 C 500.53522,650.83768 513.19399,653.28678 523.64198,662.63685 515.97046,650.0953 505.52936,643.77797 491.41876,643.72498 Z M 491.02791,630.79567 C 506.85631,625.81743 517.03611,625.79772 530.70699,633.02081 519.65752,621.15262 507.98097,618.36921 493.45597,621.10896 Z M 491.79827,608.32046 C 506.28063,600.22046 518.25445,597.92569 533.07831,600.91614 518.73828,592.94727 506.93171,592.72932 492.46186,598.12932 Z M 489.9293,585.24609 C 501.38172,574.47149 513.9762,569.82056 529.4042,569.39769 514.06655,564.73036 500.32964,565.99795 487.93025,574.80481 Z" />
      <path d="M 481.37979,517.37108 C 450.44438,539.19839 443.112,602.58343 463.30866,666.97462 428.20607,574.57654 448.71797,509.21106 481.37979,517.37108 Z" fill="#b8e1f0" />
      <g clip-path="url(#clipPath2165)">
        <path id="path973" d="M 481.67991,517.37108 C 450.26584,541.81572 442.47848,600.46435 463.30866,666.97462 469.00937,676.8588 477.51932,682.92424 487.33673,687.21238 503.57152,628.55838 505.00724,568.64176 481.67991,517.37108 Z" fill="#fff" />
        <g clip-path="url(#clipPath2149)">
          <ellipse ry="25.299784" rx="67.892723" id="path1680" cy="-455.1344" cx="629.69562" transform="rotate(89.155937)" fill="url(#linearGradient3084)" />
          <path d="M 454.15083,633.66493 500.44573,650.04855 490.58607,700.31644 Z" fill="#76ade5" />
          <path d="M 454.15083,633.66493 500.194,666.97935 503.63741,632.98683 Z" fill="#5693cf" />
          <ellipse ry="20.157644" rx="55.916927" cy="-454.22354" cx="631.06281" transform="rotate(89.209436)" />
          <ellipse ry="7.871438" rx="25.793335" cy="548.48297" cx="-530.69769" transform="rotate(-82.098528)" fill="#fff" />
          <ellipse ry="2.6786423" rx="8.1301193" cy="572.95367" cx="-547.04156" transform="rotate(-80.849191)" fill="#fff" />
        </g>
      </g>
      <path d="M 468.9818,530.94517 C 469.35845,519.72199 466.84312,510.71422 460.90838,501.95382 469.33242,507.64288 474.15366,515.46462 476.06594,523.3146 M 475.57252,522.61329 C 479.34934,510.65501 479.25466,500.61449 475.21745,489.92967 482.62659,498.00096 485.38946,507.51105 484.96293,516.09836 M 478.55741,515.7716 C 489.0936,507.50911 493.54331,499.26215 495.57717,489.41129 499.63726,503.87038 492.05783,514.57098 482.64071,522.24868 458.36754,542.03839 444.00326,589.12346 463.30866,666.97462 437.88642,600.41993 448.45984,539.37412 478.55741,515.7716 Z" />
    </g>
    <g>
      <path d="M 396.3829,696.70833 C 397.97551,590.58544 336.19629,523.76697 217.87958,555.67364 317.29842,508.73725 406.36119,543.61774 396.3829,696.70833 Z" fill="#b8e1f0" />
      <path d="M 270.62604,683.97147 C 254.78706,687.85723 242.72175,695.5406 234.83295,710.20973 238.33,693.09917 248.0007,682.90636 263.73996,677.14046 Z M 253.67459,664.03629 C 233.98163,664.87722 221.82534,669.37629 209.47641,682.97282 217.01874,665.24805 228.94711,658.19238 246.27853,655.37788 Z M 238.52715,639.33769 C 219.02973,636.43788 204.48088,639.86919 189.27343,649.43247 201.84751,634.54285 214.87068,629.33006 233.21724,629.23601 Z M 229.74458,613.07272 C 212.59526,605.66947 196.64674,605.56803 179.2436,611.33535 194.48732,599.91908 210.67495,597.17106 228.08603,601.99321 Z" />
      <g clip-path="url(#clipPath2181)">
        <path id="path13732" d="M 396.3829,696.70833 C 397.97551,590.58544 336.19629,523.76697 217.87958,555.67364 212.88525,682.4603 296.96758,745.02999 396.3829,696.70833 Z" fill="#fff" />
        <g clip-path="url(#clipPath2129)">
          <ellipse ry="57.922832" rx="76.34111" id="path305" cy="-111.81596" cx="690.65228" transform="rotate(75.420415)" fill="url(#linearGradient3123)" />
          <path d="M 344.60698,728.4453 265.58639,651.85158 361.38103,668.98341 Z" fill="#76ade5" />
          <path d="M 365.01599,648.10578 265.58639,651.85158 362.50825,691.23756 Z" fill="#5693cf" />
          <ellipse cx="692.69684" cy="-107.24479" rx="62.326626" ry="46.656807" transform="rotate(75.296817)" />
          <ellipse cx="-532.5387" cy="429.09247" rx="30.059147" ry="18.954689" transform="rotate(-76.473057)" fill="#fff" />
          <ellipse cx="-549.74542" cy="471.65332" rx="10.685864" ry="6.428278" transform="rotate(-75.280185)" fill="#fff" />
        </g>
      </g>
      <path d="M 218.34953,550.35758 C 192.00274,556.30476 181.16699,555.88333 161.67318,550.40192 180.60801,564.70566 198.37856,566.04397 221.35182,560.72084 316.57632,538.65637 388.95411,566.02927 396.3829,696.70833 403.99008,570.57025 330.59303,525.02119 218.34953,550.35758 Z M 231.65202,551.66468 C 212.50406,546.27049 196.57136,537.48855 183.27058,525.15271 189.90833,539.90202 199.70735,550.57742 214.42786,556.89494 M 263.15899,547.90015 C 243.98519,538.70267 229.63084,526.40341 218.69234,510.4416 221.91485,526.76011 230.35377,541.16961 244.57317,551.34909 M 286.88249,546.84802 C 272.56973,535.63847 263.66868,522.22801 255.63533,506.29367 257.1631,522.78913 261.71403,536.80432 270.89449,548.22097 M 313.40284,549.45331 C 303.40654,537.68342 296.2504,523.75039 291.99125,507.77152 290.16462,523.53913 291.92622,536.39559 298.29798,549.85669" />
    </g>
    <g>
      <path d="M 463.30866,666.97462 C 479.99049,698.02563 523.63444,683.42289 513.85749,716.52468 498.04471,770.06194 397.57059,825.85669 243.81931,769.71203 Z" fill="#eaeef0" />
      <path d="M 463.30866,666.97462 C 463.30866,666.97462 463.36577,667.99437 464.01158,670.05793 464.63403,672.04685 465.9285,675.26148 468.64524,678.7898 V 678.7898 C 470.72547,681.49147 473.57082,684.29263 477.51213,686.9296 L 477.51213,686.92961 C 482.07683,689.98365 487.07229,692.17149 493.19241,694.37137 V 694.37137 C 494.25033,694.75163 495.57097,695.22503 496.76587,695.66836 V 695.66836 C 499.22835,696.58199 501.9254,697.64425 504.14716,698.86741 V 698.86741 C 505.1129,699.39908 505.98091,699.95542 506.73368,700.54783 L 506.73368,700.54783 C 507.43788,701.102 508.02672,701.67621 508.50546,702.28257 V 702.28257 C 508.95767,702.85533 509.32946,703.47882 509.61305,704.18474 V 704.18474 C 509.887,704.86667 510.10072,705.68021 510.20285,706.67564 L 510.20285,706.67564 C 510.40225,708.61914 510.18171,711.3183 509.06228,715.10837 L 509.06228,715.10837 C 507.265,721.19341 504.23195,727.44021 499.91939,733.62369 V 733.62369 C 495.59737,739.82075 490.06198,745.8507 483.38496,751.49932 H 483.38496 C 469.04464,763.63091 450.43566,773.19263 429.15441,779.45228 V 779.45228 C 396.77518,788.97627 364.00815,789.2892 337.705,786.75295 V 786.75295 C 307.79035,783.86847 280.33541,777.78064 266.37762,774.66311 250.78183,771.17971 243.81931,769.71203 243.81931,769.71203 243.81931,769.71203 249.73788,773.46313 264.90934,779.44266 279.16038,785.05943 304.83709,793.63009 336.74526,796.70679 V 796.70679 C 363.82823,799.31823 397.97235,799.04775 431.97626,789.04587 V 789.04587 C 454.34204,782.46723 474.25762,772.31924 489.8436,759.13384 H 489.8436 C 497.1121,752.98485 503.25381,746.32376 508.1216,739.34417 V 739.34417 C 512.97836,732.38038 516.51775,725.16928 518.6527,717.941 L 518.6527,717.941 C 520.02594,713.29164 520.52057,709.26065 520.15063,705.655 L 520.15063,705.65499 C 519.95817,703.77919 519.53223,702.05 518.89226,700.45698 V 700.45698 C 518.22889,698.80569 517.35853,697.35808 516.35408,696.08586 V 696.08586 C 515.30593,694.7583 514.12705,693.64092 512.91796,692.68941 L 512.91796,692.68941 C 511.63438,691.67929 510.28384,690.83058 508.96997,690.10724 V 690.10724 C 506.03927,688.49378 502.7261,687.21363 500.24436,686.29285 V 686.29285 C 498.99035,685.82759 497.61325,685.33403 496.57502,684.96084 V 684.96084 C 489.92481,682.57043 486.59835,681.54877 481.72676,679.39344 L 481.72675,679.39344 C 478.03637,677.7607 475.15747,676.151 472.69716,674.53234 V 674.53234 C 466.15339,670.22714 463.30866,666.97462 463.30866,666.97462 Z" inkscape:path-effect="#path-effect1616" inkscape:original-d="M 463.30866,666.97462 C 479.99049,698.02563 523.63444,683.42289 513.85749,716.52468 498.04471,770.06194 397.57059,825.85669 243.81931,769.71203" fill="#bdc1c2" />
      <path d="M 438.41904,725.37278 C 440.82555,747.74074 454.49715,759.66991 476.40225,762.26389 L 486.75048,755.31329 C 462.42679,754.07572 446.7759,745.13474 438.41904,725.37278 Z M 477.47218,705.26036 C 474.42686,717.94656 485.05437,723.22609 492.05691,710.00664 485.37781,715.84298 479.44096,713.29379 477.47218,705.26036 Z" fill="#bdc1c2" />
    </g>
  </g>
  <path d="M 671.18415,172.15825 V 183.30041 H 682.32639 V 172.15825 Z M 668.95573,169.92987 H 684.55491 V 185.52883 H 668.95573 Z M 622.15825,172.15825 V 183.30041 H 633.30054 V 172.15825 Z M 619.92989,169.92987 H 635.52903 V 185.52883 H 619.92989 Z M 622.15825,221.18404 V 232.32627 H 633.30054 V 221.18404 Z M 619.92989,218.95567 H 635.52903 V 234.55464 H 619.92989 Z M 673.41261,174.38662 H 680.09791 V 181.07205 H 673.41261 Z M 624.38672,174.38662 H 631.0721 V 181.07205 H 624.38672 Z M 624.38672,223.41236 H 631.0721 V 230.09789 H 624.38672 Z M 675.64112,189.98587 V 194.44264 H 677.86953 V 198.89967 H 675.64112 V 196.67102 H 680.09791 V 198.89967 H 684.55491 V 196.67102 H 682.32639 V 189.98587 H 684.55491 V 192.21425 H 677.86953 V 189.98587 Z M 619.92988,214.49864 H 622.15824 V 216.72702 H 619.92988 Z M 624.38672,214.49864 H 628.84376 V 216.72702 H 624.38672 Z M 624.38672,207.8135 V 212.27027 H 626.61526 V 207.8135 Z M 619.92989,210.04187 V 212.27027 H 622.15825 V 205.58484 H 624.38672 V 203.35645 H 626.61526 V 205.58484 H 628.84376 V 210.04187 Z M 626.61523,196.67102 H 631.07209 V 198.89967 H 626.61523 Z M 651.12809,169.92987 H 653.35655 V 172.15825 H 651.12809 Z M 619.92989,187.75722 V 189.98587 H 624.38672 V 201.12805 H 622.15825 V 203.35645 H 619.92989 V 196.67102 H 622.15825 V 187.75722 Z M 664.49883,227.8695 V 234.55464 H 668.95573 V 230.09789 H 666.72736 V 227.8695 Z M 657.8135,183.30041 H 664.49883 V 185.52883 H 657.8135 Z M 648.89973,187.75722 H 655.58505 V 189.98587 H 648.89973 Z M 644.44287,196.67102 V 201.12805 H 648.89973 V 198.89967 H 651.12811 V 194.44264 H 666.72736 V 196.67102 Z M 637.75751,185.52883 H 639.98589 V 183.30041 H 646.6714 V 189.98587 H 644.44287 V 194.44264 H 639.98589 V 192.21425 H 642.21434 V 178.84365 H 639.98589 V 181.07205 H 637.75751 Z M 631.0721,214.49864 H 635.52903 V 210.04187 H 633.30054 V 207.8135 H 635.52903 V 205.58484 H 631.0721 Z M 642.21434,216.72702 V 212.27027 H 633.30054 V 216.72702 Z M 673.41261,216.72702 V 223.41236 H 666.72736 V 216.72702 Z M 662.27035,216.72702 V 223.41236 H 651.12811 V 221.18404 H 660.0419 V 230.09789 H 657.81351 V 225.64086 H 653.35657 V 230.09789 H 655.58507 V 234.55464 H 646.6714 V 221.18404 H 648.89973 V 225.64086 H 651.12811 V 230.09789 H 648.89973 V 227.8695 H 644.44287 V 223.41236 H 637.75751 V 221.18404 H 642.21434 V 218.95567 H 637.75751 V 214.49864 H 648.89973 V 218.95567 H 644.44287 V 212.27027 H 648.89973 V 207.8135 H 646.6714 V 210.04187 H 651.12811 V 214.49864 H 655.58507 V 227.8695 H 662.27035 V 234.55464 H 660.0419 V 232.32627 H 644.44287 V 230.09789 H 639.98589 V 232.32627 H 637.75751 V 234.55464 H 642.21434 V 227.8695 H 637.75751 V 225.64086 H 639.98589 V 207.8135 H 642.21434 V 205.58484 H 637.75751 V 203.35645 H 631.0721 V 201.12805 H 635.52903 V 198.89967 H 633.30054 V 196.67102 H 635.52903 V 192.21425 H 631.0721 V 187.75722 H 635.52903 V 189.98587 H 628.84376 V 187.75722 H 626.61526 V 192.21425 H 619.92989 V 194.44264 H 637.75751 V 187.75722 H 644.44287 V 181.07205 H 646.6714 V 176.61502 H 644.44287 V 174.38662 H 642.21434 V 169.92987 H 639.98589 V 172.15825 H 648.89973 V 169.92987 H 646.6714 V 174.38662 H 648.89973 V 176.61502 H 660.0419 V 187.75722 H 657.81351 V 207.8135 H 651.12811 V 205.58484 H 644.44287 V 203.35645 H 639.98589 V 201.12805 H 642.21434 V 196.67102 H 637.75751 V 198.89967 H 646.6714 V 203.35645 H 655.58507 V 205.58484 H 653.35657 V 201.12805 H 660.0419 V 192.21425 H 655.58507 V 198.89967 H 662.27035 V 192.21425 H 664.49883 V 189.98587 H 666.72736 V 181.07205 H 653.35657 V 192.21425 H 651.12811 V 183.30041 H 655.58507 V 185.52883 H 648.89973 V 178.84365 H 651.12811 V 174.38662 H 660.0419 V 172.15825 H 655.58507 V 178.84365 H 657.81351 V 169.92987 H 664.49883 V 174.38662 H 666.72736 V 172.15825 H 662.27035 V 176.61502 H 664.49883 V 178.84365 H 662.27035 V 187.75722 H 668.95573 V 189.98587 H 673.41261 V 187.75722 H 671.18415 V 192.21425 H 673.41261 V 194.44264 H 668.95573 V 196.67102 H 671.18415 V 198.89967 H 664.49883 V 201.12805 H 662.27035 V 207.8135 H 660.0419 V 214.49864 H 657.81351 V 212.27027 H 653.35657 V 216.72702 H 651.12811 V 218.95567 H 657.81351 V 216.72702 H 660.0419 V 218.95567 H 664.49883 V 225.64086 H 668.95573 V 227.8695 H 673.41261 V 234.55464 H 675.64112 V 232.32627 H 671.18415 V 230.09789 H 684.55491 V 225.64086 H 675.64112 V 223.41236 H 682.32639 V 234.55464 H 680.09791 V 218.95567 H 677.86953 V 214.49864 H 684.55491 V 207.8135 H 680.09791 V 203.35645 H 677.86953 V 205.58484 H 675.64112 V 201.12805 H 684.55491 V 203.35645 H 682.32639 V 210.04187 H 680.09791 V 216.72702 H 684.55491 V 218.95567 H 682.32639 V 221.18404 H 675.64112 V 214.49864 H 673.41261 V 212.27027 H 675.64112 V 207.8135 H 677.86953 V 210.04187 H 673.41261 V 201.12805 H 671.18415 V 207.8135 H 664.49883 V 205.58484 H 660.0419 V 203.35645 H 666.72736 V 205.58484 H 668.95573 V 210.04187 H 666.72736 V 212.27027 H 664.49883 V 216.72702 Z M 668.95573,218.95567 H 671.18414 V 221.18404 H 668.95573 Z" fill-rule="evenodd" />
  <g transform="translate(15.102397 19.668616)scale(.25906563)">
    <path d="M -10,0 C -4,-6 -6,-14 -14,-18 3,-20 8,-28 -2,-39 8,-37 17,-42 18,-53 36,-20 5,-16 5,0 5,16 36,20 18,53 17,42 8,37 -2,39 8,28 3,20 -14,18 -6,14 -4,6 -10,0 Z" fill="#5a318e" />
    <path d="M -20,0 20,-7 11,0 20,7 Z" fill="#54a2e1" />
    <path d="M 0,-30 25.980762,-15 V 15 L 0,30 -25.980762,15 V -15 Z" fill="none" stroke="#576ab7" stroke-width="1.8" />
  </g>
  <text xml:space="preserve" x="27.051952" y="23.078764" style="font-size:8.81214px;line-height:1.25;font-family:Junction;fill:#230f38"><tspan sodipodi:role="line" x="27.051952" y="23.078764">Parcly Taxel</tspan></text>
</svg>