<svg xmlns="http://www.w3.org/2000/svg" xmlns:inkscape="http://www.inkscape.org/namespaces/inkscape" xmlns:xlink="http://www.w3.org/1999/xlink" height="960.12756" viewBox="0 0 819.03101 960.12756" width="819.03101">
  <defs>
    <linearGradient id="linearGradient1189">
      <stop offset="0" stop-color="#3d9dc4" />
      <stop offset="0.45187566" stop-color="#48baa9" />
      <stop offset="0.69640577" stop-color="#48baa9" />
      <stop offset="0.84410995" stop-color="#7a9bde" />
      <stop offset="1" stop-color="#d085d0" />
    </linearGradient>
    <linearGradient id="linearGradient1102">
      <stop offset="0" stop-color="#44b1ce" />
      <stop offset="0.71986884" stop-color="#8cdee4" />
      <stop offset="1" stop-color="#cbf5c0" />
    </linearGradient>
    <linearGradient id="linearGradient1122">
      <stop offset="0" stop-color="#3d9dc4" />
      <stop offset="0.31469297" stop-color="#48baa9" />
      <stop offset="0.70787847" stop-color="#7a9bde" />
      <stop offset="1" stop-color="#d085d0" />
    </linearGradient>
    <linearGradient id="linearGradient1045">
      <stop offset="0" stop-color="#44b1ce" />
      <stop offset="0.79442441" stop-color="#8cdee4" />
      <stop offset="1" stop-color="#cbf5c0" />
    </linearGradient>
    <inkscape:path-effect effect="powerstroke" id="path-effect9610" interpolator_type="CubicBezierSmooth" offset_points="0.35,2 | 6,2" start_linecap_type="zerowidth" />
    <inkscape:path-effect effect="powerstroke" id="path-effect3774" interpolator_type="CubicBezierSmooth" offset_points="1,2" start_linecap_type="zerowidth" />
    <inkscape:path-effect effect="powerstroke" id="path-effect3765" interpolator_type="CubicBezierSmooth" offset_points="0.37,2 | 8,2" start_linecap_type="zerowidth" />
    <inkscape:path-effect effect="powerstroke" end_linecap_type="zerowidth" id="path-effect3763" interpolator_type="CubicBezierSmooth" offset_points="0.3,2 | 0.64,2" start_linecap_type="zerowidth" />
    <inkscape:path-effect effect="powerstroke" end_linecap_type="zerowidth" id="path-effect3744" interpolator_type="CubicBezierSmooth" offset_points="0.26,2 | 4.69,2" start_linecap_type="zerowidth" />
    <inkscape:path-effect effect="powerstroke" end_linecap_type="zerowidth" id="path-effect1397" interpolator_type="CubicBezierSmooth" offset_points="0.3,2 | 0.77,2" start_linecap_type="zerowidth" />
    <inkscape:path-effect effect="powerstroke" id="path-effect1370" interpolator_type="CubicBezierSmooth" offset_points="2.4941,0.8 | 3,0.4" start_linecap_type="zerowidth" />
    <inkscape:path-effect effect="powerstroke" id="path-effect1366" interpolator_type="CubicBezierSmooth" offset_points="2.5,1 | 3,0.5" start_linecap_type="zerowidth" />
    <inkscape:path-effect effect="powerstroke" id="path-effect1362" interpolator_type="CubicBezierSmooth" offset_points="2.5,1.1 | 3,0.6" start_linecap_type="zerowidth" />
    <inkscape:path-effect effect="powerstroke" id="path-effect1354" interpolator_type="CubicBezierSmooth" offset_points="2.5,1.25 | 3,0.75" start_linecap_type="zerowidth" />
    <inkscape:path-effect effect="powerstroke" end_linecap_type="zerowidth" id="path-effect1350" interpolator_type="CubicBezierSmooth" offset_points="2,1.5" start_linecap_type="zerowidth" />
    <inkscape:path-effect effect="powerstroke" end_linecap_type="zerowidth" id="path-effect4434" interpolator_type="CubicBezierSmooth" offset_points="1.3,0.75 | 3,0.75" start_linecap_type="zerowidth" />
    <inkscape:path-effect effect="powerstroke" end_linecap_type="zerowidth" id="path-effect2654" interpolator_type="CubicBezierSmooth" offset_points="1,0.75 | 2,0.75" start_linecap_type="zerowidth" />
    <inkscape:path-effect effect="powerstroke" end_linecap_type="zerowidth" id="path-effect942" interpolator_type="CubicBezierSmooth" offset_points="1.5,2 | 6.4,2" start_linecap_type="zerowidth" />
    <inkscape:path-effect effect="powerstroke" end_linecap_type="zerowidth" id="path-effect1845" interpolator_type="CubicBezierSmooth" offset_points="0.37,2 | 2.14,2" start_linecap_type="zerowidth" />
    <inkscape:path-effect effect="powerstroke" end_linecap_type="zerowidth" id="path-effect882" interpolator_type="CubicBezierSmooth" offset_points="0.16,2 | 2.86,2" start_linecap_type="zerowidth" />
    <inkscape:path-effect effect="powerstroke" end_linecap_type="zerowidth" id="path-effect3228" interpolator_type="CubicBezierSmooth" offset_points="0.16,2 | 2.85,2" start_linecap_type="zerowidth" />
    <linearGradient id="linearGradient2030">
      <stop offset="0" stop-color="#5f2f7a" />
      <stop offset="1" stop-color="#e68ce3" />
    </linearGradient>
    <inkscape:path-effect effect="powerstroke" end_linecap_type="zerowidth" id="path-effect829" interpolator_type="CubicBezierSmooth" offset_points="0.18,2 | 1.64,2" start_linecap_type="zerowidth" />
    <clipPath id="clipPath2048">
      <use xlink:href="#path1213" />
    </clipPath>
    <clipPath id="clipPath2064">
      <use xlink:href="#path28" />
    </clipPath>
    <clipPath id="clipPath1841">
      <use xlink:href="#path1665" />
    </clipPath>
    <inkscape:path-effect effect="powerstroke" end_linecap_type="zerowidth" id="path-effect4415" interpolator_type="CubicBezierSmooth" offset_points="2,1 | 3,1" start_linecap_type="zerowidth" />
    <inkscape:path-effect effect="powerstroke" end_linecap_type="zerowidth" id="path-effect4425" interpolator_type="CubicBezierSmooth" offset_points="1,0.9 | 2,0.9" start_linecap_type="zerowidth" />
    <inkscape:path-effect effect="powerstroke" end_linecap_type="zerowidth" id="path-effect4429" interpolator_type="CubicBezierSmooth" offset_points="1,1" start_linecap_type="zerowidth" />
    <inkscape:path-effect effect="powerstroke" end_linecap_type="zerowidth" id="path-effect4433" interpolator_type="CubicBezierSmooth" offset_points="1,1" start_linecap_type="zerowidth" />
    <inkscape:path-effect effect="powerstroke" end_linecap_type="zerowidth" id="path-effect4443" interpolator_type="CubicBezierSmooth" offset_points="1.7,0.6 | 1.2,0.55" start_linecap_type="zerowidth" />
    <inkscape:path-effect effect="powerstroke" end_linecap_type="zerowidth" id="path-effect4447" interpolator_type="CubicBezierSmooth" offset_points="1,0.4" start_linecap_type="zerowidth" />
    <inkscape:path-effect effect="powerstroke" end_linecap_type="zerowidth" id="path-effect4451" interpolator_type="CubicBezierSmooth" offset_points="0.3,0.75 | 1.4,0.75" start_linecap_type="zerowidth" />
    <inkscape:path-effect effect="powerstroke" end_linecap_type="zerowidth" id="path-effect4455" interpolator_type="CubicBezierSmooth" offset_points="0.3,0.75 | 1.4,0.75" start_linecap_type="zerowidth" />
    <inkscape:path-effect effect="powerstroke" end_linecap_type="zerowidth" id="path-effect4465" interpolator_type="CubicBezierSmooth" offset_points="0.5,0.75 | 1.3,0.75" start_linecap_type="zerowidth" />
    <clipPath id="clipPath1197">
      <use xlink:href="#path934" />
    </clipPath>
    <clipPath id="clipPath1344">
      <use xlink:href="#path1309" />
    </clipPath>
    <inkscape:path-effect effect="powerstroke" end_linecap_type="zerowidth" id="path-effect1350-3" interpolator_type="CubicBezierSmooth" offset_points="2,1.35" start_linecap_type="zerowidth" />
    <clipPath id="clipPath3707">
      <use xlink:href="#path1307" />
    </clipPath>
    <clipPath id="clipPath9478">
      <path d="m 593.05808,274.61586 3.74004,-6.42463 c 9.47168,9.89849 19.84461,18.94446 31.20109,26.25135 l -2.56326,5.92202 c -11.94022,-7.27861 -23.7327,-16.35188 -32.37787,-25.74874 z" />
    </clipPath>
    <linearGradient id="linearGradient4671">
      <stop offset="0" stop-color="#80a4ee" />
      <stop offset="1" stop-color="#aedefc" />
    </linearGradient>
    <linearGradient id="linearGradient4651">
      <stop offset="0" stop-color="#e599f2" />
      <stop offset="1" stop-color="#f2c4fd" />
    </linearGradient>
    <linearGradient id="linearGradient5558">
      <stop offset="0" stop-color="#50cda5" />
      <stop offset="1" stop-color="#cbf5c0" />
    </linearGradient>
    <linearGradient gradientTransform="matrix(-0.99948215,-0.03217812,-0.03217812,0.99948215,1208.3271,27.256617)" gradientUnits="userSpaceOnUse" id="linearGradient1085" x1="777.27228" x2="961.04712" y1="308.42831" y2="457.32025" xlink:href="#linearGradient1045" />
    <linearGradient gradientTransform="matrix(-0.99948215,-0.03217812,-0.03217812,0.99948215,1208.3271,27.256617)" gradientUnits="userSpaceOnUse" id="linearGradient1094" x1="792.60217" x2="974.10712" y1="485.72668" y2="626.61859" xlink:href="#linearGradient4671" />
    <linearGradient gradientTransform="matrix(-0.99948215,-0.03217812,-0.03217812,0.99948215,1208.3271,27.256617)" gradientUnits="userSpaceOnUse" id="linearGradient1096" x1="641.09363" x2="817.03955" y1="472.15137" y2="607.68689" xlink:href="#linearGradient4651" />
    <linearGradient gradientTransform="matrix(-0.99948215,-0.03217812,-0.03217812,0.99948215,1208.3271,27.256617)" gradientUnits="userSpaceOnUse" id="linearGradient1098" x1="735.12183" x2="1039.1233" y1="362.78726" y2="600.12891" xlink:href="#linearGradient5558" />
    <linearGradient gradientTransform="matrix(-0.99948215,-0.03217812,-0.03217812,0.99948215,1208.3271,27.256617)" gradientUnits="userSpaceOnUse" id="linearGradient1125" x1="884.91272" x2="721.06635" y1="362.89572" y2="668.43134" xlink:href="#linearGradient1122" />
    <linearGradient gradientUnits="userSpaceOnUse" id="linearGradient1054" x1="244.49345" x2="211.90662" y1="616.6778" y2="837.6778" xlink:href="#linearGradient5558" />
    <linearGradient gradientUnits="userSpaceOnUse" id="linearGradient1160" x1="86.565033" x2="63.143188" y1="646.05261" y2="812.55261" xlink:href="#linearGradient4651" />
    <linearGradient gradientUnits="userSpaceOnUse" id="linearGradient2458" x1="118.24967" x2="214.15079" y1="629.31543" y2="938.0368" xlink:href="#linearGradient1102" />
    <linearGradient gradientUnits="userSpaceOnUse" id="linearGradient2460" x1="39.92907" x2="6.2320509" y1="650.04712" y2="863.59332" xlink:href="#linearGradient4671" />
    <linearGradient gradientUnits="userSpaceOnUse" id="linearGradient2463" x1="190.05031" x2="104.75842" y1="442.15186" y2="998.67749" xlink:href="#linearGradient1189" />
    <linearGradient gradientUnits="userSpaceOnUse" id="linearGradient1046" x1="516.96753" x2="517.45398" y1="372.19922" y2="402.35452" xlink:href="#linearGradient2030" />
    <linearGradient gradientUnits="userSpaceOnUse" id="linearGradient1048" x1="322.42908" x2="350.54254" y1="-633" y2="-632.63507" xlink:href="#linearGradient2030" />
  </defs>
  <g transform="translate(120.43497-73.838798)">
    <g>
      <path d="m 485.77193,186.33037 c -61.88128,14.7844 -68.65091,39.21333 -67.26902,62.36225 1.68719,28.26243 -19.3668,41.90807 -60.22976,31.73757 -40.31715,-10.03466 -87.19244,-5.11206 -113.63629,32.46462 -45.84837,65.15045 51.04187,94.47793 36.92215,133.75736 -10.83014,30.12822 -110.63514,7.13999 -131.9085,66.28974 -16.24218,45.16096 50.8939,69.71472 37.19688,103.25042 -20.93565,51.2587 -90.42621,22.69521 -73.80884,-7.12875 11.94632,-21.44056 9.50838,-45.75019 -3.99322,-62.88592 1.08826,15.93665 -1.73557,29.54995 -8.88363,41.75046 -60.199152,102.74882 68.11707,151.87284 155.34721,103.92698 71.11624,-39.08891 112.3783,45.16072 182.43027,15.76752 C 502.55895,680.5087 375.53214,553.9994 590.62936,489.6197 732.54929,447.14236 727.65112,128.54179 485.77193,186.33037 Z" fill="url(#linearGradient1094)" />
      <path d="m 591.79147,437.98391 c -51.45658,48.24668 -97.72834,-41.84789 -215.66561,48.29241 -82.06471,62.72265 34.73247,113.47054 -48.15568,139.3584 -39.08208,12.2062 -150.92991,5.26146 -170.83379,82.50846 31.09184,5.54262 67.33326,0.77254 98.37252,-16.28808 71.11624,-39.08891 112.3783,45.16072 182.43027,15.76752 64.61977,-27.11392 -62.40704,-153.62322 152.69018,-218.00292 44.02135,-13.1758 73.91668,-52.9186 86.99781,-99.6973 -24.81839,-0.83203 -50.06554,14.52277 -85.8357,48.06151 z" fill="url(#linearGradient1096)" />
      <path d="m 149.65051,512.94191 c 21.27336,-59.14976 121.07836,-36.16152 131.9085,-66.28974 14.11972,-39.27943 -82.77052,-68.60691 -36.92215,-133.75736 26.44385,-37.57668 73.31914,-42.49928 113.63629,-32.46462 40.86296,10.1705 61.91695,-3.47514 60.22976,-31.73757 -1.38189,-23.14892 5.38774,-47.57785 67.26902,-62.36225 137.8938,-32.94492 198.76719,56.43933 199.4207,147.28195 -88.71225,-28.23594 -157.44918,-7.47551 -187.50276,52.96339 -30.76666,61.87299 -100.98483,-11.89866 -201.36641,78.6218 -84.40973,76.11762 97.08188,90.50812 -107.87814,138.98714 -3.25091,-27.92575 -53.0255,-51.6747 -38.79481,-91.24274 z m -21.97469,127.1835 c -13.43466,-6.27438 -21.60454,-18.5573 -14.63727,-31.06183 11.94632,-21.44056 9.50838,-45.75019 -3.99322,-62.88592 1.08826,15.93665 -1.73557,29.54996 -8.88363,41.75046 -30.655769,52.32376 -12.42484,90.74127 24.27309,109.41873 -13.5428,-19.15995 -9.9139,-39.96352 3.24103,-57.22144 z" fill="url(#linearGradient1098)" />
      <path d="m 244.63686,312.89481 c 26.44385,-37.57668 73.31914,-42.49928 113.63629,-32.46462 40.86296,10.1705 61.91695,-3.47514 60.22976,-31.73757 -1.38189,-23.14892 5.38774,-47.57785 67.26902,-62.36225 91.15625,-21.77859 148.6544,9.90085 177.39706,60.05601 -61.63892,-16.3831 -174.86912,12.64407 -204.78303,77.74584 -34.08057,74.16962 -97.13749,-10.53041 -201.38666,72.00583 -19.21005,-21.85642 -37.86108,-47.00976 -12.36244,-83.24324 z m -93.2917,232.11421 c -4.45189,-9.60667 -5.99314,-20.11521 -1.69465,-32.06711 11.11427,-30.90281 43.66409,-39.38569 73.83673,-44.86799 12.31602,31.91466 40.77739,56.20832 -72.14208,76.9351 z" fill="url(#linearGradient1085)" />
      <path d="m 485.77193,186.33037 c -61.88128,14.7844 -68.65091,39.21333 -67.26902,62.36225 1.68719,28.26243 -19.3668,41.90807 -60.22976,31.73757 -40.31715,-10.03466 -87.19244,-5.11206 -113.63629,32.46462 -45.84837,65.15045 51.04187,94.47793 36.92215,133.75736 -10.83014,30.12822 -110.63514,7.13999 -131.9085,66.28974 -16.24218,45.16096 50.8939,69.71472 37.19688,103.25042 -20.93565,51.2587 -90.42621,22.69521 -73.80884,-7.12875 11.94632,-21.44056 9.50838,-45.75019 -3.99322,-62.88592 1.08826,15.93665 -1.73557,29.54995 -8.88363,41.75046 -60.199152,102.74882 68.11707,151.87284 155.34721,103.92698 71.11624,-39.08891 112.3783,45.16072 182.43027,15.76752 C 502.55895,680.5087 375.53214,553.9994 590.62936,489.6197 732.54929,447.14236 727.65112,128.54179 485.77193,186.33037 Z" fill="none" stroke="url(#linearGradient1125)" stroke-width="4" />
      <path d="m 382.17083,378.15102 8.93375,-50.25064 7.4382,9.49943 -6.18829,-10.56203 9.06257,0.99932 -8.93768,-2.49932 9.06197,-7.06318 -9.87455,6.00073 2.12351,-19.87516 -3.6235,20.00027 -7.50068,-9.12445 6.12573,9.68705 -11.31256,-0.68664 11.00014,2.06167 -12.06178,9.18842 13.37438,-8.12601 z" fill="#fff" id="path1138" />
      <use transform="translate(-87.952122 252.98565)scale(.78906884)" xlink:href="#path1138" />
      <path d="m 369.69663,527.17784 6.70466,-3.25879 -2.50371,18.36432 3.61359,-18.1527 4.92574,6.56957 -3.99119,-7.2048 9.24267,1.09376 -9.031,-2.20377 5.18064,-4.16731 -5.81586,3.23288 0.51435,-10.23551 -1.62435,10.02383 -3.48673,-4.23769 2.55221,4.87294 -10.52845,-1.3819 10.31686,2.49188 z" enable-background="new" fill="#fff" fill-rule="evenodd" id="path5745" />
      <use transform="translate(102.08636-44.735364)scale(.8081931)" xlink:href="#path5745" />
      <use transform="translate(-40.549924 244.4575)scale(.61374904)" xlink:href="#path5745" />
      <path d="m 319.25985,466.11727 -5.50594,-1.00613 5.00286,-4.08053 -5.36615,3.40975 0.83847,-5.98103 -1.4813,5.84125 -3.94075,-4.55559 3.40971,5.03076 -5.92513,-0.55898 5.75744,1.34154 -5.75744,4.2482 6.14873,-3.68924 -0.67078,7.82563 1.39745,-7.65794 5.08666,6.48407 -4.49977,-6.87534 z" fill="#fff" id="path4653" />
      <use transform="translate(-151.60393-50.875257)scale(1.5166768)" xlink:href="#path4653" />
    </g>
    <g>
      <path d="m 424.96447,543.75 96.81802,10.29289 c -88.77312,115.93429 -139.61099,212.94735 -90.71447,308.51777 10.03212,19.60821 -76.68124,20.09676 -77.84099,1 -5.05827,-83.29034 21.17507,-159.35573 51.07323,-217.53249 3.47675,-6.76516 9.24927,-9.48921 25.13669,-7.98213 9.9503,-25.0871 8.74363,-60.53924 -4.47248,-94.29604 z" fill="#f2e6e9" />
      <path d="m 431.06801,862.56066 c 10.03211,19.60821 -76.68124,20.09676 -77.84098,1 -0.327,-5.38433 -0.52322,-10.73846 -0.56502,-16.06301 16.45326,6.48698 30.44747,7.85694 44.92746,5.12735 -27.13036,-14.37375 -27.40042,-38.16681 -2.75,-19.875 -4.52583,-14.64933 -10.94043,-25.36474 -28,-15.875 0.18281,-21.95268 19.61836,-24.60556 29.875,-5.875 -1.86636,-21.36383 -0.1246,-38.39223 7,-55.25 3.96782,8.34256 6.45684,15.94956 8.4062,24.91314 -0.7545,27.62386 5.09301,54.8186 18.94734,81.89752 z" fill="#f5e1c7" />
      <path fill="#eecfe1" inkscape:original-d="M 425.86092,645.89645 C 439.50736,620.79289 439.63693,581.22666 424.96447,543.75 l 96.81802,10.29289 c -88.77312,115.93429 -139.61099,212.94735 -90.71447,308.51777 10.03212,19.60821 -76.68124,20.09676 -77.84099,1 -5.05827,-83.29034 21.17507,-159.35573 51.07323,-217.53249 3.47675,-6.76516 9.24927,-9.48921 25.04993,-7.94606" inkscape:path-effect="#path-effect9610" />
      <path d="m 352.69312,847.49416 c 16.42215,6.49047 30.41636,7.86043 44.89635,5.13084 -27.13036,-14.37375 -27.40042,-38.16681 -2.75,-19.875 -4.52583,-14.64933 -10.94043,-25.36474 -28,-15.875 0.18281,-21.95268 19.61836,-24.60556 29.875,-5.875 -1.86636,-21.36383 -0.1246,-38.39223 7,-55.25 3.96782,8.34256 6.45684,15.94956 8.40712,24.99744" style="fill:none;stroke:#eecfe1;stroke-width:4;stroke-miterlimit:20" />
    </g>
    <g>
      <path d="m 546.69964,481.38769 c 84.20161,52.09686 56.24081,120.29307 -6.24531,88.86698 -58.72262,-29.53331 -101.21049,-110.34246 -89.41565,-118.87638 7.58969,-5.49135 57.69302,14.69961 97.12675,39.52688" fill="#f2e6e9" stroke="#eecfe1" stroke-width="4" />
      <path d="m 540.16243,485.8438 c -5.42368,2.16122 -2.55252,8.73179 6.07421,14.60718 -22.38208,-0.54127 -19.70775,5.64117 7.83447,27.00727 -27.90801,-7.15825 -30.13682,0.0859 -2.76445,23.19739 -29.86641,-6.30578 -25.02212,5.45479 -4.71515,22.52119" style="fill:none;stroke:#eecfe1;stroke-width:3;stroke-miterlimit:20" />
      <path d="M 532.47186,549.72436 C 502.504,524.35363 477.2959,496.28433 451.39439,468.60816 m 84.6928,56.19774 C 507.30571,501.17621 479.0108,476.19847 450.66211,451.36976 m 87.86687,49.17501 -71.05362,-47.76014" fill="none" stroke="#eecfe1" stroke-width="2" />
    </g>
    <g>
      <path d="m 668.49839,582.65966 c -18.56154,21.92031 -38.45888,39.57501 -62.47018,52.7726 -19.47735,10.70554 -39.83327,-12.29594 -42.73834,-55.9273 l 23.20368,-11.17767 c 3.96891,10.28398 8.75125,19.19602 16.32019,28.416 57.06799,-38.80719 69.55183,-29.91508 65.68465,-14.08363 z" fill="#fef7fb" stroke="#eecfe1" stroke-width="4" />
      <path d="m 586.17678,601.17678 c 31.42246,-21.70711 59.08681,-39.31735 91.89644,-55.45711 6.88038,-3.38461 15.22297,0.64195 16.98004,18.50126 4.32842,43.99508 5.09038,142.32069 -76.30326,158.77907 -19.38105,3.91899 -23.67481,-68.88011 0.67678,-73.82322 28.78357,-5.84276 45.05545,-22.70711 41.07322,-70.20711 -50.20217,32.11342 -71.95112,40.77843 -74.32322,22.20711 z" fill="#fef7fb" />
      <path d="m 618.75,723 c -19.38105,3.91899 -23.67481,-68.88011 0.67678,-73.82322 2.34851,-0.47672 4.61372,-1.02682 6.80733,-1.66886 C 621.25,661 620.875,675.125 624.875,686.875 c 6.25,-12.75 15,-12.875 17.875,-0.75 8.0367,-15.48287 2.7993,-22.75199 -10.125,-22.25 11.375,-14.25 29.375,-8.625 26,13 9.25,-11.75 18,-21.125 32.47744,-30.53542 C 682.64625,681.43805 662.64512,714.12409 618.75,723 Z" fill="#ffefbc" />
      <path fill="#eecfe1" inkscape:original-d="m 586.17678,601.17678 c 31.42246,-21.70711 59.08681,-39.31735 91.89644,-55.45711 6.88038,-3.38461 15.22297,0.64195 16.98004,18.50126 4.32842,43.99508 5.09038,142.32069 -76.30326,158.77907 -19.38105,3.91899 -23.67481,-68.88011 0.67678,-73.82322 28.78357,-5.84276 45.05545,-22.70711 41.07322,-70.20711" inkscape:path-effect="#path-effect3744" />
      <path d="M 626.23411,647.50792 C 621.25,661 620.875,675.125 624.875,686.875 c 6.25,-12.75 15,-12.875 17.875,-0.75 8.0367,-15.48287 2.7993,-22.75199 -10.125,-22.25 11.375,-14.25 29.375,-8.625 26,13 9.25,-11.75 18,-21.125 32.47744,-30.53542" fill="none" stroke="#eecfe1" stroke-width="4" />
    </g>
    <g>
      <path d="m 538.42678,430.75 58.92677,19.60355 c 72,49.5 33.35356,138.42678 -22.64644,139.92678 6.5,-65.25 -54.00707,-86.34018 -53.73744,-132.53033 0.14231,-24.37938 6.25,-27 17.45711,-27 z" fill="#ffe398" id="path1307" />
      <path clip-path="url(#clipPath3707)" fill="#e9bf6e" inkscape:original-d="m 626.66588,530.32898 c 5.83208,-6.35364 9.9678,7.58773 2.26522,7.92598 -8.2558,0.36253 -12.66093,-18.66253 2.53881,-17.32145 11.18845,0.98717 9.66237,-18.45657 -2.395,-20.874 -9.50384,-1.90546 -8.03325,12.05186 -1.11471,13.68246 7.0077,1.6516 2.94915,-11.87522 -0.71221,-5.94985" inkscape:path-effect="#path-effect1350-3" />
      <path d="m 520.96967,457.75 c 0.14231,-24.37938 6.25,-27 17.45711,-27 l 58.92677,19.60355 c 72,49.5 33.35356,138.42678 -22.64644,139.92678" fill="none" stroke="#e9bf6e" stroke-width="4" />
    </g>
    <g>
      <path d="m 417.85354,514.7929 c -179.42588,-69.58021 -189.8197,-3.85929 -159.75958,58.42654 34.90477,72.32416 8.25012,100.39366 -49.85101,104.04825 -72.59841,4.56647 -77.04812,23.51687 -16.19544,52.4797 69.20965,32.94033 53.64696,67.34977 2.92462,84.59545 -51.08405,17.36866 -45.19814,81.92855 32.61269,58.50053 78.28175,-23.56981 89.43932,1.99264 81.06728,50.74747 -12.02081,70.00357 60.32525,57.41591 123.74369,15.30635 69.46474,-46.12426 141.69718,-9.18304 113.49063,50.10102 -28.05988,58.97579 -80.98372,37.58009 -81.67083,10.60668 25.44544,19.52381 48.13656,7.04151 49.93681,-11.02089 3.25075,-32.61565 -42.08513,-36.08307 -97.08073,3.18198 C 318.88588,1061.8674 256.63741,1029.2527 200.58011,977.79163 159.30081,939.89687 116.92856,923.48872 50.945436,938.71826 -132.57221,981.07589 -161.41086,891.76837 -62.499998,823.00001 32.269552,757.11092 -202.1416,662.0704 2.146447,618.35356 185.86031,579.03952 18.929192,440.96666 114,384.20713 c 110.79779,-66.14891 215.49999,80.79288 325.99999,86.79288 z" fill="url(#linearGradient1160)" />
      <path d="m 432.39579,938.89719 c -7.17034,4.76108 -14.45481,9.14476 -21.68876,13.07546 47.2371,17.60826 100.361,9.80274 134.99155,-10.73926 -17.27886,-26.61591 -65.93432,-33.78865 -113.30279,-2.3362 z m -3.8596,-445.70628 c -167.57661,-77.95086 -260.87071,-26.28229 -223.82877,54.57268 32.88047,71.77133 -17.55452,88.09621 -75.16043,96.62362 -105.774279,15.65778 -97.054799,49.31887 -54.507885,91.5881 38.737915,38.48509 22.294001,59.02457 -12.778174,70.63225 -86.433769,28.60659 -48.65938,118.50536 129.254099,86.60281 57.76405,-10.35796 95.30723,-5.20328 119.35228,6.81466 0.0564,-32.7337 -18.93758,-46.55523 -83.28249,-27.18166 -77.81083,23.42802 -83.69674,-41.13187 -32.61269,-58.50053 50.72234,-17.24568 66.28503,-51.65512 -2.92462,-84.59545 -60.85268,-28.96283 -56.40297,-47.91323 16.19544,-52.4797 58.10113,-3.65459 84.75578,-31.72409 49.85101,-104.04825 -30.06012,-62.28583 -19.6663,-128.00675 159.75958,-58.42654 z" fill="url(#linearGradient2458)" />
      <path d="m 227.58482,872.84337 c -77.81083,23.42802 -83.69674,-41.13187 -32.61269,-58.50053 50.72234,-17.24568 66.28503,-51.65512 -2.92462,-84.59545 -60.85268,-28.96283 -56.40297,-47.91323 16.19544,-52.4797 58.10113,-3.65459 84.75578,-31.72409 49.85101,-104.04825 -8.23036,-17.05365 -13.42811,-34.36481 -13.06402,-49.1307 -40.70848,41.6058 82.52367,114.96601 -72.24283,135.62995 -110.008861,14.68804 -106.650328,40.30744 -63.84977,78.92083 40.8873,36.8873 22.89213,52.95458 -22.831478,66.57895 -64.614301,19.25328 -47.284794,94.55562 115.953318,72.09241 46.45473,-6.39264 77.48089,-7.74896 101.0175,-3.63204 -10.57566,-11.96773 -33.27061,-13.54784 -75.49186,-0.83547 z" fill="url(#linearGradient1054)" />
      <path d="M 200.58011,977.79163 C 159.3008,939.89688 116.92856,923.48872 50.945436,938.71826 -132.57221,981.07589 -161.41086,891.76837 -62.499998,823.00001 32.269552,757.11092 -202.1416,662.0704 2.146447,618.35356 185.86031,579.03952 18.929191,440.96666 114,384.20713 c 27.65167,-16.5087 54.92368,-19.74514 82.05533,-15.22571 -57.09303,19.2533 -77.06178,58.32959 -58.28725,116.19638 24.54183,75.64273 -17.50144,111.045 -75.453323,119.62362 -106.273894,15.73174 -113.822566,54.87344 -71.275652,116.23455 30.898202,44.56135 27.85035,71.71087 -22.42462,93.21804 -84.987035,36.35668 -55.437555,145.28352 129.546995,105.24925 168.7696,-36.52504 143.31275,102.43234 298.0592,85.80194 -86.26044,51.7713 -143.61665,20.2448 -195.64057,-27.51357 z m 338.81015,22.78017 c -28.93966,44.2809 -74.53721,24.0574 -75.17467,-0.96691 25.44544,19.52381 48.13656,7.04151 49.93681,-11.02089 0.16149,-1.62032 0.20308,-3.1687 0.007,-4.64898 10.15595,5.38878 12.05205,14.3754 25.23116,16.63678 z" fill="url(#linearGradient2460)" />
      <path d="m 417.85354,514.7929 c -179.42588,-69.58021 -189.8197,-3.85929 -159.75958,58.42654 34.90477,72.32416 8.25012,100.39366 -49.85101,104.04825 -72.59841,4.56647 -77.04812,23.51687 -16.19544,52.4797 69.20965,32.94033 53.64696,67.34977 2.92462,84.59545 -51.08405,17.36866 -45.19814,81.92855 32.61269,58.50053 78.28175,-23.56981 89.43932,1.99264 81.06728,50.74747 -12.02081,70.00357 60.32525,57.41591 123.74369,15.30635 69.46474,-46.12426 141.69718,-9.18304 113.49063,50.10102 -28.05988,58.97579 -80.98372,37.58009 -81.67083,10.60668 25.44544,19.52381 48.13656,7.04151 49.93681,-11.02089 3.25075,-32.61565 -42.08513,-36.08307 -97.08073,3.18198 C 318.88588,1061.8674 256.63741,1029.2527 200.58011,977.79163 159.30081,939.89687 116.92856,923.48872 50.945436,938.71826 -132.57221,981.07589 -161.41086,891.76837 -62.499998,823.00001 32.269552,757.11092 -202.1416,662.0704 2.146447,618.35356 185.86031,579.03952 18.929192,440.96666 114,384.20713 c 110.79779,-66.14891 215.49999,80.79288 325.99999,86.79288 z" fill="none" stroke="url(#linearGradient2463)" stroke-width="4" />
      <path d="m 109.21901,581.27089 7.72206,0.96703 -3.91272,-15.30772 5.03248,14.4616 3.50363,-14.9877 -2.26713,15.23838 11.09668,-12.65817 -10.36387,13.71607 8.59353,1.92589 -8.9298,-0.50441 5.38615,17.14204 -6.49304,-15.97207 -5.4722,25.10743 4.22769,-25.46423 -11.55103,12.26832 10.94357,-13.56452 z" fill="#fff" id="path1193" />
      <path d="m 35.92263,622.96501 5.29303,0.66587 -1.68125,-2.66726 2.19806,2.37696 0.9576,-3.28688 -0.33575,3.4019 2.90235,-1.81482 -2.59639,2.38598 4.54771,1.15301 -4.73658,-0.58988 1.32385,2.37419 -1.76222,-2.04971 -1.47468,6.66286 0.88408,-6.6692 -3.78696,2.60461 3.38149,-3.19414 z" fill="#fff" id="path1195" />
      <use transform="translate(74.751035-280.15333)scale(1.607453)" xlink:href="#path1195" />
      <use transform="translate(-95.046839 13.45181)scale(1.362005)" xlink:href="#path1195" />
      <use transform="translate(30.342209 312.2424)scale(.7727023)" xlink:href="#path1193" />
      <use transform="translate(-177.14014 615.50814)scale(.81017169)" xlink:href="#path1138" />
      <use transform="translate(-51.655365 268.05634)scale(.53898839)" xlink:href="#path1138" />
      <path d="m -35.263453,677.63205 5.121477,6.7832 -13.657381,-2.07675 13.495088,2.90105 -10.275233,6.79604 10.873949,-6.08708 -3.850619,24.23463 4.859682,-24.05629 6.992753,7.56159 -6.164493,-8.01832 10.621347,1.16491 -10.459103,-1.98913 5.675692,-3.80979 -6.274418,3.10078 1.222885,-9.33083 -2.231976,9.15253 z" enable-background="new" fill="#fff" fill-rule="evenodd" id="path5758" />
      <use transform="translate(248.23489 50.172014)scale(.74559799)" xlink:href="#path5758" />
    </g>
    <path d="m 613.27881,523.73004 c 8.01843,-63.22108 -19.45795,-91.79311 -20.57712,-129.84857 l 46.68114,-37.65875 C 693.97874,245.16154 523.4981,213.00258 520.5053,317.81909 c -1.47833,51.77548 19.31688,98.14706 13.23046,158.1418 -28.80833,4.64431 -57.23593,-10.29819 -81.63243,-10.29819 -27.0398,0 -46.7797,22.83784 -46.7797,50.08485 0,17.96406 8.4306,36.6848 10.74502,54.0081 -9.14779,-3.39671 -20.82585,-2.40716 -26.91229,2.51993 30.61219,61.85378 30.40914,124.42084 5.50677,165.6536 -11.5121,19.06146 -4.94965,84.49711 29.18243,72.18424 62.96742,-22.71498 42.54691,-130.45572 17.68213,-201.89848 16.08739,-5.73325 29.30594,-18.39429 36.69602,-38.02595 68.56056,43.73438 126.28041,22.72487 135.0551,-46.45895 z" fill="#fef7fb" />
    <g transform="rotate(-7.4271014 4222.8736-3174.2572)scale(5.0023708 5.6176171)">
      <path d="m -1.767767,-2.3334524 c -0.2828427,-0.9899495 -0.7071067,-1.6970563 -1.6970562,-1.1313708 -0.9899495,0.5656854 -1.6263456,-0.4949748 -0.7071068,-0.9899495 -0.9192388,0.070711 -1.2727922,0.9899495 -0.7071068,1.8384776 0.5656854,0.8485281 1.6970563,0.2828427 1.979899,1.979899 M 0.4,-2.9 c 0.5,-0.9 0.7,-1.7 -0.4,-2 -1.1,-0.3 -0.8,-1.5 0.2,-1.2 -0.7,-0.6 -1.6,-0.2 -1.8,0.8 -0.2,1 1,1.4 0,2.8 m 3.9334524,0.732233 C 3.3234019,-2.0506097 4.0305087,-2.4748737 3.4648232,-3.4648232 2.8991378,-4.4547727 3.959798,-5.0911688 4.4547727,-4.17193 4.3840617,-5.0911688 3.4648232,-5.4447222 2.6162951,-4.8790368 1.767767,-4.3133514 2.3334524,-3.1819805 0.6363961,-2.8991378 M 2.9,0.4 c 0.9,0.5 1.7,0.7 2,-0.4 0.3,-1.1 1.5,-0.8 1.2,0.2 0.6,-0.7 0.2,-1.6 -0.8,-1.8 -1,-0.2 -1.4,1 -2.8,0 M 1.767767,2.3334524 C 2.0506097,3.3234019 2.4748737,4.0305087 3.4648232,3.4648232 4.4547727,2.8991378 5.0911688,3.959798 4.17193,4.4547727 5.0911688,4.384062 5.4447222,3.4648232 4.8790368,2.6162951 4.3133514,1.767767 3.1819805,2.3334524 2.8991378,0.6363961 M -0.4,2.9 c -0.5,0.9 -0.7,1.7 0.4,2 1.1,0.3 0.8,1.5 -0.2,1.2 0.7,0.6 1.6,0.2 1.8,-0.8 0.2,-1 -1,-1.4 0,-2.8 M -2.3334524,1.767767 c -0.9899495,0.2828427 -1.6970563,0.7071067 -1.1313708,1.6970562 0.5656854,0.9899495 -0.4949748,1.6263456 -0.9899495,0.7071068 0.070711,0.9192388 0.9899495,1.2727922 1.8384776,0.7071068 0.8485281,-0.5656854 0.2828427,-1.6970563 1.979899,-1.979899 M -2.9,-0.4 c -0.9,-0.5 -1.7,-0.7 -2,0.4 -0.3,1.1 -1.5,0.8 -1.2,-0.2 -0.6,0.7 -0.2,1.6 0.8,1.8 1,0.2 1.4,-1 2.8,0" fill="#fac18a" />
      <circle fill="#fdf5b7" r="2.67" stroke="#fdd68f" />
    </g>
    <path fill="#eecfe1" inkscape:original-d="m 484.93415,530.83188 c -0.12497,50.67666 -25.84016,77.82103 -58.90021,80.68159" inkscape:path-effect="#path-effect3763" />
    <path fill="#eecfe1" inkscape:original-d="m 415.63016,585.76313 c 4.41245,-21.22179 -10.30653,-46.27922 -10.30653,-70.01558 0,-27.24701 19.7399,-50.08485 46.7797,-50.08485 24.3965,0 52.8241,14.9425 81.63243,10.29819 6.08642,-59.99474 -14.70879,-106.36632 -13.23046,-158.1418 2.9928,-104.81651 173.47344,-72.65755 118.87753,38.40363 l -46.68114,37.65875 c 1.11917,38.05546 28.59555,66.62749 20.57712,129.84857 -8.77469,69.18382 -66.49454,90.19333 -135.12934,46.30049" inkscape:path-effect="#path-effect3765" />
    <path d="m 423.84556,810.11342 c -34.13208,12.31287 -40.69453,-53.12278 -29.18243,-72.18424 l 1.31965,-2.24537 c 0.77666,22.55203 14.3922,40.00864 27.12964,53.37108 -2.04962,-21.49722 9.57044,-28.43288 18.22577,-15.1599 2.79289,-18.79899 -3.06371,-25.31524 -12.81371,-17.81524 5.87805,-22.72056 20.11485,-23.71015 26.49873,-6.76561 6.83947,-19.58605 -2.80789,-43.98444 8.03873,-54.98836 7.19374,52.14476 0.97702,101.2882 -39.21638,115.78764 z" fill="#ffefbc" />
    <path d="m 416.19541,569.8369 c -9.27455,-3.47796 -20.95261,-2.48841 -27.03905,2.43868 30.61219,61.85378 30.40914,124.42084 5.50677,165.6536 -11.5121,19.06146 -4.94965,84.49711 29.18243,72.18424 62.96742,-22.71498 42.54691,-130.45572 17.76648,-201.89874 m -45.62926,127.46913 c 0.77666,22.55203 14.3922,40.00864 27.12964,53.37108 -2.04962,-21.49722 9.57044,-28.43288 18.22577,-15.1599 2.79289,-18.79899 -3.06371,-25.31524 -12.81371,-17.81524 5.87805,-22.72056 20.11485,-23.71015 26.49873,-6.76561 6.83947,-19.58605 -2.80789,-43.98444 8.05087,-54.90017" fill="none" stroke="#eecfe1" stroke-width="4" />
    <g>
      <g clip-path="url(#clipPath2064)">
        <path d="m 537.45871,315.82434 c 6.65996,47.17471 24.53085,26.30684 45.62072,43.51173 8.32495,-13.20892 11.76492,-30.52582 1.44198,-47.73071 -14.09691,-6.10496 -26.41683,-4.66096 -47.0627,4.21898 z" fill="#fff" id="path28" />
        <g clip-path="url(#clipPath2048)">
          <ellipse cx="522.51556" cy="386.72079" fill="url(#linearGradient1046)" id="path1213" rx="13.789775" ry="21.961754" transform="rotate(-5.9045213)" />
          <path d="m 563.38953,332.04651 -13.18605,21.34884 -7.92732,-12.40116 z" fill="#d8a0d9" />
          <path d="m 563.38953,332.04651 -22.60465,4.00291 3.53198,10.51745 z" fill="#cb7dd0" />
          <ellipse cx="537.5744" cy="368.16998" rx="10.222226" ry="15.932783" transform="rotate(-3.83215)" />
          <ellipse cx="74.133392" cy="-638.50867" fill="#fff" rx="9.0920315" ry="5.4384971" transform="rotate(-66.47294)scale(-1)" />
          <ellipse cx="22.345194" cy="-651.44452" fill="#fff" rx="3.4345994" ry="1.8808856" transform="rotate(-61.30992)scale(-1)" />
        </g>
      </g>
      <path d="m 559.81935,308.22754 c -9.04612,-2.59049 -14.49405,-8.72025 -15.45284,-17.71711 -1.61616,9.18306 2.33408,16.67941 10.27795,19.70235 m 43.20147,11.55176 c -10.20166,-17.01372 -32.8843,-19.49758 -57.99723,-8.97229 -7.96785,3.33947 -14.49525,3.1477 -22.0987,-0.68178 6.43604,6.67151 14.94244,7.58876 22.78197,4.21802 24.09594,-10.36046 43.26455,-8.4564 57.31396,5.43605 z m -49.73972,-10.55009 c -9.2859,-1.52149 -15.40945,-6.97644 -17.40744,-15.80089 -0.53778,9.30864 4.25696,16.29509 12.49835,18.37416 m 38.82085,-3.24738 c 11.10783,16.89095 8.73649,33.46892 0.59712,46.69455 -3.47392,-3.33353 -11.85267,-6.39986 -19.84926,-7.95349 -12.9506,-2.51614 -20.18124,-7.27468 -23.95407,-33.99302 l -2.68605,0.7064 c 3.47082,29.21922 13.70987,33.69199 26.03256,36.20813 10.73194,2.19132 18.46773,5.21053 20.70869,9.84907 9.62442,-13.80989 13.70941,-32.07128 3.46496,-49.66862 z" />
      <path d="m 636.375,348 c -6.76992,-10.43153 -9.56326,-27.3453 -7,-40.25 4.75888,-5.51777 12.45267,-5.76333 20,-3.375 3.20711,34.04917 -9.642,32.47855 -13,43.625 z" fill="#fff" />
      <g clip-path="url(#clipPath1841)">
        <ellipse cx="336.33707" cy="-630.22919" fill="url(#linearGradient1048)" id="path1665" rx="19.399317" ry="7.6637039" transform="rotate(88.907323)" />
        <path d="m 634.38197,326.78213 8.40033,17.25706 4.13891,-11.3485 z" fill="#d8a0d9" />
        <path d="m 634.38197,326.78213 13.40204,1.76509 -1.83628,8.32634 z" fill="#cb7dd0" />
        <ellipse cx="332.43585" cy="-632.18213" rx="14.6646" ry="5.6969852" transform="rotate(89.286134)" />
        <ellipse cx="634.39655" cy="316.9765" fill="#fff" rx="7.7127953" ry="3.1562095" transform="rotate(-76.995442 634.39656 316.97651)" />
        <ellipse cx="636.93616" cy="325.49338" fill="#fff" rx="2.8482494" ry="1.1165859" transform="rotate(-73.421631 636.93617 325.49337)" />
      </g>
      <path d="m 649.5625,305.625 0.1875,-2.1875 c -12.8125,-4.0625 -24.06067,-0.62944 -24.875,16 3.93933,-15.12944 11.875,-17.1875 24.6875,-13.8125 z m -21.24817,2.68306 c -2.56326,12.9047 0.89612,31.63099 8.47854,42.00002 2.233,-11.58395 17.41607,-11.42236 13.52146,-45.78403 l -1.875,-0.1875 c 3.08211,31.86167 -8.18491,31.98041 -12.16791,41.50186 -6.14492,-11.49403 -7.77035,-26.62565 -5.95709,-38.53035 z" />
      <path d="m 549.64758,374.89763 c 21.15554,24.49019 49.03367,16.40165 76.82102,25.07026 13.45468,-6.42981 21.56928,-16.4772 26.0192,-32.54517 -6.18439,-3.93189 -11.06794,-9.06047 -15.69493,-17.11464 z" fill="#fef7fb" />
      <path fill="#eecfe1" inkscape:original-d="m 549.64758,374.89763 c 21.15554,24.49019 49.03367,16.40165 76.82102,25.07026 13.45468,-6.42981 21.56928,-16.4772 26.0192,-32.54517 -6.18439,-3.93189 -11.06794,-9.06047 -15.69493,-17.11464" inkscape:path-effect="#path-effect1845" />
      <path d="m 609.59557,385.17529 c 9.72235,6.09158 21.09367,7.22382 33.53981,1.84187 l -3.52081,4.53018 c -10.41513,3.2408 -21.91782,2.5489 -30.019,-6.37205 z m 36.65497,-14.57703 c 0.2004,2.8183 -1.15623,3.93054 -3.75211,4.26523 3.51793,2.35376 6.47412,-1.04567 3.75211,-4.26523 z m -21.55133,0.40648 c 0.0564,3.08502 1.78428,4.58282 4.56191,4.24902 -3.76139,3.0053 -6.98754,-0.20723 -4.56191,-4.24902 z" fill="#eecfe1" />
    </g>
    <g>
      <path d="m 564.39645,257.23744 c 24.58362,37.52208 56.72308,55.41636 91.71966,62.98743 0.60931,-24.01453 -9.46696,-48.76327 -27.14463,-64.14284 z" fill="#50cda5" />
      <path fill="#48baa9" id="path3772" inkscape:original-d="M 625.75,296.375 C 611.75,288 598.375,276.75 587.875,261.625" inkscape:path-effect="#path-effect3774" />
      <g>
        <path d="m 522.06239,299.24186 c -22.30585,-53.28703 13.81163,-90.555 17.8007,-90.19484 3.7636,0.3398 13.85089,23.57194 4.21869,58.20689 z" fill="#fef7fb" />
        <path fill="#eecfe1" inkscape:original-d="m 522.06239,299.24186 c -22.30585,-53.28703 13.81163,-90.555 17.8007,-90.19484 3.7636,0.3398 13.85089,23.57194 4.21869,58.20689" inkscape:path-effect="#path-effect829" />
        <path d="m 533.41711,233.93869 c -5.39702,13.20483 -7.62682,26.78044 -6.92711,39.96769 -3.55556,-12.5227 -0.831,-29.1591 6.92711,-39.96769 z" fill="#eecfe1" />
        <path d="m 511.17175,285.81609 c -33.67641,104.4411 32.88557,102.67193 21.11467,48.1878 -5.11483,10.10739 -14.53831,8.55058 -14.19444,-3.33934 0.51246,-17.71966 8.22922,-28.0892 8.42864,-44.35315 z" fill="#44b1ce" stroke="#3d9dc4" stroke-width="4" />
        <path d="m 640.52867,265.87327 c -38.40623,-6.62391 -71.85119,3.32297 -105.09949,21.08188 -11.30943,6.0407 -18.25812,8.3127 -26.96579,2.56586 -17.77103,-11.72843 6.08319,-37.63319 7.97663,-7.12102 17.23792,-3.59236 51.20268,-31.30568 50.44074,-61.11992 -0.62012,-24.2641 2.59623,-28.77829 18.12735,2.57488 1.88451,-34.59926 3.80814,-67.73685 8.4666,-68.70808 3.8002,-0.79229 17.44124,26.19587 30.84976,59.19335 l 8.70146,-21.31122 c 7.55423,14.37847 11.03261,33.18686 8.90139,50.24476 13.12689,-0.0335 11.64052,24.84837 -1.39865,22.59951 z" fill="#ffe398" />
        <g clip-path="url(#clipPath1197)">
          <path d="m 603.64044,208.37784 c -2.23606,10.28227 -4.13774,17.75454 -6.97387,26.21212 5.07974,7.33902 9.09444,14.49482 13.7022,23.27011 3.91424,-8.45619 6.93161,-17.00227 9.10881,-25.47412 -4.55309,-8.13388 -9.34205,-15.70456 -15.83714,-24.00811 z" fill="#9e5db5" id="path934" />
          <path d="m 594.03738,216.94218 15.52277,16.02026 -7.515,-31.12751" style="fill:#de9fe2;stroke:#6e3b7f;stroke-width:1.2;stroke-miterlimit:20" />
          <path d="m 601.85624,249.75052 7.70391,-16.78808 -15.15257,1.88244" style="fill:#be62c8;stroke:#6e3b7f;stroke-width:1.2;stroke-miterlimit:20" />
          <path d="m 619.74385,249.36626 -10.1837,-16.40382 0.88855,27.05273" style="fill:#824997;stroke:#6e3b7f;stroke-width:1.2;stroke-miterlimit:20" />
          <path d="m 624.23865,231.88455 -14.6785,1.07789 5.19318,-21.00615" style="fill:none;stroke:#6e3b7f;stroke-width:1.2;stroke-miterlimit:20" />
          <ellipse cx="314.36166" cy="-570.88928" fill="#c671d0" rx="7.0737963" ry="4.1820154" stroke="#6e3b7f" stroke-width="1.2" transform="rotate(82.079562)" />
        </g>
        <path fill="#e9bf6e" inkscape:original-d="m 508.70773,275.23106 c -3.46128,3.31834 -0.80699,8.98298 7.68207,7.20252 17.28814,-3.62595 51.2529,-31.33927 50.49096,-61.15351 -0.62012,-24.2641 2.59623,-28.77829 18.12735,2.57488 1.88451,-34.59926 3.80814,-67.73685 8.4666,-68.70808 3.8002,-0.79229 17.44124,26.19587 30.84976,59.19335 l 8.70146,-21.31122 c 7.55423,14.37847 11.03261,33.18686 8.90437,50.34702 -2.12824,17.16016 8.38751,15.89005 4.93283,6.92159" inkscape:path-effect="#path-effect942" />
        <path d="m 516.49024,282.36639 c -1.94366,-30.47857 -25.79788,-4.57381 -8.02685,7.15462 8.70767,5.74684 15.65636,3.47484 26.96579,-2.56586 33.2483,-17.75891 66.69326,-27.70579 105.09949,-21.08188 13.03917,2.24886 14.52554,-22.63296 1.39567,-22.70178" style="fill:none;stroke:#e9bf6e;stroke-width:4;stroke-miterlimit:20" />
        <g>
          <path fill="#e9bf6e" inkscape:original-d="m 594.18375,176.41718 c 8.99544,26.01159 4.1348,38.54737 1.27737,38.79454 -2.35965,0.20411 -3.84061,-6.7777 -1.4387,-9.11259" inkscape:path-effect="#path-effect4451" />
          <path fill="#e9bf6e" inkscape:original-d="m 600.20225,176.0192 c 2.96919,23.71794 9.00846,36.40833 12.69385,35.63536 2.31522,-0.48558 2.21284,-5.21727 -0.72472,-8.72308" inkscape:path-effect="#path-effect4455" />
          <path fill="#e9bf6e" inkscape:original-d="m 619.07963,257.68597 c 9.90782,4.25578 15.23411,1.7732 13.39805,-3.16847 -1.96143,-5.27906 -7.31173,-1.84215 -4.49735,1.55026" inkscape:path-effect="#path-effect4465" />
          <path fill="#e9bf6e" inkscape:original-d="m 580.66314,237.05089 c -5.06085,-0.69997 -5.47904,7.69936 0.38713,7.20755 7.25381,-0.60816 2.93617,-14.61845 -4.70648,-12.91419 -11.7387,2.61766 9.25167,28.86876 -5.1931,31.98346 -9.95203,2.14592 -8.68425,-13.61143 0.1521,-7.50154" inkscape:path-effect="#path-effect4415" />
          <path fill="#e9bf6e" inkscape:original-d="m 571.30309,255.82613 c -3.80835,-6.68908 -13.51737,-5.27949 -11.70761,6.33194 0.82909,5.3195 -1.85027,9.67429 -5.25031,10.97161 -6.73732,2.57067 -8.17143,-4.04199 -2.78211,-5.93709" inkscape:path-effect="#path-effect4425" />
          <path fill="#e9bf6e" inkscape:original-d="m 598.26405,259.90229 c -14.9352,3.90169 -20.78611,-4.80963 -16.88541,-9.24564 5.05854,-5.75276 14.54402,5.84822 6.90024,6.39563" inkscape:path-effect="#path-effect4429" />
          <path fill="#e9bf6e" inkscape:original-d="m 599.88948,258.42969 c 0.99448,-14.86402 -7.24428,-21.83121 -10.92636,-17.94812 -4.48481,4.72964 5.85758,14.57684 6.58858,6.41529" inkscape:path-effect="#path-effect4433" />
          <path fill="#e9bf6e" inkscape:original-d="m 551.56291,267.19259 c -3.94351,-0.62555 -6.66107,1.64226 -6.96353,6.44268 -0.21954,3.48435 -2.13791,6.03618 -5.6308,7.61648 -5.29064,2.39365 -6.59656,-1.80233 -2.39385,-2.83235" inkscape:path-effect="#path-effect2654" />
          <path fill="#e9bf6e" inkscape:original-d="m 536.5745,278.41941 c -3.00064,-0.84532 -5.41551,0.94479 -5.84486,3.84772 -0.34666,2.34389 -1.67004,4.07836 -3.95587,4.85081 -2.43529,0.82296 -5.02306,0.0159 -4.34647,-2.93431" inkscape:path-effect="#path-effect4443" />
          <path fill="#e9bf6e" inkscape:original-d="m 522.4273,284.18362 c -2.22155,-0.299 -3.86972,0.67848 -4.49076,2.99625 -0.71374,2.66372 -4.20025,2.84617 -5.19361,0.0655" inkscape:path-effect="#path-effect4447" />
          <path fill="#e9bf6e" inkscape:original-d="m 637.92068,255.76029 c 4.2827,-0.48233 4.10331,4.62506 0.53832,4.11729 -3.36284,-0.47898 -4.10434,-5.88604 -3.76596,-12.76906 0.53422,-10.86722 -5.79317,-9.45897 -6.63806,-4.36822 -0.84609,5.09802 4.05908,6.29341 4.38759,0.46241" inkscape:path-effect="#path-effect4434" />
        </g>
      </g>
      <path d="M 596.24233,281.47382 651.61401,82.327779 c 3.00148,-10.794898 10.31737,-7.253135 8.23894,3.740238 l -40.4875,214.149373" fill="#fef7fb" stroke="#eecfe1" stroke-width="4" />
      <path d="m 647.63467,96.213819 c 4.02547,-1.253823 7.6018,-3.121111 11.35591,-5.690895 m -15.92555,22.868016 c 4.87026,-1.6521 8.88206,-4.22144 13.30612,-7.86663 m -19.56748,29.48067 c 5.46865,-1.81806 10.74936,-4.78643 15.64094,-9.13 m -22.45873,33.38018 c 6.34472,-1.79791 12.64812,-5.26586 18.24713,-10.39257 m -24.66525,34.28891 c 6.8887,-1.48876 13.83476,-4.86981 20.14714,-10.23058 m -27.11429,34.62412 c 7.57268,-0.81068 14.7915,-3.40746 21.95641,-8.72802 m -29.27745,34.95488 c 8.52723,-0.74486 16.72049,-3.95064 24.7052,-10.45196 m -32.22383,37.29321 c 9.40796,0.44279 18.35458,-2.05309 27.04992,-9.93944" fill="none" stroke="#eecfe1" stroke-width="2" />
      <path d="m 625.75,296.375 c -10.75403,-6.43321 -21.13927,-14.56281 -30.13595,-24.84202 L 593,282.3125 l 29.75,23.25 z" fill="#50cda5" />
      <use clip-path="url(#clipPath9478)" xlink:href="#path3772" />
    </g>
    <g>
      <path d="m 543.41279,577.52693 c -27.15697,53.52908 -50.5558,225.47359 -18.05401,292.514 10.50394,21.66615 87.0667,20.47498 77.42567,2.80779 C 543.39337,764.01459 554.2675,663.94481 571.16442,577.11674 Z" fill="#fef7fb" />
      <path d="m 581.39564,826.65629 c -4.31686,1.09884 -6.88234,3.80446 -7.80261,8.57918 3.53197,-2.11919 6.40935,-2.92463 9.8655,-3.32263 5.40267,13.49478 11.80018,27.14497 19.32592,40.93588 9.64103,17.66719 -66.92173,18.85836 -77.42567,-2.80779 -1.10899,-2.28748 -2.1529,-4.6971 -3.28592,-7.13045 8.78575,-1.10916 14.00408,-3.01755 18.55505,-7.34652 -12.71512,-10.04651 -10.04652,-22.44768 7.06395,-17.5814 -6.43604,-8.63372 -14.28489,-8.00582 -19.93605,-0.94187 -16.01162,-29.35465 -0.68605,-36.57558 21.76163,-19.15115 -8.7907,-22.76163 -9.67442,-38.45931 -1.6686,-55.25582 13.65697,15.85465 19.29467,32.36183 20.3935,55.04497 2.37156,-3.73109 4.47885,-6.81539 6.70579,-9.34236 z" fill="#ffefbc" />
      <path fill="#eecfe1" inkscape:original-d="m 543.41279,577.52693 c -27.15697,53.52908 -50.5558,225.47359 -18.05401,292.514 10.50394,21.66615 87.0667,20.47498 77.42567,2.80779 C 543.39337,764.01459 554.2675,663.94481 571.16442,577.11674" inkscape:path-effect="#path-effect882" />
      <path d="m 581.39564,826.65629 c -4.31686,1.09884 -6.88234,3.80446 -7.80261,8.57918 3.53197,-2.11919 6.40935,-2.92463 9.86284,-3.31706 M 521.92074,863 c 8.93787,-1.19868 14.1562,-3.10707 18.70717,-7.43604 -12.71512,-10.04651 -10.04652,-22.44768 7.06395,-17.5814 -6.43604,-8.63372 -14.28489,-8.00582 -19.93605,-0.94187 -16.01162,-29.35465 -0.68605,-36.57558 21.76163,-19.15115 -8.7907,-22.76163 -9.67442,-38.45931 -1.6686,-55.25582 13.65697,15.85465 19.29467,32.36183 20.3935,55.04497 2.37156,-3.73109 4.47885,-6.81539 6.70579,-9.34236" fill="none" stroke="#eecfe1" stroke-width="4" />
    </g>
    <g>
      <path d="m 616.20547,528.83076 7.89077,22.95773 C 613.42807,574.42418 598.53701,582.83263 580.6875,586.75 l 1.96857,2.72136 c -2.6026,0.46247 -5.25571,0.73687 -7.94896,0.80897 6.5,-65.25 -54.00707,-86.34018 -53.73744,-132.53033 0.0231,-3.95127 0.20283,-7.33098 0.5356,-10.2206 4.2309,3.63538 9.43081,1.0323 10.27035,-5.19568 16.74879,29.36282 67.00991,48.99292 84.42985,86.49704 z" fill="#ffe398" />
      <path fill="#e9bf6e" inkscape:original-d="m 531.77562,442.33372 c 16.74879,29.36282 67.00991,48.99292 84.42985,86.49704" inkscape:path-effect="#path-effect1397" />
      <g clip-path="url(#clipPath1344)">
        <path d="m 590.75,552 c 7.26411,-7.42411 12.57481,-14.49133 18.125,-23.5 3.26275,10.19072 5.78192,19.51011 6.78661,28.28661 -4.95364,8.43615 -11.54314,15.51076 -18.41161,22.33839 -1.48366,-9.6624 -3.48429,-18.25809 -6.5,-27.125 z" fill="#9e5db5" id="path1309" />
        <path d="m 585.92636,550.91784 18.38477,4.44714 -16.26345,17.85445" fill="#be62c8" stroke="#6e3b7f" stroke-width="1.2" />
        <path d="m 595.03036,586.38929 9.28077,-31.02431 3.88909,18.64994" fill="#824997" stroke="#6e3b7f" stroke-width="1.2" />
        <path d="m 610.14477,521.0703 -5.83364,34.29468 -7.42462,-22.8042 m 21.59969,24.66035 -14.17507,-1.85615 13.08148,-16.61701" fill="none" stroke="#6e3b7f" stroke-width="1.2" />
        <path d="m 601.25888,525.87056 3.05225,29.49442 1.73176,-31.92304 z" fill="#de9fe2" />
        <ellipse cx="709.48242" cy="411.42761" fill="#c671d0" rx="4.2750783" ry="7.7155561" stroke="#6e3b7f" stroke-width="1.2" transform="rotate(12.460307)" />
      </g>
      <path fill="#e9bf6e" inkscape:original-d="m 589.875,532.375 c -5.99632,-5.91161 -10.73451,6.98267 -2.30178,7.94194 12.08731,1.375 14.53258,-22.18352 -7.125,-15.17677 -19.92654,6.44671 -19.58093,-16.76752 -6.09099,-20 10.00813,-2.39816 12.75971,11.3018 3.58736,13.39819 -10.06132,0.90195 -6.35942,-11.5857 0.33574,-6.14819" inkscape:path-effect="#path-effect1350" />
      <path fill="#e9bf6e" inkscape:original-d="m 563.32299,494.84485 c -5.78706,-3.52297 -7.99156,4.57031 -1.11244,5.92018 6.94362,1.36253 10.1294,-10.78688 -1.85952,-11.57703 -15.56471,-1.02582 -11.51745,18.05634 8.20388,19.09188" inkscape:path-effect="#path-effect1354" />
      <path fill="#e9bf6e" inkscape:original-d="m 547.01049,480.71985 c -4.47456,-2.14797 -6.01938,4.60173 -0.29994,5.23268 7.81862,0.86253 8.01893,-11.14417 -0.99708,-11.39765 -11.4452,-0.32177 -12.15946,21.06782 6.09144,17.6" inkscape:path-effect="#path-effect1362" />
      <path fill="#e9bf6e" inkscape:original-d="m 538.39631,466.87907 c -3.76616,-3.23288 -7.38301,3.00013 -1.89404,4.72675 5.70397,1.79425 8.71345,-7.22953 1.36182,-9.01734 -10.3318,-2.51254 -13.63539,14.39034 0.45367,16.45187" inkscape:path-effect="#path-effect1366" />
      <path fill="#e9bf6e" inkscape:original-d="m 531.89274,456.07236 c -1.88201,-2.02266 -3.96342,0.7533 -2.01677,2.56791 1.9818,1.84738 6.10662,-0.61098 3.92154,-4.48523 -3.93227,-6.97209 -14.36155,2.25006 -3.24265,10.85448" inkscape:path-effect="#path-effect1370" />
      <path d="m 582.65607,589.47136 c -2.6026,0.46247 -5.25571,0.73683 -7.94896,0.80897 6.5,-65.25 -54.00707,-86.34018 -53.73744,-132.53033 0.0231,-3.95127 0.20283,-7.33098 0.5356,-10.2206" fill="none" stroke="#e9bf6e" stroke-width="4" />
    </g>
    <g>
      <path d="m 512.37619,492.5892 c 85.4602,50.00549 59.18891,118.8702 -4.05287,88.99392 -59.43276,-28.07684 -103.89964,-107.81413 -92.31874,-116.63619 7.45202,-5.67677 58.03783,13.27303 98.07156,37.12072 z" fill="#fef7fb" />
      <path fill="#eecfe1" inkscape:original-d="m 512.37619,492.5892 c 85.4602,50.00549 59.18891,118.8702 -4.05287,88.99392 -59.43276,-28.07684 -103.89964,-107.81413 -92.31874,-116.63619 7.45202,-5.67677 58.03783,13.27303 98.07156,37.12072" inkscape:path-effect="#path-effect3228" />
      <path d="m 505.95081,497.20509 c -5.36876,2.29426 -2.33651,8.79206 6.43243,14.45302 -22.38862,0.0106 -19.56271,6.12524 8.49781,26.80595 -28.07598,-6.46816 -30.12555,0.82869 -2.1918,23.25848 -30.01277,-5.56767 -24.88006,6.06992 -4.15858,22.63057" style="fill:none;stroke:#eecfe1;stroke-width:3;stroke-miterlimit:20" />
      <path d="M 499.83721,561.25581 C 469.25308,536.63149 443.36074,509.19209 416.78489,482.1628 m 86.05232,54.09301 c -29.3552,-22.91306 -58.2572,-47.18575 -87.2093,-71.30813 m 89.05232,46.99418 -72.2093,-45.99418" fill="none" stroke="#eecfe1" stroke-width="2" />
    </g>
  </g>
</svg>
