<svg xmlns="http://www.w3.org/2000/svg" xmlns:inkscape="http://www.inkscape.org/namespaces/inkscape" xmlns:sodipodi="http://sodipodi.sourceforge.net/DTD/sodipodi-0.dtd" height="780" viewBox="0 0 630 780" width="630">
  <defs>
    <inkscape:path-effect effect="powerstroke" end_linecap_type="zerowidth" id="path-effect917" interpolator_type="CubicBezierSmooth" offset_points="0.2,2.5 | 4.78,2.5" start_linecap_type="zerowidth" />
    <inkscape:path-effect effect="powerstroke" end_linecap_type="zerowidth" id="path-effect915" interpolator_type="CubicBezierSmooth" offset_points="0.13,2.5 | 5.83,2.5" start_linecap_type="zerowidth" />
    <inkscape:path-effect effect="powerstroke" end_linecap_type="zerowidth" id="path-effect861" interpolator_type="CubicBezierSmooth" offset_points="0.13,2.5 | 1.86,2.5" start_linecap_type="zerowidth" />
  </defs>
  <g inkscape:groupmode="layer" inkscape:label="Drawing">
    <path d="m 285.50324,118.45629 c 46.14229,-27.89588 104.21779,42.6893 70.3485,134.41097 36.5847,31.0779 28.73654,86.4729 -19.10685,121.45591 25.59542,2.96892 28.65407,27.52447 -10.32127,64.80334 15.31124,-1.18824 21.05218,-7.20424 28.54071,-18.5489 -2.81212,65.53645 -71.5936,56.21792 -39.33891,2.4028 -51.91234,14.03168 -75.17395,-52.51075 -37.20054,-73.22337 z" fill="#eb458b" stroke="#bb1c76" stroke-width="5" />
    <path d="m 266.69912,359.49526 c 46.963,-12.27201 78.03542,30.85089 32.99401,65.09569 m 63.02197,-254.88976 c -17.78175,35.9545 -42.52857,59.20285 -81.48464,84.6968" fill="none" stroke="#bb1c76" stroke-width="2.5" />
    <g>
      <path d="m 467.74139,712.20754 c 2.99604,44.3259 78.77924,13.82913 43.75747,-42.34758 0.23605,22.68912 -4.31132,30.46007 -20.71854,36.46942 8.57727,-18.73711 6.3784,-37.1784 -12.77104,-41.30025 5.2632,-33.11675 -24.99489,-57.31709 -53.41431,-45.34146 4.13637,-90.06405 -89.84829,-113.27401 -101.02437,-44.8773 -18.22624,-38.91667 -60.20365,-36.84178 -93.35887,-26.87231 l 10.78261,68.8806 c 5.17966,52.65775 52.43817,82.94208 104.04554,67.25799 12.6973,69.85492 89.1422,68.60047 122.70151,28.13089 z" fill="#eb458b" stroke="#bb1c76" stroke-width="5" />
      <path d="m 443.94162,730.64967 c 0.0915,-34.41298 -20.21447,-45.70198 -45.06256,-43.39285 52.19309,-77.2696 -52.0943,-148.83011 -68.58451,-63.31556 -11.81671,-51.1034 -48.07825,-65.62373 -95.48233,-48.79964" style="stroke-width:2.5;stroke-miterlimit:20;stroke:#bb1c76;fill:none" />
      <path d="m 367.87109,631.95312 c -6.38244,0.58983 -13.31308,5.89778 -17.93554,14.94532 -4.53075,8.86803 -6.80868,21.29852 -4.28711,36.15429 17.45134,-5.59565 28.07461,-17.89019 32.08008,-29.05468 2.03563,-5.67397 2.35368,-11.03518 1.08593,-15.00196 -1.26774,-3.96677 -3.99838,-6.55738 -8.42187,-7.02929 -0.82792,-0.0883 -1.66988,-0.0924 -2.52149,-0.0137 z m 101.74024,32.76758 c -9.36046,-0.36357 -17.68211,2.11362 -23.23633,5.73828 -2.77711,1.81234 -4.85615,3.90976 -6.04688,6.03711 -1.19072,2.12735 -1.50894,4.25035 -0.83984,6.29102 1.04751,3.19478 3.55681,5.11288 6.96094,5.91406 3.40413,0.80118 7.67842,0.40946 11.94726,-1.15429 8.34709,-3.0577 16.58271,-10.55555 18.69532,-21.88086 -2.53928,-0.50349 -5.05257,-0.85101 -7.48047,-0.94532 z" fill="#eb458b" stroke="#bb1c76" stroke-width="3.5" sodipodi:type="inkscape:offset" inkscape:original="M 367.80273 631.20703 C 354.32556 632.45251 339.44022 653.27377 345.03906 684.07617 C 381.42443 673.01823 389.23133 633.22196 370.47266 631.2207 C 369.59317 631.12688 368.70121 631.124 367.80273 631.20703 z M 469.64062 663.9707 C 450.62247 663.23201 435.8135 673.98805 438.77539 683.02148 C 443.3054 696.83745 474.1765 689.14872 478.00977 665.0293 C 475.16057 664.41602 472.3575 664.07623 469.64062 663.9707 z " inkscape:radius="-0.75" />
    </g>
    <path d="m 170.644,360.35964 c -44.78712,-137.49184 -17.34494,-253.00957 44.06333,-335.91453 26.04229,-35.158703 56.11659,37.485109 29.08658,84.30247 -41.94947,72.65861 -56.82572,144.43135 -44.23216,238.4645 z" fill="#f5b7d0" stroke="#e880b0" stroke-width="5" />
    <path d="m 163.19427,194.04522 c -38.09949,-21.97982 -19.54563,-53.58188 6.9422,-51.23362 -12.33996,-30.24727 12.1382,-42.40966 33.31292,-23.51395 -28.59614,-86.326208 123.87963,-72.935144 90.34669,26.68942 z" style="stroke-width:5;stroke-miterlimit:20;stroke:#bb1c76;fill:#eb458b" />
    <path d="m 298.84555,116.73764 c -37.7724,-42.382672 -105.44687,-8.64297 -78.67443,56.51254" style="stroke-width:2.5;stroke-miterlimit:20;stroke:#bb1c76;fill:none" />
    <path d="m 90.669654,130.03282 c 14.411766,51.07187 46.164886,49.77624 38.175666,7.97741 -14.21089,-74.350055 75.78877,-68.778585 117.3128,-0.0626 70.49191,-45.315968 -4.50619,-126.295731 -42.0008,-69.907917 -42.9115,-70.4420854 -147.120149,-42.894244 -89.86772,82.378657 -10.52486,-6.12788 -16.544499,-11.46196 -23.619946,-20.38555 z" style="stroke-width:5;stroke-miterlimit:20;stroke:#bb1c76;fill:#eb458b" />
    <path d="m 213.50915,620.60664 c -5.55956,4.98068 -7.23203,11.56318 -3.89073,15.53426 24.80681,29.4825 41.82522,55.56016 53.24512,101.15098 5.1868,20.70685 94.36244,19.71437 80.80829,-1.4846 -26.46889,-41.39787 -37.0199,-65.02243 -66.59288,-93.92952 28.79074,-20.73143 24.62427,-80.53801 -36.20608,-107.3412 1.2472,-64.46564 13.79207,-79.72576 46.15879,-109.03432 49.29789,-44.64001 18.98012,-77.37839 -11.60497,-101.98406 l -77.67615,-5.87932 c -118.565314,84.11002 -42.9526,122.24342 -58.06235,217.99338 -59.311587,17.30506 -76.576209,84.53559 -49.685108,107.24972 -29.649544,28.95518 -47.744224,51.65016 -74.213121,93.04803 -13.1994261,20.64416 73.373562,22.81936 80.610798,1.69902 15.399301,-44.9396 35.796241,-70.9374 62.087941,-100.13959 3.20181,-3.55625 2.08277,-11.79389 -2.28298,-15.46317 6.31752,-10.42171 14.88941,-18.58904 24.10739,-26.11028 l 13.66502,0.30341 c 7.55212,7.34775 14.64807,15.03763 19.53102,24.38726 z" fill="#f5b7d0" />
    <path fill="#e880b0" inkscape:original-d="m 140.92012,643.68712 c -84.871692,35.82921 -83.440473,-84.06929 -1.23193,-108.05488 15.10975,-95.74996 -60.502964,-133.88336 58.06235,-217.99338 l 77.67615,5.87932 c 30.58509,24.60567 60.90286,57.34405 11.60497,101.98406 -32.36672,29.30856 -44.91159,44.56868 -46.15879,109.03432 85.76057,37.78799 58.89453,141.17437 -13.85803,108.14109" inkscape:path-effect="#path-effect915" />
    <g>
      <path d="m 321.92769,229.26509 c 14.26949,-29.6879 32.02571,-46.97485 40.93722,-44.10769 7.82961,2.51907 27.44935,76.56301 -40.73034,103.9659 z" fill="#f5b7d0" stroke="#e880b0" stroke-width="5" />
      <path d="m 356.57098,212.40217 c -2.29034,20.53198 -6.60713,33.25775 -20.23044,48.1982 16.18121,-10.85304 22.35968,-30.30902 20.23044,-48.1982 z" fill="#e880b0" />
      <path d="m 204.32948,341.96758 c -100.12216,-66.60407 -69.85333,-226.74742 37.90518,-226.74742 99.69237,0 136.77721,150.06242 40.75652,232.67954 z" fill="#f5b7d0" />
      <path d="m 196.25902,307.66418 c -0.35146,-106.92034 15.93633,-164.92175 41.07311,-164.92175 26.66507,0 54.60266,43.05342 56.78469,161.52988 -26.13422,-19.00559 -71.13238,-21.29301 -97.8578,3.39187 z" fill="#bb1c76" />
      <path d="m 225.90269,291.95871 c -21.8766,-78.14616 22.78395,-79.53104 16.74655,-55.31421 -5.58311,22.3946 9.84016,23.81165 5.3448,0.0644 -6.29767,-33.26816 36.00165,-18.69386 14.94547,54.63832 -12.22809,-2.68826 -23.37698,-2.42795 -37.03682,0.61149 z" fill="#841555" />
      <path d="m 244.28678,289.54392 c 9.64526,-18.52479 -5.73658,-11.7369 -7.24138,-19.09687 -3.04339,-14.88521 44.09889,-17.78231 18.41599,19.17695 z" fill="#ef6f2f" />
      <path fill="#e880b0" inkscape:original-d="m 204.32948,341.96758 c -100.12216,-66.60407 -69.85333,-226.74742 37.90518,-226.74742 99.69237,0 136.77721,150.06242 40.75652,232.67954" inkscape:path-effect="#path-effect861" />
      <path d="m 206.79047,128.83213 c 6.93573,-34.614866 63.77561,-34.871543 71.16245,-0.4756 -13.10361,12.76249 -60.56462,10.72879 -71.16245,0.4756 z" fill="#f5b7d0" />
      <path d="m 196.25902,307.66418 c -0.35146,-106.92034 15.93633,-164.92175 41.07311,-164.92175 26.66507,0 54.60266,43.05342 56.78469,161.52988 -26.13422,-19.00559 -71.13238,-21.29301 -97.8578,3.39187 z" fill="none" stroke="#e880b0" stroke-width="5" />
      <path d="m 206.79047,128.83213 c 3.17324,-38.150571 66.54502,-39.359681 71.16245,-0.4756 -12.54502,-31.074073 -60.03548,-30.796897 -71.16245,0.4756 z m 42.6403,-13.62317 c 0.74478,3.39378 -0.36328,5.42918 -3.65298,6.60575 5.14952,1.32688 7.60054,-2.44062 3.65298,-6.60575 z m -26.06496,2.5426 c -0.17493,3.45454 0.92975,5.44393 4.3402,6.176 -4.97758,1.87136 -7.71655,-1.45307 -4.3402,-6.176 z" fill="#e880b0" />
    </g>
    <g>
      <path d="m 272.73274,402.36114 c 52.25323,-62.71565 103.82334,-108.43333 157.61001,-139.48708 67.04198,-38.70671 157.90102,-43.55096 193.65896,-31.63165 24.82621,8.27541 -15.88929,77.98586 -59.57378,71.13428 -47.29658,-7.41811 -97.32699,-6.80288 -108.9857,-0.0717 -56.62957,32.6951 -106.99304,68.45323 -163.34343,113.03599 z" fill="#f5b7d0" />
      <path fill="#e880b0" inkscape:original-d="m 272.73274,402.36114 c 52.25323,-62.71565 103.82334,-108.43333 157.61001,-139.48708 67.04198,-38.70671 157.90102,-43.55096 193.65896,-31.63165 24.82621,8.27541 -15.88929,77.98586 -59.57378,71.13428 -47.29658,-7.41811 -97.32699,-6.80288 -108.9857,-0.0717 -56.62957,32.6951 -106.99304,68.45323 -163.34343,113.03599" inkscape:path-effect="#path-effect917" />
    </g>
    <path d="m 187.47797,596.09169 c 13.38733,9.23935 22.56734,19.39335 31.01222,34.90929 -4.74239,-16.74686 -12.11874,-26.69446 -22.2948,-34.5157 m -16.522,-1.46136 c -13.50426,8.08922 -22.38833,18.13879 -29.03516,37.15582 10.88174,-17.8608 21.52742,-27.71556 37.32973,-36.80951 m -43.83723,5.79812 c 25.26938,-4.16681 53.4934,-3.62082 75.98894,-0.1747 -21.54663,-10.29776 -51.26082,-10.10003 -75.98894,0.1747 z" fill="#e880b0" />
    <path d="m 276.96876,641.89141 c 29.68317,28.89344 40.23418,52.518 66.70307,93.91587 13.55415,21.19897 -75.62149,22.19145 -80.80829,1.4846 -11.4199,-45.59082 -28.43831,-71.66848 -53.24512,-101.15098 -3.3413,-3.97108 -1.66883,-10.55358 3.89073,-15.53426 m -123.472442,22.33706 c -29.68317,28.89344 -47.77785,51.58842 -74.246747,92.98629 -13.1994261,20.64416 73.373562,22.81936 80.610798,1.69902 15.399301,-44.9396 35.796241,-70.9374 62.087941,-100.13959 3.20181,-3.55625 2.08277,-11.79389 -2.28298,-15.46317" fill="none" stroke="#e880b0" stroke-width="5" />
  </g>
</svg>