<svg xmlns="http://www.w3.org/2000/svg" xmlns:inkscape="http://www.inkscape.org/namespaces/inkscape" xmlns:sodipodi="http://sodipodi.sourceforge.net/DTD/sodipodi-0.dtd" xmlns:xlink="http://www.w3.org/1999/xlink" height="897.33331" viewBox="0 0 1540 897.33331" width="1540">
  <defs>
    <linearGradient id="linearGradient6879">
      <stop offset="0" stop-color="#1d89e2" stop-opacity=".25" />
      <stop offset="0.38298684" stop-color="#1d89e2" stop-opacity=".75" />
      <stop offset="0.56863344" stop-color="#1d89e2" stop-opacity=".75" />
      <stop offset="1" stop-color="#1d89e2" stop-opacity=".25" />
    </linearGradient>
    <linearGradient id="linearGradient6592">
      <stop offset="0" stop-color="#fff" stop-opacity=".35" />
      <stop offset="1" stop-color="#fff" stop-opacity="0" />
    </linearGradient>
    <inkscape:path-effect bendpath1="M 0.1719558,0.29093743 H 27.750162" bendpath2="M 29.447788,-0.70114401 C 24.183446,9.2360382 24.453261,20.542853 29.321506,31.288581" bendpath3="M 0.1719558,29.8 H 27.750162" bendpath4="M 7.3798052,-0.46101613 C 1.1612942,9.2895912 -0.36487192,19.856514 5.6532665,31.246499" effect="envelope" id="path-effect6409" yy="false" />
    <inkscape:path-effect effect="powerstroke" id="path-effect5730" interpolator_type="CubicBezierSmooth" offset_points="0.32,4.5 | 1.5,4.5 | 2.8,4.5" start_linecap_type="zerowidth" />
    <inkscape:path-effect effect="powerstroke" id="path-effect5728" interpolator_type="CubicBezierSmooth" offset_points="0.13,4.5 | 0.5,4.5 | 0.8,4.5" start_linecap_type="zerowidth" />
    <inkscape:path-effect effect="powerstroke" end_linecap_type="zerowidth" id="path-effect5712" interpolator_type="CubicBezierSmooth" offset_points="0.23,4.5 | 2.78,4.5" start_linecap_type="zerowidth" />
    <inkscape:path-effect effect="powerstroke" end_linecap_type="zerowidth" id="path-effect5710" interpolator_type="CubicBezierSmooth" offset_points="0.18,4.5 | 1.57,4.5" start_linecap_type="zerowidth" />
    <linearGradient id="linearGradient993">
      <stop offset="0" stop-color="#0c488a" />
      <stop offset="1" stop-color="#1c88e1" />
    </linearGradient>
    <inkscape:path-effect effect="powerstroke" end_linecap_type="zerowidth" id="path-effect970" interpolator_type="CubicBezierSmooth" offset_points="0.19,4.5 | 1.61,4.5" start_linecap_type="zerowidth" />
    <linearGradient gradientUnits="userSpaceOnUse" id="linearGradient995" x1="609.79431" x2="596.86182" y1="550.73651" y2="641.00769" xlink:href="#linearGradient993" />
    <clipPath id="clipPath4431">
      <use xlink:href="#path936" />
    </clipPath>
    <linearGradient gradientTransform="translate(0.21715989,-0.51511318)" gradientUnits="userSpaceOnUse" id="linearGradient4459" x1="903.7851" x2="901.72632" y1="273.3176" y2="359.22327" xlink:href="#linearGradient993" />
    <clipPath id="clipPath5695">
      <use xlink:href="#path956" />
    </clipPath>
    <linearGradient gradientUnits="userSpaceOnUse" id="linearGradient6594" x1="1213.163" x2="1222.4869" y1="533.55206" y2="588.07465" xlink:href="#linearGradient6592" />
    <clipPath id="clipPath6657">
      <path d="m 809.81728,153.67971 c -1.86257,43.76191 79.39808,84.47584 78.47478,35.54449 -0.92317,-48.9313 38.77599,-21.23438 37.39092,-78.9363 -1.38482,-57.702167 -40.16056,-73.397121 -64.16467,-27.235476 -24.00385,46.161656 -49.83846,26.865456 -51.70103,70.627286 z" />
    </clipPath>
    <filter color-interpolation-filters="sRGB" height="1.0746087" id="filter6871" width="1.096096" x="-0.048048014" y="-0.037304339">
      <feGaussianBlur stdDeviation="2.7234044" />
    </filter>
    <linearGradient gradientUnits="userSpaceOnUse" id="linearGradient6881" x1="834.13867" x2="910.6441" y1="192.38068" y2="64.74791" xlink:href="#linearGradient6879" />
    <mask id="mask6887">
      <path d="m 891.83984,46.171875 c -20.94264,1.618707 -33.72786,20.978943 -42.47859,38.012824 -7.74881,15.083571 -23.57029,22.433471 -35.84953,33.098501 -14.0007,12.16019 -16.50456,34.00838 -11.61322,51.15808 7.07218,24.79602 29.6288,43.23255 53.7845,50.96747 14.45671,4.62919 33.22225,1.06457 39.79747,-14.27203 5.54618,-12.93638 -1.99881,-31.0339 11.62413,-39.87699 12.01445,-7.79897 23.81064,-17.83467 26.52026,-32.6794 4.12732,-22.61164 2.33481,-47.51474 -9.40025,-67.590096 -6.6328,-11.346842 -18.78515,-19.869507 -32.38477,-18.818359 z" style="filter:url(#filter6871);stroke-width:30;fill:none;stroke:#fff" />
    </mask>
    <filter color-interpolation-filters="sRGB" height="1.1152314" id="filter7303" width="1.1544801" x="-0.07724003" y="-0.057615716">
      <feGaussianBlur stdDeviation="3.7311009" />
    </filter>
    <clipPath id="clipPath8412">
      <path d="m 1359.2426,409.77696 c 6.2187,-48.48793 44.5209,-30.56066 64.2886,-43.96447 19.7678,-13.4038 38.5736,-27.72182 48.9333,22 10.3596,49.72183 -29.7574,20.42463 -42.9645,45.52082 -13.2071,25.09619 -21.2322,2.48528 -38.9142,12.18198 -17.682,9.6967 -37.5618,12.7496 -31.3432,-35.73833 z" />
    </clipPath>
    <filter color-interpolation-filters="sRGB" height="1.1570321" id="filter11477" width="1.1329652" x="-0.066482596" y="-0.078516063">
      <feGaussianBlur stdDeviation="3.2154424" />
    </filter>
    <filter color-interpolation-filters="sRGB" height="1.0903221" id="filter11570" width="1.0785051" x="-0.039252525" y="-0.045161041">
      <feGaussianBlur stdDeviation="2.2198366" />
    </filter>
    <mask id="mask11650">
      <path d="m 1445.8535,343.4375 c -15.8488,2.55685 -26.1866,17.20908 -42.5011,18.34629 -16.6989,1.164 -35.7217,5.15502 -45.2367,20.64022 -9.6075,15.63564 -10.3098,34.97994 -9.4431,52.82131 0.6606,13.59806 11.2772,26.91867 26.2522,25.78279 9.679,-0.73417 17.3226,-9.06286 26.5381,-7.94413 9.908,1.20279 21.1919,4.33612 28.8904,-3.84014 6.0585,-6.4345 8.755,-17.04583 19.4887,-17.70477 12.0542,-0.74001 27.1502,-3.52993 31.861,-16.62908 5.8246,-16.1961 -0.01,-33.90162 -5.3714,-49.45354 -4.3879,-12.71702 -15.7208,-24.3997 -30.4781,-22.01895 z" style="filter:url(#filter11570);stroke-width:30;fill:none;stroke:#fff" />
    </mask>
  </defs>
  <g inkscape:groupmode="layer" inkscape:label="Drawing">
    <path d="m 439.17991,438.43853 c -42.55024,83.58252 -57.36594,190.19229 -37.95739,302.66799 8.45824,49.01689 -137.04882,52.61169 -136.82718,0.72786 0.42693,-99.93777 21.25953,-187.9989 66.28256,-261.73853 z" fill="#f292af" stroke="#f27097" stroke-width="9" />
    <path d="m 520.21361,467.15367 c 6.05678,95.58297 26.52209,193.85308 65.9473,282.4577 23.55972,52.94834 165.18822,31.11105 135.7184,-6.64299 C 653.74276,655.67809 609.48473,562.57222 578.96388,462.40009 Z" fill="#f292af" stroke="#f27097" stroke-width="9" />
    <g>
      <path d="m 375,316.33331 c -90,-216 -352,-106 -286,322 64.80761,-47.75736 106.63604,-70.69848 166,-95 -35,-209 47,-268 86,-208 z" fill="#62db5e" />
      <path d="M 213.08955,561.70351 C 226.35688,555.42393 240.12818,549.42131 255,543.33331 226.10267,370.77496 276.96169,300.46833 318.03352,315.24706 259.67455,271.72986 169.13968,332.33298 213.08955,561.70351 Z m -86.13797,49.81572 c 15.30947,-10.44147 29.52421,-19.3704 43.40539,-27.42921 C 116.46678,328.5975 247.18325,188.78561 355.22519,327.88337 l 12.40109,-7.27895 C 264.51996,148.9653 65.93901,261.84061 126.95158,611.51923 Z" fill="#c2edb5" />
      <path d="m 375,316.33331 c -90,-216 -352,-106 -286,322 64.80761,-47.75736 106.63604,-70.69848 166,-95 -35,-209 47,-268 86,-208 z" fill="none" stroke="#40b73b" stroke-width="9" />
      <path d="M 318.5411,315.52807 C 259.67455,271.72986 169.13968,332.33298 213.12998,561.65429 M 367.68696,320.72101 C 264.51996,148.9653 65.93901,261.84061 126.89716,611.6448 M 355.3451,328.3158 C 247.18325,188.78561 116.46678,328.5975 170.28582,584.07577" fill="none" stroke="#40b73b" stroke-width="4.5" />
    </g>
    <g>
      <path d="m 634.27478,299.82808 c 24.04164,82.73149 35.7193,177.96909 29.35534,281.20668 116.15292,-44.22804 189.77621,38.64271 277.529,-16.74874 -10.3965,-95.49382 15.5306,-179.74993 21.77875,-254.1601 z" fill="#44d440" />
      <path d="m 790.13117,572.11445 c 10.27817,-88.28427 -16.5061,-180.39192 -13.84925,-268.24474 l 80.6249,5.44365 c -21.12742,86.73759 8.1066,166.23002 -4.75736,273.77165 -21.58277,-2.74684 -42.43224,-6.227 -62.01829,-10.97056 z" fill="#aae698" />
      <path d="M 941.15912,564.28602 C 922.06724,388.92354 1025.4685,251.4577 904.55252,143.26963 848.41176,93.038372 727.26972,97.595542 638.17427,178.91283 l 5.2929,60.81118 c 150.61374,-86.97413 248.09152,-33.90023 274.8219,39.59798 32.38099,89.03521 -16.47793,194.54014 -2.33579,297.77774 9.332,-3.9287 16.26543,-7.17033 25.20584,-12.81371 z" fill="#62db5e" />
      <path d="M 907.48054,146.11236 C 883.80601,148.19744 866.53955,168.44884 866,197.83331 l -48.94852,-26.10247 c -10.57941,-18.77844 -8.49025,-44.48764 6.99881,-60.09763 38.02467,3.08104 60.7691,14.91911 83.43025,34.47915 z" fill="#c2edb5" />
      <path d="m 634.27478,299.82808 c 24.04164,82.73149 35.7193,177.96909 29.35534,281.20668 116.15292,-44.22804 189.77621,38.64271 277.529,-16.74874 C 922.06724,388.92354 1025.4685,251.4577 904.55252,143.26963 848.41176,93.038372 727.26972,97.595542 638.17427,178.91283 l 5.2929,60.81118 c 150.61374,-86.97413 248.09152,-33.90023 274.8219,39.59798 32.38099,89.03521 -16.47793,194.54014 -2.33579,297.77774" fill="none" stroke="#40b73b" stroke-width="9" />
      <path d="m 776.28192,303.86971 c -2.65685,87.85282 24.12742,179.96047 13.84925,268.24474 m 66.77565,-262.80109 c -21.12742,86.73759 8.1066,166.23002 -4.75736,273.77165 M 718.00628,568.52866 c 9.84924,-87.15433 2.30761,-174.31475 -17.60661,-268.24978 M 824.05029,111.63321 c -15.48906,15.60999 -17.57822,41.31919 -6.99881,60.09763 m 90.42906,-25.61848 C 883.80601,148.19744 866.53955,168.44884 866,197.83331 m -119.70711,-26 c -16.03231,-11.46308 -22.063,-31.36172 -13.90488,-48.67061" fill="none" stroke="#40b73b" stroke-width="4.5" />
    </g>
    <path d="m 333.08032,787.34918 c 5.87802,50.47063 -138.73508,51.07032 -136.82718,-0.27214 4.28506,-115.31272 29.55305,-197.27172 80.57545,-266.53142 6.06214,-8.22896 16.52542,-10.8145 26.75109,-9.48278 6.52567,-49.32098 -27.21673,-136.59473 43.99349,-188.85385 93.44335,-68.57536 201.49395,86.60395 273.08361,-6.83939 33.06405,-193.87557 359.40849,-130.55291 272.32742,120.14891 10.94833,4.81333 18.50863,9.81341 13.64304,26.30329 -19.70327,66.77604 -114.13189,106.00092 -252.64631,41.3699 -74.62084,-2.32621 -218.68064,49.26806 -265.93909,-22.34418 -47.52583,75.99137 -72.27803,157.81637 -54.96152,306.50166 z" fill="#f5a9c0" />
    <path fill="#f37da1" inkscape:original-d="m 297.89439,529.82065 c 24.11442,-42.20022 -31.79253,-147.82223 49.67878,-207.61166 93.44334,-68.57537 201.49395,86.60395 273.08361,-6.83939 33.06405,-193.87557 359.40849,-130.55291 272.3233,120.1283" inkscape:path-effect="#path-effect5730" />
    <path d="m 845.03033,472.01009 c 7.21599,19.35418 19.37626,25.80698 42.18934,23.75 l -8.25,8.5 c -20.73097,-1.35355 -32.23223,-11.27145 -33.93934,-32.25 z m 34.04289,-20.94195 c 0.46339,7.08839 4.58839,8.44823 10.58839,4.57323 -5.82322,10.48483 -14.85983,6.68306 -10.58839,-4.57323 z" fill="#f37da1" />
    <g>
      <g clip-path="url(#clipPath4431)">
        <ellipse cx="517.42834" cy="662.64484" fill="#fff" id="path936" rx="68.393097" ry="84.702209" transform="rotate(-25.353552)" />
        <g>
          <ellipse cx="622.74622" cy="600.85455" fill="url(#linearGradient995)" rx="50.631569" ry="61.973946" transform="rotate(-18.324003)" />
          <ellipse cx="627.92999" cy="602.08197" rx="41.370296" ry="50.637989" transform="rotate(-18.324003)" />
          <ellipse cx="832.94177" cy="57.001221" fill="#fff" rx="16.570251" ry="25.88945" transform="rotate(21.109782)" />
          <ellipse cx="863.55054" cy="46.9189" fill="#fff" rx="6.4115629" ry="9.9489336" transform="rotate(23.160069)" />
        </g>
      </g>
      <path d="m 695.2123,314.88792 c -9.82531,-6.18552 -14.68132,-18.68551 -14.51724,-31.07259 -5.37821,14.86612 -2.42055,26.12213 9.78824,36.27931 z m -14.70285,36.74568 c 13.33907,-52.20512 55.47709,-63.00857 89.99187,-45.54706 33.14208,16.76705 59.25523,59.59548 46.09237,116.85446 22.84039,-53.84697 -5.99548,-104.59142 -43.43798,-122.92567 -36.01888,-17.63716 -80.6567,-8.55363 -97.4606,43.8986 -10.14181,-2.08646 -18.96871,-8.97554 -24.91478,-19.94306 2.63756,16.79873 11.71255,25.28992 29.72912,27.66273 z m 4.71214,-22.83366 c -10.55208,-4.16924 -18.8286,-14.30038 -21.65553,-27.24707 -1.80806,16.00659 3.9297,26.35564 18.77277,33.40584 z" />
    </g>
    <g>
      <path d="m 900.00166,309.84747 1.48614,6.09094 c 12.01256,-0.52353 19.72352,-6.32652 22.75441,-16.69732 -5.98934,7.18463 -13.11769,11.09158 -24.24055,10.60638 z m 2.94457,15.22478 0.55102,6.07737 c 12.78347,0.8753 21.80934,-3.32083 25.11014,-13.97135 -6.50861,7.62537 -15.32708,9.46472 -25.66116,7.89398 z" />
      <g clip-path="url(#clipPath5695)">
        <path d="m 865.18059,419.01432 c -11.53633,-63.88205 4.70594,-104.51467 34.86279,-119.27723 15.38478,45.17945 9.72435,93.26926 -5.63909,135.40575 -10.50683,-2.12266 -22.65272,-8.47581 -29.2237,-16.12852 z" fill="#fff" id="path956" />
        <g transform="translate(4)">
          <ellipse cx="896.09961" cy="314.07104" fill="url(#linearGradient4459)" rx="21.015079" ry="53.270771" transform="rotate(3.7058797)" />
          <ellipse cx="892.82416" cy="314.08481" rx="17.704473" ry="44.878834" transform="rotate(3.7058797)" />
          <ellipse cx="937.25781" cy="128.90819" fill="#fff" rx="8.4581995" ry="21.293844" transform="rotate(14.096814)" />
          <ellipse cx="956.50574" cy="94.234344" fill="#fff" rx="3.1519024" ry="7.7833943" transform="rotate(17.655135)" />
        </g>
      </g>
      <path d="m 865.53414,419.1911 c -18.30779,-63.34947 4.25617,-111.42123 32.37243,-124.78834 8.58145,-4.07982 14.04948,-8.25088 18.47436,-15.63177 -0.65952,9.74572 -6.6758,16.22919 -16.33755,20.9661 -26.80739,13.14298 -44.63726,56.47039 -34.50924,119.45401 z" />
    </g>
    <path fill="#f37da1" inkscape:original-d="m 373.76624,396.45926 c -19.56435,195.00055 204.51813,95.86165 292.01871,108.05061" inkscape:path-effect="#path-effect5728" />
    <path d="m 642.76006,497.28765 31.1127,13.43503 -0.35355,-12.37437 z" fill="#f5a9c0" />
    <path fill="#f37da1" inkscape:original-d="m 628.99852,490.25629 c 152.10039,82.09668 256.76359,42.27923 277.62872,-28.43449 8.70822,-29.51289 -22.38656,-22.22129 -41.44665,-42.80748" inkscape:path-effect="#path-effect5710" />
    <path d="m 388.07027,480.60363 c -47.55426,76.23526 -72.30646,158.06026 -54.98995,306.74555 5.87802,50.47063 -138.73508,51.07032 -136.82718,-0.27214 4.28506,-115.31272 29.55305,-197.27172 80.57545,-266.53142 6.06214,-8.22896 16.52542,-10.8145 26.69869,-9.49574" fill="none" stroke="#f37da1" stroke-width="9" />
    <g>
      <path d="m 486.57757,488.93184 c -3.01429,103.23983 7.62869,209.93278 44.5539,307.144 19.73119,51.94536 163.16459,34.41182 135.7184,-6.64299 C 601.54176,691.74305 563.41366,589.67882 545.32784,484.17826" fill="#f5a9c0" />
      <path fill="#f37da1" inkscape:original-d="m 486.57757,488.93184 c -3.01429,103.23983 7.62869,209.93278 44.5539,307.144 19.73119,51.94536 163.16459,34.41182 135.7184,-6.64299 C 601.54176,691.74305 563.41366,589.67882 545.32784,484.17826" inkscape:path-effect="#path-effect5712" />
    </g>
    <g transform="matrix(1.5827394.4387641-.92354094 3.4564706 332.60603 331.2744)" inkscape:path-effect="#path-effect6409">
      <path fill="#3f1e9c" inkscape:original-d="M 24.8,14.1 C 23.5,11.2 21,9.7 18.2,8.5 14,6.7 13.1,3.1 16.9,0.3 9,0 3.2,7.2 3.5,14.2 2.4,13.7 2,13 1.6,11.4 c -4.5,9.4 2.2,18.4 12.2,18.4 9.8,0 18.2,-11.3 11.6,-18.7 0.2,1.3 0,2.3 -0.6,3 z" />
      <path fill="#0d649b" inkscape:original-d="M 12.5,3.3 C 10,11.7 23,11.3 23,19.6 23,30.9 4.7,29.7 4.7,21.4 4.7,13.4 12.4,14 11.8,9.8 11.4,7 9.3,6.3 12.5,3.3 Z" />
      <path fill="#05c0c2" inkscape:original-d="m 16.2,13.1 c -0.9,-0.6 -2.1,0.2 -1.8,0.8 0.2,0.4 1.4,0 1.8,-0.8 z m 3,7.9 c 0,-4.9 -7.9,-2.2 -5.7,-6.4 -3.5,-0.3 -5.7,3.7 -5.7,6.6 0,6 11.4,6.2 11.4,-0.2 z" />
    </g>
    <g>
      <path d="m 627.06157,185.17628 c -89.80255,74.24622 -51.13351,219.28279 -110.53047,316.86353 39.95153,16.26345 71.449,50.82159 90.89444,96.42998 51.61879,-100.40917 -7.35533,-198.43356 19.51472,-299.54982 z" fill="#62db5e" />
      <path d="m 626.81573,251.68641 c -57.16924,71.71363 -3.91526,216.43499 -37.20968,313.17528 -11.17239,-16.48917 -22.84479,-30.47833 -38.17139,-42.464 32.24657,-92.49788 8.9027,-214.01574 75.1473,-304.25421 z" fill="#c2edb5" />
      <path d="m 627.06157,185.17628 c -89.80255,74.24622 -51.13351,219.28279 -110.53047,316.86353 39.95153,16.26345 71.449,50.82159 90.89444,96.42998 51.61879,-100.40917 -7.35533,-198.43356 19.51472,-299.54982 z" fill="none" stroke="#40b73b" stroke-width="9" />
      <path d="m 551.43466,522.39769 c 32.24657,-92.49788 8.9027,-214.01574 75.1473,-304.25421 m 0.23377,33.54293 c -57.16924,71.71363 -3.91526,216.43499 -37.20968,313.17528" fill="none" stroke="#40b73b" stroke-width="4.5" />
    </g>
    <g>
      <path d="M 780.71268,228.0828 C 928.39262,34.833303 928.81406,35.212807 831.89067,272.05661 Z" fill="#f5a9c0" stroke="#f37da1" stroke-width="9" />
      <path d="m 857.24444,129.21934 c 11.44453,0.0243 22.30949,-1.71137 33.05393,-5.18881 m -65.46669,46.79525 c 17.04514,2.87096 33.03382,1.7752 49.42441,-3.0764 m -78.58344,41.11034 c 20.63364,7.31787 39.90191,8.5521 60.37606,4.33684" fill="none" stroke="#f37da1" stroke-width="4.5" />
    </g>
    <g>
      <path d="m 684.5,223.83331 c 86.43934,77.59619 182.31802,22.37868 246,95 C 942.7132,187.59498 810.14035,99.672148 670.5,192.47976 Z" fill="#62db5e" />
      <path d="m 858.34297,279.7003 c -12.3441,-31.83027 -5.14669,-75.35327 18.83036,-94.71195 -16.59088,-13.78027 -35.26574,-21.30862 -54.66953,-26.65016 -30.27572,23.56205 -39.4379,74.26963 -21.51901,113.38757 19.11939,1.02723 38.23879,4.13419 57.35818,7.97454 z" fill="#c2edb5" fill-rule="evenodd" />
      <path d="m 684.5,223.83331 c 86.43934,77.59619 182.31802,22.37868 246,95 C 942.7132,187.59498 810.14035,99.672148 670.5,192.47976 Z" fill="none" stroke="#40b73b" stroke-width="9" />
      <path d="m 877.17333,184.98835 c -23.97705,19.35868 -31.17446,62.88168 -18.83036,94.71195 M 822.5038,158.33819 c -30.27572,23.56205 -39.4379,74.26963 -21.51901,113.38757 M 754.53177,156.91208 c -23.19896,25.78728 -27.24222,67.68441 -12.71605,101.64312" fill="none" stroke="#40b73b" stroke-width="4.5" />
    </g>
    <g>
      <path d="m 628.23989,351.41646 c -60.74585,-99.6445 -7.46002,-206.07759 11.72288,-206.61044 17.8771,-0.49658 56.35155,48.49009 57.95012,98.04591" fill="#f5a9c0" />
      <path fill="#f37da1" inkscape:original-d="m 628.23989,351.41646 c -60.74585,-99.6445 -7.46002,-206.07759 11.72288,-206.61044 17.8771,-0.49658 56.35155,48.49009 57.95012,98.04591" inkscape:path-effect="#path-effect970" />
      <path d="m 639.34775,205.8472 c -12.63807,25.00188 -11.95056,59.73597 0.88145,84.56055 -7.52467,-27.83793 -7.81415,-58.52528 -0.88145,-84.56055 z" fill="#f37da1" />
    </g>
    <path d="m 1090,347.83331 c -7.9944,-56.03971 183,-42.5 183,-0.5 0,33.86001 -23.8328,-10.78789 -47,2 -27.0323,14.92133 -131.7076,28.58931 -136,-1.5 z" style="stroke-width:4.5;fill:#fff;stroke:#e6e6e6;stroke-linejoin:round" />
    <path d="m 1145.1594,332.355 c 11.1941,-19.19272 64.579,-17.98047 64.579,2.47487 0,9.19426 -70.8285,8.2402 -64.579,-2.47487 z" fill="#ffe42f" stroke="#f4d500" stroke-width="4.5" />
    <g>
      <path d="m 1313.3399,469.76594 c 31.1127,-50.91168 77.8927,-76.95333 126.3295,-92.15611 13.0208,-4.08679 21.0595,24.17863 5.6672,29.22361 -48.5946,15.92736 -81.3172,30.4056 -125.8649,68.94291 z" fill="#1fdeb1" stroke="#13bd96" stroke-width="4.5" />
      <path d="m 1078.9236,528.68804 c -7.2576,-27.08604 238.3808,-87.61016 245.1234,-63.15433 3.1786,11.52901 -51.6248,48.48653 -108.207,63.70752 -65.2479,17.55213 -133.5343,12.06919 -136.9164,-0.55319 z" fill="#313131" stroke="#3f3f3f" stroke-width="4.5" />
      <path d="m 1125.5,536.08331 c 46.75,-26.75 110.25,-42 159.25,-39.75 -38.25,27.5 -101.5,44.75 -159.25,39.75 z" fill="#2c2c2c" />
      <path d="m 1324.047,465.53371 c 2.219,8.04832 -9.5346,39.19565 -38.1313,52.25884 -43.0193,19.65156 -89.8438,31.93621 -148.7399,38.54284 -21.7512,2.43993 -56.8714,-22.34087 -58.2522,-27.64735 6.3031,23.52325 251.9826,-38.2756 245.1234,-63.15433" fill="#515151" stroke="#3f3f3f" stroke-width="4.5" />
      <path d="m 1279.8536,535.58331 c 10.7374,-14 10.1065,-30.11827 1,-42.71967 -2.1005,20.60355 -23.5732,22.16142 -16.8536,48.21967 -10.3237,-9.65488 -4.8515,-12.05686 -5.7117,-21.42424 -0.8568,-9.33071 -10.4286,-12.01951 -10.376,-22.85183 -9.4871,18.99261 3.4033,26.93205 -1.6366,45.73524 -3.4365,12.82106 -12.3189,-0.909 -8.6066,-16.46535 -17.3241,6.0104 -10.4853,24.59709 -29.9307,29.0165 0,0 18.617,-22.11091 -0.8284,-44.73833 0.5303,31.81981 -21.7704,8.37682 -20.7384,35.89949 0.8712,23.23132 -26.2318,6.35966 -5.0186,-21.39429 -13.2583,0.53034 -29.9831,20.51042 -29.6296,36.24354 -13.0815,-18.73834 -21.7864,0.59619 -39.4446,-14.88321 26.9702,100.20478 74.1784,31.18587 119.9212,34.61248 78.4206,5.87451 86.75,-42.25 71.5,-83.75 -3.5858,17.38388 -9.2981,28.10355 -23.6464,38.5 z" fill="#007fb4" />
      <path d="m 1229.735,573.65518 c 52.2972,3.29021 74.4021,-15.50089 72.9879,-49.26524 -6.7175,11.49049 -17.0814,18.08668 -30.3397,18.79379 8.8389,-12.55115 11.7226,-25.56675 9.2478,-39.00179 -0.3536,7.07107 -4.2934,13.12547 -9.9549,18.97056 -10.1475,10.47658 3.3815,28.56289 -9.1369,27.21994 -13.9964,-1.50151 -1.4053,-28.92919 -14.319,-35.40712 4.9535,14.74785 4.8729,30.62526 -2.6516,43.84062 -9.3352,-4.73008 -13.4654,-11.46536 -12.5511,-19.97577 -7.955,3.71232 -17.7219,25.5034 -28.7383,20.74874 -7.2617,-3.13412 11.4141,-14.56155 6.1108,-35.4212 -2.8284,13.43503 -20.0396,8.32238 -17.3241,20.68287 6.714,30.56081 -33.7002,29.46172 -24.4507,-2.82843 -10.4297,7.24785 -14.617,19.44544 -9.3136,34.11791 -12.9047,-4.24265 -11.5459,-21.44544 -34.527,-17.9099 17.7806,72.43478 62.4076,12.75787 104.9604,15.43502 z" fill="url(#linearGradient6594)" />
    </g>
    <g>
      <path d="m 1445.8535,343.4375 c -15.8488,2.55685 -26.1866,17.20908 -42.5011,18.34629 -16.6989,1.164 -35.7217,5.15502 -45.2367,20.64022 -9.6075,15.63564 -10.3098,34.97994 -9.4431,52.82131 0.6606,13.59806 11.2772,26.91867 26.2522,25.78279 9.679,-0.73417 17.3226,-9.06286 26.5381,-7.94413 9.908,1.20279 21.1919,4.33612 28.8904,-3.84014 6.0585,-6.4345 8.755,-17.04583 19.4887,-17.70477 12.0542,-0.74001 27.1502,-3.52993 31.861,-16.62908 5.8246,-16.1961 -0.01,-33.90162 -5.3714,-49.45354 -4.3879,-12.71702 -15.7208,-24.3997 -30.4781,-22.01895 z" fill="#1d89e2" fill-opacity=".25" mask="url(#mask11650)" />
      <path d="m 1359.2426,409.77696 c 6.2187,-48.48793 44.5209,-30.56066 64.2886,-43.96447 19.7678,-13.4038 38.5736,-27.72182 48.9333,22 10.3596,49.72183 -29.7574,20.42463 -42.9645,45.52082 -13.2071,25.09619 -21.2322,2.48528 -38.9142,12.18198 -17.682,9.6967 -37.5618,12.7496 -31.3432,-35.73833 z" style="clip-path:url(#clipPath8412);filter:url(#filter11477);stroke-width:13;fill:#1d89e2;stroke:#1d89e2;fill-opacity:.124" />
      <use transform="rotate(259.48782 1009.8465-290.90911)scale(.2792038)" inkscape:spray-origin="#path7307" xlink:href="#path7307" />
      <use transform="rotate(18.873196-297.79782 3466.3111)scale(.32144081)" inkscape:spray-origin="#path7307" xlink:href="#path7307" />
      <use transform="rotate(102.91534 762.82584 614.74589)scale(.49623841)" inkscape:spray-origin="#path7307" xlink:href="#path7307" />
      <use transform="rotate(215.55529 902.44145 16.479463)scale(.28476285)" inkscape:spray-origin="#path7307" xlink:href="#path7307" />
      <use transform="rotate(251.00121 1007.8914-186.11136)scale(.38957544)" inkscape:spray-origin="#path7307" xlink:href="#path7307" />
      <use transform="rotate(146.99141 939.73421 354.91523)scale(.66401314)" inkscape:spray-origin="#path7307" xlink:href="#path7307" />
      <use transform="rotate(326.00121 1469.1497-1465.2143)scale(.4197123)" inkscape:spray-origin="#path7307" xlink:href="#path7307" />
      <use transform="rotate(126.10508 820.15802 503.48923)scale(.45543541)" inkscape:spray-origin="#path7307" xlink:href="#path7307" />
      <use transform="rotate(102.91532 834.70115 635.46025)scale(.53646887)" inkscape:spray-origin="#path7307" xlink:href="#path7307" />
    </g>
    <g>
      <path d="m 891.83984,46.171875 c -20.94264,1.618707 -33.72786,20.978943 -42.47859,38.012824 -7.74881,15.083571 -23.57029,22.433471 -35.84953,33.098501 -14.0007,12.16019 -16.50456,34.00838 -11.61322,51.15808 7.07218,24.79602 29.6288,43.23255 53.7845,50.96747 14.45671,4.62919 33.22225,1.06457 39.79747,-14.27203 5.54618,-12.93638 -1.99881,-31.0339 11.62413,-39.87699 12.01445,-7.79897 23.81064,-17.83467 26.52026,-32.6794 4.12732,-22.61164 2.33481,-47.51474 -9.40025,-67.590096 -6.6328,-11.346842 -18.78515,-19.869507 -32.38477,-18.818359 z" fill="url(#linearGradient6881)" mask="url(#mask6887)" />
      <path d="m 809.81728,153.67971 c -1.86257,43.76191 79.39808,84.47584 78.47478,35.54449 -0.92317,-48.9313 38.77599,-21.23438 37.39092,-78.9363 -1.38482,-57.702167 -40.16056,-73.397121 -64.16467,-27.235476 -24.00385,46.161656 -49.83846,26.865456 -51.70103,70.627286 z" style="clip-path:url(#clipPath6657);filter:url(#filter7303);stroke-width:14;fill:#1d89e2;stroke:#1d89e2;fill-opacity:.25" />
      <path fill="#fff" id="path7307" transform="rotate(334.27746 815.39342-119.25929)scale(.94632379)" sodipodi:arg1="1.6628432" sodipodi:arg2="2.4482414" sodipodi:cx="814.92328" sodipodi:cy="140.13969" sodipodi:r1="14.912366" sodipodi:r2="1.8640457" sodipodi:sides="4" sodipodi:type="star" />
      <use transform="rotate(139.48782 660.82507 147.19262)scale(.48190202)" inkscape:spray-origin="#path7307" xlink:href="#path7307" />
      <use transform="rotate(45.402159 444.48734 792.11333)scale(.34484999)" inkscape:spray-origin="#path7307" xlink:href="#path7307" />
      <use transform="rotate(321.10508 674.54736-705.45829)scale(.33896392)" inkscape:spray-origin="#path7307" xlink:href="#path7307" />
      <use transform="rotate(342.91534 769.10654-1284.276)scale(.57180271)" inkscape:spray-origin="#path7307" xlink:href="#path7307" />
      <use transform="rotate(200.55528 581.13696 63.943487)scale(.3214621)" inkscape:spray-origin="#path7307" xlink:href="#path7307" />
      <use transform="rotate(271.91203 850.63083 72.905978)scale(.81533929)" inkscape:spray-origin="#path7307" xlink:href="#path7307" />
      <use transform="rotate(176.00121 632.3728 108.74822)scale(.41082206)" inkscape:spray-origin="#path7307" xlink:href="#path7307" />
      <use transform="rotate(131.99142 582.49954 215.00505)scale(.44854508)" inkscape:spray-origin="#path7307" xlink:href="#path7307" />
      <use transform="rotate(206.0012 694.05558 35.903884)scale(.55374509)" inkscape:spray-origin="#path7307" xlink:href="#path7307" />
    </g>
    <path d="m 1234.661,376.04754 c -1.6956,15.63669 -2.2608,30.8966 -0.9421,46.72168 2.2607,-15.82508 2.6375,-30.89659 0.9421,-46.72168 z m 17.7089,8.78218 c -3.0142,19.59296 -3.8839,41.25825 -3.3187,63.30034 3.7679,-21.4769 4.8259,-43.33059 3.3187,-63.30034 z m -128.0354,6.97057 c -0.5653,13.18758 0.6812,25.99835 4.0723,38.43235 0,-13.18757 -1.058,-25.62157 -4.0723,-38.43235 z m -5.9964,75.24998 c -5.0756,-25.27845 -7.6197,-46.68326 -8.2629,-70.3373 4.9273,23.05235 7.7568,44.57075 8.2629,70.3373 z" fill="#e6e6e6" />
  </g>
</svg>