<svg xmlns="http://www.w3.org/2000/svg" xmlns:inkscape="http://www.inkscape.org/namespaces/inkscape" xmlns:xlink="http://www.w3.org/1999/xlink" height="1000" viewBox="0 0 1000 1000" width="1000">
  <defs>
    <inkscape:path-effect effect="powerstroke" end_linecap_type="zerowidth" id="path-effect4472" interpolator_type="CubicBezierSmooth" offset_points="0.29,4 | 3.91,4" start_linecap_type="zerowidth" />
    <inkscape:path-effect effect="powerstroke" end_linecap_type="zerowidth" id="path-effect4464" interpolator_type="CubicBezierSmooth" offset_points="0.3,4 | 3.76,4" start_linecap_type="zerowidth" />
    <inkscape:path-effect effect="powerstroke" end_linecap_type="zerowidth" id="path-effect4322" interpolator_type="CubicBezierSmooth" offset_points="0.2872938,4 | 4.7,4" start_linecap_type="zerowidth" />
    <linearGradient id="linearGradient5745">
      <stop offset="0" stop-color="#570a0a" />
      <stop offset="1" stop-color="#b91616" />
    </linearGradient>
    <inkscape:path-effect effect="powerstroke" end_linecap_type="zerowidth" id="path-effect4437" interpolator_type="CubicBezierSmooth" offset_points="0.26,4 | 2.72,4" start_linecap_type="zerowidth" />
    <inkscape:path-effect effect="powerstroke" end_linecap_type="zerowidth" id="path-effect5090" interpolator_type="CubicBezierSmooth" offset_points="0.2,4 | 1.65,4" start_linecap_type="zerowidth" />
    <linearGradient gradientUnits="userSpaceOnUse" id="linearGradient5747" x1="344.93488" x2="426.41452" y1="-687.90173" y2="-688.22888" xlink:href="#linearGradient5745" />
    <clipPath id="clipPath5759">
      <use xlink:href="#path5633" />
    </clipPath>
    <clipPath id="clipPath5775">
      <use xlink:href="#path5451" />
    </clipPath>
  </defs>
  <g>
    <path d="m 629.70761,606.52439 c 3.63292,93.72186 14.23612,174.11823 41.30603,253.4539 8.72536,25.572 133.72184,24.8344 118.50552,-1.47753 -43.58775,-75.3716 -86.01867,-171.57995 -104.67428,-256.57783 z" fill="#e4eabb" stroke="#d1ba81" stroke-width="8" />
    <path d="m 650.57269,798.59974 c 40.80656,6.29525 73.21499,3.36122 105.02655,-9.09999 5.66876,11.39842 10.31932,21.72679 17.59843,33.96946 -36.67773,12.97829 -73.96804,15.79563 -114.65679,9.56042 -3.01472,-10.92787 -5.88993,-23.0033 -7.96819,-34.42989 z" fill="#e7bb40" />
    <path d="m 676.75923,801.51997 2.67601,34.2941 18.00937,0.61919 -8.01427,-34.76086 z" fill="#f2f271" />
    <path d="m 650.57269,798.59974 c 40.80656,6.29525 73.21499,3.36122 105.02655,-9.09999 5.66876,11.39842 10.31932,21.72679 17.59843,33.96946 -36.67773,12.97829 -73.96804,15.79563 -114.65679,9.56042 -3.01472,-10.92787 -5.88993,-23.0033 -7.96819,-34.42989 z" fill="none" stroke="#887138" stroke-width="4" />
  </g>
  <g>
    <path d="m 564.62768,515.2975 c 56.94699,69.16419 7.14288,140.39858 -54.6634,89.79043 -46.87885,-38.38539 -98.21318,-133.78173 -80.05983,-152.6004 10.13237,-10.50381 61.26409,14.11348 109.99925,48.63773 z" style="stroke-miterlimit:20;fill:#e4eabb;stroke:#d1ba81;stroke-width:8" />
    <path d="m 527.28966,492.0797 c -4.68048,5.50041 -2.52657,10.81699 7.2614,18.75387 -29.0555,-2.61208 -21.35949,16.48466 3.54258,35.32282 -35.73963,-6.5415 -24.00682,15.93027 -5.84141,32.40649 -11.00455,-2.73334 -31.79756,2.82962 -16.73454,30.90841" style="stroke-miterlimit:20;fill:none;stroke:#d1ba81;stroke-width:6" />
    <path d="m 512.27564,582.63644 -84.81066,-106.7919 m 92.237,70.39725 -89.30254,-95.29161 m 93.6551,59.87717 -63.04929,-55.126" style="stroke-miterlimit:20;fill:none;stroke:#d1ba81;stroke-width:4" />
  </g>
  <circle cx="719.06677" cy="772.93756" fill="#f3aa39" id="circle4328" opacity=".1" r="122.48563" />
  <path d="m 622.57105,828.68361 c -207.93951,70.11798 -391.49339,12.21961 -376.24586,-132.17311 18.3465,-173.73968 -209.750495,-152.75874 -153.136439,-382.47375 53.770759,-218.178145 328.462139,-258.278463 284.197869,24.56018 -8.77208,56.0516 1.47113,97.3291 33.34814,116.32639 60.52834,36.07223 119.40748,40.06199 173.45641,14.5163 17.90228,-116.19589 106.20131,-136.31488 128.34525,-67.46485 -10.13931,36.39461 -11.10383,71.79358 -5.51185,109.29833 18.15072,121.73466 -82.66539,181.26239 -288.74831,97.67779 -166.95719,-67.71571 -81.89794,-180.31968 -90.82399,-288.37765 -9.73603,-117.86351 -158.21705,-112.44808 -189.15559,3.20017 -59.802621,223.54217 233.74755,204.38242 194.83104,376.09113 -27.34261,120.64194 98.01965,152.18627 280.9227,110.00942 29.46579,-6.79471 -0.93008,-48.82975 2.09274,-68.04312 10,-63.56109 52.67516,-86.85599 109.55453,-82.81267 133.12912,9.4636 122.33761,164.12188 76.53757,197.16494 -42.74325,30.83769 -112.16241,41.49387 -127.24683,22.94 -22.27991,-27.40434 -28.82948,-58.39343 -52.41738,-50.4395 z" fill="#f1f4d5" />
  <path fill="#d1ba81" inkscape:original-d="m 410.73476,454.92332 c 60.52834,36.07223 119.40748,40.06199 173.45641,14.5163 17.90228,-116.19589 106.20131,-136.31488 128.34525,-67.46485 -10.13931,36.39461 -11.10383,71.79358 -5.51185,109.29833 18.15072,121.73466 -82.66539,181.26239 -288.74831,97.67779" inkscape:path-effect="#path-effect4472" />
  <path d="m 575.77696,488.26805 c 12.24661,-62.13486 0.17549,-140.12596 -5.82673,-227.30537 -14.51677,-210.850722 318.05033,-188.089519 271.11353,41.88464 -2.20451,10.80134 31.46415,12.02192 29.82885,23.6378 -7.34338,52.16154 -74.7403,102.95325 -197.40489,66.42552 z" fill="#f1f4d5" />
  <g>
    <path d="m 555.98071,511.15662 c 65.64906,60.9659 25.77319,138.1974 -42.22119,96.26934 -51.57245,-31.80176 -115.15164,-119.5136 -99.66562,-140.58179 8.6436,-11.75943 62.59782,5.83057 115.49593,33.55836 z" fill="#f1f4d5" />
    <path d="m 513.06088,584.86661 -98.27473,-94.54862 m 100.78907,57.4892 -101.19541,-82.55257 m 100.79382,46.87392 -69.58694,-45.81474" fill="none" stroke="#d1ba81" stroke-width="4" />
    <path fill="#d1ba81" inkscape:original-d="m 555.98071,511.15662 c 65.64906,60.9659 25.77319,138.1974 -42.22119,96.26934 -51.57245,-31.80176 -115.15164,-119.5136 -99.66562,-140.58179 8.6436,-11.75943 62.59782,5.83057 115.49593,33.55836" inkscape:path-effect="#path-effect4437" />
    <path d="m 515.88372,493.11705 c -3.90644,6.07465 -1.06383,11.05711 9.69379,17.62003 -29.14459,1.27991 -18.97439,19.18192 8.21423,34.53664 -36.29242,-1.72455 -21.67198,18.98491 -1.47449,32.89573 -11.27053,-1.24377 -31.13766,7.03822 -12.47012,32.86139" style="stroke-miterlimit:20;fill:none;stroke:#d1ba81;stroke-width:6" />
  </g>
  <path fill="#d1ba81" inkscape:original-d="m 575.77696,488.26805 c 12.24661,-62.13486 0.17549,-140.12596 -5.82673,-227.30537 -14.51677,-210.850722 318.05033,-188.089519 271.11353,41.88464 -2.20451,10.80134 31.46415,12.02192 29.82885,23.6378 -7.34338,52.16154 -74.7403,102.95325 -197.40489,66.42552" inkscape:path-effect="#path-effect4464" />
  <g>
    <path d="m 626.83367,135.69733 c 31.14548,17.67488 35.14641,40.78975 19.76399,70.70043 139.19729,-66.45294 255.33384,-5.91981 198.25976,154.31098 175.18578,-176.11157 -32.60815,-397.361481 -251.8006,-262.383819 z" fill="#fdefb1" />
    <path d="m 655.43474,68.74953 c 48.79025,22.885872 67.18624,66.38021 51.90808,117.03522 16.36797,-4.31246 33.33059,-6.84094 51.57821,-5.51445 10.18514,-52.77888 -12.48273,-99.17537 -70.3735,-120.316696 z" fill="#c20017" />
    <path d="m 664.54753,65.039391 c 49.37017,18.13446 75.05864,63.452029 66.28029,116.425419 l -45,10 c 24.77835,-50.97339 1.08988,-102.230299 -44.28029,-117.364759 z" fill="#4b0007" />
    <path d="m 626.83367,135.69733 c 31.14548,17.67488 35.14641,40.78975 19.76399,70.70043 139.19729,-66.45294 255.33384,-5.91981 198.25976,154.31098 175.18578,-176.11157 -32.60815,-397.361481 -251.8006,-262.383819 z" style="stroke-miterlimit:20;fill:none;stroke:#eedc80;stroke-width:8" />
    <g>
      <path d="m 782.88175,124.08712 c 159.32074,-131.463052 171.17064,-118.8501209 43.6725,40.87115" fill="#f1f4d5" stroke="#d1ba81" stroke-width="8" />
      <path d="m 860.42394,62.972423 c 15.13611,3.091752 29.3642,2.958763 42.23699,-0.538481 m -79.12725,27.656388 c 20.04366,8.244323 37.80796,11.16692 55.13822,7.392081 m -86.05185,18.350349 c 20.26003,13.9192 39.59101,19.3287 60.62806,16.03291" fill="none" stroke="#d1ba81" stroke-width="4" />
      <path d="m 882.43332,95.14465 c 15.79507,10.45081 -1.65569,33.99528 -15.82231,23.79243 2.7917,-11.18929 8.46891,-18.06431 15.82231,-23.79243 z" style="stroke-miterlimit:20;fill:#dbcada;stroke:#cfa8cc;stroke-width:2" />
      <path d="m 852.0397,66.1936 c 7.37043,13.787463 19.47277,21.175029 36.29945,21.939551 -9.06445,12.258569 -18.1289,24.443749 -27.19335,36.371429 -4.89865,-17.04993 -13.44389,-32.148326 -26.73352,-45.018683 z" fill="#fac42d" />
      <path d="m 840.21219,85.284704 16.45586,-12.193584 4.23009,4.566309 -13.54425,17.082546 z" fill="#ffff64" />
      <path d="m 852.0397,66.1936 c 7.37043,13.787463 19.47277,21.175029 36.29945,21.939551 -9.06445,12.258569 -18.1289,24.443749 -27.19335,36.371429 -4.89865,-17.04993 -13.44389,-32.148326 -26.73352,-45.018683 z" style="stroke-miterlimit:20;fill:none;stroke:#a0833d;stroke-width:4" />
      <ellipse cx="875.92603" cy="159.02298" fill="#fff" rx="2.2837422" ry="3.562638" transform="rotate(356.49301)" />
    </g>
    <path d="m 846.32656,178.32693 c -5.598,-38.34311 -23.15338,-61.97499 -57.27971,-79.774963 l -17.43291,26.388423 58.56037,57.7828 z" fill="#fdefb1" />
    <path d="m 789.04685,98.551967 c 31.30142,19.883303 47.83061,45.104733 57.27971,79.774963 -2.85792,-38.96187 -22.60476,-66.05914 -57.27971,-79.774963 z m 84.69353,115.640783 c 6.13673,53.73822 -4.86059,95.77784 -26.19221,137.19819 l 8.4975,0.72922 c 22.97048,-45.58697 30.09366,-90.30917 17.69471,-137.92741 z" fill="#eedc80" />
  </g>
  <g>
    <path d="m 545.96912,106.73392 c -131.39771,-160.439883 -396.24864,-64.910819 -264.52534,212.03055 60.46517,127.12486 0.65068,184.84802 -89.4215,131.14819 79.70099,156.85754 269.45995,60.85302 222.83111,-146.15375 -31.09875,-138.06162 43.17591,-201.89047 113.81958,-172.63574 z" fill="#fdefb1" />
    <path d="m 545.96912,106.73392 c -119.39056,-145.778859 -348.95877,-80.232317 -291.10589,140.71115 24.10154,-175.628223 174.49252,-214.182833 291.10589,-140.71115 z" fill="#4b0007" />
    <path d="m 276.04252,525.02653 c 74.69115,18.25691 155.50267,-55.0745 145.19016,-180.17537 -12.49792,112.07216 -75.1507,166.89759 -145.19016,180.17537 z m 219.07706,-464.278122 c -103.17076,-67.3600889 -237.7813,-25.748727 -248.73045,103.016682 38.89276,-110.885252 142.6901,-141.143069 248.73045,-103.016682 z" fill="#c20017" />
    <path d="m 545.96912,106.73392 c -131.39771,-160.439883 -396.24864,-64.910819 -264.52534,212.03055 60.46517,127.12486 0.65068,184.84802 -89.4215,131.14819 79.70099,156.85754 269.45995,60.85302 222.83111,-146.15375 -31.09875,-138.06162 43.17591,-201.89047 113.81958,-172.63574 z" fill="none" stroke="#eedc80" stroke-width="8" />
    <path d="m 564.94331,149.2787 18.44557,-28.44971 c -18.81623,-6.71397 -31.48111,-16.56707 -43.63864,-33.887922 5.45139,-6.475899 -4.79615,-14.747898 -9.49648,-9.290254 -12.84547,14.915126 -23.27141,35.899626 -27.32751,55.687456 -2.08797,10.18631 11.43638,14.46445 12.99571,5.11108 16.38178,-4.13208 32.76896,0.62378 49.02135,10.82935 z" style="stroke-miterlimit:20;fill:#fac42d;stroke:#a0833d;stroke-width:4" />
    <path d="m 513.11783,103.47034 c 19.09581,12.87137 39.05578,23.24598 61.20823,31.8231 l 2.875,-4.97965 c -22.58576,-11.68169 -39.87729,-23.21504 -54.586,-42.689875 z" fill="#ffff64" />
    <path d="m 539.75024,86.941068 c 12.15753,17.320852 24.82241,27.173952 43.63864,33.887922 l -18.44557,28.44971 c -16.25239,-10.20557 -32.63957,-14.96143 -49.02135,-10.82935 m 14.3318,-60.798536 c -12.84547,14.915126 -23.27141,35.899626 -27.32751,55.687456 -2.08797,10.18631 11.43638,14.46445 12.99571,5.11108 3.24364,-19.45646 13.48524,-39.22141 23.82828,-51.508282 5.45139,-6.475899 -4.79615,-14.747898 -9.49648,-9.290254 z" style="stroke-miterlimit:20;fill:none;stroke:#a0833d;stroke-width:4" />
    <path d="m 195.59297,459.96269 c 43.24413,40.91285 95.63667,44.32935 127.63563,14.53138 -35.24896,24.04797 -85.3915,17.38147 -126.38563,-22.28138" fill="#eedc80" />
  </g>
  <g>
    <path d="m 588.15914,266.90098 c -83.08636,-94.62972 -13.18298,-188.866803 4.56576,-190.933215 11.09572,-1.292389 53.29361,44.063715 52.89495,94.806105 z" fill="#f1f4d5" />
    <path d="m 575.46616,140.66003 c 10.20713,8.84157 18.85898,11.43497 31.90907,11.20805 -4.25513,7.57183 -9.00802,11.20633 -15.98289,14.12054 7.50294,3.32725 13.41931,4.027 20.13682,2.43601 -6.63498,8.64456 -13.18386,12.95062 -23.03033,15.12868 3.56066,3.10355 7.14124,4.52297 11.71967,4.90685 -3.87652,6.17678 -10.8477,11.32082 -20.15836,13.57082 -8.61117,-19.64008 -8.1711,-40.32453 -4.59398,-61.37095 z" style="stroke-miterlimit:20;fill:#fff;stroke:#cdcdcd;stroke-width:4" />
    <path d="m 590.02418,128.4848 c -12.6678,25.93998 -14.12977,55.02654 0.0248,83.39569 -30.57416,12.05605 -39.70783,-99.5279 -0.0248,-83.39569 z" fill="#f1f4d5" />
    <path d="m 590.02418,128.4848 c -9.40382,26.40626 -10.79424,55.50304 0.0248,83.39569 -16.60314,-22.55597 -16.15331,-60.9263 -0.0248,-83.39569 z" fill="#d1ba81" />
    <path fill="#d1ba81" inkscape:original-d="m 588.15914,266.90098 c -83.08636,-94.62972 -13.18292,-188.866464 4.56576,-190.933215 11.09579,-1.292047 53.29361,44.063715 52.89495,94.806105" inkscape:path-effect="#path-effect5090" />
  </g>
  <g>
    <path d="m 692.34633,319.88029 c -5.76954,6.78491 -8.45003,14.48282 -6.57679,23.50715 1.10913,-8.89659 4.34466,-14.96107 10.21921,-20.42347 z m -8.05476,-10.20577 c -7.73792,4.90919 -13.39803,11.83632 -14.13788,21.81001 3.51358,-8.30402 9.43213,-13.77633 16.87671,-17.3089 z m -6.24427,-12.40905 c -8.85174,2.6137 -15.84388,7.65189 -18.83295,16.63569 5.535,-6.70802 12.0735,-10.44127 20.17465,-11.66076 z" />
    <g clip-path="url(#clipPath5775)">
      <path d="m 788.02785,331.93341 c 17.80576,-159.60364 -124.58885,-158.41302 -120.82433,-73.21818 3.12735,70.77511 54.78872,96.55612 120.82433,73.21818 z" fill="#fff" id="path5451" />
      <g clip-path="url(#clipPath5759)">
        <ellipse cx="384.81027" cy="-704.94067" fill="url(#linearGradient5747)" id="path5633" rx="55.660263" ry="43.461658" transform="rotate(81.183328)" />
        <path d="m 729.21841,340.30305 38.79571,-66.60923 -64.7735,36.45717 z" fill="#d7adad" />
        <path d="m 696.07177,292.5312 71.94235,-18.83738 -61.1426,46.38323 z" fill="#ab4f4f" />
        <ellipse cx="386.27798" cy="-708.7666" rx="44.723465" ry="34.921795" transform="rotate(81.183341)" />
        <ellipse cx="-0.34699079" cy="778.57001" fill="#fff" rx="22.551926" ry="14.361298" transform="rotate(288.9271)" />
        <ellipse cx="-23.298338" cy="801.82898" fill="#fff" rx="7.9125671" ry="5.0388083" transform="rotate(288.92708)" />
      </g>
    </g>
    <path d="m 678.01436,220.22187 c -9.26702,-3.47293 -16.7417,-10.3325 -20.80515,-20.20883 0.56433,12.94228 7.57662,20.81707 16.91819,25.65695 z m -8.97173,15.3887 c -11.06757,-1.50772 -18.51841,-7.37717 -24.65631,-16.78105 2.26142,12.85938 11.4782,20.6346 22.92019,22.8624 z m -7.36888,16.83523 c -8.59423,0.5408 -17.07397,-2.18852 -24.7832,-10.16936 5.35742,13.46257 16.63963,17.88929 30.31297,16.43879 4.33605,-83.18261 131.81749,-78.12891 120.82433,73.21818 22.80843,-152.61227 -115.20471,-166.69446 -126.3541,-79.48761 z" />
  </g>
  <use xlink:href="#circle4328" />
  <g transform="rotate(214.47137 477.28515 277.14478)scale(1.7915357-1.7915357)">
    <g fill="#550d0d">
      <path d="m -4.5,-3.7 -9.3,-17.2 13.5,13.3 8.6,-13.8 -4.7,15.8 16.5,5.6 -15.9,2.6 6.1,19.3 -11.9,-20.5 -7.8,18.2 3.4,-19.7 -14.8,-2 z" />
      <path d="m 11.692,-38.888 5.376,2.304 1.08,-7.416 1.728,7.176 4.224,-0.96 -3.24,3.696 2.808,3.696 -4.008,-1.296 -0.96,7.608 -1.512,-7.752 -4.416,1.776 3.336,-4.248 z" />
      <path d="m -28.04,-43.464 4.48,2.112 0.9,-6.798 1.44,6.578 3.52,-0.88 -2.7,3.388 2.34,3.388 -3.34,-1.188 -0.8,6.974 -1.26,-7.106 -3.68,1.628 2.78,-3.894 z" />
      <path d="m -41.384,0.176 6.048,2.592 1.215,-8.343 1.944,8.073 4.752,-1.08 -3.645,4.158 3.159,4.158 -4.509,-1.458 -1.08,8.559 -1.701,-8.721 -4.968,1.998 3.753,-4.779 z" />
      <path d="m -20.232,28.176 4.704,2.592 0.945,-8.343 1.512,8.073 3.696,-1.08 -2.835,4.158 2.457,4.158 -3.507,-1.458 -0.84,8.559 -1.323,-8.721 -3.864,1.998 2.919,-4.779 z" />
      <path d="m 15.524,16.792 6.272,3.264 1.26,-10.506 2.016,10.166 4.928,-1.36 -3.78,5.236 3.276,5.236 -4.676,-1.836 -1.12,10.778 -1.764,-10.982 -5.152,2.516 3.892,-6.018 z" />
    </g>
    <path d="m -29.2,-21.2 22.4,9.6 4.5,-30.9 7.2,29.9 17.6,-4 -13.5,15.4 11.7,15.4 -16.7,-5.4 -4,31.7 -6.3,-32.3 -18.4,7.4 13.9,-17.7 z" fill="#fed593" />
  </g>
  <g>
    <path d="m 841.06376,302.84732 c -2.20451,10.80134 31.46415,12.02192 29.82885,23.6378 -4.6426,32.97738 -33.28846,65.40723 -84.72819,75.57052" fill="#f1f4d5" stroke="#d1ba81" stroke-width="7.99941444" />
    <path d="m 861.82568,312.73628 c 14.40803,4.57835 16.75509,11.07131 9.59168,27.74068 -8.85095,20.59607 -37.40257,-36.5779 -9.59168,-27.74068 z" style="stroke-miterlimit:20;fill:#252525;stroke:#101010;stroke-width:4" />
    <path d="m 848.15934,371.16751 c -16.38412,-1.42483 -28.898,-9.1423 -35.97685,-26.47165 10.73517,14.27798 24.71748,20.04171 42.6546,19.18308" fill="#d1ba81" />
    <path d="m 859.72681,322.89598 c 1.38904,4.42913 5.36517,5.02479 8.62599,1.75837 -2.59439,7.47457 -9.51978,5.84072 -8.62599,-1.75837 z" fill="#101010" />
    <circle cx="668.8703" cy="350.60379" fill="#fff" id="circle4587" r="2.6516504" />
    <use transform="translate(11 8)" xlink:href="#circle4587" />
    <use transform="translate(-.29289322 11.353553)" xlink:href="#circle4587" />
    <use transform="translate(6 20.25)" xlink:href="#circle4587" />
    <use transform="translate(25.156848 6.25)" xlink:href="#circle4587" />
    <use transform="translate(36.732028 7.6246948)" xlink:href="#circle4587" />
    <use transform="translate(-13.353553-.20710677)" xlink:href="#circle4587" />
    <use transform="translate(35.182864 20.628571)" xlink:href="#circle4587" />
  </g>
  <path d="m 587.1051,315.49623 c 174.71732,45.8576 252.71179,-11.14154 278.22016,-6.52945 33.95196,6.13875 6.01068,67.50865 11.9693,114.52641 -31.52988,-29.96536 -53.28553,16.35367 -98.71247,-0.73349 -44.66703,-16.80133 -78.67444,-11.77892 -104.5668,3.63852 -32.42328,-47.19314 -62.77252,-56.34264 -86.91019,-110.90199 z" fill="#c20017" opacity=".5" />
  <g>
    <path d="m 620.05179,629.75338 c 52.27126,27.51651 92.40341,27.34687 114.66416,37.78626 19.8243,9.29678 19.66337,39.4376 29.61411,59.57605 18.5828,37.60812 118.2645,53.3571 114.80052,4.41787 -4.67221,-66.0088 -70.56513,-117.61209 -105.79365,-133.04963 -43.33581,-18.99024 -78.136,-4.58873 -136.44386,-24.3583 z" fill="#f1f4d5" />
    <path fill="#d1ba81" inkscape:original-d="m 620.05179,629.75338 c 52.27126,27.51651 92.40341,27.34687 114.66416,37.78626 19.8243,9.29678 19.66337,39.4376 29.61411,59.57605 18.5828,37.60812 118.2645,53.3571 114.80052,4.41787 -4.67221,-66.0088 -70.56513,-117.61209 -105.79365,-133.04963 -43.33581,-18.99024 -78.136,-4.58873 -136.44386,-24.3583" inkscape:path-effect="#path-effect4322" />
    <path d="m 741.9836,676.68842 c 40.97196,0.17657 74.27954,-6.33742 105.35817,-23.44051 8.68047,10.09658 15.70153,20.85256 21.64011,33.19103 -33.53965,16.67304 -70.5519,24.23662 -113.77708,23.24041 -2.79909,-11.56329 -6.22452,-24.62523 -13.2212,-32.99093 z" fill="#fac42d" />
    <path d="m 817.52295,665.73507 4.3239,37.87158 19.49558,-5.52842 -13.03442,-36.01115 z" fill="#ffff64" />
    <path d="m 741.9836,676.68842 c 40.97196,0.17657 74.27954,-6.33742 105.35817,-23.44051 8.68047,10.09658 15.70153,20.85256 21.64011,33.19103 -33.53965,16.67304 -70.5519,24.23662 -113.77708,23.24041 -2.79909,-11.56329 -6.22452,-24.62523 -13.2212,-32.99093 z" fill="none" stroke="#a0833d" stroke-width="4" />
  </g>
</svg>