<svg xmlns="http://www.w3.org/2000/svg" xmlns:inkscape="http://www.inkscape.org/namespaces/inkscape" xmlns:sodipodi="http://sodipodi.sourceforge.net/DTD/sodipodi-0.dtd" xmlns:xlink="http://www.w3.org/1999/xlink" width="890" height="1170" viewBox="-150 -200 890 1170">
  <defs>
    <inkscape:path-effect effect="powerstroke" id="path-effect971" offset_points="0.34,4 | 4.27,4" interpolator_type="CubicBezierSmooth" linejoin_type="extrp_arc" miter_limit="20" />
    <inkscape:path-effect effect="powerstroke" id="path-effect2302" offset_points="0.27,4 | 11.66,4" interpolator_type="CubicBezierSmooth" linejoin_type="miter" miter_limit="20" />
    <inkscape:path-effect effect="powerstroke" id="path-effect2217" offset_points="0.19,3 | 6.7,3" interpolator_type="CubicBezierSmooth" linejoin_type="miter" miter_limit="20" />
    <inkscape:path-effect effect="powerstroke" id="path-effect2105" offset_points="0.39,4" interpolator_type="CubicBezierSmooth" linejoin_type="miter" end_linecap_type="butt" />
    <inkscape:path-effect effect="powerstroke" id="path-effect2103" offset_points="0.37,4 | 5.82,4" interpolator_type="CubicBezierSmooth" linejoin_type="miter" />
    <inkscape:path-effect effect="powerstroke" id="path-effect44" offset_points="0.18,4 | 2.82,4" interpolator_type="CubicBezierSmooth" linejoin_type="miter" />
    <inkscape:path-effect effect="powerstroke" id="path-effect2214" offset_points="0.22,4 | 1.57,4" interpolator_type="CubicBezierSmooth" linejoin_type="miter" />
    <inkscape:path-effect effect="powerstroke" id="path-effect2181" offset_points="0.34,3.2 | 1.39,3.2" interpolator_type="CubicBezierSmooth" linejoin_type="miter" />
    <linearGradient gradientUnits="userSpaceOnUse" y2="-519.36993" x2="566.35126" y1="-519.13312" x1="484.54871" id="linearGradient1450" xlink:href="#linearGradient86" gradientTransform="matrix(0.95881518,0,0,0.95881518,-199.21784,33.095076)" />
    <linearGradient id="linearGradient86">
      <stop offset="0" stop-color="#ce008e" />
      <stop offset="1" stop-color="#ff59cc" />
    </linearGradient>
    <clipPath id="clipPath2177">
      <use xlink:href="#path540" />
    </clipPath>
    <clipPath id="clipPath2195">
      <use xlink:href="#path1699" />
    </clipPath>
    <clipPath id="clipPath1269">
      <path d="M 504.32344,900.23933 C 496.12081,917.7991 483.64641,914.75588 469.59309,889.23408 468.87531,921.55644 454.23245,929.72587 433.84594,899.66947 432.25605,931.33199 405.63712,932.46143 393.31998,897.21785 388.20443,921.40791 364.89219,921.64433 351.65414,893.2816 323.28567,754.56849 339.68876,629.49673 364.80051,507.07838 L 464.06264,512.18382 Z" />
    </clipPath>
    <clipPath id="clipPath1273">
      <path d="M 351.36774,835.74339 C 354.34529,868.95931 359.65413,902.45906 367.97189,933.50136 L 504.27552,926.33495 C 489.7874,899.90025 478.57072,869.42132 470.03993,838.20234 Z" />
    </clipPath>
    <clipPath id="clipPath1277">
      <path d="M 496.97106,912.11197 C 458.25608,867.62963 392.95901,874.68343 362.66776,911.56851 L 350.89876,986.02665 546.19019,957.31707 Z" />
    </clipPath>
    <clipPath id="clipPath106">
      <path d="M 558.13287,861.96505 C 514.90631,844.65703 467.89029,845.37461 431.3459,871.33189 L 420.32737,934.52985 621.76649,923.74344 Z" />
    </clipPath>
    <clipPath id="clipPath110">
      <path d="M 555.86374,838.74462 C 565.0819,877.89752 534.67397,881.7433 516.2936,855.91295 515.28731,892.21704 486.018,889.85159 472.73208,859.33179 465.62336,889.53945 431.12651,884.33696 417.46576,844.87056 377.29196,731.4459 377.27858,620.01506 403.39929,509.88168 L 488.85241,507.65452 Z" clip-path="none" />
    </clipPath>
    <clipPath id="clipPath114">
      <path d="M 402.52371,713.0631 C 405.91529,763.3863 415.49644,834.35389 440.44681,896.26097 L 573.84703,888.04596 C 539.57664,835.26492 516.64714,775.05547 502.1826,718.50066 Z" inkscape:linked-fill="path98" />
    </clipPath>
    <clipPath id="clipPath144">
      <path d="M 173.94464,912.58611 C 132.73535,869.43408 63.9422,872.61859 39.274734,913.21069 L 31.03183,962.46016 207.32571,970.54962 C 209.05059,945.16251 195.12407,921.00666 173.94464,912.58611 Z" />
    </clipPath>
    <clipPath id="clipPath152">
      <path d="M 49.237943,754.65884 C 37.822015,811.30216 34.291154,873.30066 41.059197,931.55051 L 180.198,928.27922 C 169.8122,904.51858 162.5599,877.82198 158.54757,849.43046 Z" />
    </clipPath>
    <clipPath id="clipPath159">
      <path d="M 181.47624,888.86691 C 180.91489,914.40239 157.11242,928.79658 141.26884,896.69 138.71909,926.77234 121.4732,937.72991 97.883909,900.47883 95.702257,925.71081 70.696483,930.10962 59.147409,894.65494 53.422375,916.5096 41.543417,925.67219 27.370561,889.39299 L 32.875305,322.28009 432.8197,374.86755 Z" />
    </clipPath>
    <clipPath id="clipPath224">
      <path d="M 230.69792,844.66029 C 240.84825,875.74831 214.74055,885.55962 200.69487,856.22048 198.69793,886.34455 169.21967,889.29616 158.19179,861.23295 150.72951,890.82071 131.21366,891.14528 119.01552,855.90864 113.69276,877.86475 92.610336,884.69297 80.571916,852.37999 72.418263,763.54659 85.519572,676.22885 120.07254,590.27194 L 295.63214,441.48282 301.79315,595.16604 Z" clip-path="none" />
    </clipPath>
    <clipPath id="clipPath228">
      <path d="M 95.341226,737.71941 C 87.426878,781.79408 84.904308,832.80143 91.924689,893.22305 L 231.0635,889.95178 C 208.02209,837.23761 198.3064,789.87183 198.12487,747.47321 Z" inkscape:linked-fill="path216" />
    </clipPath>
    <clipPath id="clipPath232">
      <path d="M 224.89539,875.17625 C 192.84822,838.22394 118.96498,837.42054 89.756468,871.31204 L 66.629623,929.80252 275.28271,926.31927 Z" />
    </clipPath>
  </defs>
  <g>
    <path d="M 515.29645,371.97273 C 529.68392,354.52732 537.19557,336.08009 542.15319,310.78824 547.81158,331.965 550.53685,351.89591 549.45712,372.32845 580.96325,336.00331 595.61826,291.14833 595.49078,239.95288 610.06625,272.29061 618.026,306.65812 621.943,348.87973 663.09839,266.52323 646.72866,150.89304 597.13444,89.750251 631.14725,104.54856 660.58812,132.37696 680.85169,174.53251 671.9599,54.936257 607.6619,26.141107 516.50312,37.820442 487.21999,133.54405 480.71805,256.38439 515.29645,371.97273 Z" fill="#18b7ea" />
    <path d="M 500.97298,102.88777 C 486.32173,185.95891 488.14225,281.20192 515.29645,371.97273 529.68392,354.52732 537.52369,336.08009 542.48131,310.78824 539.32573,231.27603 523.10287,161.64637 500.97298,102.88777 Z" fill="#42dced" />
    <path d="M 597.13444,89.750251 C 631.14725,104.54856 660.58812,132.37696 680.85169,174.53251 671.9599,54.936257 607.6619,26.141107 516.50312,37.820442 Z" fill="#f9e684" />
    <path d="M 515.29645,371.97273 C 529.68392,354.52732 537.19557,336.08009 542.15319,310.78824 547.81158,331.965 550.53685,351.89591 549.45712,372.32845 580.96325,336.00331 595.61826,291.14833 595.49078,239.95288 610.06625,272.29061 618.026,306.65812 621.943,348.87973 663.09839,266.52323 646.72866,150.89304 597.13444,89.750251 631.14725,104.54856 660.58812,132.37696 680.85169,174.53251 671.9599,54.936257 607.6619,26.141107 516.50312,37.820442 487.21999,133.54405 480.71805,256.38439 515.29645,371.97273 Z" style="fill:none;stroke:#198bbf;stroke-width:8;stroke-miterlimit:20" />
  </g>
  <path d="M 403.28602,427.58272 C 329.99454,359.25644 314.67013,281.92447 352.63614,194.30759 386.99363,115.01821 353.69334,20.108709 139.95795,-51.825208 15.843052,-93.59681 -29.938279,-146.62511 -44.338442,-131.50921 -58.414043,-116.73401 -29.247671,-58.64525 90.691425,-3.411697 -118.55863,-38.29234 -125.07684,18.574985 90.021768,60.618463 -97.668618,64.949925 -94.435161,109.2341 103.28448,128.49954 -49.917621,151.50449 -39.662563,210.69893 123.371,190.49585 14.744098,235.60929 39.087292,288.14984 150.68103,263.06954 76.042138,307.99146 110.57929,359.31126 188.65283,329.63267 151.30916,378.37668 183.61472,421.50495 232.25522,396.84358 211.50948,440.9425 249.02263,469.55733 299.40035,442.4257 271.33729,481.40066 320.82119,509.34725 367.88104,466.67778 Z" style="fill:#fcdfee;stroke:#f8abd5;stroke-width:8;stroke-miterlimit:20" />
  <g>
    <path d="M 282.20687,475.57986 C 284.15544,526.78684 263.37252,580.87601 229.69265,611.43645 180.70124,698.66758 184.60152,793.64321 227.39833,891.55383 242.01124,924.98528 100.17228,929.54879 95.897959,892.7614 82.985138,781.62588 100.90842,688.91009 146.64742,603.04162 Z" style="clip-path:url(#clipPath232);fill:#be158d;stroke:#700c53;stroke-width:8" />
    <path d="M 282.20687,475.57986 C 284.15544,526.78684 263.37252,580.87601 229.69265,611.43645 180.70124,698.66758 184.60152,793.64321 227.39833,891.55383 242.01124,924.98528 100.17228,929.54879 95.897959,892.7614 82.985138,781.62588 100.90842,688.91009 146.64742,603.04162 Z" style="clip-path:url(#clipPath224);fill:#fcdfee;stroke:#f8abd5;stroke-width:8" />
    <path d="M 80.571916,852.37999 C 92.610336,884.69297 113.69276,877.86475 119.01552,855.90864 131.21366,891.14528 150.72951,890.82071 158.19179,861.23295 169.21967,889.29616 198.69793,886.34455 200.69487,856.22048 214.74055,885.55962 240.84825,875.74831 230.69792,844.66029" style="clip-path:url(#clipPath228);fill:none;stroke:#f8abd5;stroke-width:4" />
    <path d="M 195.98245,767.52664 C 181.8876,793.72819 177.17967,819.30957 177.17873,850.25073 L 126.96102,835.69448 152.2172,876.91123 C 134.94745,883.08038 112.96228,882.67493 92.797564,873.28833 92.988679,880.61569 93.592798,886.99431 94.822059,894.03711 101.46533,932.0984 243.80629,925.75246 229.18436,892.04857 210.48161,848.93831 201.76408,814.67583 195.98245,767.52664 Z" fill="#e6c362" stroke="#d0ac44" stroke-width="8" />
  </g>
  <g>
    <path d="M 415.91019,527.36476 C 395.22029,636.25295 402.12979,790.48788 444.15683,894.76573 458.29114,929.8359 591.74755,922.96041 570.49217,890.22425 506.49768,791.66407 473.81539,654.93564 475.02733,525.91099 Z" style="clip-path:url(#clipPath106);fill:#be158d;stroke:#700c53;stroke-width:8" />
    <path d="M 415.91019,527.36476 C 395.22029,636.25295 402.12979,790.48788 444.15683,894.76573 458.29114,929.8359 591.74755,922.96041 570.49217,890.22425 506.49768,791.66407 473.81539,654.93564 475.02733,525.91099 Z" style="clip-path:url(#clipPath110);fill:#fcdfee;stroke:#f8abd5;stroke-width:8" />
    <path d="M 555.86374,838.74462 C 565.0819,877.89752 534.67397,881.7433 516.2936,855.91295 515.28731,892.21704 486.018,889.85159 472.73208,859.33179 465.62336,889.53945 431.12651,884.33696 417.46576,844.87056" style="clip-path:url(#clipPath114);fill:none;stroke:#f8abd5;stroke-width:4" />
    <path d="M 514.28256,767.48172 C 506.81789,792.15494 507.83023,820.98329 517.5384,851.20581 L 463.08657,835.54601 494.00929,876.36631 C 477.51036,886.05312 458.4234,886.73353 435.69945,876.24341 437.75612,883.31608 439.76666,888.98295 443.79551,897.73204 460.18769,933.32947 595.29871,924.65016 573.69394,891.25365 549.17252,853.3486 531.99313,817.06986 514.28256,767.48172 Z" fill="#e6c362" stroke="#d0ac44" stroke-width="8" />
  </g>
  <path d="M 201.24142,605.65715 C 146.11802,691.52344 133.73603,831.97067 176.53284,929.88129 191.14575,963.31274 49.306789,967.87625 45.032467,931.08886 32.119646,819.95334 56.095739,685.3386 115.59432,596.62754 Z" style="clip-path:url(#clipPath144);fill:#e51fab;stroke:#700c53;stroke-width:8" />
  <path d="M 201.24142,605.65715 C 223.77352,587.39041 240.86265,564.10815 251.69975,539.19379 316.93229,600.72388 427.30255,601.3751 488.45822,529.73422 535.20678,474.97057 544.7717,379.29633 512.91695,285.93074 558.94721,281.06196 606.34872,282.11436 646.55156,285.61271 L 679.14335,202.83296 C 655.14649,185.2758 636.84678,156.63593 625.55827,112.58727 590.36233,-24.750038 386.80435,-5.2908518 373.92975,140.48712 365.7332,233.2959 395.11654,317.39445 382.61162,403.04764 342.98274,404.17324 326.3505,377.94946 266.04855,371.155 198.04935,363.49327 134.25463,413.07729 143.27717,501.82282 149.62465,564.25652 136.80001,589.23667 115.59432,596.62754 59.246722,680.64055 34.758772,805.82397 43.234806,913.26028 50.14158,916.1906 55.736625,907.67522 59.147409,894.65494 70.696483,930.10962 95.702257,925.71081 97.883909,900.47883 121.4732,937.72991 138.71909,926.77234 141.26884,896.69 150.20783,914.80461 161.68033,918.11689 169.9836,913.04743 135.25028,816.47286 149.19267,686.73402 201.24142,605.65715 Z" fill="#fef3f9" />
  <g transform="rotate(11.907949-1959.2012 996.8397)scale(1.0516079)">
    <path d="M 58.3,47.5 C 65.7,45.3 67.6,40.5 66.5,33.3 65.4,26.1 73.5,25.6 74.7,28.7 75.9,31.8 74,34.4 70.7,35.4 73.5,36.2 74.1,39 70,39.9 72.6,41.1 71,44 67.7,44 69.5,45.4 67.9,47.5 64.8,47 M 58.6,43.1 C 64,41.5 65.4,37.9 63.8,30.7 62.2,23.5 77.5,24.5 80.1,16.6 85.3,0.8 94,12.9 85.3,24.8 89.2,23.3 91.2,20.4 93.3,21.9 95.4,23.4 94.8,31.9 83.3,36.1 94.6,36.8 91.4,46.3 80.1,43.9 84.3,49 78.3,54.5 72.9,49 73.2,54.5 67,55.3 64.3,50.6 63.3,55.9 57.4,55.7 55.7,50.3 M 41.7,47.5 C 34.3,45.3 32.4,40.5 33.5,33.3 34.6,26.1 26.5,25.6 25.3,28.7 24.1,31.8 26,34.4 29.3,35.4 26.5,36.2 25.9,39 30,39.9 27.4,41.1 29,44 32.3,44 30.5,45.4 32.1,47.5 35.2,47 M 41.4,43.1 C 36,41.5 34.6,37.9 36.2,30.7 37.8,23.5 22.5,24.5 19.9,16.6 14.7,0.8 6,12.9 14.7,24.8 10.8,23.3 8.8,20.4 6.7,21.9 4.6,23.4 5.2,31.9 16.7,36.1 5.4,36.8 8.6,46.3 19.9,43.9 15.7,49 21.7,54.5 27.1,49 26.8,54.5 33,55.3 35.7,50.6 36.7,55.9 42.6,55.7 44.3,50.3" fill="#fff" stroke="#700014" stroke-miterlimit="20" />
    <path d="M 50,55.4 C 28.8,43.1 43.5,28.2 50,39 56.5,28.2 71.2,43.1 50,55.4 Z" fill="#df0128" stroke="#700014" />
    <path d="M 54.1,17.2 56.5,12.5 52.2,14.9 50,3 47.8,14.9 43.5,12.5 45.9,17.2 38.4,19.1 45.9,21 43.5,25.7 47.8,23.3 50,35.2 52.2,23.3 56.5,25.7 54.1,21 61.6,19.1 Z" fill="#ff2d81" />
  </g>
  <path d="M 421.18561,214.16232 C 421.18561,214.16232 420.58876,217.05496 420.80632,223.58667 421.0078,229.63568 422.11288,240.47422 427.37007,251.89766 L 427.37007,251.89767 C 429.42534,256.36359 432.16566,261.02355 435.81198,265.49203 V 265.49203 C 439.119,269.5447 443.01408,273.38061 447.58489,276.80683 V 276.80683 C 455.14147,282.47113 464.36466,286.87372 475.29711,289.28955 V 289.28955 C 484.78772,291.38677 495.3908,291.94031 506.796,290.60043 L 506.796,290.60043 C 550.15205,285.50697 598.60352,285.45551 646.20479,289.59765 L 649.17957,289.85651 650.27348,287.07809 C 660.72584,260.53018 671.77036,232.47825 682.86527,204.29834 L 683.99579,201.42693 681.50526,199.60474 C 669.92362,191.13111 659.71221,179.96989 651.0081,165.57474 V 165.57474 C 642.11956,150.87457 634.91482,132.98455 629.43306,111.59428 L 629.43302,111.59413 C 624.88665,93.853896 617.61248,78.692655 608.4047,66.024329 V 66.024329 C 599.07043,53.181969 587.76876,42.926888 575.33002,35.119496 V 35.119496 C 549.81268,19.103104 519.62178,13.408336 490.95958,16.390441 V 16.390441 C 460.93546,19.514244 432.58512,32.078665 410.98765,52.401501 L 410.98765,52.401501 C 399.74666,62.979072 390.37721,75.603109 383.393,90.061174 L 383.393,90.061174 C 376.1799,104.99304 371.56842,121.75635 369.94526,140.13522 L 369.94526,140.13522 C 365.43192,191.23938 372.58203,244.04404 376.64217,281.51277 L 376.64217,281.51283 C 379.41545,307.10586 381.2899,327.97036 381.70682,348.83653 V 348.83653 C 381.8363,355.31727 381.81493,361.51554 381.64655,367.49838 V 367.49838 C 381.14068,385.47254 380.50275,397.52487 380.32367,405.21917 380.14441,412.92146 380.42918,416.17109 380.42918,416.17109 380.42918,416.17109 382.10039,413.34329 384.2766,405.83104 386.39274,398.52612 389.1306,385.94344 389.64338,367.72344 V 367.72344 C 389.8156,361.60402 389.8371,355.27714 389.70522,348.67671 V 348.67671 C 389.28107,327.44827 387.37507,306.30103 384.59561,280.65099 L 384.59561,280.65093 C 380.49536,242.81201 373.48737,190.96406 377.91424,140.83902 L 377.91424,140.83902 C 379.45724,123.3678 383.82832,107.55189 390.59654,93.54097 L 390.59654,93.54097 C 397.15053,79.973517 405.93333,68.142447 416.46996,58.227666 L 416.46996,58.227666 C 436.72671,39.166431 463.4163,27.299313 491.78746,24.347489 V 24.347489 C 518.88138,21.528553 547.24337,26.935738 571.07704,41.895347 V 41.895347 C 582.68414,49.180744 593.22224,58.74269 601.93346,70.727848 V 70.727848 C 610.52471,82.547926 617.37805,96.780199 621.68345,113.58015 L 621.68349,113.58029 C 627.31299,135.54705 634.78199,154.20071 644.16226,169.71412 V 169.71412 C 652.75408,183.92357 662.83176,195.30382 674.30716,204.19773 664.71209,228.5682 654.04968,255.6496 643.92146,281.37424 596.84076,277.45161 548.9477,277.59344 505.86258,282.65507 L 505.86258,282.65507 C 495.27893,283.89844 485.57824,283.36846 477.02329,281.478 V 281.478 C 467.18622,279.30422 459.01367,275.37567 452.3832,270.40556 V 270.40556 C 448.36404,267.39285 444.93308,264.01609 442.01023,260.4342 V 260.4342 C 438.79274,256.49125 436.17491,252.4428 434.01915,248.54841 L 434.01915,248.5484 C 428.6042,238.76625 425.4638,228.6483 423.81016,223.10233 422.00743,217.05639 421.18561,214.16232 421.18561,214.16232 Z" inkscape:path-effect="#path-effect2103" inkscape:original-d="M 421.18561,214.16232 C 426.05789,271.17142 464.72793,291.51507 506.32929,286.62775 554.4982,280.96888 604.46872,281.95077 646.55156,285.61271 L 679.14335,202.83296 C 655.14649,185.2758 636.84678,156.63593 625.55827,112.58727 590.36233,-24.750038 386.80437,-5.2908505 373.92975,140.48712 365.31455,238.03624 398.21617,325.96263 380.42918,416.17109" fill="#f8abd5" />
  <g>
    <g clip-path="url(#clipPath2195)">
      <ellipse id="path1699" cx="351.71274" cy="-419.47833" rx="66.183487" ry="53.743423" transform="rotate(67.355675)" fill="#fff" />
      <g clip-path="url(#clipPath2177)">
        <ellipse ry="40.14481" rx="51.629555" cy="-479.61441" cx="303.60904" id="path540" transform="rotate(74.49479)" fill="url(#linearGradient1450)" />
        <path d="M 558.12168,168.33917 530.59368,217.95768 507.29173,198.61547 Z" fill="#f9bfe8" />
        <path d="M 558.12168,168.33917 501.12344,181.63576 510.33076,203.99705 Z" fill="#f464c8" />
        <ellipse cx="305.62823" cy="-482.84509" rx="41.064613" ry="31.930014" transform="rotate(74.49479)" />
        <ellipse ry="13.797864" rx="20.905003" cy="542.15015" cx="75.667786" transform="rotate(-66.569564)" fill="#fff" />
        <ellipse ry="5.4418883" rx="8.2449446" cy="566.98633" cx="58.183838" transform="rotate(-66.569564)" fill="#fff" />
      </g>
    </g>
    <path d="M 490.27498,209.60671 C 490.27498,209.60671 488.73126,207.34843 485.5646,202.26068 482.65758,197.5901 477.43346,188.80591 473.83946,177.60396 L 473.83945,177.60395 C 472.74501,174.19274 471.76244,170.44877 471.02901,166.41763 V 166.41763 C 470.12008,161.42189 469.4537,154.75497 470.22549,147.17012 V 147.17012 C 471.11113,138.46643 473.83504,129.33088 479.11602,121.32533 L 479.11602,121.32532 C 483.94125,114.01066 490.47075,108.32102 498.33209,104.95751 L 498.3321,104.9575 C 503.84906,102.59704 509.199,101.7672 513.90279,101.72317 V 101.72317 C 517.49032,101.6896 520.58389,102.11425 522.88784,102.56078 V 102.56078 C 525.37906,103.04361 527.7424,103.68411 529.94969,104.41218 L 529.9497,104.41218 C 541.30688,108.15831 550.16861,114.81012 554.36028,118.1032 559.18128,121.89069 561.19271,123.69184 561.19271,123.69184 561.19271,123.69184 560.28748,121.112 556.33555,116.12779 552.82439,111.69948 544.86851,103.22706 532.02113,98.494769 L 532.02113,98.494766 C 529.58097,97.59594 526.93213,96.825519 524.10557,96.277699 V 96.277699 C 521.49432,95.771608 517.96385,95.284884 513.84289,95.323454 V 95.323454 C 508.42843,95.37413 502.22347,96.331361 495.81457,99.073453 L 495.81457,99.073454 C 486.7008,102.97283 479.22674,109.5348 473.7737,117.80117 L 473.77369,117.80119 C 467.8249,126.81909 464.82866,136.98667 463.85837,146.52223 V 146.52223 C 463.01152,154.84469 463.74418,162.13179 464.73238,167.56324 V 167.56324 C 465.53181,171.95715 466.70659,175.99264 468.07078,179.61916 L 468.07078,179.61917 C 472.63513,191.75295 479.45958,199.77004 483.53909,203.87008 487.91402,208.26701 490.27498,209.60671 490.27498,209.60671 Z" inkscape:path-effect="#path-effect2181" inkscape:original-d="M 490.27498,209.60671 C 453.3149,171.12786 463.01415,116.58788 497.07333,102.01548 518.71319,92.756717 544.49256,102.5501 561.19271,123.69184" />
    <path d="M 600.69928,243.6536 C 613.61597,258.40466 634.79492,263.93864 658.29155,256.72374 L 654.27433,264.0242 C 635.12881,270.50102 608.52128,263.79161 600.69928,243.6536 Z M 641.15984,219.33421 C 630.82592,223.57854 628.32796,213.96216 634.28082,209.71164 633.22415,214.30958 635.33334,218.45978 641.15984,219.33421 Z" fill="#f8abd5" />
  </g>
  <path d="M 265.72839,473.78883 C 265.72839,473.78883 264.97519,477.21141 263.34696,485.65617 262.02469,492.51405 258.87296,509.18879 252.07093,527.77331 V 527.77331 C 250.21664,532.83962 248.11185,537.83564 245.76988,542.73475 V 542.73475 C 234.79586,565.69097 218.71369,586.34306 198.72242,602.54996 L 198.22281,602.95499 197.87535,603.49624 C 183.69717,625.58173 172.50784,650.89055 164.28436,677.59615 V 677.59615 C 155.84057,705.0172 150.4885,734.01008 148.17973,762.93431 V 762.93431 C 145.80664,792.66449 146.64173,822.35497 150.62628,850.54991 V 850.54991 C 154.72622,879.56131 162.15391,906.97237 172.86766,931.48331 L 172.86767,931.48334 C 173.5346,933.00912 173.67629,934.25859 173.54323,935.30256 L 173.54322,935.30259 C 173.40839,936.36044 172.95927,937.45594 172.07637,938.61 L 172.07634,938.61004 C 171.17104,939.79336 169.82736,941.01096 167.99263,942.21708 V 942.21708 C 166.15048,943.42809 163.89261,944.57551 161.25758,945.63666 V 945.63666 C 155.91689,947.7874 149.25175,949.49473 141.82924,950.70704 V 950.70704 C 141.82924,950.70704 141.82913,950.70705 141.82913,950.70705 V 950.70705 C 134.30287,951.9363 126.08881,952.64262 117.78105,952.81803 V 952.81803 C 117.78105,952.81803 117.78092,952.81803 117.78092,952.81803 V 952.81803 C 109.3342,952.99637 100.82979,952.62567 92.824106,951.71375 V 951.71375 C 92.824106,951.71375 92.823987,951.71373 92.823987,951.71373 V 951.71373 C 84.671992,950.78514 77.106844,949.30385 70.618211,947.29936 L 70.618122,947.29934 C 67.335863,946.28537 64.357721,945.1464 61.729922,943.89269 L 61.729849,943.89265 C 59.075859,942.62644 56.817796,941.26154 54.973521,939.81928 V 939.81928 C 53.113063,938.36435 51.715419,936.86363 50.740667,935.34465 H 50.740667 C 49.766992,933.82735 49.195938,932.26419 49.005737,930.62721 L 49.005737,930.62721 C 42.343551,873.28842 45.814545,812.13737 57.080256,756.23939 H 57.080256 C 69.285061,695.68184 90.439029,641.70009 118.19693,599.93312 123.69153,597.81683 128.54655,594.61648 132.67644,590.21204 V 590.21204 C 137.3472,585.23077 140.94893,578.8611 143.55739,571.14763 V 571.14763 C 146.31482,562.99359 147.96873,553.31948 148.60512,542.16375 V 542.16375 C 149.28349,530.2723 148.80677,516.66513 147.25666,501.41824 L 147.25666,501.41824 C 144.97553,478.98109 147.53567,459.914 152.87909,444.17496 V 444.17496 C 158.68076,427.08613 167.88209,413.52846 178.55904,403.21288 V 403.21288 C 190.32321,391.84685 204.08394,384.1902 218.13518,379.66732 V 379.66732 C 233.9148,374.5881 250.18238,373.39261 265.60069,375.12985 L 265.60073,375.12985 C 281.34461,376.90378 293.49012,379.97115 302.913,382.97425 V 382.97425 C 313.9338,386.4866 323.57065,390.7245 330.47415,393.73873 V 393.73873 C 340.93452,398.30597 347.42583,401.07457 354.98961,403.33288 L 354.98963,403.33288 C 363.70992,405.93649 370.53957,406.70232 375.39946,406.96715 380.20972,407.22928 382.662,407.05867 382.662,407.05867 L 382.43706,399.06183 C 382.43706,399.06183 380.19363,399.21653 375.83475,398.97901 371.4592,398.74059 365.27192,398.05389 357.27834,395.66726 L 357.27833,395.66726 C 350.24032,393.56593 344.1613,390.98554 333.6753,386.40711 V 386.40711 C 326.80783,383.40861 316.81206,379.00745 305.34224,375.35199 V 375.35199 C 295.49299,372.21301 282.83183,369.02073 266.49646,367.18016 L 266.49641,367.18015 C 250.05988,365.32818 232.64225,366.59349 215.68395,372.05211 V 372.05211 C 200.57891,376.91419 185.7244,385.16612 173.00038,397.4595 V 397.4595 C 161.44065,408.628 151.52936,423.26558 145.30375,441.60313 V 441.60313 C 139.57004,458.49179 136.90745,478.71707 139.29768,502.2274 L 139.29768,502.2274 C 140.81831,517.18422 141.26597,530.3514 140.61811,541.70813 V 541.70813 C 140.00956,552.37581 138.44264,561.29957 135.97898,568.58485 V 568.58485 C 133.65596,575.45429 130.57318,580.75931 126.84062,584.74 H 126.84062 C 123.31207,588.50312 119.13549,591.15734 114.27788,592.85037 L 113.01642,593.29004 112.27232,594.39947 C 83.459308,637.35903 61.70899,692.78026 49.237943,754.65884 H 49.237943 C 37.822015,811.30216 34.291154,873.30066 41.059197,931.55051 L 41.059197,931.55051 C 41.400947,934.49183 42.429407,937.20571 44.007746,939.66527 H 44.007746 C 45.56221,942.08763 47.627303,944.23014 50.04534,946.1211 V 946.1211 C 52.441864,947.99524 55.222725,949.65197 58.285041,951.11299 L 58.285125,951.11303 C 61.323861,952.5628 64.67372,953.836 68.256831,954.94292 L 68.256929,954.94295 C 75.326491,957.1269 83.397076,958.69164 91.918559,959.66233 V 959.66233 C 91.918559,959.66233 91.918683,959.66234 91.918683,959.66234 V 959.66234 C 100.30299,960.6174 109.16715,961.00168 117.94979,960.81625 V 960.81625 C 117.94979,960.81625 117.94992,960.81625 117.94992,960.81625 V 960.81625 C 126.58474,960.63393 135.17678,959.89957 143.11866,958.60244 V 958.60244 C 143.11866,958.60244 143.11878,958.60242 143.11878,958.60242 V 958.60242 C 150.91457,957.32915 158.19168,955.49566 164.24602,953.05753 V 953.05753 C 167.2433,951.8505 169.99863,950.47219 172.3872,948.90198 V 948.90198 C 174.75101,947.34804 176.83806,945.55205 178.43016,943.471 L 178.43021,943.47094 C 180.0259,941.38517 181.13776,938.99146 181.47902,936.3141 L 181.47903,936.31402 C 181.81852,933.65046 181.36421,930.94728 180.19801,928.27924 L 180.198,928.27922 C 169.8122,904.51858 162.5599,877.82198 158.54757,849.43046 V 849.43046 C 154.64879,821.84246 153.82593,792.7416 156.15437,763.57085 V 763.57085 C 158.41978,735.18971 163.66975,706.77577 171.93008,679.95051 V 679.95051 C 179.91039,654.03459 190.70359,629.60423 204.26424,608.35436 224.96605,591.44446 241.60559,569.99474 252.98757,546.1851 V 546.1851 C 255.43781,541.05951 257.64121,535.82982 259.58355,530.52296 V 530.52296 C 267.09463,510.00116 267.65542,494.03246 267.33603,485.95164 266.98785,477.14249 265.72839,473.78883 265.72839,473.78883 Z" inkscape:path-effect="#path-effect2105" inkscape:original-d="M 265.72839,473.78883 C 266.21558,520.38595 243.13774,571.69187 201.24142,605.65715 146.11802,691.52344 133.73603,831.97067 176.53284,929.88129 191.14575,963.31274 49.306789,967.87625 45.032467,931.08886 32.119646,819.95334 56.095739,685.3386 115.59432,596.62754 136.80001,589.23667 149.62465,564.25652 143.27717,501.82282 134.25463,413.07729 198.04935,363.49327 266.04855,371.155 326.3505,377.94946 342.98274,404.17324 382.54953,403.06025" fill="#f8abd5" clip-path="url(#clipPath159)" />
  <path d="M 513.03902,285.95273 C 544.7717,379.29633 535.20678,474.97057 488.45822,529.73422 427.30255,601.3751 316.93229,600.72388 251.62903,539.14738" fill="none" stroke="#f8abd5" stroke-width="8" />
  <g>
    <path d="M 382.76697,363.55892 C 448.43067,436.98978 510.55695,434.99287 532.70055,402.57603 535.17465,474.09384 500.9847,548.91367 427.27027,574.74325 466.57607,542.66263 467.61667,487.41721 410.36034,451.14259 379.47713,431.5766 369.5223,399.75505 382.76697,363.55892 Z" fill="#f6d472" />
    <path d="M 391.16059,435.82704 407.92579,388.68054 428.1805,403.64498 411.99448,453.88283 Z" fill="#fbe5a6" />
    <path d="M 382.76697,363.55892 C 448.43067,436.98978 510.55695,434.99287 532.70055,402.57603 535.17465,474.09384 500.9847,548.91367 427.27027,574.74325 466.57607,542.66263 467.61667,487.41721 410.36034,451.14259 379.47713,431.5766 369.5223,399.75505 382.76697,363.55892 Z" fill="none" stroke="#d0ac44" stroke-width="8" />
    <path d="M 486.65981,521.68297 C 479.9557,509.49704 474.70778,494.81386 475.30992,482.61466 476.27028,463.15802 491.80223,457.58074 496.25564,469.23948 502.12052,455.48178 516.56669,460.44244 512.92757,477.7194 510.00038,491.61634 502.01478,508.72698 486.65981,521.68297 Z" fill="#c72f9b" />
    <ellipse cx="456.37466" cy="521.99615" rx="3.4531255" ry="6.4426165" transform="rotate(-5.8503111)" fill="#f26ecd" />
  </g>
  <path d="M 27.370561,889.39299 C 41.543417,925.67219 53.422375,916.5096 59.147409,894.65494 70.696483,930.10962 95.702257,925.71081 97.883909,900.47883 121.4732,937.72991 138.71909,926.77234 141.26884,896.69 157.11242,928.79658 180.91489,914.40239 181.47624,888.86691" style="clip-path:url(#clipPath152);fill:none;stroke:#f8abd5;stroke-width:4" />
  <g>
    <path d="M 386.39674,530.84061 C 348.49773,643.1504 340.00279,813.66444 371.83559,932.46608 381.5592,968.75508 519.59426,962.6078 500.7678,928.25743 444.01961,824.7159 431.21338,650.0535 445.42837,531.66617 Z" style="clip-path:url(#clipPath1277);fill:#e51fab;stroke:#700c53;stroke-width:8" />
    <g clip-path="url(#clipPath1269)">
      <path d="M 386.39674,530.84061 C 348.49773,643.1504 340.00279,813.66444 371.83559,932.46608 381.5592,968.75508 519.59426,962.6078 500.7678,928.25743 444.01961,824.7159 431.21338,650.0535 445.42837,531.66617 Z" fill="#fef3f9" />
      <path d="M 386.39674,530.84061 C 386.39674,530.84061 384.09641,534.23375 380.14419,543.78826 376.36787,552.91756 370.32457,569.76971 364.93676,595.69028 V 595.69028 C 363.1786,604.14877 361.40933,613.46133 359.71128,623.60862 V 623.60862 C 354.8729,652.52219 350.60788,688.41328 348.96998,729.05779 L 348.96998,729.05784 C 347.62668,762.39203 348.06211,798.86767 351.36774,835.74339 V 835.74339 C 354.34529,868.95931 359.65413,902.45906 367.97189,933.50136 L 367.97189,933.50136 C 368.73342,936.34342 370.10919,938.9328 371.9603,941.26391 L 371.96032,941.26393 C 373.78213,943.55814 376.05752,945.5949 378.65987,947.39985 L 378.65989,947.39986 C 383.77268,950.946 390.31204,953.71036 397.63551,955.79552 V 955.79552 C 404.88723,957.86025 413.01883,959.28973 421.47692,960.11985 V 960.11985 C 429.88555,960.94512 438.63322,961.17939 447.16302,960.84851 V 960.84851 C 455.69029,960.51773 464.00897,959.62177 471.55927,958.18204 V 958.18204 C 479.13887,956.73672 486.02503,954.72853 491.61359,952.13907 V 952.13907 C 494.43719,950.83075 496.98646,949.34807 499.14683,947.67044 V 947.67044 C 501.32253,945.98092 503.17064,944.04148 504.47925,941.8176 L 504.47926,941.81758 C 505.81856,939.54153 506.55813,937.02111 506.52893,934.32089 V 934.32089 C 506.49959,931.60757 505.69758,928.92962 504.27552,926.33495 L 504.27552,926.33495 C 489.7874,899.90025 478.57072,869.42132 470.03993,838.20234 V 838.20234 C 460.57404,803.56128 454.38318,767.95314 450.45873,735.05517 L 450.45873,735.05512 C 445.67211,694.92973 444.17258,658.27559 444.09798,629.00749 V 629.00749 C 444.07162,618.66569 444.22175,609.1119 444.47571,600.43937 V 600.43937 C 445.35714,570.33906 445.84112,559.5506 445.86633,546.10041 445.88576,535.73937 445.42837,531.66617 445.42837,531.66617 445.42837,531.66617 443.89138,535.48145 441.88554,545.70887 439.96934,555.47924 437.26509,573.36512 436.47913,600.20521 V 600.20521 C 436.22284,608.95734 436.07142,618.59615 436.09801,629.02788 V 629.02788 C 436.17323,658.54342 437.685,695.51327 442.51505,736.00273 L 442.51505,736.00278 C 446.47407,769.19057 452.72886,805.20119 462.32286,840.31108 V 840.31108 C 470.96398,871.93383 482.37167,903.01483 497.26008,930.17991 L 497.26008,930.17991 C 498.17702,931.85293 498.51664,933.22815 498.5294,934.4074 V 934.4074 C 498.54157,935.53285 498.24799,936.63266 497.58438,937.76041 L 497.58437,937.76042 C 496.91013,938.90625 495.82836,940.11855 494.24016,941.35185 V 941.35185 C 492.66747,942.57312 490.66888,943.75975 488.25029,944.8804 V 944.8804 C 483.44195,947.10835 477.23423,948.95577 470.06079,950.32364 V 950.32364 C 462.95478,951.67865 455.03796,952.53702 446.85292,952.85452 V 952.85452 C 438.67027,953.17194 430.28773,952.94615 422.25833,952.1581 V 952.1581 C 414.1698,951.36425 406.5239,950.0083 399.82622,948.10132 V 948.10132 C 393.01321,946.1615 387.37019,943.70528 383.21924,940.82625 L 383.21922,940.82624 C 381.12695,939.37507 379.46813,937.8541 378.22529,936.28898 L 378.22528,936.28896 C 376.97462,934.71401 376.14554,933.09621 375.69929,931.4308 L 375.69929,931.4308 C 367.52115,900.90954 362.28275,867.90377 359.33579,835.02911 V 835.02911 C 356.06051,798.49208 355.63196,762.42197 356.96349,729.37996 L 356.96349,729.37991 C 358.59199,688.96879 362.81206,653.55049 367.60157,624.92898 V 624.92898 C 369.2818,614.88815 371.03168,605.67821 372.76935,597.31835 V 597.31835 C 378.19671,571.20747 381.93805,555.05513 383.97051,544.95417 385.99347,534.90039 386.39674,530.84061 386.39674,530.84061 Z" inkscape:path-effect="#path-effect44" inkscape:original-d="M 386.39674,530.84061 C 348.49773,643.1504 340.00279,813.66444 371.83559,932.46608 381.5592,968.75508 519.59426,962.6078 500.7678,928.25743 444.01961,824.7159 431.21338,650.0535 445.42837,531.66617" fill="#f8abd5" />
    </g>
    <path d="M 351.65414,893.2816 C 364.89219,921.64433 388.20443,921.40791 393.31998,897.21785 405.63712,932.46143 432.25605,931.33199 433.84594,899.66947 454.23245,929.72587 468.87531,921.55644 469.59309,889.23408 483.64641,914.75588 496.12081,917.7991 504.32344,900.23933" style="clip-path:url(#clipPath1273);fill:none;stroke:#f8abd5;stroke-width:4" />
    <path d="M 459.21796,805.27315 C 448.20621,834.91773 446.37937,861.29145 450.61247,888.99724 L 397.64237,873.33744 424.70267,914.15774 C 407.82549,925.32995 387.25195,924.52496 365.52057,914.03484 366.90802,921.10751 368.38237,926.77438 371.58338,935.52347 384.60732,971.1209 521.04973,963.19712 503.45502,929.29508 479.31569,882.78267 471.75391,855.63279 459.21796,805.27315 Z" fill="#f6d472" stroke="#d0ac44" stroke-width="8" />
  </g>
  <path d="M 152.48245,805.52664 C 135.28933,831.82716 128.66635,856.94486 126.42873,888.25073 L 77.546813,873.84093 101.4672,914.91123 C 83.343169,923.15268 62.465057,922.02845 41.797564,911.53833 41.988679,918.86569 42.592798,925.24431 43.822059,932.28711 50.465328,970.3484 193.30629,963.75246 178.68436,930.04857 159.98161,886.93831 155.06947,853.77745 152.48245,805.52664 Z" fill="#f6d472" stroke="#d0ac44" stroke-width="8" />
  <g transform="translate(627.5784 935.80021)scale(.41129092)">
    <path d="M -10,0 C -4,-6 -6,-14 -14,-18 3,-20 8,-28 -2,-39 8,-37 17,-42 18,-53 36,-20 5,-16 5,0 5,16 36,20 18,53 17,42 8,37 -2,39 8,28 3,20 -14,18 -6,14 -4,6 -10,0 Z" fill="#5a318e" />
    <path d="M -20,0 20,-7 11,0 20,7 Z" fill="#54a2e1" />
    <path d="M 0,-30 25.980762,-15 V 15 L 0,30 -25.980762,15 V -15 Z" fill="none" stroke="#576ab7" stroke-width="1.8" />
  </g>
  <text y="941.21472" x="646.54883" xml:space="preserve" style="font-size:14px;line-height:1.25;font-family:Junction;fill:#576ab7"><tspan y="941.21472" x="646.54883" sodipodi:role="line">Parcly Taxel</tspan></text>
  <g>
    <path d="M 363.42256,67.000886 C 305.33717,166.48908 378.97491,256.3617 368.12244,346.97041 424.59883,269.96414 365.60981,215.07451 380.62237,143.56402 Z M 392.27249,26.981023 C 432.5891,-31.152027 526.43621,-46.127091 599.26284,-15.473785 629.53053,-2.733874 660.05775,-7.2151517 677.64176,-24.799165 676.13877,-8.4501314 666.50693,5.2341944 650.83948,13.005426 696.26093,29.739652 669.66424,91.124323 698.43094,134.45341 669.87747,120.14095 653.3612,100.16188 639.58964,68.642789 638.73208,105.94408 624.73224,137.18198 635.96364,174.6811 596.28434,149.37612 616.2733,105.66575 586.06679,75.061842 L 549.82478,34.322521 410.58188,72.62902 Z" style="fill:#93f2ef;stroke:#198bbf;stroke-width:8;stroke-miterlimit:20" />
    <g>
      <path d="M 587.48527,-13.921897 C 528.97681,-21.666567 457.52129,-7.7891546 397.84509,26.674408 L 424.67012,-62.361053 452.29641,-39.11538 482.38249,-161.09203 540.69644,-54.041841 558.16717,-80.27547 Z" fill="#f6d472" />
      <path d="M 501.58325,-25.400965 C 484.93301,-37.169486 475.74207,-48.137789 473.71886,-58.643641 471.18513,-71.800256 483.65891,-80.70369 495.52272,-67.028587 500.11632,-83.381869 516.86385,-80.715748 518.52792,-65.580994 519.74914,-54.474077 513.96369,-41.631688 501.58325,-25.400965 Z" fill="#c72f9b" />
      <path d="M 412.63542,-21.486374 422.59259,-56.028227 445.90766,4.0546805 426.05196,12.311874 Z" fill="#fbe5a6" />
      <path d="M 587.48527,-13.921897 C 528.97681,-21.666567 457.52129,-7.7891546 397.84509,26.674408 L 424.67012,-62.361053 452.29641,-39.11538 482.38249,-161.09203 540.69644,-54.041841 558.16717,-80.27547 Z" style="fill:none;stroke:#d0ac44;stroke-width:8;stroke-miterlimit:20" />
      <ellipse cx="473.79358" cy="199.48358" rx="4.8721972" ry="6.7728796" transform="rotate(-30.28328)" fill="#f26ecd" />
    </g>
    <path d="M 386.25679,177.95613 C 323.65659,79.056233 365.53897,-12.534514 381.16562,-17.137109 393.39365,-20.738695 429.33742,30.061529 431.78271,74.382958 Z" inkscape:linked-fill="path2218" fill="#fef3f9" />
    <path d="M 382.53049,34.975449 C 378.47733,65.413039 380.30189,96.172897 389.79449,125.63258 375.20523,97.73678 371.83525,65.497662 382.53049,34.975449 Z" fill="#f8abd5" />
    <path d="M 386.25679,177.95613 C 386.25679,177.95613 384.21272,173.28181 379.69067,162.78794 375.50414,153.07264 367.99469,135.20171 362.60001,113.62182 V 113.62182 C 361.96747,111.0915 361.3514,108.41168 360.77263,105.59229 V 105.59229 C 357.10344,87.718574 355.56624,67.198842 358.3436,45.55718 V 45.55718 C 359.42547,37.127036 361.09698,29.09008 363.24637,21.646891 L 363.24639,21.646845 C 365.26568,14.654218 367.64514,8.4032701 370.17523,3.1033857 V 3.1033857 C 372.63534,-2.0498945 375.15285,-6.1234742 377.44982,-8.985557 V -8.985557 C 378.58831,-10.404135 379.6198,-11.458723 380.50405,-12.187585 V -12.187585 C 380.94376,-12.550023 381.32307,-12.812035 381.63764,-12.994859 L 381.63764,-12.994861 C 381.95558,-13.179645 382.17434,-13.264318 382.29576,-13.300081 L 382.29576,-13.300081 C 382.30865,-13.303879 382.35256,-13.315986 382.45615,-13.317965 L 382.45616,-13.317965 C 382.56156,-13.31998 382.72226,-13.310062 382.94617,-13.265773 L 382.94618,-13.265772 C 383.41408,-13.173221 384.06211,-12.949739 384.89421,-12.513629 L 384.89422,-12.513627 C 386.65209,-11.592319 388.77449,-9.9665793 391.11161,-7.7110203 V -7.7110203 C 393.64403,-5.2669686 396.23721,-2.2718171 398.73634,0.98599966 L 398.73635,0.98600502 C 401.6812,4.82485 404.37935,8.8734639 406.72516,12.730375 V 12.730375 C 408.38065,15.45227 409.83063,18.028359 411.06882,20.342217 V 20.342217 C 415.29899,28.247323 418.65544,35.673025 421.24607,42.061908 V 42.061908 C 425.79446,53.278901 428.40582,62.394882 429.71648,67.064383 431.16127,72.211809 431.78271,74.382958 431.78271,74.382958 431.78271,74.382958 432.3983,72.175959 432.41619,66.70211 432.4335,61.403526 431.76551,52.159374 427.87743,39.694844 V 39.694844 C 425.72589,32.79736 422.56322,24.866448 418.1224,16.567706 V 16.567706 C 416.82437,14.142014 415.30181,11.436677 413.56022,8.5732131 V 8.5732131 C 411.09667,4.5227325 408.23762,0.22798739 405.08381,-3.8832546 L 405.08381,-3.8832603 C 402.41638,-7.3604569 399.56046,-10.675063 396.66713,-13.467423 V -13.467423 C 394.05231,-15.990991 391.30655,-18.18505 388.60791,-19.59942 L 388.60791,-19.599423 C 387.30457,-20.282506 385.92049,-20.832455 384.49848,-21.113724 L 384.49847,-21.113726 C 383.7904,-21.253781 383.0545,-21.330859 382.30331,-21.316505 L 382.30331,-21.316505 C 381.55459,-21.302198 380.79198,-21.196951 380.03549,-20.97414 L 380.03547,-20.974135 C 379.18234,-20.722858 378.37337,-20.3507 377.61775,-19.911543 L 377.61774,-19.911539 C 376.86256,-19.472638 376.12743,-18.947467 375.41566,-18.360781 V -18.360781 C 374.00144,-17.195073 372.59198,-15.713997 371.21065,-13.992822 V -13.992822 C 368.4269,-10.524206 365.60174,-5.8858712 362.95571,-0.34312324 V -0.34312324 C 360.2183,5.391018 357.68882,12.056941 355.56044,19.427342 L 355.56042,19.42739 C 353.29324,27.278456 351.54072,35.717731 350.40867,44.538862 V 44.538862 C 347.50363,67.175529 349.11549,88.58994 352.93605,107.20102 V 107.20102 C 353.53888,110.13761 354.1804,112.92806 354.83884,115.562 V 115.562 C 360.58558,138.55018 370.06233,155.37684 376.16985,164.68631 382.59913,174.48621 386.25679,177.95613 386.25679,177.95613 Z" inkscape:path-effect="#path-effect2214" inkscape:original-d="M 386.25679,177.95613 C 323.65659,79.056233 365.53897,-12.534514 381.16562,-17.137109 393.39365,-20.738695 429.33742,30.061529 431.78271,74.382958" inkscape:linked-fill="path2218" fill="#f8abd5" />
    <path d="M 595.17631,58.794172 C 778.27835,-267.19556 777.25375,-268.24067 547.15715,27.201882" fill="#fef3f9" stroke="#f8abd5" stroke-width="8" />
    <path d="M 681.39213,-143.61266 C 692.20176,-141.94642 706.7178,-148.42869 717.85173,-163.66624 M 653.26356,-107.97737 C 664.00471,-101.51743 680.96744,-106.6217 696.47586,-123.93303 M 623.95196,-71.370831 C 634.15256,-57.680096 657.18914,-63.883764 674.03091,-81.507628 M 594.40531,-33.348222 C 603.89331,-17.575246 626.02789,-16.202939 647.06704,-33.487962 M 566.89581,1.4055284 C 572.2771,22.550754 595.7987,28.298386 622.59676,10.954733" fill="none" stroke="#f8abd5" stroke-width="4" />
    <path d="M 556.95566,-8.2405833 C 622.89768,12.444335 620.93983,80.292916 558.20837,85.685341 510.31109,89.802613 477.02956,103.35902 445.4194,143.48432 455.1424,104.37586 474.71015,80.141644 508.60219,59.493877 468.01308,64.283525 437.0198,78.528798 410.05254,110.42379 414.28228,83.018939 420.16045,64.723141 437.49764,48.33123 Z" fill="#93f2ef" />
    <path d="M 556.95566,-8.2405833 C 556.95566,-8.2405833 560.13532,-6.703271 566.65419,-2.9009623 572.71918,0.63660263 582.92074,7.1091922 590.90666,16.905185 L 590.90666,16.905191 C 593.30131,19.842606 595.53624,23.123647 597.39103,26.733834 V 26.733834 C 600.10177,32.010065 601.86247,38.046902 601.83461,44.439631 V 44.439631 C 601.81597,48.714875 600.99144,53.139712 599.10346,57.444218 V 57.444218 C 597.3849,61.36246 594.761,65.229083 591.02146,68.718927 V 68.718927 C 587.53941,71.968471 583.03987,74.934978 577.3627,77.244509 V 77.244509 C 571.99643,79.427558 565.53054,81.041173 557.86579,81.700038 L 557.86579,81.700038 C 546.2378,82.699585 534.84375,84.299817 523.89261,86.920637 V 86.920637 C 513.57939,89.388793 503.60345,92.772274 493.95053,97.487719 L 493.9505,97.487734 C 484.6853,102.01378 475.76952,107.73977 467.07111,115.04051 V 115.04051 C 462.9549,118.49533 458.90178,122.29038 454.88958,126.4635 459.13051,115.35151 464.4909,105.67228 471.12497,96.995963 V 96.995963 C 481.2885,83.703673 494.40132,72.8292 510.68329,62.909873 515.89038,59.737601 521.22671,56.782506 526.67854,54.052195 520.4803,54.304357 514.29403,54.794468 508.1334,55.521442 486.35959,58.090826 468.30089,63.231861 452.42141,71.221086 L 452.42139,71.221096 C 438.34019,78.305587 426.56742,87.362547 416.41119,97.562843 416.90572,95.20147 417.40331,93.055723 417.90954,91.05936 V 91.05936 C 419.3603,85.338168 420.82991,80.687912 422.3138,76.679442 L 422.3138,76.679434 C 424.46489,70.868627 426.70192,66.279323 428.69991,62.612445 V 62.612445 C 431.24714,57.937533 433.94467,53.841722 435.28414,51.790612 436.81575,49.445278 437.49764,48.33123 437.49764,48.33123 437.49764,48.33123 432.17328,50.158329 424.28014,59.577001 V 59.577001 C 421.3842,63.03265 418.22813,67.633006 415.4058,73.81587 L 415.40579,73.815878 C 413.4677,78.061664 411.69207,83.031224 410.15494,89.093022 V 89.093022 C 408.75066,94.630948 407.43659,101.14953 406.09935,109.81364 405.34122,114.72563 404.67801,119.6518 404.11009,124.58939 406.94761,120.60564 409.94919,116.74132 413.10707,113.0064 424.73502,99.253662 438.52398,87.168566 456.01691,78.367582 L 456.01693,78.367573 C 466.47382,73.10654 478.03002,69.111583 491.26516,66.339205 481.05285,73.974682 472.20928,82.407097 464.76984,92.136714 V 92.136714 C 454.01556,106.20161 446.49671,122.57225 441.53757,142.51923 440.05122,148.49773 438.85751,154.5452 437.96072,160.64007 441.28798,155.60086 444.82467,150.70309 448.56151,145.95963 456.39691,136.01353 464.22232,127.87595 472.2142,121.16821 V 121.16821 C 480.41613,114.28417 488.78433,108.91491 497.46192,104.67591 L 497.46195,104.6759 C 506.51589,100.25305 515.91974,97.054606 525.75459,94.700936 V 94.700936 C 536.21167,92.198352 547.19212,90.647054 558.55095,89.670644 L 558.55095,89.670644 C 566.94533,88.949059 574.20418,87.166068 580.37727,84.654794 V 84.654794 C 586.91264,81.996141 592.25057,78.514391 596.47967,74.567678 V 74.567678 C 601.02369,70.327079 604.27918,65.560746 606.42974,60.657562 V 60.657562 C 608.78978,55.276779 609.81149,49.760339 609.83453,44.474502 V 44.474502 C 609.86892,36.584808 607.69799,29.289225 604.50684,23.077955 V 23.077955 C 602.31722,18.816064 599.5967,15.092977 596.67793,11.901775 L 596.67793,11.901769 C 586.89238,1.2028686 574.80883,-3.7337607 567.95103,-5.8633529 560.50792,-8.1747015 556.95566,-8.2405833 556.95566,-8.2405833 Z" inkscape:path-effect="#path-effect971" inkscape:original-d="M 556.95566,-8.2405833 C 622.89768,12.444335 620.93983,80.292916 558.20837,85.685341 510.31109,89.802613 477.02956,103.35902 445.4194,143.48432 455.1424,104.37586 474.71015,80.141644 508.60219,59.493877 468.01308,64.283525 437.0198,78.528798 410.05254,110.42379 414.28228,83.018939 420.16045,64.723141 437.49764,48.33123" fill="#198bbf" />
  </g>
  <g>
    <path d="M 213.20234,391.06696 C 52.420184,153.35189 -230.00106,481.75433 18.869662,647.55288 145.36779,731.82638 198.64828,795.17072 144.81372,904.5776 261.53006,831.75011 263.14354,704.01362 155.02874,557.93141 80.007874,456.56495 126.94127,361.85123 184.05491,412.83696 Z" fill="#42dced" />
    <path d="M 198.93595,401.85269 C 67.226311,267.55676 -44.804936,479.22211 89.57599,592.67187 203.63363,688.9639 227.00453,815.23486 144.81372,904.5776 261.53006,831.75011 263.14354,704.01362 155.02874,557.93141 80.007874,456.56495 126.94127,361.85123 184.05491,412.83696 Z" fill="#93f2ef" />
    <path d="M 125.22315,559.46759 C 210.58767,662.71225 244.57579,749.29768 213.78622,835.51872 254.47245,761.7688 234.08854,664.75518 155.02874,557.93141 100.71644,484.54588 110.32303,414.64721 141.43647,400.9959 97.965068,417.18679 68.912091,491.36182 125.22315,559.46759 Z" fill="#f9e684" />
    <path d="M 18.869662,647.55288 C 128.59198,720.65028 183.22878,778.00155 160.62361,863.56601 185.27184,786.88403 141.01351,677.05387 61.451949,635.77062 -35.042208,585.70131 -92.013604,504.90204 -73.067789,436.5152 -92.010229,504.91585 -71.935642,587.05807 18.869662,647.55288 Z" fill="#18b7ea" />
    <path d="M 213.20234,391.06696 C 52.420184,153.35189 -230.00106,481.75433 18.869662,647.55288 145.36779,731.82638 198.64828,795.17072 144.81372,904.5776 261.53006,831.75011 263.14354,704.01362 155.02874,557.93141 80.007874,456.56495 126.94127,361.85123 184.05491,412.83696 Z" style="fill:none;stroke:#198bbf;stroke-width:8;stroke-miterlimit:20" />
    <path d="M 215.58182,376.29637 C 196.49575,382.70724 179.52823,394.21714 166.75045,410.28016 L 185.57839,424.59534 224.60261,394.66515 Z" fill="#fef3f9" />
    <path d="M 161.694,417.20578 C 175.97156,395.85899 197.05486,381.32 221.06091,374.61227" fill="none" stroke="#f8abd5" stroke-width="8" />
  </g>
  <g>
    <path d="M 359.33378,421.91357 C 282.18142,357.97901 262.37211,281.67262 295.1625,191.99024 324.83632,110.83173 286.05635,18.026338 68.488787,-41.317258 -57.85141,-75.777732 -106.64808,-126.04517 -120.14197,-110.115 -133.33172,-94.543874 -100.82652,-38.25541 22.130283,9.8876794 -188.79816,-12.727377 -191.98804,44.42334 25.196839,73.847872 -161.92126,89.120502 -156.11009,133.14068 42.396659,140.83972 -109.2026,172.74224 -95.512016,231.23766 66.06541,201.55874 -39.744903,252.93189 -12.378311,303.96296 97.56237,272.41578 25.671028,321.61515 63.143,370.83286 139.35234,336.65055 104.91568,387.48994 139.68201,428.66028 186.8011,401.20357 168.66315,446.43753 207.78155,472.81538 256.49084,442.79127 230.74914,483.33686 281.77897,508.34933 326.26963,463.00737 Z" fill="#fef3f9" />
    <path d="M 323.01488,417.54076 C 323.01488,417.54076 313.25803,410.1197 293.14001,385.99024 V 385.99024 C 290.40179,382.70603 287.7331,379.23384 285.16252,375.564 V 375.564 C 275.66807,362.0094 267.52017,345.76449 262.20691,326.48354 L 262.20689,326.48348 C 253.44308,294.68104 252.44462,254.511 266.08711,206.88918 L 266.08711,206.88918 C 271.71788,187.23388 274.52861,168.39481 274.19609,150.78332 V 150.78332 C 273.88212,134.1545 270.76445,118.71852 264.6738,104.90592 V 104.90592 C 258.85139,91.701631 250.35719,80.091718 239.21413,70.475944 V 70.475944 C 228.47085,61.205158 215.33869,53.853817 199.97444,48.741167 L 199.97434,48.741134 C 189.6519,45.306217 180.54458,43.184492 172.66345,42.207371 L 172.66338,42.207362 C 164.89263,41.243933 158.25726,41.386456 152.81764,42.520944 L 152.81759,42.520954 C 150.11568,43.084467 147.68619,43.897533 145.55434,44.957507 L 145.5543,44.957526 C 143.43146,46.013019 141.59506,47.31913 140.09479,48.863387 L 140.09477,48.863415 C 138.59621,50.405925 137.45137,52.166182 136.68595,54.104393 V 54.104393 C 135.9248,56.031787 135.55709,58.088562 135.55566,60.217474 L 135.55566,60.217474 C 135.55284,64.432373 136.98153,68.895197 139.58327,73.321469 V 73.321469 C 142.17231,77.726147 145.98163,82.197969 150.92986,86.507948 L 150.92991,86.507989 C 160.73979,95.052516 175.21567,103.12445 194.09925,108.78335 L 194.84098,102.912 194.84086,102.912 V 102.912 C 179.47445,103.5244 166.10795,105.11778 154.68507,107.44882 V 107.44882 C 154.68507,107.44882 154.68496,107.44885 154.68496,107.44885 V 107.44885 C 143.29828,109.77251 133.81696,112.83451 126.20679,116.40486 V 116.40486 C 118.62321,119.96274 112.80764,124.06807 108.84364,128.53196 V 128.53196 C 106.85553,130.77079 105.31923,133.1151 104.2703,135.54197 L 104.2703,135.54197 C 103.21906,137.97418 102.66609,140.47216 102.64073,142.98402 V 142.98402 C 102.61535,145.49752 103.11896,147.9653 104.1121,150.33286 L 104.1121,150.33286 C 105.10335,152.69591 106.57108,154.93388 108.45363,157.01893 H 108.45363 C 110.3365,159.10434 112.64311,161.04692 115.33255,162.82655 L 115.33261,162.82659 C 118.02563,164.60858 121.11792,166.23748 124.58488,167.69009 L 124.58494,167.69012 C 131.52894,170.59957 140.03273,172.82578 149.97455,174.14866 L 149.97464,174.14868 C 155.79695,174.9234 162.12179,175.38961 168.93032,175.50032 160.32047,179.8779 153.5247,184.70911 148.53741,189.69864 L 148.53737,189.69867 C 144.76556,193.47219 141.98056,197.38375 140.24787,201.3154 L 140.24785,201.31543 C 138.49601,205.29054 137.81511,209.30213 138.31085,213.16675 V 213.16675 C 138.81281,217.07992 140.50035,220.67604 143.2227,223.79425 L 143.2227,223.79425 C 145.96002,226.92959 149.70811,229.54641 154.30263,231.59597 L 154.30267,231.59598 C 158.95714,233.67227 164.53019,235.18989 170.94209,236.08363 L 170.94215,236.08363 C 174.12288,236.52698 177.51626,236.81774 181.11653,236.94644 174.70641,241.10184 169.79526,245.57798 166.30374,250.07327 V 250.07327 C 163.61977,253.52886 161.74168,257.03708 160.67379,260.47713 V 260.47713 C 159.57978,264.00134 159.33466,267.46158 159.95658,270.69874 V 270.69874 C 160.59634,274.02873 162.13314,277.01583 164.43172,279.52306 V 279.52306 C 166.78668,282.09177 169.88628,284.10131 173.54552,285.53305 L 173.54552,285.53305 C 177.32202,287.01067 181.71568,287.88319 186.6091,288.14283 V 288.14283 C 188.40569,288.23816 190.2716,288.25106 192.20319,288.18079 191.50757,288.81929 190.8534,289.45949 190.23917,290.10009 V 290.10009 C 187.28029,293.18599 185.21907,296.31136 183.91909,299.35391 V 299.35391 C 182.54026,302.58101 182.01717,305.71581 182.18617,308.62054 V 308.62054 C 182.3674,311.73548 183.33909,314.52704 184.82701,316.89055 L 184.82701,316.89055 C 186.44517,319.46091 188.64928,321.49477 191.11808,323.00467 H 191.11808 C 192.72957,323.99024 194.45741,324.75608 196.23947,325.3233 V 325.3233 C 197.53792,325.73659 198.83905,326.01708 200.11112,326.19013 L 200.11112,326.19013 C 207.62391,327.21211 213.67827,324.75837 217.18055,322.85355 220.72756,320.92441 221.94665,319.49617 221.94665,319.49617 221.94665,319.49617 220.05967,319.81337 216.33487,320.34283 212.78107,320.84798 206.8917,321.51987 201.05898,320.37086 L 201.05898,320.37086 C 200.05744,320.17356 199.05233,319.92201 198.05926,319.60593 V 319.60593 C 196.69434,319.17148 195.41264,318.59801 194.24857,317.88607 H 194.24857 C 192.46508,316.79531 190.96983,315.38605 189.90461,313.69399 L 189.90461,313.69399 C 188.93136,312.14801 188.29578,310.33016 188.17604,308.27204 V 308.27204 C 188.06429,306.35121 188.39899,304.13974 189.43657,301.71133 V 301.71133 C 190.41811,299.41405 192.04744,296.88352 194.57001,294.25266 V 294.25266 C 196.97373,291.74575 200.20194,289.13504 204.45744,286.57281 L 218.2201,278.28633 202.39437,281.04735 C 196.65095,282.04937 191.47676,282.39266 186.927,282.15126 V 282.15126 C 182.53736,281.91835 178.79579,281.14439 175.73173,279.94552 L 175.73173,279.94552 C 172.7673,278.78564 170.48535,277.24744 168.85439,275.46843 V 275.46843 C 167.27928,273.75034 166.27133,271.76587 165.84883,269.56673 V 269.56673 C 165.4351,267.4132 165.56581,264.95621 166.40404,262.25596 V 262.25596 C 167.22538,259.61012 168.72686,256.73487 171.04231,253.75375 V 253.75375 C 175.54108,247.96164 183.07214,241.83525 194.21226,236.51968 L 207.90414,229.98652 192.75623,230.81658 C 184.83509,231.25064 177.83139,230.9859 171.77046,230.14108 L 171.77041,230.14108 C 165.78986,229.30746 160.78242,227.91659 156.74701,226.11646 L 156.74697,226.11644 C 152.75953,224.3377 149.78605,222.18888 147.74252,219.84821 L 147.74252,219.84821 C 145.73651,217.55051 144.60059,215.04223 144.26208,212.40335 V 212.40335 C 143.92542,209.77879 144.3585,206.86605 145.73832,203.7351 L 145.73833,203.73507 C 147.11139,200.61948 149.41665,197.3062 152.78097,193.94036 L 152.781,193.94033 C 159.45189,187.26644 170.12045,180.55776 185.13904,174.99351 L 203.84149,168.06442 183.92828,169.18509 C 171.40731,169.88974 160.32705,169.4733 150.76603,168.2011 L 150.76595,168.20108 C 141.23414,166.93276 133.26238,164.82049 126.90357,162.15623 L 126.90351,162.1562 C 123.73349,160.828 120.9812,159.36967 118.64361,157.82286 L 118.64357,157.82283 C 116.3075,156.27704 114.40187,154.65372 112.90701,152.99806 H 112.90701 C 111.41432,151.34481 110.34062,149.67016 109.64502,148.01191 L 109.64502,148.01191 C 108.95213,146.36013 108.6237,144.70056 108.64042,143.0446 V 143.0446 C 108.65715,141.38795 109.02002,139.67586 109.77788,137.92242 L 109.77788,137.92242 C 110.53807,136.16361 111.70411,134.34694 113.33004,132.51596 V 132.51596 C 116.59904,128.83471 121.66511,125.16312 128.7552,121.83677 V 121.83677 C 135.84304,118.51148 144.8522,115.57906 155.88465,113.32769 V 113.32769 C 155.88465,113.32769 155.88475,113.32766 155.88475,113.32766 V 113.32766 C 166.94176,111.07128 179.98177,109.50894 195.07978,108.90725 V 108.90725 L 195.07991,108.90724 213.02738,108.19199 195.82162,103.03588 C 177.59829,97.574835 163.92282,89.868105 154.87071,81.983599 L 154.87066,81.983562 C 150.30458,78.006442 146.9528,74.018625 144.75587,70.281044 V 70.281044 C 142.53661,66.505472 141.55374,63.089126 141.55566,60.221496 L 141.55566,60.221496 C 141.55662,58.787348 141.80266,57.482889 142.26655,56.308241 V 56.308241 C 142.7317,55.130386 143.43387,54.036992 144.39827,53.044304 L 144.39829,53.044285 C 145.37271,52.04129 146.63257,51.122131 148.22558,50.330073 L 148.22561,50.330059 C 149.82918,49.532751 151.75997,48.870636 154.0426,48.394569 L 154.04264,48.394561 C 158.6607,47.431418 164.60253,47.253904 171.92514,48.161773 L 171.92521,48.161781 C 179.33004,49.07985 188.04436,51.09476 198.07991,54.434209 L 198.08,54.434241 C 212.77682,59.324794 225.20254,66.309944 235.29423,75.01845 V 75.01845 C 245.75298,84.043703 253.71543,94.925274 259.18384,107.32672 V 107.32672 C 264.90977,120.31219 267.89601,134.94691 268.19716,150.89658 V 150.89658 C 268.51628,167.79888 265.81966,186.03611 260.31913,205.2368 L 260.31913,205.2368 C 246.44382,253.6713 247.33899,295.11488 256.4225,328.07749 L 256.42252,328.07754 C 261.92735,348.05366 270.38088,364.91938 280.24819,379.00629 V 379.00629 C 282.91808,382.81791 285.68925,386.42334 288.53163,389.83248 V 389.83248 C 298.70418,402.03339 308.64435,409.24238 314.20491,412.78198 320.19372,416.59418 323.01488,417.54076 323.01488,417.54076 Z" inkscape:path-effect="#path-effect2217" inkscape:original-d="M 323.01488,417.54076 C 257.97995,371.25917 238.11991,293.62088 263.20312,206.06299 286.19286,125.81273 258.20724,71.280581 199.02716,51.587683 117.08106,24.319109 121.0715,83.767083 194.96045,105.90962 72.919609,110.77325 82.436147,177.90159 184.09687,172.18035 123.26833,194.71675 127.82316,237.37924 192.92038,233.81209 147.84109,255.32191 154.62267,292.42711 202.90999,284.00271 168.03639,305.00004 189.98689,334.61303 221.94665,319.49617" fill="#f8abd5" />
    <path d="M 359.33378,421.91357 C 359.33378,421.91357 356.04526,418.20228 348.43411,409.87754 341.98327,402.82188 327.79799,387.36569 315.42093,369.35203 L 315.42092,369.35202 C 314.49345,368.00218 313.56162,366.61847 312.62901,365.20173 V 365.20173 C 302.75466,350.20152 294.85844,333.7133 289.87716,315.54939 V 315.54939 C 285.00217,297.77303 282.90708,278.35238 284.49519,257.05724 V 257.05724 C 285.95495,237.48304 290.5268,216.31737 298.91926,193.36382 L 298.91928,193.36377 C 306.26155,173.28249 309.87105,151.51493 306.82231,129.10321 V 129.10321 C 305.36079,118.3594 302.36621,107.45443 297.50267,96.525825 V 96.525825 C 292.76254,85.874521 286.24686,75.200246 277.64335,64.630738 V 64.630738 C 261.03941,44.23261 236.57295,24.117482 201.77274,5.2435412 V 5.2435412 C 168.34701,-12.884951 125.10794,-30.019955 69.541734,-45.176183 L 69.541499,-45.176153 C 69.541499,-45.176153 69.541375,-45.176279 69.541375,-45.176279 L 69.541372,-45.176282 C 38.55576,-53.627898 11.99994,-63.10544 -10.860646,-72.542443 V -72.542443 C -10.860646,-72.542443 -10.860812,-72.542512 -10.860812,-72.542512 V -72.542512 C -33.087262,-81.717746 -51.210091,-90.595408 -66.350764,-98.188157 V -98.188157 C -66.350764,-98.188157 -66.350869,-98.18821 -66.350869,-98.18821 V -98.18821 C -73.655035,-101.8511 -80.324587,-105.24437 -86.100037,-108.03531 V -108.03531 C -91.829504,-110.80403 -96.945226,-113.11198 -101.39912,-114.69965 L -101.39918,-114.69967 C -103.61674,-115.49016 -105.72674,-116.12286 -107.71648,-116.54672 V -116.54672 C -109.69117,-116.96737 -111.61636,-117.19742 -113.45964,-117.14431 H -113.45964 C -115.30464,-117.09115 -117.1194,-116.74862 -118.80286,-116.00564 L -118.80291,-116.00562 C -120.50389,-115.25491 -121.97173,-114.14351 -123.19414,-112.70039 L -123.19418,-112.70035 C -124.34425,-111.34262 -125.22558,-109.78537 -125.83605,-108.07429 L -125.83606,-108.07424 C -126.44176,-106.3765 -126.77331,-104.54954 -126.85512,-102.63324 V -102.63324 C -127.01679,-98.846197 -126.2077,-94.635755 -124.50772,-90.148524 V -90.148524 C -122.81805,-85.688522 -120.20663,-80.844138 -116.62317,-75.707871 L -116.62312,-75.707791 C -113.06606,-70.609377 -108.521,-65.18021 -102.9014,-59.51194 L -102.9014,-59.51194 C -91.800066,-48.314465 -76.396598,-36.075498 -55.911226,-23.569348 V -23.569348 C -35.697102,-11.228791 -10.431986,1.4337656 20.671666,13.612251 V 13.612251 C 20.671666,13.612251 20.671909,13.612347 20.671909,13.612347 L 22.556669,5.91047 C -3.8252182,3.0818913 -27.06346,1.48677 -47.095845,0.9376108 H -47.095845 C -67.011251,0.39165848 -83.779016,0.8789491 -97.312773,2.222473 V 2.222473 C -97.312773,2.222473 -97.312988,2.2224944 -97.312988,2.2224944 V 2.2224944 C -104.05509,2.8918032 -110.02101,3.7761819 -115.18915,4.859616 V 4.859616 C -115.18915,4.859616 -115.18931,4.8596504 -115.18931,4.8596504 V 4.8596504 C -120.33498,5.9383804 -124.75454,7.2277691 -128.38864,8.7327877 L -128.38864,8.7327877 C -130.20681,9.4857597 -131.85825,10.304952 -133.3209,11.197913 V 11.197913 C -134.77956,12.088441 -136.08614,13.074057 -137.18911,14.171535 L -137.18919,14.171607 C -138.2933,15.27023 -139.21928,16.507193 -139.87033,17.894431 L -139.87037,17.894519 C -140.52726,19.294227 -140.87735,20.79191 -140.87893,22.348852 V 22.348852 C -140.87893,22.348852 -140.87893,22.348953 -140.87893,22.348953 V 22.348953 C -140.88049,23.89565 -140.53852,25.394135 -139.94207,26.813783 L -139.94207,26.813783 C -139.35014,28.222654 -138.50619,29.559138 -137.48342,30.823885 L -137.48342,30.823885 C -135.45776,33.328778 -132.57938,35.737721 -129.02109,38.06457 V 38.06457 C -125.44756,40.401387 -121.05586,42.740914 -115.8762,45.068426 L -115.8762,45.068426 C -115.8762,45.068426 -115.87603,45.068502 -115.87603,45.068502 V 45.068502 C -110.6991,47.39478 -104.69049,49.728911 -97.854138,52.048304 L -97.854138,52.048304 C -84.219373,56.67422 -67.203378,61.271309 -46.777924,65.635654 V 65.635654 C -26.408381,69.988052 -2.6082815,74.117336 24.659818,77.811659 L 24.87144,69.86113 24.871059,69.861161 V 69.861161 C 1.4342314,71.774088 -19.043328,74.141179 -36.539665,76.842398 V 76.842398 C -53.986851,79.536029 -68.507915,82.567745 -80.057247,85.826085 V 85.826085 C -85.824948,87.45329 -90.881814,89.145473 -95.209371,90.893493 V 90.893493 C -99.522466,92.635671 -103.17952,94.460616 -106.11614,96.375495 L -106.11614,96.375495 C -107.58793,97.335204 -108.90788,98.336332 -110.05052,99.384618 V 99.384618 C -111.19119,100.43109 -112.18552,101.55236 -112.97618,102.75763 L -112.97618,102.75763 C -113.76999,103.9677 -114.3719,105.28694 -114.68899,106.69291 L -114.68899,106.69291 C -115.00997,108.11608 -115.02609,109.56399 -114.72931,110.99577 L -114.72929,110.99586 C -114.43481,112.41648 -113.85031,113.73726 -113.06444,114.94908 L -113.06444,114.94908 C -112.28275,116.15445 -111.29378,117.26538 -110.15895,118.29271 V 118.29271 C -107.90756,120.33084 -104.91921,122.18598 -101.34274,123.89557 L -101.34274,123.89557 C -97.747258,125.61424 -93.429033,127.24623 -88.4202,128.78935 L -88.4202,128.78935 C -83.406971,130.33383 -77.658443,131.80253 -71.183959,133.18388 L -71.183959,133.18388 C -71.183959,133.18388 -71.183746,133.18393 -71.183746,133.18393 V 133.18393 C -58.243269,135.94481 -42.31861,138.37449 -23.42744,140.3553 H -23.42744 C -11.999057,141.55362 0.52649704,142.58883 14.148168,143.43342 6.1666604,145.56649 -1.2154476,147.77362 -8.0011577,150.02987 V 150.02987 C -21.981507,154.67835 -33.479127,159.55143 -42.491353,164.44419 V 164.44419 C -47.002381,166.89324 -50.919224,169.36261 -54.226521,171.83122 V 171.83122 C -54.226521,171.83122 -54.22663,171.8313 -54.22663,171.8313 V 171.8313 C -57.529527,174.29664 -60.272926,176.7972 -62.397777,179.31967 L -62.397848,179.31975 C -64.518289,181.837 -66.098889,184.46681 -66.942528,187.18601 V 187.18601 C -67.36707,188.55438 -67.605506,189.94831 -67.626115,191.35279 V 191.35279 C -67.64678,192.76105 -67.447765,194.14635 -67.027185,195.48843 V 195.48843 C -66.607093,196.82895 -65.977929,198.08853 -65.171435,199.2604 L -65.171435,199.2604 C -64.366626,200.42981 -63.392206,201.50282 -62.277909,202.48813 L -62.277909,202.48813 C -60.061939,204.4476 -57.244646,206.10133 -53.95468,207.48738 V 207.48738 C -47.384969,210.25516 -38.480085,212.14246 -27.450374,213.06456 V 213.06456 C -27.450374,213.06456 -27.450193,213.06457 -27.450193,213.06457 V 213.06457 C -16.356937,213.99197 -2.9368495,213.95687 12.742269,212.76789 V 212.76789 C 12.742269,212.76789 12.742524,212.76787 12.742524,212.76787 L 12.742524,212.76787 C 21.972372,212.06794 31.996377,210.96729 42.804628,209.424 38.289781,212.0805 34.115903,214.72361 30.276389,217.34255 V 217.34255 C 20.915853,223.72739 13.489296,230.00477 7.9441804,236.03105 L 7.9440907,236.03115 C 5.1611797,239.05555 2.8329675,242.03745 0.96850491,244.95975 H 0.96850491 C -0.89860234,247.88621 -2.3179805,250.78012 -3.254452,253.61978 V 253.61978 C -4.1938527,256.46831 -4.6537956,259.28317 -4.5737332,262.01999 L -4.5737306,262.02008 C -4.4931794,264.7732 -3.8669135,267.39456 -2.6947333,269.82181 L -2.694696,269.82188 C -1.5222355,272.24968 0.15792067,274.40454 2.2562686,276.27551 L 2.2563354,276.27557 C 4.3532947,278.14528 6.8627506,279.72792 9.7111443,281.03893 V 281.03893 C 15.407386,283.6607 22.622903,285.27216 31.099773,285.86784 L 31.099773,285.86784 C 39.644168,286.46828 49.607562,286.04642 60.849769,284.49834 V 284.49834 C 72.16309,282.94047 84.807378,280.23721 98.665604,276.26063 L 95.303304,269.11478 C 95.303304,269.11478 95.30316,269.11488 95.30316,269.11488 V 269.11488 C 86.098943,275.41386 78.606878,281.74212 72.696162,287.94367 L 72.69607,287.94376 C 66.74988,294.18255 62.363498,300.33571 59.456134,306.25091 V 306.25091 C 56.528056,312.20826 55.069167,317.99024 55.097899,323.39499 L 55.0979,323.39507 C 55.112367,326.11503 55.50411,328.72766 56.267815,331.19691 L 56.267838,331.19699 C 57.03486,333.67694 58.168913,335.98565 59.640526,338.09208 L 59.640571,338.09214 C 62.596376,342.32297 66.866521,345.65482 72.051425,347.97214 V 347.97214 C 77.273523,350.30609 83.46516,351.64515 90.386499,351.94933 V 351.94933 C 101.65571,352.44459 115.01642,350.20953 129.81552,344.83913 124.89789,354.35919 122.28773,363.44785 121.62489,371.72661 L 121.62488,371.72669 C 121.16546,377.46484 121.64021,382.83128 122.94481,387.69325 V 387.69325 C 124.26715,392.62138 126.43891,397.01851 129.3357,400.74359 L 129.33574,400.74365 C 132.27465,404.52288 135.93122,407.57384 140.13778,409.78878 V 409.78878 C 144.4057,412.03603 149.19433,413.39991 154.32808,413.83543 L 154.32816,413.83544 C 162.29201,414.51104 171.00409,412.95581 180.02115,409.10181 177.91938,417.49915 177.77985,425.17563 179.28556,431.883 L 179.28558,431.88306 C 180.34453,436.60027 182.21331,440.81869 184.76236,444.45355 V 444.45355 C 187.37093,448.17329 190.66163,451.23968 194.45914,453.61174 L 194.45919,453.61177 C 198.34945,456.04176 202.74213,457.72616 207.46442,458.67534 V 458.67534 C 212.3152,459.65035 217.50957,459.84988 222.90729,459.30005 V 459.30005 C 230.78908,458.49718 239.0805,456.10445 247.50648,452.18786 247.04038,453.58456 246.66172,454.95737 246.36646,456.30401 V 456.30401 C 245.24415,461.42281 245.3253,466.17216 246.40002,470.41386 L 246.40002,470.41386 C 247.52625,474.85884 249.71915,478.65525 252.62568,481.71564 L 252.62568,481.71564 C 255.68048,484.93214 259.47887,487.29514 263.64064,488.85323 V 488.85323 C 268.06073,490.50803 272.89961,491.26489 277.88255,491.22715 H 277.88255 C 279.33861,491.21612 280.80767,491.13723 282.28457,490.99301 V 490.99301 C 286.4723,490.58408 290.47022,489.60939 294.13922,488.317 L 294.13923,488.317 C 306.50925,483.95971 315.29277,476.03643 319.85951,471.15096 324.75839,465.91015 326.26963,463.00737 326.26963,463.00737 326.26963,463.00737 323.54832,464.95553 317.78149,468.67318 312.31376,472.19802 302.84959,477.92005 291.81533,481.04093 L 291.81532,481.04093 C 288.51381,481.97472 285.04231,482.68567 281.50707,483.03089 V 483.03089 C 280.25978,483.15268 279.03005,483.21823 277.82196,483.22738 H 277.82196 C 273.67996,483.25875 269.82494,482.62625 266.44557,481.36107 V 481.36107 C 263.26807,480.17148 260.54102,478.43295 258.42647,476.20648 L 258.42647,476.20648 C 256.42819,474.10241 254.93172,471.51464 254.15497,468.44898 L 254.15497,468.44898 C 253.41203,465.51677 253.30058,462.03214 254.18084,458.01734 V 458.01734 C 255.02785,454.15418 256.80418,449.76064 259.86772,444.93526 L 269.17645,430.2731 254.39196,439.38617 C 242.98586,446.41682 231.96584,450.33592 222.09658,451.34123 V 451.34123 C 217.40218,451.81942 213.01892,451.6318 209.04089,450.83221 V 450.83221 C 205.1716,450.05448 201.69811,448.70102 198.6974,446.82667 L 198.69736,446.82665 C 195.77589,445.00179 193.28262,442.66989 191.31228,439.86024 V 439.86024 C 189.38677,437.11451 187.93037,433.86844 187.09131,430.13077 L 187.0913,430.13073 C 185.46664,422.89348 186.12931,413.62656 190.51375,402.69227 L 194.84702,391.88558 184.78723,397.74752 C 173.72569,404.19317 163.52004,406.58648 155.00439,405.86407 L 155.00433,405.86407 C 150.86079,405.51255 147.12045,404.42424 143.86503,402.71011 V 402.71011 C 140.65992,401.02248 137.88738,398.70852 135.65096,395.83264 L 135.65093,395.8326 C 133.44422,392.99491 131.7325,389.57416 130.67149,385.61998 V 385.61998 C 129.62362,381.7148 129.20657,377.27115 129.59936,372.36516 L 129.59937,372.36509 C 130.37068,362.73159 134.27581,351.2776 142.66404,338.8939 L 150.5574,327.24079 137.71533,333.00087 C 119.23503,341.28986 103.20356,344.5049 90.737745,343.95705 V 343.95705 C 84.609948,343.68774 79.443029,342.51306 75.315724,340.66842 V 340.66842 C 71.233703,338.84402 68.217216,336.39978 66.198627,333.51045 L 66.198597,333.51041 C 65.198295,332.0786 64.431557,330.51742 63.910633,328.83316 L 63.910617,328.83311 C 63.391408,327.15437 63.108288,325.32677 63.097787,323.35252 L 63.097786,323.35246 C 63.076893,319.42239 64.138755,314.86009 66.635775,309.77976 V 309.77976 C 69.114952,304.73573 72.982617,299.23852 78.487091,293.46319 L 78.487177,293.4631 C 83.951649,287.72975 90.998941,281.75453 99.821298,275.71688 V 275.71688 C 99.821298,275.71688 99.821436,275.71678 99.821436,275.71678 L 120.23018,261.7499 96.459071,268.57095 C 82.909149,272.45906 70.640072,275.0747 59.758448,276.57313 V 276.57313 C 48.931876,278.06397 39.535396,278.4409 31.660567,277.88752 L 31.660567,277.88752 C 23.804748,277.33548 17.609666,275.86763 13.055968,273.77173 V 273.77173 C 10.798597,272.73275 8.9878684,271.55939 7.5803922,270.30443 L 7.5803475,270.30439 C 6.1822771,269.05782 5.1783177,267.72836 4.5092307,266.34288 L 4.5092091,266.34284 C 3.8439162,264.96521 3.4716555,263.4543 3.4228475,261.78611 L 3.4228459,261.78606 C 3.3738383,260.1108 3.6503799,258.22574 4.3430656,256.12532 V 256.12532 C 5.0354441,254.02582 6.1370273,251.73242 7.7127615,249.26266 V 249.26266 C 9.2845859,246.79903 11.311207,244.18663 13.831091,241.44808 L 13.831172,241.448 C 18.863217,235.97931 25.788204,230.08779 34.784364,223.95149 H 34.784364 C 43.743762,217.84027 54.709992,211.51857 67.812464,205.15705 L 94.270711,192.31101 65.342767,197.62456 C 45.287422,201.30837 27.539255,203.62282 12.137599,204.79077 L 12.137599,204.79077 C 12.137599,204.79077 12.137349,204.79079 12.137349,204.79079 V 204.79079 C -3.2324559,205.95631 -16.213886,205.97603 -26.783716,205.09238 V 205.09238 C -26.783716,205.09238 -26.783888,205.09237 -26.783888,205.09237 V 205.09237 C -37.369994,204.20736 -45.352292,202.43054 -50.848713,200.11493 V 200.11493 C -53.583083,198.96296 -55.587296,197.72528 -56.978556,196.49507 L -56.978556,196.49507 C -57.667849,195.88556 -58.191449,195.29143 -58.5813,194.72497 L -58.5813,194.72497 C -58.968956,194.16169 -59.229495,193.61869 -59.393259,193.09611 V 193.09611 C -59.556317,192.57579 -59.635312,192.03825 -59.626976,191.47017 V 191.47017 C -59.618595,190.89898 -59.521237,190.26379 -59.301817,189.55656 V 189.55656 C -58.858133,188.12649 -57.919901,186.42133 -56.279338,184.47376 L -56.279284,184.4737 C -54.645227,182.53387 -52.389026,180.44251 -49.441344,178.24231 L -49.441247,178.24224 C -46.500864,176.04749 -42.920325,173.78003 -38.67437,171.47489 V 171.47489 C -30.181645,166.86416 -19.141752,162.16476 -5.4770262,157.62123 H -5.4770262 C 8.1729604,153.08261 24.390685,148.7165 43.220377,144.75399 L 74.859819,138.09579 42.551682,136.84273 C 17.808216,135.88306 -3.9051519,134.35844 -22.593181,132.39892 H -22.593181 C -41.291542,130.43832 -56.924413,128.04614 -69.514497,125.36001 V 125.36001 C -69.514497,125.36001 -69.514704,125.35997 -69.514704,125.35997 H -69.514704 C -75.810343,124.01677 -81.323526,122.60464 -86.064807,121.14395 H -86.064807 C -90.814125,119.68078 -94.74546,118.18214 -97.892583,116.67778 L -97.892583,116.67778 C -101.06181,115.16287 -103.31064,113.70113 -104.78998,112.36193 V 112.36193 C -105.52125,111.69993 -106.02145,111.10642 -106.35231,110.59623 L -106.35231,110.59623 C -106.67929,110.09203 -106.83081,109.68568 -106.89582,109.37204 L -106.89583,109.37202 C -106.95865,109.06895 -106.95761,108.7749 -106.88501,108.45297 L -106.88501,108.45297 C -106.80839,108.11324 -106.63991,107.68364 -106.28704,107.14573 L -106.28704,107.14573 C -105.93064,106.60244 -105.40137,105.97602 -104.64231,105.27963 V 105.27963 C -103.88448,104.58438 -102.92756,103.84684 -101.74648,103.0767 L -101.74648,103.0767 C -99.374089,101.52973 -96.216607,99.928326 -92.213147,98.311218 V 98.311218 C -88.216779,96.696974 -83.445667,95.094319 -77.885049,93.525537 V 93.525537 C -66.742371,90.381924 -52.558555,87.410298 -35.319025,84.748727 V 84.748727 C -18.048242,82.08233 2.2350191,79.735331 25.52186,77.834645 V 77.834645 L 25.522238,77.834614 62.275484,74.834799 25.733858,69.884085 C -1.3670326,66.212415 -24.964845,62.115911 -45.106283,57.812252 V 57.812252 C -65.314914,53.494236 -82.017538,48.973356 -95.283849,44.472446 L -95.283849,44.472446 C -101.93223,42.216825 -107.69742,39.97303 -112.59703,37.771368 V 37.771368 C -112.59703,37.771368 -112.59719,37.771297 -112.59719,37.771297 L -112.59719,37.771297 C -117.51221,35.562705 -121.51243,33.416027 -124.64273,31.36905 V 31.36905 C -127.80095,29.303819 -129.94486,27.423328 -131.26289,25.793475 L -131.26289,25.793475 C -131.91443,24.987794 -132.32392,24.292615 -132.56658,23.715044 L -132.56658,23.715044 C -132.80554,23.146281 -132.87928,22.701676 -132.87894,22.357025 L -132.87894,22.357002 C -132.87859,22.020595 -132.80823,21.6768 -132.62825,21.293287 L -132.62824,21.293262 C -132.44154,20.89546 -132.11251,20.405788 -131.54644,19.842534 L -131.5464,19.842497 C -130.97729,19.27622 -130.19572,18.66302 -129.15229,18.025992 V 18.025992 C -128.11006,17.389702 -126.84183,16.751102 -125.32765,16.124023 L -125.32765,16.124023 C -122.28543,14.864124 -118.373,13.700978 -113.54789,12.689447 V 12.689447 C -113.54789,12.689447 -113.54773,12.689415 -113.54773,12.689415 V 12.689415 C -108.72143,11.677644 -103.04812,10.831161 -96.522689,10.183363 V 10.183363 C -96.522689,10.183363 -96.522481,10.183342 -96.522481,10.183342 V 10.183342 C -83.416032,8.8822381 -67.0004,8.3949614 -47.315071,8.9346065 H -47.315071 C -27.529897,9.4769887 -4.5060679,11.054743 21.703823,13.864881 L 51.387349,17.04745 23.588657,6.1630122 C 23.588657,6.1630122 23.588417,6.1629182 23.588417,6.1629182 V 6.1629182 C -7.1374126,-5.8676329 -31.975771,-18.329933 -51.742706,-30.397483 V -30.397483 C -71.786295,-42.633929 -86.654827,-54.487471 -97.220204,-65.144352 H -97.220204 C -102.56595,-70.536391 -106.80465,-75.616258 -110.06212,-80.285267 L -110.06217,-80.28534 C -113.3508,-84.999024 -115.61671,-89.261268 -117.0266,-92.982745 V -92.982745 C -118.45433,-96.751338 -118.96612,-99.86245 -118.8624,-102.29203 V -102.29203 C -118.81055,-103.50657 -118.60617,-104.53134 -118.30123,-105.38606 L -118.30122,-105.38609 C -117.99653,-106.2401 -117.58428,-106.94584 -117.08981,-107.52959 L -117.0898,-107.52961 C -116.62118,-108.08284 -116.12491,-108.44305 -115.57278,-108.68673 L -115.57277,-108.68673 C -114.99128,-108.94336 -114.24898,-109.11824 -113.22924,-109.14763 H -113.22924 C -112.19242,-109.1775 -110.92581,-109.05088 -109.38327,-108.72228 V -108.72228 C -107.83626,-108.39273 -106.07849,-107.87461 -104.08536,-107.16412 L -104.0853,-107.1641 C -100.05187,-105.72632 -95.251386,-103.5725 -89.580851,-100.83226 V -100.83226 C -83.875914,-98.075397 -77.307036,-94.732937 -69.937044,-91.037031 V -91.037031 C -69.937044,-91.037031 -69.936939,-91.036979 -69.936939,-91.036979 V -91.036979 C -54.733769,-83.412889 -36.408259,-74.43384 -13.9134,-65.147803 V -65.147803 C -13.9134,-65.147803 -13.913231,-65.147734 -13.913231,-65.147734 V -65.147734 C 9.2273716,-55.595138 36.099689,-46.005562 67.436202,-37.458234 L 67.436205,-37.458231 C 67.436205,-37.458231 67.436326,-37.458106 67.436326,-37.458106 L 67.436561,-37.458136 C 122.56382,-22.421636 165.19943,-5.4912029 197.95875,12.275859 V 12.275859 C 232.06448,30.773145 255.63863,50.270149 271.43897,69.681058 V 69.681058 C 279.62222,79.734273 285.75691,89.808665 290.19376,99.778495 V 99.778495 C 294.74511,110.00559 297.53444,120.17758 298.89532,130.18155 V 130.18155 C 301.73296,151.04145 298.40149,171.4831 291.40575,190.61662 L 291.40574,190.61666 C 282.78946,214.18235 278.03797,236.07193 276.51734,256.46229 V 256.46229 C 274.86198,278.65927 277.04251,298.99719 282.16202,317.66519 V 317.66519 C 287.39058,336.73079 295.66543,353.98185 305.94685,369.60046 V 369.60046 C 306.91768,371.07525 307.89457,372.50927 308.87351,373.90246 L 308.87352,373.90247 C 322.5064,393.30427 337.55242,406.22412 345.86064,412.67079 354.94373,419.71872 359.33378,421.91357 359.33378,421.91357 Z" inkscape:original-d="M 359.33378,421.91357 C 282.18142,357.97901 262.37211,281.67262 295.1625,191.99024 324.83632,110.83173 286.05635,18.026338 68.488787,-41.317258 -57.85141,-75.777732 -106.64808,-126.04517 -120.14197,-110.115 -133.33172,-94.543874 -100.82652,-38.25541 22.130283,9.8876794 -188.79816,-12.727377 -191.98804,44.42334 25.196839,73.847872 -161.92126,89.120502 -156.11009,133.14068 42.396659,140.83972 -109.2026,172.74224 -95.512016,231.23766 66.06541,201.55874 -39.744903,252.93189 -12.378311,303.96296 97.56237,272.41578 25.671028,321.61515 63.143,370.83286 139.35234,336.65055 104.91568,387.48994 139.68201,428.66028 186.8011,401.20357 168.66315,446.43753 207.78155,472.81538 256.49084,442.79127 230.74914,483.33686 281.77897,508.34933 326.26963,463.00737" inkscape:path-effect="#path-effect2302" fill="#f8abd5" />
  </g>
</svg>