<svg xmlns="http://www.w3.org/2000/svg" viewBox="0 0 96 100">
  <path d="M69.6 63.1c-1.2 8.4 9 3.2 8.8 15.9 9.3-4.6 9.8-11.2 3.5-16.8C86 60 91 60.6 94.7 63.9c.4-8.9-4.1-13.9-12.8-12.7 3.6-7.7.4-12.9-5.9-15.8 1.6 9.9-4.4 5.1-6.9 12.6-4.8-5.1-12.1-6.3-18.7-.9 4.6 1.4 8.1 4.8 11 8.2-5.1 1.1-8.2 4.7-9.5 10.6 5.9-3 9.7 5.8 17.7-2.8zm-16.5-59c-5.3 3.1-7.9 7.5-5.3 13.4 7.9-3.1 15 2.2 16.3 12-12.1-2.1-10.6 6-19.7 3.5 6.1 17.3-4.6 13.4-3 21.4-5.9-.5-8.9-7.4-8.1-16.1-5.4 1.9-10.4 4.2-13.8 8.7-2.5-10.5-.3-18.6 8.7-20.7-7.4-5.3-1-12.5-11.6-13.9 5.5-6.1 12.6-6.8 18-.1C38.6 1.6 46.1.1 53.1 4.1zm-4.9 57.5c-6.3-.4-9 2.2-10.6 8C47.7 72.3 51.1 78.8 48 88c-8.7-8.1-8.7-2.1-18.3-5.5-.5 7-7.7 9-12.6 15.9-4.8-4.2-3-12.7 1.6-17.9-5.3-.7-12.8.7-17.8 2.9 1.8-9.8 7.5-14.2 16.5-13.7-4.6-7.6 1.4-10-5.8-17.2 9.1-3.2 14.9.6 17 8.5 8.4-7.7 14.8-7.1 19.6.6z" fill="#c8358d"/>
  <path d="M66.3 39.9a1.4 1 12 010 1.5 1.4 1 12 110-1.5zm-2-2.8a1.4 1 37 001.6-.6 1.4 1 37 10-1.6.6zm4.7.2a1.4 1 81 001.2.1 1.4 1 81 10-1.2-.1zm-7.3 10.6c4.4-.3 8.4 2.4 9.8 6.8-2.6-3.4-5.6-5.6-9.8-6.8zm11.6 7.8c2.9-7.4.7-14.9-5.6-17 4.9 4 5.9 9.3 5.6 17zm2.2-.4c2.7-2.8 4.4-6.9 3.8-10.9-.8 3.5-2.1 7.3-3.8 10.9zm3.5 1c3.4-1 6.5-.8 9.1.2-2-2.2-6.2-2.6-9.1-.2zm-2.7 5.6c2.5.4 5.4 3.1 4.7 8-.8-3.4-2-6-4.7-8zm-19.5.3c1.7-4 6-4.7 9.9-3.6-3.8.1-7.3.9-9.9 3.6zM8.7 58.7a1.8 1.1 37 01-1.4 1.4 1.8 1.1 37 111.4-1.4zm-2.9 3.2a1.1 1.8 61 01-.3 1.7 1.1 1.8 61 11.3-1.7zM9 64.2a1.1 1.8 43 011.5 1.1A1.1 1.8 43 119 64.2zm-1.2-2.3c7.4-1.8 14.8 2.8 18.6 10.4-5.7-6.2-11.6-10-18.6-10.4zm22.4 5.8c2-3 4-4.9 6.6-6.3-3 .1-6 2.7-6.6 6.3zm-3.8.3c-.3-4.6-2-8.3-5.2-11.4 2 3.4 3.6 7.3 5.2 11.4zM9.5 76.4c3.7-2.4 8.6-3.2 13-3.4-4.2-1.3-10.2-.1-13 3.4zm13.2 4.3c-2.2 2.7-3.8 5.5-4.5 9.5-.6-4.4 1-7.4 4.5-9.5zm10.1-5.6c3.5-1.5 7.9-.4 9.9 2.8-2.9-2.1-5.7-2.7-9.9-2.8zM13.5 19.8a1.8 1.1 24 01.4-1.4 1.8 1.1 24 11-.4 1.4zm-.2 3.8a1.1 1.8 44 011.5 1.1 1.1 1.8 44 11-1.5-1.1zm4.1.8a1.1 1.8 20 011.8.2 1.1 1.8 20 11-1.8-.2zm-.9-1.8c5.5-5.2 14.9-3.8 19.9 2-7.4-4-13.6-4.7-19.9-2zm22.4-2.7c.7-4 2-7.9 4.3-10.8-3.4 2.1-4.8 6.3-4.3 10.8zM37 21.8c-1.6-4.5-5-7.6-9-9.5 3.4 3 6.2 5.9 9 9.5zM25.3 34c2.2-3.6 5.8-6.2 9.6-7.8-4.8.6-8.3 3.2-9.6 7.8zm12.8-1.4c-3.3 3.8-3.4 10.1-.1 14.1-2.1-4.8-1.7-9.5.1-14.1zm7-8.2c2.6-2.5 7.3-2.8 10.8-.9-3.6-.4-7.5-.3-10.8.9z" fill="#d8d694"/>
</svg>
