<svg xmlns="http://www.w3.org/2000/svg" viewBox="0 0 91 91">
  <clipPath id="a"><path d="M18.4 80.5C6.6 80.5 1.2 71 1.2 58.4c0-17.6 14.8-28 14.8-38 0-8.4-5.1-10-5.1-13.6 0-4.6 32.5-4.7 32.5-.1 0 3.9-5.5 5.5-5.5 14.9 0 8.8 13.1 17.2 13.1 36.7 0 10.5-5.6 22.2-16.8 22.2z"/></clipPath>
  <clipPath id="b"><path d="M32.4 56.2c0-4.3 5.5-6.2 29.6-6.2 23.4 0 27.6 1.1 27.6 5.2 0 20.3-9.1 32.9-28.1 32.9-17.9 0-29.1-12.6-29.1-31.9z"/></clipPath>
  <g clip-path="url(#a)">
    <path d="M-1 40.7h54.6v44.2H-1z" fill="#d3b09f"/>
    <path d="M49.5 43.9c-2.4 5.3-5.2 5.9-7.3 1.7-1.7 3.4-3.2 3.9-6.3-.1-1.8 5.4-4.6 6.3-7.2.7-2.7 3.8-4.6 3.1-6.3-1.9-3.3 4.6-4.8 4.4-8.5 1.6-2.1 4.7-4.6 5.2-6 1.8-2.1 2.2-4.6.7-4.7-4.1V1.5h46.3z" fill="#6ea258"/>
    <path d="M12.6 28.4c-.6 6.6 1.3 6.4 3.8 4.6 2.5-1.8 4.7-1.7 6.9.7s3.9 2.4 6.3.1 4.6-2.4 7.2-.4c2.6 2 4.3 2 7.2-1.2l1 2.1c-2.7 3.1-5.9 3.9-8.1 2.3-2.2-1.6-3.3-1.5-7 .9s-6.9 2-8.5-.5c-1.6-2.5-2.8-3-5.8-1.1s-5.4 2.1-5.3-4zM39.4 6.8C37.3 9.1 16.5 9 14.4 7c2.9-2.4 21.9-2.2 25-.2z" fill="#487735"/>
    <path d="M29.1 14.3c-1.2-.8 1.2-3.6 2.4-2.9 1.2.7-1.2 3.7-2.4 2.9zM25.2 18c-1.4-.5.3-3.6 1.6-3.2 1.3.4-.2 3.7-1.6 3.2zm4.2 2.3c-1.7-.8.9-4.6 2.8-3.6 1.9 1-1.1 4.4-2.8 3.6z" fill="#5a8e44"/>
    <path d="M14.8 73.8c1.6.5.1 3.5-1.3 3-1.4-.5-.3-3.5 1.3-3zm2-.5c-1.7-.5-.6-3.3.9-3 1.5.3.8 3.5-.9 3zm-6.8-.7c-1.9-.6-.3-4.1 1.6-3.5 1.9.6.3 4.1-1.6 3.5zM.2 60.1c1.9 6.1 4 6 8.7 1.5 4.7-4.5 6.9-4 8.6.2 1.7 4.2 3.5 4.5 8.1-.7s7.5-4.2 11.4 1.8l-1.8 1.5c-3.1-4.3-5.4-5.2-9.3-.4-3.9 4.8-7.6 5.4-9.5.7-1.9-4.7-3.4-4.7-7.5-.5S1.8 69.3-1.3 63z" fill="#b58d80"/>
    <path d="M37.9 85.2C30.5 79.7 26.1 68.7 26.1 62c0-4.3 5.1-6.4 29.4-6.4 1.3 13.6-4.6 24.6-17.6 29.6z" opacity=".5" fill="#91706e"/>
  </g>
  <g clip-path="url(#b)">
    <path d="M31.5 58.2h58.9v31.5H31.5z" fill="#e6cac1"/>
    <path d="M90.5 66.4C73 70.1 48.8 69.6 31 66.3l-.2-3c16.4 2.8 43.1 3.4 59.8 0zM30.7 48v13.1c14.3 2.5 44.8 3.3 60.4.2V48z" fill="#7fa2a2"/>
    <path d="M37.9 54.5c3.4 2.7 42 3 45.8 0-3.4-2.8-42.7-2.7-45.8 0z" fill="#5d8484"/>
    <path d="M76 75.4c-2-1 .9-5 2.7-4.2 1.8.8-.7 5.2-2.7 4.2zm-6.5 6.5c-1.5-1.7 2.3-4.7 3.7-2.9 1.4 1.8-2.2 4.6-3.7 2.9zm-21.4-5.4c-1.3-.6-.3-3.2 1.1-2.7 1.4.5.2 3.3-1.1 2.7zm5.5 1.1c1.4.8-.4 3.6-1.9 3-1.5-.6.5-3.8 1.9-3zm4.5-4.9c1.6 1.4-1.4 4.7-3 3.3-1.6-1.4 1.4-4.7 3-3.3z" fill="#fffff4"/>
  </g>
</svg>
