<svg xmlns="http://www.w3.org/2000/svg" xmlns:inkscape="http://www.inkscape.org/namespaces/inkscape" xmlns:xlink="http://www.w3.org/1999/xlink" viewBox="0 0 800 1000" height="1000" width="800">
  <defs>
    <inkscape:path-effect effect="envelope" id="path-effect217" yy="false" bendpath1="M 1.8933994,2.3 H 77.311001" bendpath2="M 77.926161,2.1778928 C 66.875787,20.54321 68.164028,39.35023 76.439866,57.873372" bendpath3="M 1.8933994,57.2 H 77.311001" bendpath4="M 6.6910026,1.5798956 C -4.4786675,20.390644 -4.3686084,38.499794 2.5698177,57.737344" />
    <inkscape:path-effect effect="powerstroke" end_linecap_type="zerowidth" id="path-effect231791" interpolator_type="CubicBezierSmooth" offset_points="0.27,3.5 | 2.77,3.5" start_linecap_type="zerowidth" linejoin_type="round" />
    <inkscape:path-effect effect="powerstroke" id="path-effect199224" offset_points="0.18,3.5 | 5,3.5 | 7,3.5 | 6,3.2 | 8.69,3.5" interpolator_type="CubicBezierSmooth" start_linecap_type="zerowidth" linejoin_type="extrp_arc" end_linecap_type="zerowidth" />
    <inkscape:path-effect effect="powerstroke" id="path-effect126446" offset_points="2.74,3.5" interpolator_type="CubicBezierSmooth" start_linecap_type="butt" linejoin_type="extrp_arc" end_linecap_type="zerowidth" />
    <inkscape:path-effect effect="powerstroke" id="path-effect120082" offset_points="0.5,3.5 | 1,3.5" interpolator_type="CubicBezierSmooth" start_linecap_type="zerowidth" linejoin_type="extrp_arc" end_linecap_type="butt" />
    <inkscape:path-effect effect="powerstroke" id="path-effect84917" offset_points="0.21,3.5 | 2.77,3.5" interpolator_type="CubicBezierSmooth" start_linecap_type="zerowidth" linejoin_type="extrp_arc" end_linecap_type="zerowidth" />
    <linearGradient id="linearGradient72149">
      <stop offset="0" stop-color="#303e7c" />
      <stop offset="1" stop-color="#3f52a4" />
    </linearGradient>
    <inkscape:path-effect effect="powerstroke" id="path-effect3011" offset_points="0.77,2.7 | 1.33,2.7" interpolator_type="CubicBezierSmooth" linejoin_type="extrp_arc" start_linecap_type="zerowidth" end_linecap_type="zerowidth" />
    <inkscape:path-effect linejoin_type="extrp_arc" interpolator_type="CubicBezierSmooth" offset_points="0.36,3.5 | 1.83,3.5" id="path-effect969" effect="powerstroke" start_linecap_type="zerowidth" end_linecap_type="zerowidth" />
    <linearGradient xlink:href="#linearGradient72149" id="linearGradient72151" x1="434.95413" y1="-307.94342" x2="510.48224" y2="-303.83676" gradientUnits="userSpaceOnUse" gradientTransform="translate(-3.453777,15.543529)" />
    <clipPath id="clipPath72916">
      <use xlink:href="#path72365" />
    </clipPath>
  </defs>
  <g transform="translate(-128.67643-19.847586)">
    <path d="M 495.52355,537.95833 C 530.35496,468.04304 629.3915,456.69034 677.18532,512.24834 664.38403,507.95688 651.19718,505.90701 637.82393,508.01814 672.15118,525.48752 693.76147,548.55025 704.61986,581.10236 694.49007,572.9577 683.93772,569.40676 671.84973,567.70325 687.49402,585.49015 696.78113,607.0749 700.94142,632.67258 691.97157,622.1068 685.3815,616.8656 675.3225,610.77341 678.46581,630.29619 679.60351,650.26448 677.7061,670.04788 673.64832,712.35639 701.06763,735.23628 735.05764,715.21297 729.73231,729.32885 722.60468,737.85906 709.57647,743.35438 720.18286,748.32046 729.9322,749.79334 742.90317,748.74985 692.36137,808.8318 581.04793,780.80507 589.63546,669.24247 597.60759,565.67473 551.42148,524.8344 520.65768,558.54074 Z" fill="#eaf6fa" />
    <path d="M 648.41406,665.59964 C 651.18551,510.35355 548.75391,501.4414 512.73242,552.07617 L 501.80469,543.45508 C 549.46093,474.80274 658.3899,490.80683 678.53711,643.1173 678.53711,643.1173 679.60351,650.26448 677.7061,670.04788 673.64832,712.35639 701.06763,735.23628 735.05764,715.21297 731.20149,725.43448 726.15033,732.97719 718.6262,738.42336 686.31531,748.15292 647.29217,728.44343 648.41406,665.59964 Z" fill="#c1e7f7" />
    <path d="M 495.52355,537.95833 C 530.35496,468.04304 629.3915,456.69034 677.18532,512.24834 664.38403,507.95688 651.19718,505.90701 637.82393,508.01814 672.15118,525.48752 693.76147,548.55025 704.61986,581.10236 694.49007,572.9577 683.93772,569.40676 671.84973,567.70325 687.49402,585.49015 696.78113,607.0749 700.94142,632.67258 691.97157,622.1068 685.3815,616.8656 675.3225,610.77341 678.46581,630.29619 679.60351,650.26448 677.7061,670.04788 673.64832,712.35639 701.06763,735.23628 735.05764,715.21297 729.73231,729.32885 722.60468,737.85906 709.57647,743.35438 720.18286,748.32046 729.9322,749.79334 742.90317,748.74985 692.36137,808.8318 581.04793,780.80507 589.63546,669.24247 597.60759,565.67473 551.42148,524.8344 520.65768,558.54074 Z" style="fill:none;stroke:#99d7e6;stroke-width:7;stroke-miterlimit:20" />
    <path d="M 421.07083,700.47295 C 468.25889,759.35602 476.72227,823.59929 457.61302,894.91598 450.43991,921.68641 559.25718,922.14697 561.04918,896.01339 565.86619,825.76482 544.0485,780.12574 518.12882,727.56575 494.7994,673.1975 448.81504,676.27907 421.07083,700.47295 Z M 361.64396,674.43521 C 371.39028,759.25517 396.13241,835.10684 445.35373,915.48615 459.39279,938.4122 340.87971,939.72105 333.62523,917.14927 305.78804,830.536 299.802,754.04662 307.26283,676.98865 Z" fill="#89c4eb" stroke="#77aede" stroke-width="7" />
    <path d="M 367.55232,573.67882 C 322.16616,629.12568 366.10946,691.43855 426.8343,652.82495 471.01186,624.73343 511.26417,535.2633 486.54474,517.00009 476.19434,509.35297 441.46408,518.35976 386.17489,559.39762 Z" fill="#89c4eb" stroke="#77aede" stroke-width="7" />
    <path d="M 424.74761,654.42564 C 448.30859,634.40647 447.01884,607.82025 418.27698,610.03026 442.90481,591.64886 435.6132,572.24737 410.86925,576.72622 426.44113,561.07728 421.21957,546.71552 401.07607,548.50621" style="fill:none;stroke:#77aede;stroke-width:5;stroke-miterlimit:20" />
    <path d="M 419.42385,555.63819 482.04854,515.2468 M 439.8172,618.80043 490.75924,559.45612 M 432.62985,583.78902 493.77516,530.08174" stroke="#77aede" stroke-width="3.5" />
  </g>
  <g transform="translate(-128.67643-19.847586)">
    <path d="M 297.47009,253.57919 C 252.86565,292.08624 237.02028,331.31716 243.71785,404.30316 231.32466,393.55529 222.76123,383.14328 216.03034,363.12049 214.5426,398.82113 220.66749,419.73625 240.45371,444.69454 230.111,442.72396 220.69959,437.68079 210.55042,425.9117 215.61606,449.2429 223.7827,468.35242 240.40777,485.73188 231.74119,484.695 222.21123,482.08749 211.80483,475.43799 221.56382,507.65661 241.00018,541.16257 270.47835,564.14474 Z" fill="#eaf6fa" />
    <path d="M 243.71785,404.30316 C 231.32466,393.55529 222.76123,383.14328 216.03034,363.12049 215.67777,371.58101 215.75274,379.21114 216.378,386.02567 232.28596,418.7518 254.75944,436.12934 280.11032,450.27286 L 283.37102,427.05987 C 261.00739,405.61051 248.01908,382.06288 244.16435,343.44814 241.73597,361.55554 241.6019,381.24479 243.71785,404.30316 Z" fill="#c1e7f7" />
    <path d="M 297.47009,253.57919 C 252.86565,292.08624 237.02028,331.31716 243.71785,404.30316 231.32466,393.55529 222.76123,383.14328 216.03034,363.12049 214.5426,398.82113 220.66749,419.73625 240.45371,444.69454 230.111,442.72396 220.69959,437.68079 210.55042,425.9117 215.61606,449.2429 223.7827,468.35242 240.40777,485.73188 231.74119,484.695 222.21123,482.08749 211.80483,475.43799 221.56382,507.65661 241.00018,541.16257 270.47835,564.14474 Z" style="fill:none;stroke:#99d7e6;stroke-width:7;stroke-miterlimit:20" />
  </g>
  <path d="M 392.99271,431.51012 C 383.30102,440.71519 379.4438,452.99399 379.86509,464.49841 308.3644,454.73136 310.23495,400.38707 392.99271,431.51012 Z" fill="#bb1c76" />
  <path d="M 344.67605,435.37906 C 358.25489,438.23468 364.65992,447.52672 367.6191,457.6737 355.42053,452.17917 347.59914,445.07055 344.67605,435.37906 Z" fill="#ef6f2f" />
  <path d="M 412.96285,712.76545 C 413.14658,671.55217 437.29272,637.89138 429.61027,586.29851 420.55908,525.51363 377.04698,502.46256 339.1909,506.92701 305.63019,510.8849 296.36903,525.50768 268.55438,527.27316 264.56878,506.66241 263.07056,483.39138 266.22086,464.29445 300.904,470.20801 339.37103,466.1676 378.04613,471.57888 L 384.93308,457.36443 C 360.39022,455.8975 343.30968,446.14194 340.2801,423.57183 359.45673,434.77112 378.0078,438.14765 396.03293,434.78802 L 415.81352,395.36206 C 397.98812,381.8011 386.22849,360.48913 379.56071,331.71389 350.64474,206.92522 179.33266,195.97846 153.34652,339.68403 131.83668,458.63527 119.01706,560.56149 166.39211,651.90578 201.98452,720.53185 289.44743,722.8269 336.93159,687.55488 385.08375,744.54927 395.76195,831.43735 379.65954,900.72818 373.15797,928.70529 483.12711,928.83539 483.22374,902.70181 483.4835,832.45324 462.69889,770.07088 435.04139,716.69492 432.30691,711.41767 424.94497,709.11526 412.48869,712.35651" fill="#9edcf8" />
  <g inkscape:path-effect="#path-effect217" transform="matrix(-.58633823.09125384.16157356 1.0381676 413.68861 549.36126)">
    <path d="M 36.198645,11.271252 C 34.755454,7.2584261 30.233089,5.5451968 24.997189,6.8691553 20.087361,8.1106626 13.885296,12.490058 13.157309,21.05716 9.8192443,18.448778 6.1493806,18.790058 3.1296789,20.661285 0.11196194,22.531282 -2.0473525,25.84932 -2.1480745,29.326169 -2.1497439,29.383804 -2.1508499,29.441465 -2.1513881,29.499146 -2.1873801,33.350155 0.33726317,37.247579 5.9246416,39.109235 3.2255233,42.48382 6.4711467,47.655621 11.4749,50.676869 16.533216,53.731062 22.507764,54.259897 25.229511,48.67399 28.854381,55.128275 37.630334,58.708562 44.335073,58.504842 51.109011,58.29902 55.625407,54.39373 54.5741,45.423718 60.779296,47.583975 65.016119,45.986924 67.384774,42.828671 69.735092,39.69487 70.504478,34.703092 69.724545,30.148618 69.714775,30.091703 69.704752,30.034828 69.694472,29.978 68.81267,25.09073 66.179122,20.583579 59.916544,18.64353 62.570314,11.174398 61.206881,5.7414427 56.616189,3.8395308 52.030051,1.9395052 43.624256,3.4161267 36.198645,11.271252 Z" inkscape:original-d="M 38,11.8 C 31.6,4 14.6,5.2 16.8,21.5 3.9,14.1 -5.6,34.6 10,38.7 3.7,45.3 19.2,58.3 28.1,47.1 32,59.4 56.9,61.2 59.3,44 77.2,50.8 86,24.6 65.4,18.9 67.3,4.7 47.2,-3.5 38,11.8 Z" fill="#fff" />
    <path d="M 24.284363,39.01511 C 26.153042,36.307576 28.181074,33.565964 30.403137,30.806387 30.403109,30.806423 30.537038,30.636102 30.53701,30.636138 38.035712,21.206238 48.217565,11.568742 60.327063,3.2047642 63.488122,2.8157711 66.653373,2.4355299 69.814995,2.0693171 67.665756,4.9147673 65.749677,7.9072273 64.100507,10.999176 54.869873,17.238108 46.663597,24.016929 39.79455,30.699248 39.794199,30.69959 39.618286,30.871114 39.617935,30.871456 35.487073,34.840532 31.747243,38.768021 28.2981,42.591307 26.925587,41.407295 25.586874,40.214748 24.284363,39.01511 Z" inkscape:original-d="M 29.1,37.9 59.4,3.6 68.7,2.3 67.3,11.5 32.7,41.2 Z" fill="#a9aaa9" />
    <path d="M 12.102711,53.562592 C 14.178847,55.275114 16.311825,56.964059 18.49453,58.625246 20.824291,53.984722 23.412489,49.118553 26.474261,44.128694 29.521262,46.921755 32.747742,49.665941 36.122548,52.344067 36.845342,51.192622 37.588758,50.030542 38.355631,48.859398 31.292066,42.977074 24.995992,36.81538 19.795342,30.565018 19.744143,30.506039 19.69305,30.447014 19.642062,30.387943 19.262385,29.925498 18.889404,29.463235 18.522948,29.001243 18.104728,29.437717 17.691834,29.873815 17.284257,30.30945 17.284453,30.309239 17.128655,30.47651 17.128851,30.4763 16.476883,31.166254 15.836911,31.854587 15.208356,32.541014 17.698192,35.420769 20.415082,38.282338 23.327307,41.105953 19.288734,45.382743 15.585487,49.570045 12.102711,53.562592 Z" inkscape:original-d="M 13.1,52.4 17.8,57.2 30.5,42.7 38.2,50.5 41.6,47.1 23.5,28.7 20.1,32.1 27.8,39.9 Z" fill="#838484" />
  </g>
  <path d="M 275.53568,552.79215 C 275.53568,552.79215 275.46096,550.22176 274.47884,543.73056 274.16904,541.683 270.84992,521.90496 269.35241,509.04861 268.76001,503.96279 267.97171,495.66764 267.97934,486.16632 267.9871,476.4843 268.81627,469.37913 269.54905,464.80011 L 262.63699,463.69399 C 261.85258,468.59568 260.98743,476.0706 260.97933,486.16068 260.97141,496.03283 261.7894,504.62141 262.39941,509.85849 264.43227,527.31084 268.63556,539.03398 271.11763,544.70644 273.80332,550.84423 275.53568,552.79215 275.53568,552.79215 Z" inkscape:path-effect="#path-effect120082" inkscape:original-d="M 275.53568,552.79215 C 266.7654,527.79449 261.69413,491.73525 266.09302,464.24705" fill="#77aede" />
  <path d="M 336.65424,687.64679 C 385.08375,744.54927 395.76195,831.43735 379.65954,900.72818 373.15797,928.70529 483.12711,928.83539 483.22374,902.70181 483.4835,832.45324 462.69889,770.07088 435.04139,716.69492 432.30691,711.41767 424.94497,709.11526 412.48869,712.35651" fill="none" stroke="#77aede" stroke-width="7" />
  <path d="M 369.62328,629.87956 C 369.62328,629.87956 369.12599,631.89265 367.92374,636.27605 366.83727,640.23732 364.64716,647.78111 360.01191,656.18783 358.29761,659.29697 356.15299,662.71296 353.44099,666.31199 350.4501,670.28113 346.85294,674.20219 342.59826,677.97288 335.75027,684.04187 327.22366,689.6927 317.08106,694.34673 307.94713,698.53792 297.53245,701.89998 286.20555,703.88946 265.92194,707.45211 242.58859,706.63793 220.60779,697.78911 210.51649,693.72665 200.70853,687.9393 191.84968,680.04407 183.37134,672.48798 175.68704,662.93252 169.49909,651.00148 158.15962,629.13773 149.9963,606.0108 144.7674,581.18796 139.81012,557.65447 137.55184,532.90808 137.53748,506.49917 137.50994,455.85504 145.64898,401.92127 156.79064,340.30693 159.96565,322.74889 165.34985,307.55136 172.41193,294.64412 179.42175,281.8324 188.08093,271.28404 197.86279,262.92537 207.59501,254.60914 218.44264,248.45667 229.88522,244.40655 241.29204,240.3691 253.28567,238.42335 265.32872,238.51352 289.40496,238.6938 313.58132,247.01061 333.49159,262.84475 353.49089,278.7497 369.12559,302.18519 376.15105,332.50396 379.61543,347.45471 384.38263,360.21837 390.4559,370.96529 396.37452,381.43856 403.41976,389.79217 411.40677,396.34058 404.99449,409.12131 398.34765,422.36956 393.69405,431.64495 387.90892,432.59377 379.47844,433.29089 369.23391,431.35231 357.82162,429.19276 348.27158,424.53317 341.89388,420.80855 340.10171,419.76191 338.34305,418.65892 336.62053,417.50123 336.65645,419.67433 336.8194,421.84347 337.10854,423.99755 337.67706,428.23296 338.94853,434.07728 342.27236,439.816 344.78314,444.15096 348.19258,447.96426 352.60806,451.11926 356.99618,454.25471 361.9563,456.43888 367.073,457.94496 371.49809,459.24747 375.85939,459.98493 379.56778,460.41112 380.62568,458.22765 378.31668,462.99336 376.00147,467.77187 361.04909,465.83416 346.21566,465.246 332.79091,464.90278 315.05639,464.44938 303.11854,464.41503 289.14983,463.43614 276.13581,462.52415 266.40517,461.03229 258.26754,459.1763 254.944,458.41829 251.87138,457.62374 249.01012,456.80593 235.25079,452.87322 225.44006,448.0584 219.88037,445.20871 213.98725,442.18812 211.37774,440.7599 211.37774,440.7599 211.37774,440.7599 212.99103,443.25411 218.19225,447.71387 223.18948,451.99872 232.34905,458.59211 247.01438,463.3429 250.00335,464.31117 253.22563,465.20613 256.71099,466.00105 265.25419,467.94953 275.34754,469.48607 288.66048,470.41901 302.83467,471.4123 315.04082,471.45127 332.61198,471.90049 346.7482,472.2619 362.17058,472.89172 377.56115,475.04512 L 380.08481,475.39822 381.19591,473.10496 C 383.84931,467.62842 386.74035,461.6614 388.08286,458.89051 L 390.36377,454.18278 385.1419,453.87066 C 381.01348,453.62391 375.01941,453.0412 368.98314,451.33383 364.40847,450.03988 360.15062,448.20066 356.47016,445.64439 352.79381,443.09097 349.9804,440.02185 347.89542,436.5188 346.55081,434.25967 345.58748,431.94717 344.89359,429.7352 351.07668,432.86737 358.90757,436.09285 367.94274,437.92673 380.26914,440.42862 390.33686,439.40996 396.67423,438.22877 L 398.38218,437.91043 399.16128,436.35756 C 403.83678,427.03852 410.8051,413.14951 418.94187,396.9316 L 420.24448,394.33527 417.93266,392.57652 C 409.80669,386.39456 402.59269,378.21397 396.5501,367.52135 390.87087,357.4717 386.31617,345.36284 382.97037,330.92381 375.59668,299.10223 359.11505,274.27871 337.84865,257.36607 316.71514,240.55911 291.02367,231.70573 265.38114,231.51372 252.54951,231.41764 239.74601,233.49077 227.54963,237.80768 215.31052,242.13974 203.70966,248.72166 193.31542,257.60358 182.86506,266.53349 173.67401,277.75385 166.27106,291.28409 158.81486,304.91168 153.19846,320.83363 149.90238,339.06123 138.75463,400.70923 130.50957,455.17906 130.53748,506.50298 130.55206,533.30804 132.84421,558.54562 137.91772,582.63083 143.2715,608.04652 151.64206,631.77519 163.28513,654.2243 169.86831,666.91741 178.08184,677.15039 187.19232,685.26988 196.7056,693.74835 207.22015,699.94557 217.99368,704.28268 241.40546,713.70757 266.23736,714.50386 287.4165,710.78392 299.34015,708.68962 310.31975,705.15098 320.00041,700.70891 330.73929,695.78128 339.85261,689.75959 347.24106,683.21162 351.83313,679.14193 355.75026,674.87906 359.03148,670.52464 362.01543,666.56472 364.23642,662.71303 365.8827,659.14142 370.4526,649.22704 370.8298,641.00155 370.62384,636.56656 370.40296,631.81004 369.62328,629.87956 369.62328,629.87956 Z" inkscape:original-d="M 369.62328,629.87956 C 369.62328,709.44111 216.53432,749.29257 166.39211,652.61289 119.01706,561.2686 131.83668,458.63527 153.34652,339.68403 179.33266,195.97846 350.64474,206.92522 379.56071,331.71389 386.22849,360.48913 397.98812,381.8011 415.81352,395.36206 L 396.03293,434.78802 C 378.0078,438.14765 359.45673,434.77112 340.2801,423.57183 343.30968,446.14194 360.39022,455.8975 384.93308,457.36443 L 378.04613,471.57888 C 317.1565,463.05943 256.78262,477.96784 211.37774,440.7599" inkscape:path-effect="#path-effect199224" fill="#77aede" />
  <path d="M 336.65424,687.64679 C 385.08375,744.54927 395.76195,831.43735 379.65954,900.72818 373.15797,928.70529 483.12711,928.83539 483.22374,902.70181 483.4835,832.45324 462.69889,770.07088 435.04139,716.69492 432.30691,711.41767 424.94497,709.11526 412.48869,712.35651" fill="none" stroke="#77aede" stroke-width="7" />
  <g transform="translate(-121.67643-23.847586)">
    <path d="M 345.31947,695.50213 C 332.81233,780.36174 303.66532,859.52366 252.22268,945.73577 238.07207,969.45061 356.62511,970.15147 364.45511,947.39889 393.98684,861.58491 406.48535,778.00551 400.12907,696.26348 Z" fill="#9edcf8" />
    <path d="M 345.31947,695.50213 C 345.31947,695.50213 341.02439,708.65026 331.7811,747.51818 327.28688,766.41631 320.55977,790.68392 310.09056,818.89401 296.62983,855.16503 277.62524,896.33344 249.21709,943.94233 248.63873,944.9116 248.18839,945.91926 247.90148,946.96798 247.61502,948.01506 247.49723,949.08534 247.574,950.16156 247.65038,951.23221 247.91557,952.25515 248.34118,953.21594 248.76206,954.16607 249.32833,955.03026 249.99155,955.81255 251.29419,957.34904 253.01835,958.62628 254.95135,959.70291 256.88083,960.77759 259.12558,961.71162 261.59335,962.52429 266.48134,964.13398 272.45542,965.33568 279.01656,966.15574 285.55191,966.97259 292.72529,967.41729 300.06032,967.49243 307.4012,967.56762 314.90372,967.27266 322.09349,966.6095 329.33326,965.94173 336.2605,964.9004 342.41135,963.48333 348.62703,962.05132 354.14735,960.21426 358.45012,957.9214 360.64052,956.75419 362.5889,955.43041 364.16841,953.91927 364.96974,953.15262 365.6883,952.32615 366.29598,951.43479 366.90929,950.53518 367.40965,949.5693 367.76461,948.53783 396.92646,863.79866 403.85067,797.43277 405.04355,753.05595 406.19982,710.04073 400.12907,696.26348 400.12907,696.26348 400.12907,696.26348 399.188,710.38653 398.04607,752.86786 396.86912,796.65219 390.03984,862.29843 361.1456,946.25997 361.01299,946.64531 360.80935,947.05584 360.5122,947.49171 360.21593,947.92629 359.82751,948.38466 359.32935,948.86125 358.33412,949.81341 356.95589,950.78582 355.1582,951.74377 351.60254,953.6385 346.734,955.30408 340.83981,956.66202 335.05876,957.99389 328.45072,958.99342 321.45057,959.63909 314.50764,960.27948 307.24386,960.56564 300.13202,960.4928 293.02213,960.41997 286.11789,959.98886 279.88472,959.20979 273.59482,958.42363 268.09875,957.29681 263.78289,955.87554 261.60951,955.15981 259.79764,954.38963 258.3575,953.58751 256.89225,952.7714 255.92235,951.98344 255.33093,951.28584 255.04017,950.94289 254.85602,950.63971 254.74135,950.38084 254.62834,950.12573 254.57251,949.89124 254.55626,949.66344 254.53983,949.43309 254.56013,949.15594 254.65335,948.8152 254.74871,948.46663 254.92423,948.03875 255.22827,947.52921 283.84891,899.56422 303.04007,858.01121 316.65321,821.32951 327.23895,792.80541 334.04395,768.25875 338.59118,749.1377 347.98221,709.64853 345.31947,695.50213 345.31947,695.50213 Z" inkscape:path-effect="#path-effect84917" inkscape:original-d="M 345.31947,695.50213 C 332.81233,780.36174 303.66532,859.52366 252.22268,945.73577 238.07207,969.45061 356.62511,970.15147 364.45511,947.39889 393.98684,861.58491 406.48535,778.00551 400.12907,696.26348" fill="#77aede" />
  </g>
  <g transform="translate(-128.67643-19.847586)">
    <path d="M 306.91035,292.38751 C 387.70742,264.77655 480.08251,367.35558 556.46949,287.7562 529.76278,296.06485 513.0665,280.06005 484.03547,277.1879 509.58934,271.69386 523.45008,252.89309 523.71576,226.27277 508.3279,244.87936 488.90562,249.24166 467.27988,244.68859 485.06778,231.90704 485.34971,212.65127 476.67825,195.15637 457.17845,254.0404 351.04445,200.68539 300.95748,257.76677 Z" fill="#c1e7f7" />
    <path d="M 300.95748,257.76677 C 334.67861,219.95356 397.14308,230.20054 435.77009,224.5668 404.55183,252.88539 329.38217,241.52527 303.87304,275.47067 Z M 304.56956,277.69501 306.91035,292.38751 C 387.70742,264.77655 480.08251,367.35558 556.46949,287.7562 551.53723,289.29066 546.9464,289.99585 542.33985,290.08864 461.27573,337.77862 398.3597,253.42194 304.56956,277.69501 Z" fill="#eaf6fa" />
    <path d="M 306.91035,292.38751 C 387.70742,264.77655 480.08251,367.35558 556.46949,287.7562 529.76278,296.06485 513.0665,280.06005 484.03547,277.1879 509.58934,271.69386 523.45008,252.89309 523.71576,226.27277 508.3279,244.87936 488.90562,249.24166 467.27988,244.68859 485.06778,231.90704 485.34971,212.65127 476.67825,195.15637 457.17845,254.0404 351.04445,200.68539 300.95748,257.76677 Z" style="fill:none;stroke:#99d7e6;stroke-width:7;stroke-miterlimit:20" />
    <path d="M 323.78208,304.05315 C 331.13836,246.01955 319.7992,217.39368 306.74934,216.65408 296.63654,216.08094 224.90247,280.21615 291.92408,393.87875 Z" fill="#9edcf8" />
    <path inkscape:original-d="M 323.78208,304.05315 C 331.13836,246.01955 319.7992,217.39368 306.74934,216.65408 296.63654,216.08094 224.90247,280.21615 291.92408,393.87875" inkscape:path-effect="#path-effect969" d="M 323.78208,304.05315 C 323.78208,304.05315 324.82163,301.26596 326.19017,294.77647 327.49304,288.59836 329.2281,278.10895 329.34448,265.94778 329.38605,261.6038 329.21936,257.00698 328.73126,252.37298 328.2745,248.03645 327.53889,243.03041 326.31784,238.037 325.46316,234.54184 324.38459,231.11063 323.02973,227.9514 321.82684,225.14652 320.40825,222.56159 318.74608,220.35523 317.19685,218.29879 315.41526,216.54466 313.38674,215.27487 311.42023,214.0439 309.25311,213.29037 306.94739,213.15969 306.16996,213.11563 305.42382,213.23183 304.77468,213.39479 304.11192,213.56116 303.44018,213.80441 302.77644,214.09496 301.45412,214.67381 300.00221,215.51168 298.4792,216.55709 296.9423,217.61202 295.28747,218.9097 293.56345,220.43498 291.82417,221.97377 290.00979,223.74831 288.16731,225.74859 284.38508,229.85476 280.53624,234.85501 276.96053,240.67549 273.18478,246.82159 269.82156,253.70449 267.11677,261.24648 260.51261,279.66134 258.82282,299.14603 261.06683,318.55732 262.00716,326.69141 263.57485,334.29311 265.40632,341.17906 270.34706,359.75525 278.36576,374.19205 283.45856,382.20967 288.86328,390.71835 291.92408,393.87875 291.92408,393.87875 291.92408,393.87875 290.29742,389.70188 286.56612,380.59937 283.18992,372.36314 276.76341,356.64584 272.17113,339.37981 270.41286,332.76907 268.91633,325.50247 268.02052,317.75345 265.88426,299.27423 267.50919,280.88814 273.70585,263.60954 276.24537,256.52839 279.39789,250.08089 282.92492,244.33965 286.26703,238.89942 289.84351,234.26095 293.31598,230.49108 295.00638,228.65591 296.65112,227.04958 298.20178,225.67768 299.74206,224.31495 301.17168,223.19933 302.44061,222.32832 303.71613,221.4528 304.77687,220.86058 305.58353,220.50747 305.98537,220.33156 306.2821,220.23357 306.47902,220.18413 306.6918,220.13072 306.69769,220.15677 306.5513,220.14847 307.55152,220.20516 308.59073,220.53105 309.67262,221.20828 310.81458,221.92311 311.99282,223.02443 313.1551,224.56723 314.40043,226.22027 315.5566,228.28585 316.59638,230.71038 317.76444,233.43404 318.73159,236.48299 319.51818,239.69973 320.64201,244.29554 321.33434,248.97221 321.76977,253.10623 322.23286,257.50279 322.54982,261.90024 322.77408,266.08847 323.34482,276.74766 323.41011,289.30187 323.48725,294.51344 323.58459,301.08972 323.78208,304.05315 323.78208,304.05315 Z" fill="#77aede" />
    <path d="M 291.97503,263.38101 C 286.19223,291.40936 287.26243,316.28876 293.9855,343.87996 282.49421,317.38023 280.15336,290.59878 291.97503,263.38101 Z" fill="#77aede" />
  </g>
  <g transform="translate(-128.67643-19.847586)">
    <g clip-path="url(#clipPath72916)">
      <ellipse id="path72365" cx="502.09454" cy="-231.55328" rx="59.269363" ry="48.128902" transform="rotate(67.857718)" fill="#fff" />
      <ellipse cx="469.55341" cy="-303.00024" rx="48.744804" ry="37.90173" transform="rotate(75.924097)" fill="url(#linearGradient72151)" />
      <ellipse cx="471.43042" cy="-305.21561" rx="39.194614" ry="30.475954" transform="rotate(75.924041)" />
      <ellipse ry="20.087923" rx="12.674177" cy="197.09583" cx="500.00119" transform="rotate(21.479641)" fill="#fff" />
      <ellipse ry="8.0351734" rx="5.0696759" cy="214.23305" cx="522.69489" transform="rotate(21.479641)" fill="#fff" />
    </g>
    <path d="M 507.1602,427.57544 C 498.70409,430.94635 495.54451,423.61852 500.86315,418.73586 500.16247,423.70857 501.99118,426.81751 507.1602,427.57544 Z" fill="#77aede" />
    <path d="M 440.1195,344.80706 C 440.1195,344.80706 439.21253,342.39672 435.60676,337.67565 432.40383,333.48202 425.2277,325.43205 413.65538,320.63032 408.96419,318.68379 403.28248,317.18366 396.98416,317.11354 396.53569,317.10855 396.08368,317.11083 395.62839,317.12081 392.19844,317.19599 386.61154,317.71884 380.31877,320.41031 370.52014,324.60127 363.95111,331.2881 359.68534,337.99609 357.82723,340.918 356.55053,343.61422 355.70267,345.6312 353.1278,351.75656 351.87545,358.00468 351.45279,363.74497 350.63514,374.84988 352.82617,384.63168 355.44238,391.76705 358.98116,401.41862 363.80633,407.80016 366.63189,411.07859 369.66523,414.59811 371.29703,415.80699 371.29703,415.80699 371.29703,415.80699 370.06042,414.20236 367.68711,410.30892 365.50061,406.72196 361.67467,399.90186 359.06356,390.59314 357.11659,383.65207 355.5953,374.39453 356.61022,364.18849 357.13572,358.90415 358.36375,353.23567 360.68073,347.72378 361.44491,345.90586 362.58779,343.4951 364.24202,340.89379 368.02476,334.94537 373.80475,329.0696 382.44231,325.37525 387.89819,323.04173 392.74596,322.58528 395.74672,322.51951 396.14465,322.51079 396.54005,322.5081 396.93276,322.51112 402.43892,322.55342 407.52699,323.71597 411.87059,325.25565 422.46356,329.01055 430.34787,335.61202 434.1382,339.02614 438.42788,342.89004 440.1195,344.80706 440.1195,344.80706 Z" inkscape:path-effect="#path-effect3011" inkscape:original-d="M 440.1195,344.80706 C 425.41593,324.30663 401.45201,314.30805 381.38054,322.89278 347.68781,337.30344 345.50369,387.04125 371.29703,415.80699" />
    <ellipse id="path73180" cx="5.4677157" cy="563.19128" rx="2.8867242" ry="5.0013046" transform="rotate(-39.874329)" fill="#eaf6fa" />
    <use xlink:href="#path73180" transform="rotate(-1.9744332 543.08713 744.69381)" />
    <use xlink:href="#path73180" transform="rotate(-7.8972394 465.27854 406.71556)" />
  </g>
  <path d="M 268.57684,530.56657 C 268.57684,530.56657 270.25308,530.52627 273.58598,530.13634 276.93032,529.74507 281.70247,528.98385 287.57011,527.16387 292.54406,525.62109 296.73523,523.86696 303.09027,521.10751 307.23829,519.30638 312.82298,516.84967 318.98294,514.85405 324.23404,513.15286 330.9169,511.42704 339.60082,510.40292 348.02969,509.40889 357.45558,509.76646 367.13542,512.28474 375.72868,514.52034 384.69145,518.51226 393.0763,524.92448 400.67012,530.73177 407.97823,538.67531 413.93175,549.33223 419.40487,559.12925 423.86166,571.45671 426.14844,586.81399 428.16837,600.37922 427.97778,612.94682 426.36529,625.26945 424.83981,636.92713 422.14307,647.76078 419.10918,659.22178 416.4571,669.24046 413.45198,680.06229 411.55544,690.84719 411.47597,691.29915 411.40023,691.74661 411.32814,692.18972 409.27371,704.81681 410.25241,713.74701 411.42926,719.26502 412.61448,724.82227 413.88486,726.95958 413.88486,726.95958 413.88486,726.95958 414.2826,724.53635 414.83285,719.06917 415.37662,713.66639 416.17407,705.25082 418.22594,693.34447 418.29891,692.92103 418.37345,692.4929 418.44966,692.05954 420.28181,681.64073 423.18689,671.17203 425.8761,661.01308 428.91859,649.51958 431.71795,638.31448 433.30612,626.1777 434.99246,613.29071 435.19885,600.06563 433.0721,585.78303 430.66869,569.6425 425.95426,556.49993 420.0428,545.91828 413.6109,534.40504 405.66242,525.73729 397.32856,519.36406 388.13661,512.33462 378.30918,507.95866 368.89785,505.51024 358.30414,502.75422 347.99748,502.36418 338.78098,503.4511 329.57734,504.5365 322.44439,506.37447 316.82556,508.19479 310.28928,510.31233 304.39328,512.9103 300.30225,514.68668 293.96763,517.43727 290.07705,519.0573 285.49637,520.4781 280.14355,522.13839 275.78583,522.83123 272.77257,523.18376 269.73104,523.5396 268.1862,523.57747 268.1862,523.57747 Z" inkscape:path-effect="#path-effect126446" inkscape:original-d="M 268.38152,527.07202 C 296.36903,525.50768 305.63019,510.8849 339.1909,506.92701 377.04698,502.46256 420.55908,525.51363 429.61027,586.29851 438.15472,643.6803 407.32728,678.88016 413.88486,726.95958" fill="#77aede" />
  <g transform="translate(-128.67643-19.847586)">
    <path d="M 425.59887,574.21013 C 379.85527,629.36248 423.39492,691.95808 484.36807,653.73774 528.72624,625.93231 569.556,536.72424 544.95508,518.30163 534.6543,510.58778 499.8666,519.3699 444.3133,560.04957 Z" fill="#9edcf8" />
    <path d="M 425.59887,574.21013 C 425.59887,574.21013 422.55863,576.171 417.46849,582.43544 412.79018,588.19302 405.19377,599.59402 403.44069,614.90619 403.31738,615.98317 403.22374,617.07917 403.16367,618.19182 402.61564,628.34276 404.57315,640.544 412.12413,651.0335 415.41614,655.60661 419.74162,659.76188 425.14621,662.93188 430.1088,665.84262 435.96553,667.91225 442.63492,668.66923 448.89594,669.37985 455.84996,668.92905 463.35738,666.93924 470.52302,665.04003 478.1968,661.73691 486.22699,656.70328 491.94002,653.12213 497.61648,648.55471 503.14863,643.20713 508.54953,637.98641 513.80044,632.03368 518.78008,625.5727 528.55169,612.89423 537.20841,598.34538 543.71122,583.94127 546.94017,576.78894 549.62716,569.69522 551.64622,562.91816 553.67576,556.10595 555.03533,549.59779 555.58964,543.65022 556.14983,537.63941 555.89707,532.10423 554.61287,527.35619 553.95856,524.93705 553.03008,522.69859 551.78697,520.70274 550.52391,518.67485 548.95001,516.92067 547.05303,515.5001 545.22897,514.13413 543.04503,513.27281 540.65351,512.78335 538.17179,512.27543 535.40718,512.16017 532.46209,512.35774 525.9583,512.79403 518.37313,514.76668 510.38039,517.74885 500.17179,521.55778 489.72578,526.8462 480.28935,532.24154 479.35724,532.77448 478.43888,533.3062 477.53572,533.83507 465.61049,540.8181 456.65169,548.09133 451.53501,552.71724 446.20675,557.53445 444.3133,560.04957 444.3133,560.04957 444.3133,560.04957 457.63504,553.6001 481.07288,539.87563 481.95603,539.35849 482.85347,538.83888 483.76382,538.31838 493.01126,533.03111 503.09817,527.93728 512.82737,524.30722 520.48995,521.44824 527.3658,519.71535 532.93062,519.34204 535.43052,519.17434 537.53972,519.29117 539.24996,519.64119 540.89031,519.97691 542.05864,520.50521 542.85712,521.10316 544.01428,521.96971 545.01047,523.06326 545.84523,524.4035 546.67321,525.73286 547.35181,527.32094 547.85566,529.1838 548.85504,532.87876 549.13046,537.52178 548.61984,543.00062 548.1177,548.38857 546.86914,554.4363 544.93762,560.9195 543.01957,567.3575 540.44849,574.15611 537.33125,581.061 531.04607,594.98303 522.66699,609.06264 513.23572,621.29952 508.43512,627.5282 503.40831,633.22035 498.28355,638.17414 493.02962,643.25278 487.73269,647.49788 482.50915,650.7722 475.01131,655.47214 467.98096,658.47209 461.56398,660.17288 454.84601,661.95344 448.76804,662.32039 443.42436,661.71388 437.73529,661.06817 432.8149,659.3146 428.68774,656.89386 424.18154,654.25081 420.57289,650.78859 417.80525,646.94389 411.43639,638.09654 409.66536,627.61065 410.15349,618.56919 410.20668,617.58395 410.28226,616.61057 410.37757,615.65071 411.71221,602.20902 417.02705,590.66011 420.25507,584.24627 423.75918,577.28387 425.59887,574.21013 425.59887,574.21013 Z" inkscape:original-d="M 425.59887,574.21013 C 379.85527,629.36248 423.39492,691.95808 484.36807,653.73774 528.72624,625.93231 569.556,536.72425 544.95508,518.30163 534.65431,510.58779 499.8666,519.3699 444.3133,560.04957" inkscape:path-effect="#path-effect231791" fill="#77aede" />
    <path d="M 482.27108,655.3249 C 505.96093,635.45841 504.84305,608.8644 476.08746,610.88864 500.83363,592.66681 493.66754,573.21857 468.89517,577.53742 484.56789,561.98946 479.43921,547.59421 459.28457,549.25472" style="fill:none;stroke:#77aede;stroke-width:5;stroke-miterlimit:20" />
    <path d="M 477.58588,556.50514 540.47034,516.51932 M 497.57058,619.79782 548.89508,560.78402 M 490.60965,584.74071 552.10081,531.42973" stroke="#77aede" stroke-width="3.5" />
  </g>
</svg>