<svg xmlns="http://www.w3.org/2000/svg" xmlns:inkscape="http://www.inkscape.org/namespaces/inkscape" xmlns:xlink="http://www.w3.org/1999/xlink" height="1000" viewBox="0 0 1000 1000" width="1000">
  <defs>
    <inkscape:path-effect bendpath1="M 289.02319,593.46532 H 344.08584" bendpath2="M 343.10037,593.26123 C 334.99621,629.16995 336.96658,661.56571 344.19391,694.51299" bendpath3="M 289.02319,695.69049 H 344.08584" bendpath4="M 288.5414,594.24209 C 280.37092,627.12747 279.9613,660.62313 289.19915,697.0077" effect="envelope" id="path-effect1753" yy="false" />
    <inkscape:path-effect effect="powerstroke" end_linecap_type="zerowidth" id="path-effect7131" interpolator_type="CubicBezierSmooth" offset_points="0.26,3 | 2.77,3" start_linecap_type="zerowidth" />
    <inkscape:path-effect effect="powerstroke" end_linecap_type="zerowidth" id="path-effect3189" interpolator_type="CubicBezierSmooth" offset_points="0.27,3 | 2.68,3" start_linecap_type="zerowidth" />
    <inkscape:path-effect effect="powerstroke" end_linecap_type="zerowidth" id="path-effect3187" interpolator_type="CubicBezierSmooth" offset_points="0.62,3 | 3.75,3" start_linecap_type="zerowidth" />
    <inkscape:path-effect effect="powerstroke" id="path-effect3161" interpolator_type="CubicBezierSmooth" offset_points="0.7,3 | 3,3" start_linecap_type="zerowidth" />
    <inkscape:path-effect effect="powerstroke" id="path-effect1280" interpolator_type="CubicBezierSmooth" offset_points="0.21,3 | 4,3" start_linecap_type="zerowidth" />
    <inkscape:path-effect effect="powerstroke" id="path-effect1278" interpolator_type="CubicBezierSmooth" offset_points="0.5,3" start_linecap_type="zerowidth" />
    <inkscape:path-effect effect="powerstroke" end_linecap_type="zerowidth" id="path-effect1190" interpolator_type="CubicBezierSmooth" offset_points="0.66,2.2 | 1.6,2.2" start_linecap_type="zerowidth" />
    <inkscape:path-effect effect="powerstroke" end_linecap_type="zerowidth" id="path-effect1184" interpolator_type="CubicBezierSmooth" offset_points="0.42,2.2 | 1.36,2.2" start_linecap_type="zerowidth" />
    <linearGradient id="linearGradient5565">
      <stop offset="0" stop-color="#1c7cba" />
      <stop offset="1" stop-color="#38a3e8" />
    </linearGradient>
    <inkscape:path-effect effect="powerstroke" id="path-effect5535" interpolator_type="CubicBezierSmooth" offset_points="0.26,3 | 7,3" start_linecap_type="zerowidth" />
    <inkscape:path-effect effect="powerstroke" end_linecap_type="zerowidth" id="path-effect5525" interpolator_type="CubicBezierSmooth" offset_points="0.2,3 | 1.58,3" start_linecap_type="zerowidth" />
    <inkscape:path-effect effect="powerstroke" end_linecap_type="zerowidth" id="path-effect5523" interpolator_type="CubicBezierSmooth" offset_points="0.2,3 | 1.58,3" start_linecap_type="zerowidth" />
    <linearGradient id="linearGradient4600">
      <stop offset="0" stop-color="#014399" />
      <stop offset="1" stop-color="#759dd7" />
    </linearGradient>
    <linearGradient gradientTransform="matrix(1.6298213,0,0,1.6298213,-728.14954,139.86866)" gradientUnits="userSpaceOnUse" id="linearGradient1175" x1="327.80704" x2="288.49045" y1="235.39241" y2="234.22557" xlink:href="#linearGradient4600" />
    <linearGradient gradientTransform="matrix(0.83470615,0,0,0.83470615,214.28962,23.46925)" gradientUnits="userSpaceOnUse" id="linearGradient1146" x1="148.37442" x2="148.91647" y1="317.77133" y2="393.5481" xlink:href="#linearGradient4600" />
    <linearGradient gradientUnits="userSpaceOnUse" id="linearGradient5567" x1="416.85025" x2="422.96426" y1="184.78017" y2="84.063423" xlink:href="#linearGradient5565" />
    <clipPath id="clipPath1201">
      <use xlink:href="#path906" />
    </clipPath>
    <clipPath id="clipPath1214">
      <use xlink:href="#path904" />
    </clipPath>
    <linearGradient gradientTransform="translate(2.672234,1.163883)" gradientUnits="userSpaceOnUse" id="linearGradient7147" x1="217.84932" x2="197.27803" y1="616.54047" y2="765.03284" xlink:href="#linearGradient5565" />
  </defs>
  <g>
    <path d="M 556.86766,560.70166 C 557.19613,558.9045 557.49971,557.09075 557.77813,555.26041 564.70352,509.73313 523.95021,479.76329 479.91594,505.17381 L 472.75,584.75" fill="#ebebeb" stroke="#a7a7a7" stroke-width="6" />
    <path d="M 346.62123,633.95663 450.53328,600.88729 C 456.54141,630.55241 454.08348,650.51952 449.4711,689.9949 440.07413,770.41957 441.63148,819.19911 503.61115,921.80815 517.65106,945.0516 414.10086,948.59931 404.64445,923.87024 381.14147,862.40855 370.69303,804.13832 370.23839,741.07243 370.18001,732.97346 379.14394,730.14001 392.51,731.16959 380.52509,705.60507 352.58329,671.87286 346.62123,633.95663 Z" fill="#dadada" />
    <path d="M 397.21632,743.99742 C 397.21632,743.99742 397.73692,742.59925 397.29448,739.01903 396.84284,735.36428 395.33434,729.56421 390.25517,720.3084 390.07685,719.98346 389.89426,719.65435 389.70723,719.32088 385.68721,712.15318 380.48545,703.78906 374.76136,694.09834 365.8684,679.04282 354.11072,658.15169 350.01841,636.02375 377.56184,627.25824 411.67829,616.40089 448.23092,604.76826 450.62376,617.66041 451.39552,628.98959 450.98644,641.66545 450.55439,655.0532 448.84441,669.5081 446.49137,689.64674 441.81709,729.65191 439.74755,762.47488 446.8323,798.16649 453.90118,833.77815 470.00965,871.98226 501.04326,923.35925 501.70579,924.45609 501.91216,925.31044 501.9174,925.95769 501.9225,926.58746 501.74023,927.22784 501.27672,927.92734 500.79341,928.65674 499.99757,929.45442 498.80168,930.27705 497.60911,931.09739 496.09367,931.89097 494.26741,932.63592 490.59382,934.1344 485.87366,935.3513 480.47614,936.23477 475.06179,937.121 469.04948,937.65847 462.85591,937.83004 450.28523,938.17825 437.21291,937.0164 426.81889,934.34374 421.5473,932.98824 417.09067,931.277 413.73072,929.26211 412.04481,928.25109 410.68001,927.19039 409.63204,926.09942 408.58201,925.0063 407.86892,923.90319 407.44657,922.79873 382.40826,857.32207 373.65452,798.78573 373.23831,741.0508 373.22767,739.57506 373.62779,738.54395 374.21573,737.75768 374.88285,736.86549 375.95182,736.08213 377.47873,735.45069 379.17899,734.74756 381.29128,734.29809 383.65336,734.06345 386.39416,733.79119 389.36099,733.81795 392.25108,734.00788 L 392.64456,728.0208 C 389.54911,727.81737 386.23249,727.77772 383.06027,728.09283 380.35486,728.36158 377.61451,728.90172 375.1858,729.9061 372.99877,730.81053 370.9131,732.15515 369.41053,734.16462 367.99243,736.06112 367.21896,738.38746 367.23847,741.09405 367.65928,799.46685 376.52071,858.72421 401.84233,924.94176 402.59868,926.91964 403.79836,928.68748 405.30495,930.25589 406.79908,931.81133 408.61119,933.18817 410.64491,934.40776 414.66759,936.82009 419.71992,938.71353 425.32469,940.15471 436.39085,943.0002 450.04279,944.18727 463.02199,943.82774 469.44348,943.64986 475.72747,943.09188 481.44528,942.15599 487.11233,941.2284 492.30525,939.91627 496.53358,938.1915 498.64322,937.33096 500.56466,936.34679 502.20208,935.22046 503.83002,934.10064 505.25387,932.78761 506.27833,931.24154 507.31969,929.66996 507.93313,927.87507 507.91721,925.9091 507.90146,923.96493 507.27282,922.06783 506.17904,920.25705 475.33607,869.19565 459.59834,831.66276 452.71747,796.99829 445.82355,762.268 447.79242,730.2124 452.45083,690.34306 454.79375,670.29102 456.54134,655.55431 456.98332,641.85902 457.44149,627.66211 456.46,615.03721 453.47358,600.29179 L 452.80983,597.01454 449.62351,598.02856 C 411.85708,610.04749 376.62027,621.26137 345.71146,631.0979 L 343.25765,631.87881 343.65765,634.42267 C 347.48347,658.75324 360.39668,681.57687 369.59528,697.14983 375.37124,706.92837 380.54593,715.25197 384.4741,722.25589 384.48721,722.27928 385.00043,723.1939 385.01355,723.21729 389.8737,731.87509 392.8775,737.21043 394.52699,739.95718 396.28772,742.88917 397.21632,743.99742 397.21632,743.99742 Z" fill="#a7a7a7" inkscape:original-d="M 397.21632,743.99742 C 390.90944,717.21216 353.62023,678.46739 346.62123,633.95663 L 450.53328,600.88729 C 456.54141,630.55241 454.08348,650.51952 449.4711,689.9949 440.07413,770.41957 441.63148,819.19911 503.61115,921.80815 517.65106,945.0516 414.10086,948.59931 404.64445,923.87024 381.14147,862.40855 370.69303,804.13832 370.23839,741.07243 370.18001,732.97346 379.14394,730.14001 392.44782,731.01434" inkscape:path-effect="#path-effect5535" />
    <path d="M 291.3581,591.28459 C 238.30431,534.90532 160.38208,550.48896 135.82278,616.0983 146.2002,608.04563 154.00287,604.89245 165.87787,603.64245 133.19796,630.69317 132.0733,670.68896 154.92202,711.5473 158.58624,697.16253 162.89995,688.78816 170.64995,679.78816 162.844,733.09117 181.98354,768.49834 226.94767,788.00977 216.68422,756.82726 217.17192,729.06633 225.42192,702.19133 229.3643,715.31139 235.55301,723.04299 248.55301,731.04299 224.05301,659.40695 247.46113,608.80541 282.32866,623.63993 Z" style="fill:url(#linearGradient7147);stroke:#155d8b;stroke-width:6;stroke-miterlimit:20" />
  </g>
  <path d="M 351.58735,725.60185 C 313.72312,786.70441 303.08809,868.3581 319.16003,941.30203 324.02122,963.36495 216.76713,965.77438 217.79249,941.36412 220.70545,872.01677 234.53152,816.50161 260.68175,756.81529 264.22861,748.71978 272.88565,747.25323 285.88618,748.51895 281.87235,700.56183 226.05151,624.59154 323.4144,527.22865 370.73359,479.90946 376.52395,433.67141 372.74114,351.10984 L 480.72288,367.48721 C 535.60309,565.33642 443.69717,700.61482 364.24644,699.79201 360.96105,708.76718 356.73473,717.29538 351.58735,725.60185 Z" fill="#ebebeb" />
  <path d="M 286.96971,648.67742 C 286.27972,628.52965 290.75496,617.81881 293.72652,614.40573 297.07556,610.55908 300.10256,612.8636 301.74633,616.76216 303.25157,600.49814 309.69642,593.22641 313.69981,593.50913 318.14218,593.82285 320.64022,601.7232 320.49268,616.6243 323.12623,609.66154 327.22337,607.41881 330.29538,611.13812 333.65697,615.20804 335.50057,624.71408 337.8,643.25557 320.81332,645.19888 303.95845,646.96607 286.96971,648.67742 Z M 312.77974,649.99846 C 317.11374,648.99737 321.00404,653.78341 322.76368,659.03724 324.5245,664.2946 324.15948,670.00607 319.1494,670.94275 314.1091,671.88506 310.1262,667.20029 308.69374,661.96735 307.26005,656.72999 308.41029,651.00784 312.77974,649.99846 Z M 305.2614,684.67553 C 300.57121,682.17209 299.09084,678.4322 299.84389,675.73953 300.59603,673.05017 303.54351,671.48947 307.55461,673.32826 311.55784,675.16343 313.26329,679.28625 312.86993,682.26686 312.47695,685.24458 309.95305,687.17962 305.2614,684.67553 Z M 290.01628,693.53906 C 286.57301,690.362 286.1998,686.76717 287.47492,684.82263 288.75879,682.86474 291.60771,682.65039 294.66037,686.03456 297.7185,689.42508 298.27646,692.86987 297.22416,694.67603 296.17994,696.46831 293.45868,696.71531 290.01628,693.53906 Z" style="stroke-miterlimit:20;fill:#d6d6d6;stroke:#afafaf;stroke-width:1.37" transform="rotate(-4.6697877 315.9011 633.49107)" inkscape:original-d="M 293.64627,648.27367 C 293.21101,607.71865 302.49632,608.86967 306.78969,616.82285 305.81141,584.27223 322.43525,587.02486 325.55764,617.11963 329.19889,603.37222 340.13285,607.7711 344.08584,644.54338 Z M 319.14961,650.36958 C 327.81291,648.65687 333.90461,670.10805 323.73506,671.62605 313.56556,673.14401 310.48654,652.08245 319.14961,650.36958 Z M 307.8884,684.89779 C 299.58786,679.38521 304.56103,669.52143 311.9887,673.56692 319.41662,677.61251 316.18894,690.4101 307.8884,684.89779 Z M 290.96071,692.88888 C 285.65021,686.08305 292.43898,678.53559 297.1594,685.69114 301.87952,692.84694 296.27097,699.69436 290.96071,692.88888 Z" inkscape:path-effect="#path-effect1753" />
  <path d="M 373.06143,657.38394 C 373.06143,657.38394 372.21554,659.88977 370.74849,665.78156 369.67434,670.09539 366.8391,682.2776 363.40773,693.05447 359.80502,704.36944 354.92839,714.51497 349.03728,724.02161 329.13097,756.14497 317.3824,792.64812 312.17859,828.58152 306.49557,867.82393 308.49379,906.83472 316.2303,941.94754 316.40067,942.72078 316.32384,943.38789 316.04902,944.03674 315.75401,944.73327 315.1784,945.52232 314.19696,946.37009 312.15472,948.13417 308.78733,949.78565 304.32661,951.19083 299.80161,952.61625 294.38942,953.71615 288.56315,954.47898 282.57789,955.26263 276.1978,955.68587 269.87915,955.76073 256.57118,955.91839 243.87956,954.53999 234.72047,951.87459 229.89619,950.47067 226.26442,948.77462 223.91042,946.91886 222.71987,945.98029 221.92632,945.05585 221.44126,944.17783 220.96077,943.30807 220.7504,942.42916 220.78985,941.49002 222.35245,904.28995 226.9877,873.47954 233.44277,846.15658 241.21178,813.27203 251.98427,784.14245 263.42959,758.01919 264.19412,756.27418 265.17169,755.09083 266.20417,754.23358 267.46741,753.18474 268.97129,752.4985 270.56926,752.03677 274.24638,750.97427 278.7231,751.05733 281.30634,751.17689 284.13564,751.30783 285.57986,751.48926 285.57986,751.48926 L 286.15486,745.51688 C 286.15486,745.51688 284.64211,745.32479 281.58362,745.18335 279.00245,745.06398 273.62783,744.90755 268.90371,746.27258 266.77017,746.88906 264.4489,747.89242 262.37139,749.61733 260.62952,751.06357 259.07803,753.00001 257.93391,755.61138 246.38514,781.97076 235.47675,811.4513 227.60352,844.77705 221.05968,872.47571 216.37346,903.66392 214.79513,941.23821 214.70751,943.32412 215.2005,945.28914 216.18939,947.07917 217.14825,948.81485 218.53621,950.32238 220.19583,951.63074 223.40316,954.15922 227.86017,956.12707 233.04395,957.6356 242.95796,960.52069 256.27991,961.92226 269.95023,961.76031 276.48021,961.68295 283.09815,961.24572 289.34208,960.42821 295.40134,959.63487 301.17589,958.474 306.1293,956.91362 310.89417,955.41263 315.16961,953.45843 318.1191,950.91066 319.58715,949.64255 320.82607,948.14241 321.5739,946.37678 322.32902,944.59392 322.53065,942.65755 322.08976,940.65651 314.50349,906.22556 312.54083,867.94358 318.11664,829.44146 323.22344,794.17797 334.73723,758.48871 354.13742,727.18209 360.2611,717.30014 365.35693,706.70817 369.12468,694.87491 373.12582,682.30863 373.74451,671.89564 373.7271,666.13909 373.70843,659.96595 373.06143,657.38394 373.06143,657.38394 Z" fill="#a7a7a7" inkscape:original-d="M 373.06143,657.38394 C 371.11172,684.0844 364.04856,705.49285 351.58735,725.60185 313.72311,786.70441 303.08809,868.3581 319.16003,941.30203 324.02122,963.36495 216.76713,965.77438 217.79249,941.36412 220.70545,872.01677 234.53152,816.50161 260.68175,756.81529 264.22861,748.71978 272.88565,747.25323 285.86736,748.50307" inkscape:path-effect="#path-effect1278" />
  <path d="M 285.38596,761.92803 C 285.38596,761.92803 286.15231,760.90937 286.97954,758.03072 287.79745,755.18447 288.66561,750.27818 287.85412,742.45675 287.42008,738.2732 286.53478,733.42899 284.98114,727.35473 284.37059,724.96766 283.70588,722.4971 282.97728,719.85843 279.63831,707.7661 273.18038,686.96921 270.6376,666.85934 268.40132,649.17353 268.31951,627.57809 276.44956,603.44348 283.74907,581.77437 298.02507,556.86062 325.53572,529.34997 337.15688,517.72881 346.7053,505.77524 354.21006,492.86523 361.3597,480.56609 366.57302,467.54907 370.15289,453.10693 376.86116,426.04402 377.62816,394.97706 375.89989,354.62323 411.57734,360.03436 447.49984,365.48265 480.27302,370.45329 L 477.83203,368.28908 477.83207,368.28921 C 507.00757,473.47023 493.18472,555.16247 470.11361,606.92737 456.30382,637.91251 438.70349,659.72833 421.75259,673.7512 400.57701,691.26898 380.2889,697.00314 364.23545,696.84831 L 364.17759,702.84803 C 381.77227,703.01772 403.41008,696.71228 425.57711,678.37429 443.30212,663.71103 461.44159,641.12365 475.59391,609.36997 499.25889,556.2726 513.14393,473.14507 483.61376,366.68546 L 483.61373,366.68534 483.09891,364.81327 481.17274,364.52113 C 447.29431,359.38286 410.05057,353.73418 373.191,348.14376 L 369.57698,347.59563 369.74428,351.24715 C 371.67146,393.30874 371.01552,424.68875 364.32914,451.66336 360.87908,465.58183 355.87295,478.06594 349.02283,489.84983 341.82539,502.23118 332.61991,513.78049 321.29309,525.10732 293.21252,553.18789 278.39422,578.87577 270.76351,601.52806 262.26532,626.75551 262.37101,649.31161 264.68499,667.61202 267.29781,688.2758 273.93726,709.66191 277.19372,721.45541 277.91612,724.07166 278.57019,726.50324 279.16827,728.84152 280.71695,734.89635 281.75071,739.25708 282.58492,743.26842 284.06823,750.40092 284.60953,755.12792 284.90884,757.84468 285.22332,760.69905 285.38596,761.92803 285.38596,761.92803 Z" fill="#a7a7a7" inkscape:original-d="M 285.38596,761.92803 C 294.39815,715.36505 216.43185,634.2112 323.4144,527.22865 370.73359,479.90946 376.52395,433.67141 372.74114,351.10984 L 480.72288,367.48721 C 535.60309,565.33642 443.69717,700.61482 364.20652,699.84817" inkscape:path-effect="#path-effect1280" />
  <g transform="translate(0 5)">
    <path d="M 329.56046,271.54453 C 329.59434,332.1216 378.60619,385.60874 434.04634,386.07785 491.35683,386.56278 541.69155,333.32218 541.69155,273.4643 541.69155,112.46672 329.47125,111.98708 329.56046,271.54453 Z" fill="#ebebeb" stroke="#a7a7a7" stroke-width="6" />
    <path d="M 534.15657,258.19171 C 583.65233,176.63855 537.29366,108.33717 521.10085,109.42814 507.75757,110.32715 496.02169,150.54075 501.64896,189.93582 Z" fill="#ebebeb" />
    <path d="M 528.96717,145.51146 C 540.80724,167.25097 541.73131,194.86849 532.15231,216.08076 537.19827,192.93605 535.91326,169.91107 528.96717,145.51146 Z" fill="#a7a7a7" />
    <path d="M 534.15657,258.19171 C 534.15657,258.19171 536.82806,255.57042 541.44655,248.25546 545.8087,241.34651 552.60582,228.77749 556.29019,211.94065 560.02228,194.88568 561.15039,173.92817 555.15549,152.02636 551.54548,138.83752 545.82648,127.29563 539.30088,118.90239 536.27057,115.0048 533.11885,111.86487 530.07232,109.7121 528.5564,108.64091 527.0282,107.78706 525.52095,107.21703 524.01255,106.64658 522.44539,106.33075 520.89919,106.43493 518.43564,106.60091 516.22882,107.67573 514.33543,109.18214 512.35765,110.7557 510.62105,112.87594 509.11441,115.22923 505.53222,120.8244 503.01377,128.07988 501.35631,134.49556 500.63188,137.2997 500.0684,139.95027 499.63109,142.28622 496.64164,158.25459 497.84289,171.89147 499.02862,179.18606 500.29297,186.96427 501.64896,189.93582 501.64896,189.93582 501.64896,189.93582 501.77458,186.67925 502.0222,178.98984 502.24122,172.1887 502.77197,158.11566 505.52865,143.39028 505.94588,141.16153 506.48106,138.64599 507.16558,135.99636 508.75868,129.82982 511.08459,123.27972 514.16751,118.46437 515.45375,116.45535 516.77512,114.90843 518.07105,113.87737 519.29665,112.90226 520.37615,112.48377 521.30252,112.42135 521.77307,112.38965 522.46406,112.4757 523.39854,112.82911 524.32336,113.17886 525.40301,113.75945 526.60977,114.61218 529.04607,116.33374 531.78579,119.01171 534.56409,122.58517 540.53776,130.26851 545.93619,141.07126 549.36836,153.61039 555.0551,174.38638 554.00063,194.33672 550.42913,210.65766 546.98982,226.37451 541.70149,239.70092 538.7795,246.88185 535.60448,254.6846 534.15657,258.19171 534.15657,258.19171 Z" fill="#a7a7a7" inkscape:original-d="M 534.15657,258.19171 C 583.65233,176.63855 537.29366,108.33717 521.10085,109.42814 507.75757,110.32715 496.02169,150.54075 501.64896,189.93582" inkscape:path-effect="#path-effect5523" />
    <g>
      <g clip-path="url(#clipPath1201)">
        <ellipse cx="-208.84921" cy="530.10065" fill="#fff" id="path906" rx="59.283398" ry="30.468904" transform="rotate(-82.456379)" />
        <ellipse cx="-225.43536" cy="513.69336" fill="url(#linearGradient1175)" rx="41.416653" ry="25.356024" transform="rotate(-83.936638)" />
        <ellipse cx="-227.44418" cy="510.724" rx="33.486397" ry="20.138155" transform="rotate(-84.058069)" />
        <ellipse cx="-33.381031" cy="557.57385" fill="#fff" rx="16.765348" ry="8.8497391" transform="rotate(-65.278698)" />
        <ellipse cx="-34.56245" cy="573.97009" fill="#fff" rx="5.450902" ry="3.0464675" transform="rotate(-63.917936)" />
      </g>
      <g clip-path="url(#clipPath1214)">
        <ellipse cx="324.09372" cy="-333.48874" fill="#fff" id="path904" rx="59.283474" ry="30.468914" transform="rotate(82.392281)" />
        <ellipse cx="349.69269" cy="320.28937" fill="url(#linearGradient1146)" rx="25.356024" ry="41.416656" transform="rotate(-6.4377726)" />
        <ellipse cx="355.72238" cy="317.78128" rx="20.185865" ry="33.565716" transform="rotate(-5.860663)" />
        <ellipse cx="-113.7365" cy="441.47656" fill="#fff" rx="16.983906" ry="8.965107" transform="rotate(-69.246023)" />
        <ellipse cx="-84.166779" cy="467.61096" fill="#fff" rx="5.5219617" ry="3.0861826" transform="rotate(-63.749491)" />
      </g>
      <path d="M 353.04773,313.75921 C 353.04773,313.75921 352.49669,312.26609 351.23132,308.32857 350.12986,304.90109 347.82563,297.39999 346.24266,287.06491 345.38949,281.49461 344.64911,274.47342 344.59087,266.72008 344.57123,264.10521 344.63607,260.87424 344.92295,257.30598 345.5646,249.32515 347.31621,239.85937 351.37622,232.35154 353.11845,229.12977 355.21155,226.41667 357.67299,224.38214 360.10932,222.36836 362.87283,221.04584 365.99367,220.49531 368.75235,220.00867 371.32725,220.51875 373.56648,221.42623 374.92274,221.97587 376.09271,222.64648 376.99474,223.22868 378.55868,224.23809 380.03359,225.41701 381.39591,226.65734 386.94199,231.70681 391.4318,238.58557 393.50625,241.81178 395.92128,245.56767 397.00101,247.29911 397.00101,247.29911 397.00101,247.29911 396.76967,245.30064 395.16836,240.98392 393.75768,237.18106 390.42117,229.6171 384.34062,223.57034 382.88373,222.12155 381.22555,220.72249 379.38081,219.53183 378.32345,218.84938 376.90383,218.03114 375.21909,217.34838 372.4299,216.21802 369.00402,215.49633 365.2293,216.16221 361.31937,216.85195 357.86105,218.5182 354.86975,220.9907 351.87627,223.465 349.45056,226.66245 347.50588,230.25858 343.02162,238.55096 341.19868,248.72464 340.5371,256.95337 340.2377,260.67741 340.17062,264.04047 340.19099,266.75313 340.25164,274.82748 341.21237,282.02998 342.39493,287.75799 344.64031,298.63405 347.9092,305.50375 349.83424,308.93901 351.88252,312.59419 353.04773,313.75921 353.04773,313.75921 Z" inkscape:original-d="M 353.04773,313.75921 C 337.16443,284.98094 337.22924,223.33554 365.61149,218.32876 377.31257,216.26463 389.4653,228.82965 397.00101,247.29911" inkscape:path-effect="#path-effect1184" />
      <path d="M 474.43835,247.07409 C 474.43835,247.07409 475.50715,245.31017 477.91123,241.52702 479.99882,238.24193 484.42831,231.41439 490.00563,226.35919 491.55142,224.95811 493.24503,223.63405 495.05509,222.53959 495.8184,222.07806 496.77592,221.55844 497.87665,221.10484 500.08564,220.19454 502.70279,219.61796 505.55579,220.03982 508.22001,220.43376 510.70151,221.53006 512.9887,223.31255 515.28105,225.09907 517.33079,227.53946 519.11095,230.51279 523.19561,237.33526 525.37994,246.09878 526.3708,254.09178 526.91813,258.50695 527.08521,262.50972 527.10518,265.68339 527.21527,283.176 523.59635,297.07522 521.6363,303.66263 519.44302,311.03385 518.23908,313.87834 518.23908,313.87834 518.23908,313.87834 520.40437,311.60973 523.69483,304.43877 526.72891,297.82655 531.62171,284.19385 531.50509,265.65571 531.48432,262.35437 531.31063,258.1748 530.73737,253.55047 529.70965,245.26004 527.41371,235.81496 522.88607,228.2526 520.89486,224.92676 518.5075,222.03515 515.69342,219.84203 512.85915,217.63318 509.67823,216.20153 506.19939,215.68714 502.35838,215.1192 498.92633,215.91332 496.20023,217.03672 494.8414,217.59667 493.6805,218.22895 492.77845,218.77437 490.63272,220.07179 488.72793,221.65399 487.08351,223.29468 481.01749,229.34692 477.70028,236.88832 476.28242,240.72211 474.67893,245.05787 474.43835,247.07409 474.43835,247.07409 Z" inkscape:original-d="M 474.43835,247.07409 C 481.94661,228.44218 494.06693,216.11712 505.87759,217.86348 530.77902,221.54548 537.32632,278.06358 518.23908,313.87834" inkscape:path-effect="#path-effect1190" />
      <path d="M 408.54208,347.33358 C 414.99838,374.4107 455.46363,375.04115 461.35044,347.71782 450.69625,369.26615 419.57987,369.1698 408.54208,347.33358 Z M 456.07184,310.99472 C 443.50504,308.53132 429.10512,308.81577 415.75915,310.58912 427.77902,304.66638 444.42802,304.38279 456.07184,310.99472 Z M 455.71091,319.78964 C 460.43179,324.99139 456.51943,331.62443 449.49023,328.52623 454.44786,327.38888 456.05952,324.55548 455.71091,319.78964 Z M 415.15754,319.90824 C 410.2833,325.63723 414.80034,331.65895 421.73563,328.35592 416.85054,327.26169 414.84573,324.68577 415.15754,319.90824 Z" fill="#a7a7a7" />
    </g>
    <g>
      <path d="M 494.16969,239.34463 C 508.93026,207.4953 496.55941,188.68209 469.15424,204.07581 486.63389,153.91841 553.6411,199.91093 494.16969,239.34463 Z" fill="#1c7cba" stroke="#155d8b" stroke-width="6" />
      <path d="M 360.31626,176.87515 C 381.75701,175.68973 391.49415,185.87384 398.42788,203.986 422.55641,215.86236 451.45262,216.7307 478.98748,204.18497 493.6179,144.58039 479.32501,89.767084 421.12129,69.48966 431.50343,81.794885 436.30086,91.297737 440.27038,103.99734 404.99509,76.42835 365.9078,97.941731 350.61607,134.59472 Z" fill="url(#linearGradient5567)" stroke="#155d8b" stroke-width="6" />
      <path d="M 336.89592,257.63718 C 286.28483,176.77144 331.70113,107.83985 347.9074,108.70834 361.26177,109.42402 373.5488,149.47265 368.46309,188.94129 349.04022,206.80921 341.13309,229.70518 336.89592,257.63718 Z" fill="#ebebeb" />
      <path d="M 340.53737,144.89628 C 328.99697,166.79635 328.45226,194.42395 338.32167,215.50267 332.95834,192.42945 333.92702,169.38898 340.53737,144.89628 Z" fill="#a7a7a7" />
      <path d="M 336.89592,257.63718 C 336.89592,257.63718 335.39998,254.15028 332.1181,246.39187 329.09777,239.25175 323.62693,225.99922 319.9721,210.33108 316.17679,194.06073 314.84843,174.12675 320.24932,153.27463 323.50897,140.68954 328.75852,129.81367 334.62611,122.04902 337.35508,118.43774 340.05776,115.7224 342.47019,113.96755 343.66512,113.09832 344.7367,112.50296 345.65663,112.14054 346.58617,111.77433 347.27591,111.6788 347.74686,111.70404 348.674,111.75373 349.75914,112.15735 350.99802,113.11554 352.30799,114.12871 353.65048,115.65733 354.96418,117.6485 358.11295,122.42106 360.52859,128.93859 362.20622,135.08267 362.92706,137.72265 363.49674,140.23061 363.94455,142.45342 366.90319,157.13955 367.62716,171.20397 367.93956,178.00147 368.29275,185.68675 368.46309,188.94129 368.46309,188.94129 368.46309,188.94129 369.77815,185.9514 370.93555,178.15655 372.02099,170.84637 373.03485,157.19428 369.82638,141.26846 369.35703,138.93874 368.75721,136.29616 367.99433,133.50223 366.24892,127.10992 363.63107,119.88971 359.97238,114.34427 358.43356,112.01189 356.66801,109.9157 354.6688,108.36945 352.7549,106.88918 350.53353,105.84477 348.06795,105.71264 346.52045,105.62971 344.95778,105.96702 343.45736,106.55814 341.95807,107.14881 340.44174,108.02357 338.94069,109.11547 335.924,111.30988 332.8157,114.49279 329.83919,118.43164 323.42947,126.9137 317.86953,138.53304 314.44098,151.77021 308.74743,173.75229 310.16324,194.69234 314.12921,211.69444 318.04445,228.4791 325.01354,240.95359 329.47016,247.80198 334.18868,255.05283 336.89592,257.63718 336.89592,257.63718 Z" fill="#a7a7a7" inkscape:original-d="M 336.89592,257.63718 C 286.28483,176.77144 331.70113,107.83984 347.9074,108.70834 361.26177,109.42401 373.5488,149.47265 368.46309,188.94129" inkscape:path-effect="#path-effect5525" />
    </g>
  </g>
  <g>
    <path d="M 500.10787,535.83329 C 490.14432,555.05326 477.14699,565.02484 459.27966,573.43895 423.71757,590.1859 435.58941,694.09603 469.00439,676.82612 516.93633,652.05339 549.22608,611.48126 557.77813,555.26041 529.39864,571.04756 503.93939,568.2322 500.10787,535.83329 Z" fill="#ebebeb" />
    <path d="M 500.10787,535.83329 C 500.10787,535.83329 498.68265,537.59571 495.66254,541.28178 492.85578,544.70745 487.84132,550.71074 480.77633,556.55987 478.37739,558.54596 475.64175,560.60831 472.4346,562.73941 468.95506,565.05152 464.42377,567.70047 458.00153,570.72484 453.16797,573.00107 449.03274,576.73981 445.63979,581.70541 442.4907,586.31412 440.01499,591.93037 438.21199,598.2657 434.84875,610.0834 433.85354,624.39468 435.29177,638.19972 435.97672,644.77424 437.21419,651.19208 438.9987,656.99991 440.75094,662.70275 443.05275,667.88774 445.92234,672.02299 448.76389,676.11784 452.28464,679.35448 456.53391,680.85727 458.66928,681.61247 460.9316,681.90691 463.2842,681.68132 465.63567,681.45584 468.00811,680.71802 470.38179,679.49122 496.19919,666.14798 516.0495,649.06822 530.56256,629.63118 550.01478,603.57922 557.60284,576.36148 560.74401,555.71157 L 554.81225,554.80925 C 551.76747,574.8255 544.44079,601.01579 525.75488,626.04144 511.81796,644.70687 492.6867,661.20937 467.62699,674.16102 465.83177,675.08884 464.19544,675.56642 462.7115,675.70871 461.23993,675.84982 459.85544,675.66779 458.53444,675.20061 455.86941,674.25809 453.25957,672.07215 450.85174,668.60232 448.43724,665.12288 446.3665,660.55054 444.73407,655.23767 443.08046,649.85584 441.91046,643.82658 441.25947,637.578 439.88745,624.40841 440.86071,610.87855 443.98284,599.90807 445.65212,594.04256 447.88812,589.05012 450.59375,585.09041 453.49439,580.84532 456.85488,577.89684 460.55779,576.15306 467.22973,573.0111 472.01811,570.22004 475.75527,567.73675 479.1958,565.45055 482.07864,563.12618 484.53904,560.81676 491.9362,553.87352 495.77643,546.75875 497.68363,542.53002 499.71382,538.02858 500.10787,535.83329 500.10787,535.83329 Z" fill="#a7a7a7" inkscape:original-d="M 500.10787,535.83329 C 490.14432,555.05326 477.14699,565.02484 459.27966,573.43895 423.71757,590.1859 435.58941,694.09603 469.00439,676.82612 516.93633,652.05339 549.22608,611.48126 557.77813,555.26041" inkscape:path-effect="#path-effect3161" />
    <path d="M 377.05465,492.45614 C 367.75354,549.19231 402.23341,569.04747 429.48392,559.9915 448.49749,553.67285 460.87001,553.30039 475.13772,558.6215 475.47233,520.2204 434.85736,517.56463 430.13043,482.48868" fill="#ebebeb" />
    <path d="M 377.05465,492.45614 C 377.05465,492.45614 375.78203,495.05727 374.49162,501.34116 373.29335,507.17636 371.94957,517.65258 374.5848,528.92182 374.77098,529.71801 374.97743,530.5191 375.20574,531.32302 377.30889,538.7285 381.0381,546.57874 387.43526,553.01133 392.79109,558.39682 399.70692,562.43439 407.86234,564.17224 414.97599,565.68809 422.78854,565.37785 430.43001,562.83841 439.5189,559.81796 447.14068,558.15164 454.18056,557.94024 461.21951,557.72887 467.51069,558.97886 474.08941,561.43238 475.38608,561.91597 476.66842,562.43713 477.93482,562.99521 478.05732,561.54911 478.12496,560.09887 478.13761,558.64764 478.23021,548.01952 475.33686,540.14124 471.46236,533.87934 467.16459,526.93334 461.12812,521.30084 456.56355,517.10057 451.64538,512.57493 448.67032,509.93718 445.3715,506.39209 443.92776,504.84058 442.66119,503.4024 441.50582,502.00346 436.60585,496.07049 434.088,491.2009 432.45448,487.69679 430.84525,484.2448 430.13043,482.48868 430.13043,482.48868 430.13043,482.48868 429.61965,484.29431 430.00806,488.34988 430.3923,492.36192 431.81007,498.5547 436.90227,505.56042 438.08145,507.18271 439.42869,508.81334 440.97905,510.47943 444.47632,514.23776 447.66622,517.06706 452.50076,521.51574 457.11617,525.7628 462.55424,530.88541 466.36007,537.03633 469.17562,541.58679 471.4133,547.12401 471.99305,554.39028 466.21734,552.63921 460.39105,551.75104 454.00047,551.94294 446.15448,552.17855 437.9178,554.0274 428.53783,557.14459 421.91929,559.34408 415.19195,559.59939 409.1128,558.30399 402.16074,556.82257 396.27193,553.38813 391.6896,548.78042 386.19528,543.25567 382.88475,536.39958 380.97749,529.68385 380.77124,528.95761 380.57794,528.23365 380.39663,527.51339 377.88739,517.5454 377.49752,507.29027 377.32913,501.59141 377.14675,495.41912 377.05465,492.45614 377.05465,492.45614 Z" fill="#a7a7a7" inkscape:original-d="M 377.05465,492.45614 C 367.75354,549.19231 402.23341,569.04747 429.48392,559.9915 448.49749,553.67285 460.87001,553.30039 475.13772,558.6215 475.47233,520.2204 434.85736,517.56463 430.13043,482.48868" inkscape:path-effect="#path-effect3189" />
    <path d="M 446.78788,540.61211 C 451.73566,558.13673 446.64585,578.83605 438.94568,591.13032 418.71911,623.42465 487.66837,707.02386 506.22553,674.30623 534.01249,625.31582 532.54765,562.10151 510.89427,519.09791 491.77961,481.1362 452.9224,477.55505 422.66764,508.46518" fill="#ebebeb" />
    <path d="M 446.78788,540.61211 C 446.78788,540.61211 446.81046,542.46076 446.79099,546.72022 446.77324,550.60098 446.62621,558.08538 444.72768,567.30925 444.33393,569.22225 443.86021,571.23567 443.29143,573.31909 441.96061,578.19376 439.74424,584.20352 436.4032,589.5379 433.59921,594.01484 432.28409,599.36978 432.26825,605.31022 432.25338,610.88699 433.38323,616.9677 435.4661,623.29029 439.3645,635.12394 446.66061,647.90694 455.71831,658.99561 460.01834,664.25981 464.7045,669.12085 469.51635,673.17586 474.20776,677.12937 479.08695,680.37339 483.86136,682.41295 488.53397,684.40903 493.33985,685.34825 497.81036,684.38277 500.04213,683.90078 502.13929,682.95245 504.0268,681.49027 505.89968,680.03942 507.50556,678.13023 508.83501,675.7863 523.07218,650.68514 529.69497,622.09323 530.0997,594.50102 530.52552,565.47121 524.1063,538.66632 513.57376,517.74872 508.39303,507.45977 501.97403,499.91989 495.11922,494.68967 487.33309,488.74888 479.0809,485.84436 471.29195,484.9732 461.44734,483.87211 452.5105,486.00314 445.37412,488.97907 435.85504,492.94862 429.69359,499.05706 426.71783,502.57305 423.47583,506.40362 422.66764,508.46518 422.66764,508.46518 422.66764,508.46518 424.58434,507.41195 428.68988,504.83381 432.13534,502.67018 439.58618,497.89349 447.68343,494.51686 454.14066,491.82414 462.04043,489.97586 470.62503,490.93601 477.38856,491.69249 484.60111,494.21144 491.47965,499.45974 497.54647,504.08871 503.40423,510.89336 508.21478,520.4471 518.28305,540.44269 524.51298,566.2823 524.10035,594.41302 523.70831,621.14012 517.29007,648.71787 503.61605,672.82615 502.62148,674.57966 501.51229,675.84846 500.35239,676.74699 499.19356,677.64469 497.92431,678.21983 496.54377,678.51798 493.72285,679.1272 490.23845,678.61262 486.21842,676.89532 482.15357,675.15887 477.77921,672.29268 473.38282,668.58778 468.89742,664.80788 464.46798,660.22275 460.3651,655.19991 451.69098,644.58084 444.79583,632.43488 441.16484,621.41297 439.2288,615.53608 438.25548,610.10645 438.26823,605.32623 438.28175,600.25737 439.39943,596.05768 441.48816,592.72273 445.23499,586.74046 447.64898,580.13966 449.07961,574.89929 449.6966,572.63926 450.15879,570.44561 450.49185,568.35594 452.14669,557.97316 450.63989,550.39757 449.34936,546.32119 448.00097,542.06203 446.78788,540.61211 446.78788,540.61211 Z" fill="#a7a7a7" inkscape:original-d="M 446.78788,540.61211 C 451.73566,558.13673 446.64585,578.83605 438.94568,591.13032 418.71911,623.42465 487.66837,707.02386 506.22553,674.30623 534.01249,625.31582 532.54765,562.10151 510.89427,519.09791 491.77961,481.1362 452.9224,477.55505 422.66764,508.46518" inkscape:path-effect="#path-effect3187" />
  </g>
  <g>
    <path d="M 346.35398,522.12625 C 406.62509,494.13902 452.46955,547.97894 403.78337,593.62559 368.36398,626.83368 278.71356,642.36529 268.00673,615.94946 263.52363,604.88872 279.62123,575.76722 329.23192,535.5623 Z" fill="#ebebeb" />
    <path d="M 346.35398,522.12626 C 346.35398,522.12626 349.51705,521.17926 356.57544,519.63563 363.0645,518.21652 374.70835,516.09553 387.15048,518.03519 387.59951,518.10519 388.05049,518.18057 388.50314,518.26161 397.21959,519.82205 406.82639,523.93508 413.61235,532.17092 418.97707,538.68187 422.46125,547.8133 420.85648,558.82841 419.44707,568.5025 414.00178,579.93279 401.73148,591.43704 393.41341,599.2358 381.66287,606.29975 367.96602,612.07367 354.74033,617.64897 340.11468,621.83967 326.13101,624.18792 312.14291,626.53691 299.21111,626.97223 289.24997,625.31605 284.19698,624.47591 280.06792,623.12426 276.95759,621.3358 273.80361,619.52225 271.80153,617.32552 270.78703,614.82255 270.4226,613.92342 270.22278,612.7128 270.31088,611.13606 270.40273,609.49193 270.80241,607.55055 271.54862,605.33352 273.20917,600.39997 276.40277,594.62142 280.78482,588.41533 286.92161,579.72409 294.73047,571.10322 302.27875,563.58551 320.1414,545.79522 329.23192,535.5623 329.23192,535.5623 329.23192,535.5623 326.56693,536.71354 321.02891,540.39961 315.71863,543.9341 307.11049,550.30517 298.04469,559.33422 290.36623,566.98155 282.29504,575.87418 275.88349,584.95456 271.32722,591.4074 267.77995,597.72148 265.86209,603.41953 264.99389,605.999 264.44973,608.48328 264.32022,610.80136 264.19611,613.02273 264.44974,615.16012 265.22642,617.07636 266.85549,621.09558 269.93482,624.21886 273.96674,626.53723 277.88766,628.79177 282.7611,630.31955 288.26589,631.2348 299.10429,633.03684 312.74843,632.51924 327.12467,630.10507 341.55528,627.68177 356.63052,623.36349 370.29671,617.60249 384.40978,611.65311 396.83923,604.24853 405.83528,595.81412 418.91696,583.54914 425.15563,570.93767 426.79379,559.69343 428.66508,546.84896 424.57983,536.0463 418.24296,528.3555 410.3021,518.718 399.23647,514.08773 389.56047,512.35551 389.05505,512.26502 388.55173,512.18282 388.05088,512.10851 373.95101,510.01664 361.92959,514.06981 355.65958,516.86067 348.83538,519.89821 346.35398,522.12626 346.35398,522.12626 Z" fill="#a7a7a7" inkscape:original-d="M 346.35398,522.12626 C 406.62508,494.13901 452.46954,547.97894 403.78338,593.62558 368.36398,626.83368 278.71356,642.36529 268.00673,615.94946 263.52363,604.88872 279.62123,575.76722 329.23192,535.5623" inkscape:path-effect="#path-effect7131" />
    <path d="M 405.70233,592.12017 C 382.28737,608.66957 358.70242,601.38168 367.31401,576.07249 345.12428,593.95785 329.37705,582.93489 339.10496,561.74015 321.45758,572.12049 309.76028,564.11892 316.01286,546.43696" style="fill:none;stroke:#a7a7a7;stroke-width:4.5;stroke-miterlimit:20" />
    <path d="M 318.43952,564.43795 267.34335,610.50634 M 370.22617,597.19386 305.04813,629.64829 M 340.43264,582.54082 278.59097,625.58542" stroke="#a7a7a7" stroke-width="3" />
  </g>
</svg>