<svg xmlns="http://www.w3.org/2000/svg" xmlns:inkscape="http://www.inkscape.org/namespaces/inkscape" xmlns:sodipodi="http://sodipodi.sourceforge.net/DTD/sodipodi-0.dtd" xmlns:xlink="http://www.w3.org/1999/xlink" height="1080" viewBox="0 0 1920 1080" width="1920">
  <defs>
    <inkscape:path-effect effect="powerstroke" end_linecap_type="zerowidth" id="path-effect4512" interpolator_type="CubicBezierSmooth" offset_points="0.25,4 | 4.45,4" start_linecap_type="zerowidth" />
    <inkscape:path-effect effect="powerstroke" id="path-effect4510" interpolator_type="CubicBezierSmooth" offset_points="0.3,4 | 2,4 | 3.8,4" start_linecap_type="zerowidth" />
    <inkscape:path-effect effect="powerstroke" end_linecap_type="zerowidth" id="path-effect4441" interpolator_type="CubicBezierSmooth" offset_points="0.2,4 | 1.5,4 | 2.875,4" />
    <inkscape:path-effect effect="powerstroke" id="path-effect4414" interpolator_type="CubicBezierSmooth" offset_points="0.375,4" start_linecap_type="zerowidth" />
    <inkscape:path-effect effect="powerstroke" end_linecap_type="zerowidth" id="path-effect4390" interpolator_type="CubicBezierSmooth" offset_points="0.25,4 | 1.875,4" start_linecap_type="zerowidth" />
    <inkscape:path-effect effect="powerstroke" end_linecap_type="zerowidth" id="path-effect4388" interpolator_type="CubicBezierSmooth" offset_points="0.92,4" />
    <inkscape:path-effect effect="powerstroke" id="path-effect4386" interpolator_type="CubicBezierSmooth" offset_points="0.4,4" start_linecap_type="zerowidth" />
    <inkscape:path-effect effect="powerstroke" end_linecap_type="zerowidth" id="path-effect4384" interpolator_type="CubicBezierSmooth" offset_points="1.73,4" />
    <inkscape:path-effect bendpath1="m 131.65822,727.57722 74.70928,11.5" bendpath2="m 203.1175,727.32722 0,128.13584" bendpath3="m 113.49401,850.1095 79.97704,5.70711" bendpath4="m 111.20111,727.32722 0,128.13584" effect="envelope" id="path-effect4361" xx="false" />
    <inkscape:path-effect effect="powerstroke" id="path-effect5484" interpolator_type="CubicBezierSmooth" offset_points="0.75,4 | 2.5,4" start_linecap_type="zerowidth" />
    <inkscape:path-effect effect="powerstroke" end_linecap_type="zerowidth" id="path-effect5478" interpolator_type="CubicBezierSmooth" offset_points="1.71,4" />
    <inkscape:path-effect effect="powerstroke" end_linecap_type="zerowidth" id="path-effect5476" interpolator_type="CubicBezierSmooth" offset_points="0.2,4 | 2.5,4 | 4.23,4" />
    <inkscape:path-effect effect="powerstroke" end_linecap_type="zerowidth" id="path-effect5472" interpolator_type="CubicBezierSmooth" offset_points="0.52,4 | 1.75,4" start_linecap_type="zerowidth" />
    <inkscape:path-effect effect="powerstroke" end_linecap_type="zerowidth" id="path-effect5462" interpolator_type="CubicBezierSmooth" offset_points="0.25,4 | 2.75,4" start_linecap_type="zerowidth" />
    <inkscape:path-effect effect="powerstroke" end_linecap_type="zerowidth" id="path-effect5445" interpolator_type="CubicBezierSmooth" offset_points="0.15,4 | 1.7,4" start_linecap_type="zerowidth" />
    <linearGradient id="linearGradient4828">
      <stop offset="0" stop-color="#317315" />
      <stop offset="1" stop-color="#56c028" />
    </linearGradient>
    <linearGradient gradientUnits="userSpaceOnUse" id="linearGradient4834" x1="447.24219" x2="492.3588" y1="569.2124" y2="571.05023" xlink:href="#linearGradient4828" />
    <clipPath id="clipPath4846">
      <use xlink:href="#path4800" />
    </clipPath>
    <clipPath id="clipPath5155">
      <use xlink:href="#path4800-2" />
    </clipPath>
    <clipPath id="clipPath5264">
      <use xlink:href="#path5177" />
    </clipPath>
    <clipPath id="clipPath5354">
      <use xlink:href="#path5300" />
    </clipPath>
    <linearGradient gradientUnits="userSpaceOnUse" id="linearGradient5429" x1="503.49225" x2="537.42621" y1="583.53033" y2="583.08691" xlink:href="#linearGradient4828" />
    <clipPath id="clipPath4428">
      <path d="M 710.64232,360.1653 452.54834,541.89174 423.55696,288.74751 Z" />
    </clipPath>
    <clipPath id="clipPath4359">
      <path d="M 342.1539,355.90615 C 309.88288,170.95297 501.87073,163.64166 479.15189,357.31301 437.64023,340.40321 387.18265,339.83814 342.1539,355.90615 Z" />
    </clipPath>
  </defs>
  <g inkscape:groupmode="layer" inkscape:label="Drawing">
    <path d="m 341.10617,839.76746 c -38.19849,89.66043 -46.69548,198.34844 -20.87006,295.32804 6.20696,23.3084 131.29271,21.3605 120.57211,-2.5963 -35.86405,-80.1436 -55.80077,-182.74537 -46.77996,-287.07489 z" style="stroke:#aa9f37;stroke-width:8;stroke-dashoffset:7.80000019;fill:#dbd476;stroke-miterlimit:20" />
    <path d="m 151.77944,890.23643 c -31.39762,55.74298 -66.87578,163.36197 -48.60399,243.06617 5.69942,24.8617 130.88161,22.6724 118.69343,-1.8892 -50.89954,-102.5725 -24.63151,-185.70497 32.1845,-275.48909 z" style="stroke:#aa9f37;stroke-width:8;stroke-dashoffset:7.80000019;fill:#dbd476;stroke-miterlimit:20" />
    <g>
      <path d="m -131.0475,1131.2188 c -94.77758,-33.6773 -55.4278,-166.95639 32.12256,-128.9652 -3.97798,-5.96672 -8.8389,-12.30643 -14.71539,-19.03333 C -470.47988,574.74004 139.87235,311.90035 171.86755,706.08549 l -31.27847,19.34707 c -89.24394,-192.39912 -266.52326,-9.24558 -164.52911,88.89976 2.02674,1.95026 4.04155,3.62357 6.10485,5.09829 -18.06419,-75.31615 69.17253,-76.06463 85.552646,-19.64401 12.977842,44.70161 -21.081226,83.44901 -76.014776,62.51239 54.32872,70.15597 25.243,130.03869 -17.17593,144.24291 25.21863,67.947 -27.61317,152.3788 -105.57426,124.6769 z" fill="#f2a42e" />
      <path fill="#d9890c" inkscape:original-d="m -130.20303,1036.3486 c -14.07871,58.6962 97.451133,39.466 16.5627,-53.12833 C -470.47987,574.74004 139.87235,311.90035 171.86755,706.08549 l -31.27847,19.34707 C 51.345139,533.03344 -125.93419,716.18699 -23.940031,814.33232 5.0427951,842.22146 31.585057,813.47269 9.0739978,798.35623" inkscape:path-effect="#path-effect4512" />
      <path fill="#d9890c" inkscape:original-d="m -35.878555,953.83296 c -43.526924,-31.73967 -77.932375,39.28315 -23.892973,53.76294 56.092414,15.0299 119.85418,-56.99625 51.4742145,-145.29691 C 46.636242,883.23561 80.695308,844.48821 67.717466,799.7866 51.337349,743.36598 -35.899369,744.11446 -17.758818,819.48497" inkscape:path-effect="#path-effect4510" />
      <path d="m -98.914273,1002.2697 c -87.561027,-38.00729 -126.910807,95.2718 -32.133227,128.9491 77.96109,27.7019 130.79289481,-56.7299 105.535245,-124.5827" style="stroke:#d9890c;stroke-width:8;stroke-dashoffset:7.80000019;fill:none" />
    </g>
    <g>
      <path d="M 540.35355,584.5 C 435.54767,545.64515 418.60721,413.90542 502.04581,366.52926 c 75.56401,-42.90499 184.47555,38.0739 88.83848,143.16036 39.16239,39.93778 5.25143,95.49059 -50.53074,74.81038 z" fill="#f2a42e" />
      <path fill="#d9890c" inkscape:original-d="m 590.82322,509.5 c 39.22346,40.1274 5.3125,95.68021 -50.46967,75 -104.80588,-38.85485 -121.74634,-170.59458 -38.30774,-217.97074 79.13841,-44.93453 194.85386,46.01219 73.9386,158.44217" inkscape:path-effect="#path-effect4441" />
    </g>
    <path d="m 590,640 c 3.67464,-13.71395 -7.76047,-14.29045 -20.54439,-19.07905 C 632.02604,385.47737 348.76547,314.024 295.53941,512.66634 c -19.28091,71.95732 17.07078,137.21031 15.53151,201.07227 -68.16824,-2.21038 -121.83886,-43.04498 -173.13158,0.11494 -59.071259,49.70512 -39.273278,121.58094 -27.57211,171.4078 2.73154,11.63167 6.3529,21.18481 6.91735,29.95947 -9.89681,-1.87711 -23.897654,-0.48452 -28.340922,9.01561 -30.397614,64.99298 -51.918673,155.86197 -32.646885,243.56617 5.474129,24.9123 131.682587,22.4137 118.986327,-1.8892 C 114.84811,1050.2301 167.83037,930.54859 191.29154,892.7921 340.78236,937.82898 474.60415,890.62597 440.0083,701.70315 515.39951,713.09912 577.99161,684.81594 590,640 Z" fill="#fdfe97" />
    <g>
      <g clip-path="url(#clipPath5264)">
        <ellipse cx="713.67657" cy="-75.132629" fill="#fff" id="path5177" rx="80.169327" ry="58.439323" transform="rotate(59.423419)" />
        <g clip-path="url(#clipPath4846)">
          <ellipse cx="469.18945" cy="566.47449" fill="url(#linearGradient4834)" id="path4800" rx="29.238791" ry="15.852792" transform="rotate(77.105965,469.18944,566.47451)" />
          <path d="m 451.90823,584.3405 23.50195,-14.5457 -14.39349,25.91333 z" fill="#c7ecb7" />
          <path d="m 449.90823,576.3405 25.50195,-6.5457 -21.86304,17.25941 z" fill="#84d85f" />
          <ellipse cx="359.992" cy="644.37988" rx="7.7011991" ry="13.827146" transform="rotate(-10.648059)" />
          <ellipse cx="517.87079" cy="-512.62421" fill="#fff" rx="7.6626096" ry="5.2585139" transform="rotate(95.015052)" />
          <ellipse cx="517.91913" cy="-528.69177" fill="#fff" rx="2.2863081" ry="1.6643635" transform="rotate(96.038839)" />
        </g>
      </g>
      <path d="m 374.80192,516.68186 c -30.84671,-29.11981 -26.71941,-34.21175 4.23501,-4.64668 z m -11.00342,19.63702 c -45.77731,-18.35125 -42.13908,-22.98949 2.02493,-6.04986 z m -6.16241,15.50307 c 4.44796,-37.94398 26.05063,-57.16331 59.12878,-53.81505 44.87536,4.54241 91.39223,64.10928 72.98465,118.5416 7.4398,-53.14488 -29.58707,-107.14979 -74.04243,-112.06236 -29.65321,-3.27685 -49.81467,16.65581 -52.66494,55.03643 -38.58725,-5.03185 -38.01123,-12.01205 -5.40606,-7.70062 z" />
    </g>
    <path fill="#aa9f37" inkscape:original-d="M 569.54939,621.11803 C 632.02604,385.47737 348.76547,314.024 295.53941,512.66634 c -22.61256,84.39122 31.29468,159.56097 10.73834,233.73611" inkscape:path-effect="#path-effect5478" />
    <path fill="#aa9f37" inkscape:original-d="m 117.36563,915.32103 c -9.97786,-1.97732 -23.978704,-0.58473 -28.421972,8.9154 -30.397614,64.99298 -51.918673,155.86197 -32.646885,243.56617 5.474129,24.9123 131.682577,22.4137 118.986327,-1.8892 C 114.38356,1049.3409 168.65159,928.70843 191.9676,891.92431 205.16695,871.10057 213.82843,841.09188 213.5,811.5" inkscape:path-effect="#path-effect5476" />
    <path fill="#aa9f37" inkscape:original-d="m 115,927.78033 c 5.61658,-12.19061 -0.51779,-24.99624 -4.63277,-42.51898 -11.701153,-49.82686 -31.499149,-121.70268 27.57211,-171.4078 51.29272,-43.15992 104.96334,-2.32532 173.20512,0.0984" inkscape:path-effect="#path-effect5484" />
    <path d="m 190.55037,892.62128 c 149.8716,45.33446 284.10022,-1.74102 249.53594,-191.00576" style="stroke:#aa9f37;stroke-width:8;stroke-dashoffset:7.80000019;fill:none;stroke-miterlimit:20" />
    <g>
      <path d="m 303.10617,873.76746 c -38.19849,71.98276 -57.76655,209.66214 -24.87006,295.32804 8.64693,22.5175 131.4002,21.3121 120.57211,-2.5963 -42.86405,-94.6436 -46.80077,-195.24537 -42.77996,-287.07489 z" fill="#fdfe97" />
      <path fill="#aa9f37" inkscape:original-d="m 303.10617,873.76746 c -38.19849,71.98276 -57.76655,209.66214 -24.87006,295.32804 8.64693,22.5175 131.4002,21.3121 120.57211,-2.5963 -42.86405,-94.6436 -46.80077,-195.24537 -42.77996,-287.07489" inkscape:path-effect="#path-effect5462" />
    </g>
    <g>
      <path d="m 564.68315,502.44687 c 41.55536,-7.33265 42.31977,-2.24587 0.11393,5.93042 z m -1.6311,-15.34846 c 36.64434,-20.9239 39.08025,-16.39335 2.10816,5.54426 z" />
      <g clip-path="url(#clipPath5354)">
        <path d="m 568.96816,620.26876 c -8.32157,-2.98906 -15.78136,-7.46481 -20.34632,-15.37645 -18.07899,-44.72675 -10.42447,-99.15483 9.40223,-131.00558 24.60089,35.33628 25.86202,103.21001 10.94409,146.38203 z" fill="#fff" id="path5300" />
        <g clip-path="url(#clipPath5155)">
          <ellipse cx="520.14441" cy="580.53442" fill="url(#linearGradient5429)" id="path4800-2" rx="22.413683" ry="12.174598" transform="matrix(-0.06272332,0.99803095,0.99803095,0.06272332,0,0)" />
          <path d="m 561.79002,566.71379 -17.40449,-7.60838 12.19199,17.23077 z" fill="#c7ecb7" />
          <path d="m 562.1981,560.53211 -17.81257,-1.4267 16.55594,9.83381 z" fill="#84d85f" />
          <ellipse cx="-569.73456" cy="531.65186" rx="5.6903734" ry="10.647999" transform="matrix(-0.99905203,-0.04353205,-0.04353205,0.99905203,0,0)" />
          <ellipse cx="660.224" cy="399.9736" fill="#fff" rx="4.1889434" ry="6.3778911" transform="rotate(14.072484)" />
          <ellipse cx="655.50739" cy="423.42752" fill="#fff" rx="1.5418184" ry="2.043175" transform="rotate(12.841208)" />
        </g>
      </g>
      <path d="m 556.22683,471.23564 c 22.60834,-23.36194 25.83048,-20.37485 3.21446,5.33772 -10.11547,11.50047 -30.46581,69.04701 -10.81945,128.31895 -28.3595,-56.49635 -3.62739,-122.04988 7.60499,-133.65667 z" />
    </g>
    <path fill="#aa9f37" inkscape:original-d="M 548.62184,604.89231 C 564.5,629.25 595.7503,618.53958 590,640 575.04982,695.79481 481.69657,725.96438 382.70162,686.01284" inkscape:path-effect="#path-effect5472" />
    <path d="m 513.82844,667.71445 c 17.22424,-6.83731 40.09746,-4.19239 56,4.375 l -7.625,5.5 c -10.36549,-7.1835 -28.51319,-10.90381 -48.375,-9.875 z M 561.5,633.875 c 1.97963,5.18674 6.00996,6.81694 11,4.125 -5.08655,7.97487 -12.18934,5.13649 -11,-4.125 z" fill="#aa9f37" />
    <g transform="matrix(1.0972167,0.00682082,-0.00682082,1.0972167,-10.954769,-78.806386)" inkscape:path-effect="#path-effect4361">
      <path style="stroke:#bb4d00;stroke-miterlimit:5;stroke-width:1.95007408;fill:#e67b12" inkscape:original-d="m 171.11195,829.414 c -18.88619,-6.70231 -36.52405,-31.87628 -40.87356,-49.08573 -2.43191,-9.62215 11.13356,-13.16497 14.22444,-6.58049 6.54938,13.95199 12.35818,40.11129 26.64912,55.66622 z" />
      <path fill="none" stroke="#bb4d00" stroke-width="0.97503704" inkscape:original-d="m 154.78663,819.27957 c 3.49681,-0.2219 5.68836,-1.5704 6.49278,-4.46815 m -2.3866,-4.81275 c -0.8563,3.85231 -4.02155,5.91974 -8.36181,5.07566 m -10.12783,-12.55827 c 6.25515,0.75826 10.37661,-1.87176 12.30984,-7.47319 m -4.88237,-13.32134 c -2.89921,6.21498 -8.67267,9.02195 -14.76884,7.25061" />
      <path fill="#56bf2d" stroke="#2d8f06" transform="matrix(0.96686699,-0.17992083,0.18327518,0.94917112,86.044226,740.18402)" inkscape:original-d="m 45.139822,49.06148 c -1.441168,-9.21023 -6.629431,-19.9238 -4.083318,-27.08666 9.508111,1.60916 9.212791,-4.80549 6.478119,-4.93587 -2.956173,-0.14093 -2.723859,5.98478 4.764202,4.78915 -3.351888,12.38615 7.39503,14.29623 7.47421,11.3939 0.15435,-5.65791 -16.003234,0.55347 -6.45144,12.02302 9.37163,11.25321 20.67179,3.33541 15.40633,0.2954 -3.15577,-1.82199 -3.72237,4.95724 4.30506,7.87551 9.281657,3.37422 13.756007,0.93505 13.060867,-6.98725 -0.68659,-7.82485 -12.985237,-7.18402 -10.425157,-1.94026 1.34606,2.75711 5.498197,0.40746 2.459507,-5.82985 -3.831577,-7.86482 -10.587257,-6.85651 -9.477737,-3.08333 0.50556,2.25977 5.15457,1.31906 4.33296,-5.20746 -1.60109,-12.71837 -12.29149,-11.06434 -10.33061,-5.00908 0.76848,2.37309 4.64887,0.4992 2.9214,-8.05307 -3.4246,-16.9542996 -17.984664,-8.36353 -13.01442,-5.74742 1.69942,0.8945 2.8321,-1.52789 -0.19513,-7.2121196 -3.629823,-6.8157204 -10.21764,-3.81212 -8.390486,3.02532 -4.490565,-2.77434 -10.983695,0.9277996 -5.674248,9.3059896 -5.041554,11.79724 2.428256,22.98949 3.940722,32.7701 z" />
      <path fill="#e67b12" inkscape:original-d="m 133.33048,776.77309 c 2.53803,0.66782 4.75368,0.14297 6.21143,-1.94541 3.57689,7.24813 -5.66682,9.94685 -6.21143,1.94541 z" />
      <path fill="#bb4d00" inkscape:original-d="m 133.33048,776.77309 c 2.55242,0.34579 4.60718,-0.23419 6.21143,-1.94541 -1.06443,2.27097 -3.53174,3.11153 -6.21143,1.94541 z" />
      <path style="stroke:#bb4d00;stroke-miterlimit:5;stroke-width:2.12508655;fill:#e67b12" inkscape:original-d="m 183.34815,839.2899 c -18.83546,-10.9389 -32.51557,-41.40634 -33.61468,-60.69876 -0.61453,-10.78678 14.64218,-11.87724 16.59027,-4.21154 4.12789,16.24302 4.93916,45.40862 17.02441,64.9103 z" />
      <path fill="none" stroke="#bb4d00" stroke-width="1.06254327" inkscape:original-d="m 167.96411,825.18652 c 3.78984,0.45912 6.41508,-0.54805 7.87542,-3.49034 m -1.5603,-5.62843 c -1.71325,3.95399 -5.52963,5.5369 -10.00216,3.76842 m -8.24741,-15.46377 c 6.54051,2.05813 11.497,0.0634 14.7249,-5.5488 m -2.47345,-15.23566 c -4.38898,6.07663 -11.15083,7.9317 -17.31167,4.82056" />
      <path fill="#56bf2d" stroke="#2d8f06" transform="matrix(1.0724023,0,0,1.0527749,110.71495,726.80425)" inkscape:original-d="m 45.139822,49.06148 c -1.441168,-9.21023 -6.629431,-19.9238 -4.083318,-27.08666 9.508111,1.60916 9.212791,-4.80549 6.478119,-4.93587 -2.956173,-0.14093 -2.723859,5.98478 4.764202,4.78915 -3.351888,12.38615 7.39503,14.29623 7.47421,11.3939 0.15435,-5.65791 -16.003234,0.55347 -6.45144,12.02302 9.37163,11.25321 20.67179,3.33541 15.40633,0.2954 -3.15577,-1.82199 -3.72237,4.95724 4.30506,7.87551 9.281657,3.37422 13.756007,0.93505 13.060867,-6.98725 -0.68659,-7.82485 -12.985237,-7.18402 -10.425157,-1.94026 1.34606,2.75711 5.498197,0.40746 2.459507,-5.82985 -3.831577,-7.86482 -10.587257,-6.85651 -9.477737,-3.08333 0.50556,2.25977 5.15457,1.31906 4.33296,-5.20746 -1.60109,-12.71837 -12.29149,-11.06434 -10.33061,-5.00908 0.76848,2.37309 4.64887,0.4992 2.9214,-8.05307 -3.4246,-16.9542996 -17.984664,-8.36353 -13.01442,-5.74742 1.69942,0.8945 2.8321,-1.52789 -0.19513,-7.2121196 -3.629823,-6.8157204 -10.21764,-3.81212 -8.390486,3.02532 -4.490565,-2.77434 -10.983695,0.9277996 -5.674248,9.3059896 -5.041554,11.79724 2.428256,22.98949 3.940722,32.7701 z" />
      <path fill="#e67b12" inkscape:original-d="m 153.7791,775.40074 c 2.71749,1.43422 5.21174,0.91995 7.05265,-0.84535 3.46818,8.38246 -8.70031,9.95698 -7.05265,0.84535 z" />
      <path fill="#bb4d00" inkscape:original-d="m 153.7791,775.40074 c 2.66134,0.87877 4.98123,0.6672 7.05265,-0.84535 -1.60916,2.21941 -4.42463,2.62779 -7.05265,0.84535 z" />
      <path style="stroke:#bb4d00;stroke-miterlimit:5;fill:#e67b12;stroke-width:1.8793602" inkscape:original-d="m 181.40718,855.46306 c -18.50527,-5.56512 -36.70833,-28.96873 -41.73289,-45.32962 -2.80933,-9.1477 10.07563,-13.19439 13.37136,-7.00153 6.98343,13.1222 13.84839,38.02931 28.36153,52.33115 z" />
      <path fill="none" stroke="#bb4d00" stroke-width="0.9396801" inkscape:original-d="m 165.19977,846.47418 c 3.35505,-0.37766 5.39888,-1.77849 6.03208,-4.60548 m -2.53155,-4.52054 c -0.63667,3.74824 -3.58272,5.88676 -7.80155,5.27796 m -10.36002,-11.61275 c 6.05783,0.43635 9.89689,-2.28857 11.48499,-7.77096 m -5.34814,-12.59338 c -2.48803,6.11828 -7.90862,9.09105 -13.86274,7.6721" />
      <path fill="#56bf2d" stroke="#2d8f06" transform="matrix(-0.76309283,0.55285379,0.56316091,0.7491265,153.25499,747.09441)" inkscape:original-d="m 45.139822,49.06148 c -1.441168,-9.21023 -6.629431,-19.9238 -4.083318,-27.08666 9.508111,1.60916 9.212791,-4.80549 6.478119,-4.93587 -2.956173,-0.14093 -2.723859,5.98478 4.764202,4.78915 -3.351888,12.38615 7.39503,14.29623 7.47421,11.3939 0.15435,-5.65791 -16.003234,0.55347 -6.45144,12.02302 9.37163,11.25321 20.67179,3.33541 15.40633,0.2954 -3.15577,-1.82199 -3.72237,4.95724 4.30506,7.87551 9.281657,3.37422 13.756007,0.93505 13.060867,-6.98725 -0.68659,-7.82485 -12.985237,-7.18402 -10.425157,-1.94026 1.34606,2.75711 5.498197,0.40746 2.459507,-5.82985 -3.831577,-7.86482 -10.587257,-6.85651 -9.477737,-3.08333 0.50556,2.25977 5.15457,1.31906 4.33296,-5.20746 -1.60109,-12.71837 -12.29149,-11.06434 -10.33061,-5.00908 0.76848,2.37309 4.64887,0.4992 2.9214,-8.05307 -3.4246,-16.9542996 -17.984664,-8.36353 -13.01442,-5.74742 1.69942,0.8945 2.8321,-1.52789 -0.19513,-7.2121196 -3.629823,-6.8157204 -10.21764,-3.81212 -8.390486,3.02532 -4.490565,-2.77434 -10.983695,0.9277996 -5.674248,9.3059896 -5.041554,11.79724 2.428256,22.98949 3.940722,32.7701 z" />
      <path fill="#e67b12" inkscape:original-d="m 148.60741,803.87516 c -0.87914,1.85432 -2.76574,3.49585 -5.47067,3.03431 2.7097,6.52357 10.67315,3.68877 5.47067,-3.03431 z" />
      <path fill="#bb4d00" inkscape:original-d="m 148.60741,803.87516 c -1.42365,1.99731 -3.18761,3.04273 -5.47067,3.03431 2.33226,0.74971 4.55413,-0.41115 5.47067,-3.03431 z" />
    </g>
    <g>
      <path d="M 509.34911,363.14017 C 546.20267,380.59423 565.1276,413.32289 562.41421,472 558.59292,554.63553 407.22474,554.90889 338,418 c -24.45032,25.03223 -46.75083,65.31747 -52.04637,98.5364 -8.77656,55.0554 57.25052,71.38086 57.25052,117.07211 0,7.59362 -1.66766,14.53467 -4.6485,20.53223 41.32784,69.55299 39.7495,126.95777 -9.57784,130.40695 C 313.57538,846.03553 264.27774,886.27774 213.5,835.5 c -61.0286,-61.0286 6.14645,-92.85355 50.94258,-71.67402 -3.129,-13.90407 -13.97781,-33.38772 -37.85248,-58.72116 C 123.38527,595.59404 92.42399,444.5 241.93215,423.97237 307.45979,254.3888 446.10552,274.30735 509.34911,363.14017" fill="#f2a42e" />
      <path clip-path="url(#clipPath4428)" fill="#d9890c" inkscape:original-d="m 522.72348,463.69578 c -47.37615,48.08327 -104.11627,-49.79036 -20.67767,-97.16652 79.13841,-44.93453 194.85386,46.01219 73.9386,158.44217" inkscape:path-effect="#path-effect4390" />
      <path fill="#d9890c" inkscape:original-d="M 509.34911,363.14017 C 443.20341,270.23101 294.57673,252.70588 233.50209,448.39679" inkscape:path-effect="#path-effect4388" />
      <path fill="#d9890c" inkscape:original-d="m 338.23448,653.9127 c 45.10835,75.577 39.51026,136.63643 -22.56699,130.41452 -59.6915,-5.98279 -20.55169,-95.63679 3.4699,-49.1631" inkscape:path-effect="#path-effect4384" />
      <path fill="#d9890c" inkscape:original-d="m 230.93934,780.64645 c 17.88604,25.57106 70.09964,3.45618 -4.34924,-75.54163 C 123.38528,595.59403 92.42399,444.5 241.83211,424.08579" inkscape:path-effect="#path-effect4386" />
      <path d="m 329,784.5 c -15.42462,61.53553 -64.72226,101.77774 -115.5,51 -61.0286,-61.0286 6.14645,-92.85355 50.93934,-71.70711" style="stroke:#d9890c;stroke-width:8;stroke-dashoffset:7.80000019;fill:none" />
      <path fill="#d9890c" inkscape:original-d="m 285.85312,614.66308 c -37.96962,-5.89858 -45.21728,39.00029 -15.80795,60.12272 28.06006,20.15336 73.15898,-1.68809 73.15898,-41.17729 0,-45.69125 -66.02708,-62.01671 -57.25052,-117.07211 C 291.24917,483.31747 313.54968,443.03223 338,418 c 69.22474,136.90889 220.59291,136.63553 224.41421,54 3.81338,-82.46439 -103.26571,-80.08665 -92.61927,-9.54071" inkscape:path-effect="#path-effect4414" />
      <g clip-path="url(#clipPath4359)">
        <g transform="matrix(0.65863812,0,0,0.65863812,53.569186,107.3597)">
          <rect fill="#f9f9f9" height="163.65996" width="143.54269" x="465.27628" y="217.32974" />
          <text style="-inkscape-font-specification:'Junction Medium';text-anchor:middle;text-align:center;line-height:162.00000048%;font-size:21.32695007px;font-family:Junction" x="536.72705" y="245.89268" sodipodi:linespacing="162%" xml:space="preserve"><tspan x="536.72705" y="245.89268" sodipodi:role="line">Parcly Taxel</tspan><tspan x="536.72705" y="280.44235" sodipodi:role="line">is immune to</tspan><tspan x="536.72705" y="314.992" sodipodi:role="line">= cutie mark</tspan><tspan x="536.72705" y="349.54166" sodipodi:role="line">affliction</tspan></text>
        </g>
        <rect fill="#f9f9f9" height="107.79269" width="94.542686" x="360.01788" y="250.50136" />
      </g>
      <path d="m 342.1539,355.90615 c 38.99442,-19.96841 102.11627,-18.88388 136.99799,1.40686 -40.00357,-12.99875 -94.13404,-13.41206 -136.99799,-1.40686 z" fill="#d9890c" />
    </g>
    <g>
      <path d="m 300.97081,558.33247 c -83.42182,-83.69165 -22.19248,-200.73082 -4.65859,-200.73082 12.69332,0 62.2461,57.28205 59.60176,104.90586 z" fill="#fdfe97" />
      <path fill="#aa9f37" inkscape:original-d="m 300.97081,558.33247 c -83.42182,-83.69165 -22.19248,-200.73082 -4.65859,-200.73082 12.69332,0 62.2461,57.28205 59.60176,104.90586" inkscape:path-effect="#path-effect5445" />
      <path d="m 300.49022,408.51946 c -16.64492,29.92798 -14.27954,68.37266 5.01552,96.55616 -13.80414,-31.17183 -15.60888,-65.70676 -5.01552,-96.55616 z" fill="#aa9f37" />
    </g>
  </g>
</svg>