<?xml version="1.0" encoding="UTF-8" standalone="no"?>
<svg width="1470" height="1476" viewBox="0 0 1470 1476" version="1.1" id="svg179" sodipodi:docname="Taxel Telegram Stickers.svg" inkscape:version="1.1.1 (1:1.1+202109281944+c3084ef5ed)" inkscape:export-filename="/home/parclytaxel/Downloads/Hearth Taxel Telegram Sticker.png" inkscape:export-xdpi="114.47481" inkscape:export-ydpi="114.47481" xmlns:inkscape="http://www.inkscape.org/namespaces/inkscape" xmlns:sodipodi="http://sodipodi.sourceforge.net/DTD/sodipodi-0.dtd" xmlns:xlink="http://www.w3.org/1999/xlink" xmlns="http://www.w3.org/2000/svg" xmlns:svg="http://www.w3.org/2000/svg">
  <sodipodi:namedview id="namedview181" pagecolor="#ffffff" bordercolor="#666666" borderopacity="1.0" inkscape:pageshadow="2" inkscape:pageopacity="0.0" inkscape:pagecheckerboard="0" showgrid="false" inkscape:zoom="0.54674797" inkscape:cx="926.38662" inkscape:cy="469.13755" inkscape:window-width="1852" inkscape:window-height="1016" inkscape:window-x="68" inkscape:window-y="27" inkscape:window-maximized="1" inkscape:current-layer="svg179" />
  <defs id="defs20">
    <inkscape:path-effect effect="powerstroke" id="path-effect21331" offset_points="0.23,4" interpolator_type="CubicBezierSmooth" start_linecap_type="zerowidth" linejoin_type="extrp_arc" end_linecap_type="butt" />
    <inkscape:path-effect effect="powerstroke" id="path-effect225" offset_points="0.29,4 | 1.75,4" interpolator_type="CubicBezierSmooth" start_linecap_type="zerowidth" linejoin_type="extrp_arc" end_linecap_type="zerowidth" />
    <clipPath id="clipPath89069">
      <use xlink:href="#path4646" id="use16" />
    </clipPath>
    <clipPath id="clipPath7813">
      <use xlink:href="#path877" id="use8294" x="0" y="0" width="100%" height="100%" />
    </clipPath>
    <clipPath id="clipPath7797">
      <use xlink:href="#path7627" id="use8291" x="0" y="0" width="100%" height="100%" />
    </clipPath>
    <linearGradient xlink:href="#linearGradient4557" id="linearGradient7785" x1="-421.59277" y1="336.03745" x2="-507.07285" y2="337.28033" gradientUnits="userSpaceOnUse" />
    <linearGradient id="linearGradient4557">
      <stop offset="0" stop-color="#230f38" id="stop8272" />
      <stop offset="1" stop-color="#5c2594" id="stop8274" />
    </linearGradient>
    <inkscape:path-effect effect="powerstroke" id="path-effect1200" offset_points="0.47,4.5 | 1.77,4.5" interpolator_type="CubicBezierSmooth" start_linecap_type="zerowidth" linejoin_type="extrp_arc" end_linecap_type="zerowidth" is_visible="true" lpeversion="0" not_jump="false" sort_points="true" interpolator_beta="0.2" miter_limit="4" scale_width="1" />
    <clipPath id="clipPath7153">
      <use xlink:href="#path2367" id="use8287" x="0" y="0" width="100%" height="100%" />
    </clipPath>
    <clipPath id="clipPath7137">
      <use xlink:href="#path2131" id="use8284" x="0" y="0" width="100%" height="100%" />
    </clipPath>
    <linearGradient gradientTransform="matrix(1.2119975,0,0,1.2119975,-2346.6611,-589.9078)" gradientUnits="userSpaceOnUse" y2="551.12531" x2="1468.8669" y1="551.1543" x1="1544.8251" id="linearGradient2227" xlink:href="#linearGradient4557" />
    <clipPath id="clipPath6110">
      <path d="M 273.78861,292.88235 C 295.3689,311.4234 316.55926,311.10963 337.20202,301.12475 438.62816,216.15058 361.43053,158.28023 300.66764,267.90076 295.39329,291.57233 299.85967,314.52248 319.17255,331.60622 L 302.06935,363.80211 259.69678,300.2467 Z" id="path8280" />
    </clipPath>
    <inkscape:path-effect effect="powerstroke" id="path-effect930" offset_points="2.5,4.5" interpolator_type="CubicBezierFit" start_linecap_type="butt" linejoin_type="extrp_arc" end_linecap_type="butt" is_visible="true" lpeversion="0" not_jump="false" sort_points="true" interpolator_beta="0.2" miter_limit="4" scale_width="1" />
    <inkscape:path-effect effect="powerstroke" id="path-effect3045" offset_points="0.2,4.5 | 1.59,4.5" interpolator_type="CubicBezierSmooth" start_linecap_type="zerowidth" linejoin_type="extrp_arc" end_linecap_type="zerowidth" is_visible="true" lpeversion="0" not_jump="false" sort_points="true" interpolator_beta="0.2" miter_limit="4" scale_width="1" />
    <clipPath id="clipPath4646">
      <use xlink:href="#path390" id="use8266" x="0" y="0" width="100%" height="100%" />
    </clipPath>
    <linearGradient xlink:href="#linearGradient932" id="linearGradient4612" x1="544.72559" y1="440.00415" x2="541.75604" y2="519.96954" gradientUnits="userSpaceOnUse" />
    <linearGradient id="linearGradient932">
      <stop offset="0" stop-color="#c2ab14" id="stop8256" />
      <stop offset="1" stop-color="#f3e177" id="stop8258" />
    </linearGradient>
    <clipPath id="clipPath4630">
      <use xlink:href="#path388" id="use8263" x="0" y="0" width="100%" height="100%" />
    </clipPath>
    <linearGradient xlink:href="#linearGradient932" id="linearGradient4604" x1="758.91541" y1="321.07199" x2="758.38525" y2="406.3374" gradientUnits="userSpaceOnUse" />
    <inkscape:path-effect effect="powerstroke" id="path-effect4690" offset_points="0.43,4 | 6,4" interpolator_type="CubicBezierSmooth" start_linecap_type="zerowidth" linejoin_type="extrp_arc" end_linecap_type="butt" sort_points="true" scale_width="1" is_visible="true" lpeversion="0" not_jump="false" interpolator_beta="0.2" miter_limit="4" />
    <clipPath id="clipPath4680">
      <path d="M 630.5169,276.96468 C 586.33315,283.13244 544.31183,315.98001 526.04234,368.92147 L 538.28005,196.24582 Z" id="path8269" />
    </clipPath>
    <inkscape:path-effect effect="powerstroke" id="path-effect4579" offset_points="0.38,4 | 1.59,4" interpolator_type="CubicBezierSmooth" start_linecap_type="zerowidth" linejoin_type="extrp_arc" end_linecap_type="zerowidth" is_visible="true" lpeversion="0" not_jump="false" sort_points="true" interpolator_beta="0.2" miter_limit="4" scale_width="1" />
  </defs>
  <g id="g11665" transform="translate(170)">
    <path id="path709" style="fill:#ffffff;fill-rule:nonzero;stroke:none" sodipodi:type="inkscape:offset" inkscape:radius="8" inkscape:original="M 1219.5781 233.76562 C 1218.5789 234.72956 1217.5893 235.70388 1216.6094 236.6875 C 1209.7398 243.58314 1200.7541 253.60294 1192.041 266.67188 C 1183.958 269.59807 1175.7541 272.94974 1167.4355 276.81445 C 1161.7207 279.46955 1156.0878 282.29476 1150.541 285.28516 C 1156.7253 284.74616 1162.9291 284.46383 1169.1367 284.44141 C 1173.4165 284.42594 1177.4634 284.56417 1181.3848 284.80859 C 1178.4944 290.43127 1175.8598 296.19796 1173.5547 302.13281 C 1171.3301 303.2473 1169.0971 304.35254 1166.959 305.54297 C 1151.4718 314.16553 1138.3687 324.7412 1127.5898 337.50586 C 1116.5611 350.56655 1108.1027 365.75703 1101.9902 383.14453 C 1095.6522 401.17312 1091.8836 421.42905 1090.3379 443.81641 C 1090.0771 447.59384 1089.8842 451.37583 1089.7578 455.16016 C 1092.1559 452.31475 1094.6447 449.54666 1097.2188 446.85938 C 1104.6485 439.10252 1111.063 433.84301 1117.1719 429.69531 C 1121.4385 426.79848 1125.7364 424.34364 1129.7969 422.24805 C 1127.3276 428.93834 1125.2994 436.46535 1124.4004 444.80273 C 1123.3394 454.6428 1123.8625 465.07773 1126.2832 477.57617 C 1126.8935 480.72715 1127.594 483.86009 1128.3848 486.9707 C 1130.0635 484.30345 1131.7796 481.65967 1133.5332 479.04102 C 1139.607 469.97103 1145.692 461.84923 1152.0449 454.50391 C 1146.6424 473.52456 1139.4234 490.12967 1130.1367 504.67773 C 1119.4981 521.3438 1106.2344 535.31621 1089.8672 547.69531 C 1089.3059 548.11986 1088.7415 548.5423 1088.1758 548.96094 C 1088.2043 549.68716 1088.2413 550.41333 1088.2871 551.13867 C 1088.334 551.88109 1088.4227 552.64037 1088.4883 553.39062 C 1085.2342 555.33579 1082.3504 558.06029 1080.1445 561.62695 C 1077.7528 565.4941 1076.2731 570.2053 1076.1348 575.19531 C 1076.0123 579.61102 1076.9499 584.20079 1079.2637 588.07812 C 1080.3476 589.89461 1081.7387 591.54936 1083.457 592.90039 C 1085.1187 594.20685 1087.0825 595.22513 1089.3496 595.81445 C 1091.9418 596.48828 1094.4768 596.66177 1096.9082 596.37109 C 1098.3446 596.19938 1099.7348 595.8641 1101.0684 595.38281 C 1103.6677 600.2733 1106.6345 604.963 1109.9766 609.24219 C 1114.0716 614.48547 1118.7517 619.18216 1123.9668 622.87695 C 1124.6081 623.33128 1125.2596 623.77116 1125.9199 624.19727 C 1126.5893 623.87546 1127.2616 623.56184 1127.9375 623.25391 C 1135.9509 619.60317 1144.683 616.80727 1153.9863 614.57812 C 1163.1838 612.37437 1172.8482 610.74492 1182.8477 609.37109 C 1201.8935 606.7544 1221.9531 605.10562 1241.2793 602.01172 C 1241.4343 603.34754 1241.4762 603.28925 1241.6934 605.99023 C 1242.0871 610.88675 1242.663 620.21834 1241.2227 631.39258 C 1241.0938 632.39224 1240.9525 633.39087 1240.7969 634.38672 C 1241.7522 634.80661 1242.7116 635.2131 1243.6777 635.60742 C 1253.0194 639.42008 1264.088 642.53275 1276.7344 644.56641 C 1288.0157 646.38055 1300.603 647.34042 1314.0566 647.09961 C 1337.3111 646.68337 1364.2899 642.60214 1388.9512 632.5625 C 1389.7496 632.23745 1390.5466 631.9059 1391.3398 631.56836 C 1391.3718 630.72006 1391.4042 629.8716 1391.4395 629.02344 C 1392.7696 597.03315 1396.137 571.98674 1400.2207 543.99219 C 1403.6562 520.44138 1407.7582 493.89502 1409.4336 462.43555 C 1409.7124 457.1998 1409.7675 452.10265 1409.6113 447.14648 C 1414.7375 440.8948 1420.3153 432.82672 1425.4199 422.61914 C 1432.0856 409.28997 1439.5872 389.97789 1442.8535 365.47852 C 1447.6055 329.83509 1442.517 287.60234 1419.9863 250.18945 C 1419.3453 249.12496 1418.6928 248.06701 1418.0273 247.01758 C 1416.9163 247.56921 1415.8108 248.13145 1414.7109 248.70508 C 1399.0757 256.85941 1385.7682 266.601 1374.5781 277.16016 C 1353.8969 264.72391 1327.6822 254.69634 1295.3223 251.83398 C 1277.0431 250.21712 1257.0237 250.95649 1235.7051 254.80078 C 1230.8541 246.89615 1226.1069 240.97097 1222.4277 236.84766 C 1221.4962 235.80372 1220.5462 234.77574 1219.5781 233.76562 z " d="M 1219.7344,225.76758 A 8.0008,8.0008 0 0 0 1214.0234,228.00781 C 1212.9852,229.00945 1211.9577,230.02083 1210.9414,231.04102 1204.1993,237.80864 1195.5005,247.57105 1186.9141,260.08008 1179.3947,262.87095 1171.7839,265.97222 1164.0645,269.55859 1158.2048,272.28102 1152.4297,275.17893 1146.7441,278.24414 A 8.0008,8.0008 0 0 0 1151.2363,293.25586 C 1157.1295,292.74223 1163.04,292.47841 1168.9531,292.45117 1168.389,293.7433 1167.8444,295.04762 1167.3086,296.35742 1165.9019,297.06904 1164.5213,297.74271 1163.0664,298.55273 1146.8264,307.59465 1132.9117,318.80193 1121.4766,332.34375 1109.776,346.20011 1100.8382,362.3016 1094.4434,380.49219 1087.8126,399.35347 1083.9418,420.31766 1082.3574,443.26562 1082.09,447.13868 1081.8912,451.01457 1081.7617,454.89258 A 8.0008,8.0008 0 0 0 1095.875,460.31641 C 1098.163,457.60161 1100.5385,454.95825 1102.9961,452.39258 1108.2839,446.87193 1112.8301,443.03964 1117.1953,439.7207 1116.9732,441.15568 1116.6073,442.46101 1116.4473,443.94531 1115.2916,454.66338 1115.8918,465.99437 1118.4297,479.09766 1119.0691,482.3987 1119.802,485.68099 1120.6309,488.94141 A 8.0008,8.0008 0 0 0 1126.9629,494.24023 C 1125.7822,496.29462 1124.6499,498.40344 1123.3926,500.37305 1113.2855,516.20649 1100.7568,529.42808 1085.041,541.31445 1084.5012,541.72276 1083.9584,542.12987 1083.416,542.53125 A 8.0008,8.0008 0 0 0 1080.1816,549.27539 C 1080.1877,549.43087 1080.1983,549.58662 1080.2051,549.74219 1077.6324,551.90977 1075.2301,554.36169 1073.3398,557.41797 A 8.0008,8.0008 0 0 0 1073.3398,557.41992 C 1070.196,562.5032 1068.3172,568.54309 1068.1387,574.97266 1067.9805,580.67311 1069.1444,586.73141 1072.3945,592.17773 1073.9263,594.74485 1075.9476,597.17335 1078.5117,599.18945 1080.9931,601.14038 1083.9878,602.6858 1087.3379,603.55664 1090.5614,604.39458 1093.8359,604.6154 1097.0352,604.33203 1099.0751,607.72222 1101.2346,611.04539 1103.6719,614.16602 1108.1604,619.9132 1113.3595,625.16594 1119.3418,629.4043 1120.081,629.92801 1120.8285,630.43368 1121.582,630.91992 A 8.0008,8.0008 0 0 0 1129.3867,631.4082 C 1130.0002,631.11327 1130.6216,630.82128 1131.2539,630.5332 1138.6743,627.15261 1146.9173,624.49769 1155.8496,622.35742 1164.6812,620.24135 1174.0944,618.64921 1183.9375,617.29688 1199.956,615.0961 1216.9788,613.42015 1233.9121,611.05078 1234.1764,615.99394 1234.3205,622.36676 1233.2891,630.36914 1233.1686,631.30357 1233.0363,632.2326 1232.8926,633.15234 A 8.0008,8.0008 0 0 0 1237.5781,641.71094 C 1238.5985,642.15945 1239.6229,642.5927 1240.6543,643.01367 1250.6325,647.08612 1262.2775,650.3442 1275.4648,652.46484 1287.2304,654.35686 1300.276,655.34687 1314.1992,655.09766 1338.2786,654.66665 1366.1196,650.49508 1391.9668,639.97266 A 8.0008,8.0008 0 0 0 1391.9688,639.97266 C 1392.8047,639.63233 1393.6396,639.28418 1394.4727,638.92969 A 8.0008,8.0008 0 0 0 1399.334,631.86914 C 1399.3659,631.02331 1399.3971,630.18536 1399.4316,629.35547 1400.7457,597.75196 1404.0607,573.0882 1408.1367,545.14648 1411.5649,521.64604 1415.7223,494.77461 1417.4219,462.86133 1417.6595,458.39843 1417.6417,454.08332 1417.5742,449.79883 1422.5367,443.47633 1427.7504,435.84334 1432.5742,426.19727 1439.5486,412.25087 1447.3776,392.0791 1450.7832,366.53516 1455.7435,329.32967 1450.4685,285.29864 1426.8398,246.0625 1426.1696,244.94938 1425.4844,243.83818 1424.7832,242.73242 A 8.0008,8.0008 0 0 0 1414.4688,239.85156 C 1413.3117,240.42604 1412.16,241.01247 1411.0117,241.61133 1396.6941,249.07851 1384.321,257.88777 1373.5645,267.39453 1352.7811,255.77889 1327.0668,246.6108 1296.0273,243.86523 1278.5453,242.31889 1259.5428,242.97771 1239.4902,246.16211 1235.4518,240.1407 1231.5393,235.04369 1228.3965,231.52148 1227.403,230.40806 1226.3887,229.31056 1225.3535,228.23047 A 8.0008,8.0008 0 0 0 1219.7344,225.76758 Z" />
    <g id="g141" transform="rotate(-3.1691194,1259.6663,440.65433)">
      <path d="M 1178.3152,435.38959 C 1155.9944,361.88419 1173.8358,288.61907 1230.6255,237.59386 1258.3699,272.38202 1266.4484,324.33385 1257.0454,372.64714" fill="#2d3258" stroke="#1d1e35" stroke-width="8" id="path90" />
      <path d="M 1084.9862,575.04139 C 1076.1729,572.24775 1076.9066,554.65475 1089.657,550.01586 L 1086.2465,543.44604 C 1066.1657,550.57297 1065.1199,579.79458 1081.4021,585.00364" fill="#0cfd3c" stroke="#11a832" stroke-width="2.43" id="path92" />
      <path d="M 1116.5903,611.9658 C 1098.245,597.38068 1086.6408,567.26556 1086.4418,541.46413 1120.108,518.81372 1144.7443,487.74609 1159.3492,436.89009 1201.2741,290.90242 1422.0926,304.38512 1404.023,470.2483 1397.3945,531.09174 1383.3083,569.10489 1376.8437,635.63313 1331.1891,651.3374 1272.2092,648.62809 1234.6393,630.81176 1236.7764,619.29639 1237.0175,608.34782 1236.0617,596.35267 1196.3083,600.95872 1151.4376,598.36269 1116.5903,611.9658 Z" fill="#2d3258" id="path94" />
      <path d="M 1206.099,464.20456 C 1183.2592,517.97802 1139.424,547.69221 1087.4124,553.71723 1086.7718,549.48859 1086.4724,545.42552 1086.4418,541.46413 1120.108,518.81372 1144.7443,487.74609 1159.3492,436.89009 1189.3788,332.32327 1311.1889,309.57192 1371.8165,366.37012 1302.713,352.86346 1240.0608,384.24598 1206.099,464.20456 Z M 1341.6267,644.8648 C 1336.9871,619.73954 1337.2186,601.91797 1351.178,571.97775 1384.7478,499.97677 1354.4786,482.31829 1312.931,516.44878 1289.8735,535.39001 1264.113,544.78302 1234.8164,546.9379 1255.8123,562.9091 1281.0379,571.85749 1307.8321,566.83632 1289.9272,586.0878 1264.3822,593.04721 1236.1724,596.3398 1237.0175,608.34782 1236.7764,619.29639 1234.6393,630.81176 1263.0913,644.30423 1303.8224,649.13256 1341.7458,643.86063" fill="#56bca4" id="path96" />
      <path d="M 1105.2884,527.30808 C 1121.814,543.69118 1115.605,567.64248 1090.56,567.49041 1088.1164,559.69063 1086.9688,550.89956 1086.4418,541.46413 1092.0323,538.47797 1099.45,533.36376 1105.2884,527.30808 Z" fill="#fbb500" id="path98" />
      <path d="M 1322.2683,542.2681 C 1322.2683,542.2681 1321.0309,544.15264 1318.3662,548.07528 1315.9015,551.70354 1311.3904,558.17176 1304.9922,564.46943 1300.8215,568.5746 1295.5112,572.97521 1288.5408,577.12666 1287.4091,577.8007 1286.2575,578.44711 1285.0869,579.06722 1277.7236,582.96789 1269.5996,585.83166 1260.9372,587.98067 1252.176,590.15417 1242.8729,591.59461 1233.2732,592.63885 1213.743,594.76333 1193.03,595.26151 1172.9894,596.89286 1162.7871,597.72336 1152.763,598.84234 1143.1026,600.59884 1134.1466,602.22727 1125.5106,604.40254 1117.3576,607.39808 1113.7483,604.24282 1110.4296,600.42211 1107.4519,596.14108 1103.9181,591.06056 1100.8847,585.36185 1098.4057,579.38797 1093.5264,567.62967 1090.8572,554.99253 1090.4845,543.55132 1107.4165,531.89736 1121.5567,518.40692 1133.291,502.08957 1146.2293,484.09781 1156.0285,462.94465 1163.1938,437.99419 1168.3463,420.05252 1176.2158,404.76765 1185.8342,392.01464 1195.6388,379.01482 1207.3129,368.57434 1219.9485,360.56809 1246.0082,344.05603 1276.1868,337.82806 1303.7836,340.60503 1318.0375,342.03938 1331.6237,345.86525 1343.8296,351.89759 1356.3018,358.06152 1367.3183,366.51824 1376.2539,377.11201 1385.3902,387.94374 1392.3662,401.02352 1396.5605,416.26744 1400.8554,431.87689 1402.2327,449.74828 1400.0465,469.81508 1396.6815,500.7033 1391.1995,526.61211 1386.4518,550.0136 1380.9634,577.06557 1376.2587,601.60728 1373.1186,632.66282 1349.7536,640.28517 1324.6051,642.60945 1302.8594,641.79547 1289.8757,641.30947 1277.8324,639.71371 1267.1408,637.38166 1256.4285,635.04511 1247.0493,631.96633 1239.1021,628.45574 1240.764,617.94281 1240.6938,609.21983 1240.5773,604.54466 1240.4332,598.76619 1240.1648,596.06172 1240.1648,596.06172 L 1232.1844,596.622 C 1232.1844,596.622 1232.4425,599.23705 1232.5798,604.74401 1232.7022,609.6548 1232.7623,619.00436 1230.7065,630.08188 1230.5225,631.07288 1230.3254,632.06138 1230.115,633.04711 1231.0456,633.51917 1231.9825,633.97883 1232.9254,634.42596 1242.042,638.74923 1252.9213,642.46821 1265.4359,645.19789 1276.5997,647.63293 1289.1137,649.28655 1302.5601,649.78987 1325.802,650.65985 1352.9662,648.07653 1378.1448,639.41561 1378.96,639.1352 1379.773,638.8484 1380.5837,638.55523 1380.6624,637.70999 1380.7428,636.86491 1380.8249,636.01999 1383.9216,604.15216 1388.6669,579.33029 1394.292,551.6043 1399.0242,528.27943 1404.5875,502.00034 1407.9995,470.6816 1410.2803,449.7459 1408.8698,430.84855 1404.2739,414.14513 1399.7821,397.82027 1392.2741,383.69718 1382.3691,371.95403 1372.6881,360.47658 1360.7811,351.35161 1347.3741,344.72565 1334.2613,338.24512 1319.7392,334.17021 1304.5847,332.64524 1275.2778,329.69619 1243.2976,336.30278 1215.6667,353.81043 1202.2531,362.30963 1189.8554,373.39731 1179.4472,387.19744 1169.2328,400.7406 1160.925,416.91142 1155.5046,435.78599 1148.5439,460.02412 1139.1029,480.30526 1126.796,497.41886 1115.2522,513.47129 1101.2355,526.69001 1084.2089,538.14534 1083.625,538.53821 1083.039,538.92802 1082.451,539.31474 1082.4393,540.04143 1082.4363,540.76823 1082.4419,541.49499 1082.5426,554.55346 1085.455,569.0515 1091.0167,582.4542 1093.6855,588.88572 1096.9827,595.09978 1100.8844,600.7092 1104.6833,606.17085 1109.0981,611.11939 1114.101,615.09685 1114.7162,615.58593 1115.3419,616.06162 1115.9777,616.52358 1116.6639,616.23927 1117.353,615.96205 1118.0449,615.69196 1126.2478,612.48982 1135.1214,610.1812 1144.5338,608.46979 1153.839,606.77787 1163.5782,605.68543 1173.6383,604.8665 1193.3712,603.2602 1214.1323,602.76818 1234.1384,600.59194 1243.9534,599.52426 1253.6375,598.0341 1262.8634,595.7453 1271.9915,593.48078 1280.7572,590.41406 1288.8319,586.13656 1290.1168,585.45586 1291.3848,584.74423 1292.6345,583.99995 1300.3771,579.38854 1305.9938,574.09535 1310.0725,569.052 1316.412,561.21319 1319.3537,553.58854 1320.7036,549.18997 1322.1461,544.48953 1322.2683,542.2681 1322.2683,542.2681 Z" inkscape:path-effect="#path-effect21331" inkscape:original-d="M 1322.2683,542.2681 C 1291.9558,620.95826 1184.9735,585.27149 1116.5903,611.9658 1098.245,597.38068 1086.6408,567.26556 1086.4418,541.46413 1120.108,518.81372 1144.7443,487.74609 1159.3492,436.89009 1201.2741,290.90242 1422.0926,304.38512 1404.023,470.2483 1397.3945,531.09174 1383.3083,569.10489 1376.8437,635.63313 1331.1891,651.3374 1272.2092,648.62809 1234.6393,630.81176 1236.7764,619.29639 1237.0175,608.34782 1236.1746,596.34186" fill="#1d1e35" id="path100" />
      <g id="g120">
        <path d="M 1406.5461,308.04317 C 1352.0006,253.26685 1266.8017,240.29986 1178.1172,275.68161 1199.2795,276.77663 1214.3397,280.52092 1228.8841,287.49773 1150.3504,302.53165 1105.6329,344.93841 1094.392,434.94651 1109.3628,420.95455 1121.9233,414.01654 1139.2315,407.387 1127.6839,428.6828 1125.3016,446.89746 1128.4088,469.60381 1156.2348,432.6473 1181.776,414.52145 1222.7048,399.46358 1211.6246,414.31057 1207.3984,427.26159 1204.3759,447.40954 1263.5833,380.09827 1320.7044,401.48311 1371.6671,336.60679 Z" fill="#66bef9" id="path102" />
        <path d="M 1399.94,313.64271 C 1307.2721,263.82214 1192.3749,297.0989 1161.3127,408.38663 1212.0694,327.43818 1296.8702,294.75419 1387.9722,325.01122 Z" fill="#9cdeeb" id="path104" />
        <path d="M 1370.9011,337.16259 C 1327.3131,373.1149 1289.6287,355.94706 1241.6053,396.79016 1245.6623,384.55038 1251.8688,375.1476 1261.7223,366.21208 1223.4644,373.09962 1192.1006,386.37724 1161.3127,408.38663 1199.6785,311.31167 1303.5348,280.44244 1392.6777,319.73751 Z" fill="#043f98" id="path106" />
        <path d="M 1406.5461,308.04317 C 1352.0006,253.26685 1266.8017,240.29986 1178.1172,275.68161 1199.2795,276.77663 1214.3397,280.52092 1228.8841,287.49773 1150.3504,302.53165 1105.6329,344.93841 1094.392,434.94651 1109.3628,420.95455 1121.9233,414.01654 1139.2315,407.387 1127.6839,428.6828 1125.3016,446.89746 1128.4088,469.60381 1156.2348,432.6473 1181.776,414.52145 1222.7048,399.46358 1211.6246,414.31057 1207.3984,427.26159 1204.3759,447.40954 1263.5833,380.09827 1320.7044,401.48311 1371.6671,336.60679 Z" style="fill:none;stroke:#2190de;stroke-width:8;stroke-miterlimit:20" id="path108" />
        <path d="M 1329.2873,386.15524 C 1339.8622,327.53086 1376.8737,283.80584 1426.7358,261.21418 1463.3676,330.43472 1446.9406,424.11719 1384.7321,474.9124 Z" fill="#2d3258" id="path110" />
        <path d="M 1426.7358,261.21418 C 1397.3593,274.52415 1372.4434,295.16956 1354.7759,321.8007 1333.0165,373.25532 1366.1603,412.06484 1370.0708,454.23176 1397.212,445.61738 1423.6643,422.43285 1437.4112,396.58996 1451.5606,352.53182 1448.594,302.51814 1426.7358,261.21418 Z" fill="#fbb500" id="path112" />
        <path d="M 1375.0553,296.25359 C 1399.9699,282.10255 1429.7331,289.43526 1445.0858,318.35266 M 1348.0327,346.99765 C 1379.8134,324.58196 1424.5131,331.37241 1444.0443,369.97425 M 1352.144,390.41703 C 1379.7117,375.22814 1409.8894,383.98137 1422.4222,418.43274" fill="none" stroke="#ae7f00" stroke-width="4" id="path114" />
        <path d="M 1329.2873,386.15524 C 1329.2873,386.15524 1332.6047,372.40389 1348.4027,340.85413 1352.2847,333.1016 1358.0268,323.17749 1366.4066,312.66587 1380.3396,295.18835 1399.5965,278.60125 1424.9367,266.46504 1442.7899,302.28319 1445.1109,341.39206 1438.8694,374.22579 1434.4516,397.46637 1426.2665,415.50363 1419.2175,427.84282 1409.1719,445.4277 1398.2393,458.63402 1393.136,464.7672 1387.2156,471.88246 1384.7321,474.9124 1384.7321,474.9124 1384.7321,474.9124 1388.4227,473.4949 1395.9164,467.64287 1402.8763,462.20771 1415.2063,450.99239 1426.1639,431.8111 1433.5563,418.87082 1442.113,400.00113 1446.7287,375.7198 1453.4439,340.39358 1450.6992,297.94445 1430.2713,259.3432 1429.69,258.2449 1429.0962,257.15332 1428.4898,256.06871 1427.3499,256.55808 1426.2149,257.05877 1425.085,257.57072 1396.812,270.38075 1375.4491,288.48928 1360.1511,307.67901 1351.3514,318.71733 1345.3228,329.1374 1341.2494,337.27223 1333.1443,353.45873 1330.5484,367.18837 1329.6728,374.70446 1328.7341,382.76289 1329.2873,386.15524 1329.2873,386.15524 Z" inkscape:path-effect="#path-effect225" inkscape:original-d="M 1329.2873,386.15524 C 1339.8622,327.53086 1376.8737,283.80584 1426.7358,261.21418 1463.3676,330.43472 1446.9406,424.11719 1384.7321,474.9124" fill="#1d1e35" id="path116" />
        <path d="M 1354.7759,321.8007 C 1333.0165,373.25532 1366.1603,412.06484 1370.0708,454.23176 1397.212,445.61738 1423.6643,422.43285 1437.4112,396.58996" fill="none" stroke="#1d1e35" stroke-width="6" id="path118" />
      </g>
      <g id="g139">
        <g clip-path="url(#clipPath89069)" id="g127">
          <path d="M 1321.935,427.54999 C 1268.6827,414.9251 1234.7799,441.98938 1205.2247,509.21214 1253.7599,508.96003 1299.5207,475.51618 1321.935,427.54999 Z" id="path4646" />
          <ellipse cx="1259.6951" cy="-461.03378" rx="16.538483" ry="40.85535" transform="rotate(39.897326)" fill="#0cfd3c" id="ellipse123" />
          <path d="M 1280.6782,432.69994 C 1265.0526,442.04433 1251.3663,456.92111 1243.815,475.86657 1259.551,464.24522 1272.7396,449.81074 1280.6782,432.69994 Z" id="path125" />
        </g>
        <path d="M 1321.2213,430.40872 C 1264.9907,418.81342 1235.9585,447.14642 1205.2247,509.21214 1230.3707,441.07921 1267.0307,412.96289 1323.2213,424.75074 1331.3816,426.46266 1337.5673,426.47038 1344.7406,424.5227 1339.4191,431.03967 1330.7059,432.36453 1321.2213,430.40872 Z" id="path129" />
        <path d="M 1081.4021,585.00364 C 1100.9707,591.26408 1115.7629,565.3909 1103.1321,547.31667 1099.8996,542.69103 1093.9017,547.08641 1096.6393,551.80033 1103.6023,563.79017 1094.7785,578.14537 1084.9862,575.04139 1081.6112,576.47075 1080.0052,581.46297 1081.4021,585.00364 Z" fill="#0cfd3c" id="path131" />
        <path d="M 1091.8415,574.56787 1094.7958,584.71602 1102.0955,579.34104 1095.6035,571.29131 Z" fill="#fafa77" id="path133" />
        <path d="M 1078.8113,583.90059 C 1079.6195,584.33923 1080.4832,584.70967 1081.4021,585.00364 1100.9707,591.26408 1115.7629,565.3909 1103.1321,547.31667 1099.8996,542.69103 1093.9017,547.08641 1096.6393,551.80033 1103.6023,563.79017 1094.7785,578.14537 1084.9862,575.04139 1084.2509,574.80831 1083.5821,574.47223 1082.9811,574.04925" fill="none" stroke="#11a832" stroke-width="2.43" id="path135" />
        <path d="M 1099.8201,590.36977 C 1120.5621,590.40689 1135.6644,581.24928 1144.0302,563.41566 1143.4956,583.13536 1126.1607,596.23458 1103.8304,597.7146" fill="#1d1e35" id="path137" />
      </g>
    </g>
  </g>
  <g id="g11486" transform="translate(-47.75659,157.58683)" inkscape:export-filename="/home/parclytaxel/Downloads/Parcly Taxel Telegram Sticker.png" inkscape:export-xdpi="85.454765" inkscape:export-ydpi="85.454765">
    <path id="path8555" style="fill:#ffffff;fill-opacity:1;fill-rule:nonzero;stroke:none" sodipodi:type="inkscape:offset" inkscape:radius="9" inkscape:original="M 400.1875 58.328125 C 399.53362 58.330428 398.86578 58.390724 398.18359 58.501953 C 396.97829 58.698477 395.69432 59.061118 394.31836 59.580078 C 393.04558 60.060121 391.66506 60.685786 390.16602 61.464844 C 387.37809 62.913732 384.13571 64.916343 380.35938 67.548828 C 376.75166 70.063764 372.69536 73.126367 368.16797 76.759766 C 366.23331 78.312398 364.19643 80.001429 362.13867 81.720703 C 354.60077 78.568696 346.6085 76.130568 338.18945 74.550781 C 323.38408 71.772641 307.40749 71.592489 290.51953 74.412109 C 273.21634 77.301059 255.07074 83.319119 236.30273 92.787109 C 196.97709 112.62591 162.60874 118.75275 138.15625 120.26758 C 138.12597 120.23377 138.09673 120.1998 138.06641 120.16602 C 134.96063 116.70628 131.68873 113.43591 128.41406 110.63477 C 125.42453 108.07753 122.38112 105.86824 119.48828 104.33594 C 118.09325 103.59701 116.66766 102.97972 115.25 102.57031 C 113.86731 102.171 112.35926 101.93044 110.82812 102.05859 C 109.74483 102.14927 108.73082 102.4527 107.82812 102.83398 C 106.92095 103.21717 106.03826 103.71577 105.19141 104.2832 C 103.50971 105.41001 101.78184 106.93112 100.06055 108.72656 C 98.323719 110.53821 96.531506 112.69516 94.730469 115.14648 C 92.91275 117.62051 91.077421 120.40513 89.273438 123.46094 C 85.566691 129.73988 82.02947 137.09274 79.003906 145.21484 C 75.793468 153.83325 73.246055 163.08019 71.587891 172.70117 C 67.868841 194.27979 69.148008 214.50564 73.730469 232.64062 C 69.389435 249.68676 66.574716 267.38692 64.787109 285.71289 C 61.296946 321.49295 61.828975 358.07324 61.986328 396.32812 C 62.136641 432.87149 61.914603 470.07004 56.820312 505.51953 C 54.303573 523.0327 50.592483 540.18298 45.130859 556.76758 C 39.699448 573.26041 32.536597 589.19545 23.085938 604.38867 C 20.730467 608.1754 18.252719 611.88403 15.65625 615.50977 C 20.013071 614.1494 24.318184 612.628 28.5625 610.94922 C 42.059028 605.61089 53.833949 599.11706 63.857422 591.42969 C 73.961446 583.68054 82.201395 574.78346 88.615234 564.77539 C 95.159017 554.56455 99.719534 543.3256 102.47852 531.18555 C 104.32372 523.06626 105.3545 514.58431 105.64648 505.79297 C 110.64613 513.93705 114.22243 522.13714 116.69336 530.47266 C 121.49093 546.65701 121.83247 562.56871 120.75195 576.07812 C 120.39039 580.59867 119.84736 585.10331 119.12305 589.58008 C 122.49314 586.33588 125.68692 582.91129 128.68945 579.32422 C 135.13781 571.6205 141.38047 562.35639 146.07422 551.44531 C 146.57225 550.28759 146.99638 549.07576 147.45508 547.88867 C 154.29665 550.06462 162.2406 551.76274 171.13281 552.8457 C 180.20932 553.95111 190.18554 554.44074 200.49805 554.22266 C 210.18693 554.01777 220.16307 553.18476 229.68359 551.6543 C 238.75072 550.19672 247.48577 548.09185 255.01562 545.27539 C 258.68244 543.90386 262.10814 542.34708 265.1582 540.58789 C 268.15546 538.85916 270.86139 536.89404 273.07812 534.66016 C 275.26975 532.45158 277.04609 529.91617 278.0957 527.03125 C 278.61662 525.59949 278.95045 524.10249 279.07031 522.54883 C 279.18955 521.0032 279.095 519.43449 278.78516 517.85547 C 276.03335 503.83169 274.24578 491.42693 273.23828 478.70703 C 272.32145 467.13187 272.10896 455.45827 272.27344 442.72266 C 274.03584 442.86697 275.85472 442.99917 277.74609 443.10938 C 296.27959 444.18932 319.01606 443.24614 341.58203 436.53516 C 358.83714 431.40359 374.60246 423.27126 386.88672 412.02148 C 392.62367 406.76765 397.46895 400.94878 401.26562 394.66211 C 405.05984 388.37952 407.74985 381.72231 409.26953 374.83398 C 409.60569 373.31028 409.79978 371.86413 409.8418 370.48633 C 409.88478 369.07688 409.76956 367.73773 409.48242 366.46875 C 409.18575 365.15763 408.71539 363.96243 408.0957 362.87891 C 407.45341 361.75586 406.67805 360.80144 405.83984 359.98633 C 404.05403 358.2497 401.92328 357.09669 400.07617 356.27734 C 397.86889 355.29823 395.36888 354.51081 393.61328 353.9707 C 393.05606 353.79928 392.49007 353.62758 391.99609 353.47852 C 391.30338 353.26948 390.71503 353.10757 390.04688 352.91211 C 398.53024 321.19542 400.49511 292.48546 396.89062 267.05859 C 396.7163 265.82886 396.46945 264.64672 396.26953 263.43359 C 399.11133 261.17564 401.85478 258.79546 404.43945 256.24609 C 414.3718 246.44939 421.58493 235.30144 426.30469 223.47852 C 431.05205 211.58644 433.26204 199.04422 433.22266 186.54102 C 433.14267 161.14864 423.81641 135.97103 407.62305 115.88672 C 404.02847 111.42843 400.07843 107.23822 395.83203 103.32617 C 396.01327 102.9684 396.22646 102.57258 396.4043 102.21875 C 399.12281 96.809968 401.36651 92.012339 403.16016 87.791016 C 405.03815 83.371191 406.39744 79.637715 407.30664 76.492188 C 408.31781 72.99388 408.79612 70.144086 408.7832 67.791016 C 408.77549 66.386903 408.59501 65.105747 408.20508 63.933594 C 407.98073 63.259177 407.69168 62.633328 407.33594 62.060547 C 406.92564 61.399918 406.44984 60.844542 405.94141 60.384766 C 405.43344 59.92542 404.8258 59.500965 404.10938 59.158203 C 403.48705 58.860462 402.81591 58.640287 402.10156 58.501953 C 401.48017 58.381623 400.84138 58.325822 400.1875 58.328125 z " d="M 400.15625,49.328125 C 398.97069,49.332301 397.82746,49.440917 396.73438,49.619141 394.79545,49.935283 392.95297,50.475392 391.14258,51.158203 389.46439,51.791149 387.77136,52.566052 386.01562,53.478516 382.75025,55.175532 379.21522,57.375983 375.21289,60.166016 371.38944,62.831337 367.18371,66.009597 362.53516,69.740234 361.82324,70.311573 361.08018,70.939528 360.35547,71.533203 353.78817,69.114591 347.00394,67.047548 339.84961,65.705078 323.96008,62.723502 306.8959,62.553446 289.03711,65.535156 270.73952,68.590132 251.73152,74.924017 232.25,84.751953 196.12822,102.97449 164.81989,109.019 141.63086,110.85547 139.24348,108.37311 136.80054,105.96495 134.26367,103.79492 130.9271,100.94083 127.44882,98.367893 123.70117,96.382812 121.89707,95.427203 119.93732,94.556073 117.74805,93.923828 115.61516,93.307869 113.03157,92.842653 110.07812,93.089844 107.79697,93.280794 105.87767,93.887653 104.32617,94.542969 102.76884,95.200787 101.40564,95.986502 100.18164,96.806641 97.756645,98.43149 95.610608,100.36375 93.564453,102.49805 91.498406,104.65309 89.474805,107.10129 87.478516,109.81836 85.464417,112.55967 83.469126,115.58892 81.523438,118.88477 77.527235,125.65402 73.77663,133.46494 70.570312,142.07227 67.168414,151.20465 64.475019,160.98167 62.71875,171.17188 58.937298,193.11256 60.123243,213.79135 64.533203,232.48633 60.346857,249.4336 57.581167,266.88825 55.830078,284.83984 52.273792,321.29778 52.829221,358.1702 52.986328,396.36523 53.136388,432.84703 52.885543,469.63175 47.912109,504.24023 45.454887,521.33925 41.845923,537.96895 36.582031,553.95312 31.347226,569.84895 24.480544,585.10626 15.443359,599.63477 13.190988,603.25575 10.822897,606.80217 8.3398438,610.26953 A 9.0009,9.0009 0 0 0 18.337891,624.10156 C 22.906929,622.67493 27.422499,621.07871 31.873047,619.31836 46.026054,613.72037 58.551824,606.83955 69.333984,598.57031 80.202743,590.23466 89.197522,580.54707 96.193359,569.63086 102.16923,560.30619 106.52944,550.16266 109.56055,539.45508 112.34893,552.03247 112.65604,564.42408 111.78125,575.36133 111.4389,579.64164 110.92384,583.90535 110.23828,588.14258 A 9.0009,9.0009 0 0 0 125.36523,596.06445 C 128.9684,592.59588 132.38267,588.93545 135.5918,585.10156 141.77321,577.71675 147.77227,568.83398 152.64258,558.5332 158.07443,559.85967 163.77665,561.0159 170.04492,561.7793 179.59045,562.94183 189.96764,563.4474 200.6875,563.2207 210.76133,563.00767 221.12334,562.14662 231.11133,560.54102 240.62471,559.0117 249.87707,556.8062 258.16797,553.70508 262.20511,552.19503 266.06838,550.45302 269.6543,548.38477 273.17779,546.35252 276.52952,543.96 279.4668,541 282.37153,538.0728 284.96692,534.46614 286.55273,530.10742 287.34042,527.94246 287.85863,525.62962 288.04297,523.24023 288.22619,520.86519 288.07728,518.4678 287.61719,516.12305 284.91667,502.36065 283.18864,490.3398 282.21094,477.99609 281.55281,469.68705 281.35072,461.10965 281.3125,452.19922 299.82439,452.97062 321.8277,451.80016 344.14844,445.16211 362.45809,439.71692 379.44533,431.03922 392.96484,418.6582 399.28136,412.87361 404.69084,406.39798 408.96875,399.31445 413.24428,392.23489 416.32037,384.65239 418.05859,376.77344 418.49584,374.79153 418.77598,372.78981 418.83789,370.75977 418.9011,368.68691 418.73333,366.57527 418.25977,364.48242 417.77102,362.32244 416.96956,360.26592 415.9082,358.41016 414.8072,356.48504 413.48209,354.86239 412.11523,353.5332 409.19166,350.69014 406.08739,349.09888 403.72461,348.05078 402.58352,347.54462 401.81833,347.36671 400.76172,346.98633 407.63154,317.94555 409.20521,291.1503 405.92578,266.91016 407.54509,265.50379 409.20594,264.1869 410.75977,262.6543 421.57137,251.99035 429.49592,239.76055 434.66406,226.81445 439.86269,213.79195 442.26544,200.09438 442.22266,186.51172 442.13578,158.9344 432.06928,131.86924 414.62891,110.23828 412.14767,107.16084 409.46898,104.25574 406.70508,101.43164 408.3905,97.929253 410.16358,94.322487 411.44336,91.310547 413.42346,86.650406 414.90698,82.611488 415.95312,78.992188 417.11611,74.968641 417.80304,71.354723 417.7832,67.742188 417.77142,65.596949 417.49152,63.338478 416.74414,61.091797 416.31535,59.802818 415.73364,58.525188 414.98047,57.3125 414.11763,55.923229 413.08936,54.713527 411.97852,53.708984 410.86798,52.704752 409.53273,51.77518 407.99414,51.039062 406.6576,50.399621 405.24383,49.943193 403.8125,49.666016 402.57072,49.425549 401.34279,49.323946 400.15625,49.328125 Z" />
    <g transform="translate(44.154942,-171.12881)" id="g8457">
      <path d="M 230.21359,689.85091 C 224.58031,661.14253 223.05545,639.64227 223.65661,609.31637 L 341.21688,524.19502 C 411.38204,266.80727 35.326184,245.9457 67.474201,490.9242 78.533539,575.2 84.78485,634.47664 79.701682,690.12032 75.664668,734.31212 237.69392,727.97222 230.21359,689.85091 Z" fill="#6dc6fb" stroke="#1c92cd" stroke-width="9" id="path8375" />
      <g id="g8421">
        <path d="M 335.63432,410.52895 338.52167,415.46609 C 368.40875,401.01663 366.26587,396.06337 335.63432,410.52895 Z M 339.57407,427.41363 341.21813,433.11324 C 373.58322,425.7283 372.58989,420.64482 339.57407,427.41363 Z" id="path8377" />
        <g clip-path="url(#clipPath7813)" id="g8393">
          <path id="path877" d="M 320.13283,513.42841 C 306.02469,475.37297 306.66374,422.97842 334.31205,394.06446 352.72949,429.62952 355.42575,478.08012 340.13161,526.73969 329.71961,524.24178 326.05425,521.51875 320.13283,513.42841 Z" fill="#ffffff" />
          <g transform="matrix(1.0161488,0,0,1.0161488,-5.4710606,-7.480714)" clip-path="url(#clipPath7797)" id="g8391">
            <ellipse id="path7627" cx="-461.77515" cy="340.78189" rx="53.075657" ry="17.100029" transform="rotate(-89.753403)" fill="url(#linearGradient7785)" style="fill:url(#linearGradient7785)" />
            <path d="M 345.20954,468.79329 319.14897,489.08794 327.39967,524.76178 Z" fill="#8f4dd3" id="path8381" />
            <path d="M 345.20954,468.79329 321.54238,499.21276 316.7582,475.09363 Z" fill="#62289e" id="path8383" />
            <ellipse cx="-460.28226" cy="345.97049" rx="43.061314" ry="13.420556" transform="rotate(-89.267488)" id="ellipse8385" />
            <ellipse cx="-388.76706" cy="397.45236" rx="21.034779" ry="5.6073713" transform="rotate(-81.203124)" fill="#ffffff" id="ellipse8387" />
            <ellipse cx="-412.90646" cy="407.10559" rx="7.2732868" ry="2.014426" transform="rotate(-81.231356)" fill="#ffffff" id="ellipse8389" />
          </g>
        </g>
        <path d="M 320.13283,513.42841 C 299.78937,468.5668 308.39267,419.09941 330.5397,394.44613 349.5309,373.30578 354.16822,376.55384 333.85227,399.22248 313.80278,421.59377 306.00595,461.42077 320.13283,513.42841 Z" id="path8395" />
        <path d="M 320.13283,513.42841 C 336.14823,534.52358 365.26342,524.40197 360.72048,544.99394 349.37767,596.40796 267.89817,633.12613 156.60188,593.21086 Z" fill="#6dc6fb" id="path8397" />
        <path d="M 320.13283,513.42841 C 320.13283,513.42841 320.38812,516.84802 325.0954,522.03507 326.84691,523.9651 329.15995,525.95725 332.23068,527.80552 336.11144,530.14135 340.26431,531.72133 345.2412,533.22316 345.73353,533.37172 346.28047,533.53716 346.81282,533.70093 348.59267,534.2485 350.6161,534.89797 352.27285,535.63287 353.67794,536.25615 354.71545,536.89164 355.41014,537.5672 355.71511,537.86377 355.94876,538.1628 356.12795,538.47612 356.29879,538.77483 356.4464,539.132 356.54864,539.58383 356.64926,540.02852 356.71392,540.60085 356.69136,541.34057 356.66913,542.06944 356.56237,542.95375 356.32615,544.02448 355.02708,549.9128 352.71616,555.65693 349.40599,561.13801 346.09088,566.62728 341.81201,571.78852 336.65357,576.51256 325.58274,586.65109 311.11035,594.20512 294.86099,599.03758 273.60316,605.35953 251.98272,606.29507 234.11522,605.25394 232.19194,605.14187 230.33332,605.00837 228.54689,604.85976 205.69962,602.95907 184.20379,598.58851 173.81385,596.50586 161.91093,594.11994 156.60188,593.21086 156.60188,593.21086 156.60188,593.21086 161.0111,596.19036 172.52435,600.81714 183.31073,605.15183 203.01644,611.76694 227.80075,613.82877 229.65733,613.98322 231.59025,614.12207 233.59168,614.2387 252.12518,615.31864 274.86051,614.37516 297.42648,607.66418 314.6816,602.53262 330.44765,594.39964 342.73191,583.14986 348.46886,577.89603 353.31336,572.07738 357.11005,565.7907 360.90426,559.50812 363.59513,552.85173 365.11481,545.96341 365.45096,544.43971 365.64515,542.99273 365.68717,541.61493 365.73016,540.20548 365.61386,538.86653 365.32672,537.59756 365.03005,536.28644 364.56018,535.0915 363.94049,534.00797 363.2982,532.88493 362.52282,531.93011 361.68462,531.11499 359.8988,529.37837 357.76928,528.22528 355.92217,527.40594 353.71489,526.42683 351.21484,525.63892 349.45924,525.09882 348.90202,524.92739 348.33522,524.75597 347.84125,524.60691 343.11677,523.18124 338.95111,522.10453 335.50931,520.92308 332.61262,519.92875 330.28302,518.94969 328.22727,517.95847 322.78725,515.33549 320.13283,513.42841 320.13283,513.42841 Z" inkscape:path-effect="#path-effect1200" inkscape:original-d="M 320.13283,513.42841 C 336.14823,534.52358 365.26342,524.40197 360.72048,544.99394 349.37767,596.40796 267.89817,633.12613 156.60188,593.21086" fill="#1c92cd" id="path8399" />
        <path d="M 301.98285,556.81934 C 307.97239,573.71168 320.3254,579.96735 341.01555,579.30656 L 332.44225,586.62621 C 314.22529,584.86508 301.83004,576.32046 301.98285,556.81934 Z M 330.85356,541.60821 C 331.77011,547.98303 336.02818,549.76113 341.9279,544.91939 336.06914,554.88937 328.39587,552.421 330.85356,541.60821 Z" fill="#1c92cd" id="path8401" />
        <g clip-path="url(#clipPath7153)" id="g8417">
          <ellipse ry="61.382263" rx="75.410721" cy="-16.69738" cx="-517.79419" id="path2367" transform="rotate(-114.35534)" fill="#ffffff" />
          <g clip-path="url(#clipPath7137)" id="g8415">
            <ellipse id="path2131" cx="-518.69098" cy="96.144165" rx="60.817795" ry="47.699791" transform="rotate(-105.02282)" fill="url(#linearGradient2227)" style="fill:url(#linearGradient2227)" />
            <path d="M 199.15846,554.65078 243.06715,479.96694 174.18769,514.78609 Z" fill="#8f4dd3" id="path8405" />
            <path d="M 168.75298,499.18213 243.06715,479.96694 179.43832,528.48347 Z" fill="#62289e" id="path8407" />
            <ellipse cx="-523.66901" cy="83.021774" rx="48.840038" ry="37.801811" transform="rotate(-106.71636)" id="ellipse8409" />
            <ellipse cx="-373.95261" cy="335.22064" rx="24.5012" ry="15.817048" transform="rotate(-72.494278)" fill="#ffffff" id="ellipse8411" />
            <ellipse cx="-388.89154" cy="367.76544" rx="8.9201021" ry="5.996582" transform="rotate(-71.637106)" fill="#ffffff" id="ellipse8413" />
          </g>
        </g>
        <path d="M 255.4283,521.29121 C 271.01172,466.78025 240.60327,421.78377 204.42846,410.88714 175.01233,402.02639 140.16891,418.56471 134.40067,464.15622 92.540448,464.37988 92.472213,457.66787 129.24748,457.53273 135.94919,413.8379 173.66821,395.38932 206.09227,404.71893 247.75384,416.70647 280.92182,472.8008 255.4283,521.29121 Z M 136.52251,445.14232 C 98.389498,426.65597 100.41634,419.84934 138.5005,438.40603 Z M 144.85843,427.45259 C 117.70106,396.22423 120.77176,391.3722 149.10142,421.87708 Z" id="path8419" />
      </g>
      <g id="g8441">
        <path d="M 122.2437,351.39235 C 148.95822,362.93318 155.61642,385.75738 144.42972,414.50668 175.47504,402.90834 191.0354,382.52465 192.51658,353.00545 215.14301,368.26665 220.5289,388.83033 214.19213,416.74727 243.68684,405.88254 258.56045,384.87169 258.98525,353.98795 282.50219,371.78407 290.43685,393.93432 284.62322,421.50064 314.76537,408.34457 327.52927,386.78083 325.16322,356.85303 345.65194,372.90935 358.91257,397.09792 357.12412,424.17075 432.80744,349.52116 343.33537,192.68505 194.17439,267.93302 159.13488,285.60957 122.63895,295.19092 87.046193,296.26765 Z" fill="#f3a4d9" id="path8423" />
        <path d="M 207.51302,297.39235 C 174.46062,311.63576 137.75843,318.57695 101.81975,319.89111 L 123.79095,351.39572 C 145.34398,364.73048 156.90299,387.04956 144.42972,414.50668 175.47504,402.90834 191.0354,382.52465 192.51658,353.00545 215.14301,368.26665 220.5289,388.83033 214.19213,416.74727 243.68684,405.88254 258.56045,384.87169 258.98525,353.98795 282.50219,371.78407 290.43685,393.93432 284.62322,421.50064 334.58741,361.49208 281.44629,265.53195 207.51302,297.39235 Z" fill="#961370" id="path8425" />
        <path d="M 122.2437,351.39235 C 148.95822,362.93318 155.61642,385.75738 144.42972,414.50668 175.47504,402.90834 191.0354,382.52465 192.51658,353.00545 215.14301,368.26665 220.5289,388.83033 214.19213,416.74727 243.68684,405.88254 258.56045,384.87169 258.98525,353.98795 282.50219,371.78407 290.43685,393.93432 284.62322,421.50064 314.76537,408.34457 327.52927,386.78083 325.16322,356.85303 345.65194,372.90935 358.91257,397.09792 357.12412,424.17075 432.80744,349.52116 343.33537,192.68505 194.17439,267.93302 159.13488,285.60957 122.63895,295.19092 87.046193,296.26765 Z" fill="none" stroke="#d91e9b" stroke-width="9" id="path8427" />
        <path d="M 294.86198,362.24303 C 394.7213,204.09495 379.45291,194.91253 252.76026,319.54615" style="fill:#6dc6fb;stroke:#1c92cd;stroke-width:9" clip-path="url(#clipPath6110)" id="path8429" />
        <path d="M 312.6403,262.79225 C 323.5575,270.49816 340.38173,270.26262 353.79975,261.18731 M 284.99558,287.87476 C 295.60932,303.83368 318.41107,304.02643 337.63544,292.14549 M 256.02489,315.88059 C 264.36792,336.8611 293.70839,340.7774 317.60279,326.2171" fill="none" stroke="#1c92cd" stroke-width="4.5" id="path8431" />
        <path d="M 316.94634,326.60063 C 321.75967,318.65217 326.16908,311.22339 330.17533,304.31114 315.75615,300.39854 303.5969,289.76211 298.33935,276.08541 292.33324,281.56896 285.89131,287.58158 279.01449,294.11956 285.09385,309.52852 299.88263,322.77289 316.94634,326.60063 Z" fill="#ebebeb" id="path8433" />
        <path d="M 283.64584,303.82505 306.15959,288.03015 309.86934,293.41479 292.18531,312.32967 Z" fill="#ffffff" id="path8435" />
        <path d="M 290.95592,318.1399 C 298.04036,324.27289 306.64843,328.90243 315.96138,330.99151 317.02504,331.23011 318.09596,331.43512 319.17255,331.60622 319.17255,331.60622 320.79557,328.9316 320.79557,328.9316 325.62141,320.96248 330.04578,313.50863 334.06867,306.56767 335.11844,304.75643 336.16289,302.94212 337.20202,301.12475 335.22809,300.87567 333.27393,300.48921 331.35378,299.96818 324.82491,298.1966 318.79345,294.89725 313.80087,290.48717 308.8087,286.07745 304.89232,280.59075 302.53968,274.47073 301.72097,272.34096 301.09445,270.1422 300.66764,267.90076 298.87447,269.51493 297.08699,271.1354 295.30522,272.76215 289.27318,278.26937 282.80886,284.30299 275.91387,290.85825 275.91387,290.85825 273.78861,292.88235 273.78861,292.88235 274.10603,293.85552 274.45283,294.81887 274.8285,295.77107 278.1629,304.22257 283.84607,311.98492 290.95591,318.1399 Z M 296.84653,311.33544 C 291.54544,306.7463 287.24409,301.17543 284.39763,295.215 287.27808,292.4723 292.19223,287.86353 296.85744,283.55571 299.69016,288.72211 303.44014,293.34365 307.84259,297.23245 312.42466,301.27992 317.73511,304.55316 323.49913,306.82846 322.77868,308.09911 318.9632,314.5447 314.83453,321.39403 308.27107,319.40714 302.10668,315.88914 296.84652,311.33544 Z" inkscape:path-effect="#path-effect930" inkscape:original-d="M 293.90122,314.73767 C 300.48353,320.43596 308.43172,324.69063 316.94634,326.60063 321.75967,318.65217 326.16908,311.22339 330.17533,304.31114 315.75615,300.39854 303.5969,289.76211 298.33935,276.08541 292.33324,281.56896 285.89131,287.58158 279.01449,294.11956 282.06031,301.83961 287.29228,309.01632 293.90122,314.73767 Z" fill="#d7d7d7" id="path8437" />
        <path d="M 303.8876,374.7389 C 308.1064,323.0462 263.84503,273.11694 207.51302,297.39235 Z" fill="#961370" id="path8439" />
      </g>
      <g id="g8455">
        <path d="M 74.735673,431.06693 C 53.361618,538.30744 93.951349,606.25379 159.16102,644.86693 134.92018,650.04271 113.83315,648.66011 95.779656,637.28371 110.86429,673.82083 110.20092,712.77946 81.083517,747.56545 83.921414,712.0841 75.050925,685.43501 56.827533,662.46429 59.859874,718.74783 35.401931,757.069 -17.248213,777.89391 59.889641,653.88433 -11.983793,481.40614 52.17934,355.74021 Z" fill="#f3a4d9" id="path8443" />
        <path d="M 61.051188,385.36736 74.735673,431.06693 C 53.361618,538.30744 93.951349,606.25379 159.16102,644.86693 134.92018,650.04271 113.83315,648.66011 95.779656,637.28371 110.86429,673.82083 110.20092,712.77946 81.083517,747.56545 120.59251,656.61825 0.65396914,588.12487 61.051188,385.36736 Z" fill="#961370" id="path8445" />
        <path d="M 74.735673,431.06693 C 53.361618,538.30744 93.95135,606.25379 159.16102,644.86693 134.92018,650.04271 113.83315,648.66011 95.77966,637.28371 110.86429,673.82083 110.20092,712.77946 81.083517,747.56545 83.921414,712.0841 75.050925,685.43501 56.827533,662.46429 59.859874,718.74783 35.401931,757.069 -17.248213,777.89391 59.889641,653.88433 -11.983793,481.40614 52.17934,355.74021 Z" fill="none" stroke="#d91e9b" stroke-width="9" id="path8447" />
        <path d="M 80.363579,478.06986 C -15.399905,388.01135 51.24293,278.99489 67.047932,277.67197 80.245281,276.56732 122.55062,324.16279 125.46464,369.75258 Z" fill="#6dc6fb" id="path8449" />
        <path d="M 80.363579,478.06986 C 80.363579,478.06986 77.13711,473.87162 70.385077,464.64997 64.08144,456.04072 53.137006,440.56624 44.830005,421.01341 43.102339,416.94687 41.439864,412.48469 39.965202,407.63993 34.347689,389.1845 32.382478,368.10229 36.302192,345.35937 37.863094,336.30273 40.261586,327.59456 43.282307,319.48545 46.131003,311.83814 49.443895,304.96756 52.869153,299.16543 54.534552,296.34437 56.204959,293.81288 57.827893,291.60397 59.440646,289.40892 60.984313,287.5627 62.402878,286.08303 63.830989,284.59339 65.06292,283.54802 66.045687,282.88952 66.533512,282.56265 66.910097,282.3648 67.174762,282.253 67.429836,282.14526 67.536299,282.14683 67.423282,282.15629 67.552099,282.14551 67.923289,282.15157 68.598276,282.3465 69.27129,282.54086 70.114329,282.88475 71.121232,283.4181 73.229495,284.53482 75.71551,286.2987 78.408268,288.60208 81.32068,291.09335 84.311276,294.07324 87.213949,297.30673 90.582994,301.05974 93.699211,305.00184 96.462549,308.83389 98.978926,312.32348 101.12243,315.609 102.89855,318.51004 107.12519,325.41365 110.54104,331.87439 113.24475,337.54611 118.51231,348.59618 121.50807,357.59194 123.04984,362.33936 124.73167,367.51804 125.46464,369.75258 125.46464,369.75258 125.46464,369.75258 126.18768,367.47833 126.18685,361.85118 126.18606,356.40151 125.35134,346.94014 120.68236,334.4068 118.3519,328.15094 115.06422,321.14444 110.57424,313.8107 108.69522,310.74159 106.42718,307.26504 103.76252,303.56982 100.83941,299.51622 97.523798,295.31883 93.911285,291.2946 90.805509,287.83486 87.533177,284.56402 84.258506,281.76287 81.268976,279.20564 78.226784,276.99723 75.333948,275.46492 73.93892,274.72599 72.513028,274.10926 71.095365,273.69985 69.712678,273.30054 68.203732,273.05949 66.672593,273.18765 65.589295,273.27833 64.575496,273.58098 63.672809,273.96227 62.765628,274.34545 61.882766,274.84531 61.035912,275.41274 59.354218,276.53955 57.627464,278.0592 55.906173,279.85464 54.169347,281.66629 52.376094,283.82383 50.575056,286.27515 48.757337,288.74917 46.922885,291.5343 45.118901,294.59011 41.412154,300.86905 37.874039,308.2216 34.848475,316.34371 31.638037,324.96212 29.091119,334.20978 27.432955,343.83077 23.264772,368.01534 25.345832,390.51779 31.35522,410.26066 32.930352,415.4355 34.704875,420.19766 36.546582,424.53261 45.591014,445.82113 58.834219,460.10615 67.033588,467.65288 75.741042,475.66726 80.363579,478.06986 80.363579,478.06986 Z" inkscape:path-effect="#path-effect3045" inkscape:original-d="M 80.363579,478.06986 C -15.399905,388.01135 51.24293,278.99489 67.047932,277.67197 80.245281,276.56732 122.55062,324.16279 125.46464,369.75258" fill="#1c92cd" id="path8451" />
        <path d="M 67.463484,334.93666 C 57.539585,365.8951 62.107763,398.65074 79.480347,426.08921 67.79179,396.04913 64.320694,364.98059 67.463484,334.93666 Z" fill="#1c92cd" id="path8453" />
      </g>
    </g>
  </g>
  <g id="g918" transform="translate(79.053872,173.68837)" inkscape:export-filename="/home/parclytaxel/Downloads/Tori Taxel Telegram Sticker.png" inkscape:export-xdpi="90.915016" inkscape:export-ydpi="90.915016">
    <path id="path12164" style="fill:#ffffff;fill-opacity:1;fill-rule:nonzero;stroke:none;stroke-width:8;stroke-miterlimit:20" sodipodi:type="inkscape:offset" inkscape:radius="8" inkscape:original="M 764.2793 29.75 C 768.72685 33.209412 773.08363 36.781583 777.34766 40.464844 C 783.54399 45.817237 788.75137 50.7206 793.29883 55.787109 C 794.90696 57.578797 796.43526 59.391945 797.91602 61.271484 C 752.63277 45.577236 708.54185 43.18013 669.1875 51.976562 C 649.88698 56.290591 631.80519 63.292052 615.29688 72.664062 C 610.97316 69.173095 606.92049 66.176613 603.44922 63.767578 C 601.9876 62.753227 600.51343 61.757444 599.02734 60.779297 C 598.45642 62.459354 597.90059 64.144128 597.35938 65.833984 C 595.40223 71.944714 593.11137 79.8872 590.96289 89.123047 C 580.19585 97.701395 570.35759 107.44729 561.62305 118.28906 C 534.03014 152.53884 517.6191 197.05836 515.5918 248.41406 C 513.48451 301.79675 526.90108 361.73075 557.97266 425.26367 C 561.27112 432.00813 564.71476 438.68022 568.29883 445.27734 C 567.24378 437.89805 566.3255 430.50125 565.54492 423.08789 C 562.0587 389.9782 561.68949 360.13407 564.02734 333.41211 C 566.33725 307.00954 571.28755 283.96414 578.27344 263.86133 C 577.96626 269.46505 577.82709 275.17512 577.96094 281.05273 C 578.44494 302.30613 582.17912 322.40229 587.80859 340.44336 C 591.50635 352.29375 596.09504 363.19027 601.12891 373.19531 C 600.9583 380.57903 600.62963 387.87129 600.07617 394.99023 C 598.22459 418.80669 594.06151 443.33876 585.7832 468.04492 C 578.13656 490.86594 566.87707 514.17317 550.19727 537.875 C 548.09249 540.86586 545.93349 543.81861 543.7207 546.73047 C 547.31424 545.87228 550.89882 544.9782 554.47461 544.04883 C 570.45062 539.89657 585.03222 535.35305 598.24219 530.01172 C 610.91198 524.88881 622.36087 519.01808 632.83789 511.94141 C 642.99819 505.07867 652.18039 497.12651 660.76953 487.62891 C 667.3559 480.34591 673.55397 472.19874 679.58984 462.97656 C 681.12922 469.57732 682.10548 475.87854 682.46875 482.38281 C 682.99008 491.71718 682.24868 501.54086 680.09961 513.25195 C 679.42306 516.93871 678.64542 520.60592 677.76758 524.25 C 680.75936 521.8945 683.70787 519.48629 686.61523 517.02734 C 691.82381 512.6221 696.55759 508.29579 700.94727 503.96875 C 700.37119 506.73265 699.94712 509.21177 699.28711 512.13281 C 698.46109 515.78858 698.53592 519.35044 699.50586 522.74414 C 700.45808 526.07582 702.22741 529.0947 704.60547 531.79883 C 706.94455 534.45864 709.88511 536.82974 713.26953 538.93945 C 716.61632 541.0257 720.4447 542.88471 724.64648 544.52734 C 732.90427 547.75562 742.74154 550.20012 753.44141 551.84961 C 763.93601 553.46746 775.31059 554.32719 786.82227 554.38477 C 798.1287 554.44131 809.59661 553.72416 820.42578 552.17578 C 831.07585 550.65301 841.19251 548.31426 849.88672 545.08203 C 854.19504 543.48033 858.19319 541.64534 861.74805 539.55664 C 865.27803 537.48255 868.42053 535.12938 870.99805 532.46484 C 873.56658 529.80958 875.60063 526.81467 876.86328 523.46484 C 877.4886 521.80586 877.91129 520.08476 878.125 518.31055 C 889.3754 523.42529 901.55774 527.04453 914.38477 528.97656 C 932.71336 531.73725 952.25175 531.1157 971.8418 526.80469 C 978.19325 525.40698 984.45876 523.64184 990.60547 521.51758 C 984.28723 521.1508 978.00449 520.30469 971.81445 518.98633 C 958.23363 516.09387 947.30901 511.40418 938.51367 505.30664 C 929.78201 499.25325 923.08596 491.76283 917.99805 483.12305 C 912.91809 474.49676 909.42206 464.69093 907.13477 453.98633 C 904.8509 443.29778 903.787 431.78119 903.5332 419.76562 C 903.02443 395.67857 905.77054 369.93973 908.21289 345.37695 C 909.43681 333.06795 910.58125 321.0826 911.18945 309.79688 C 911.51596 303.73836 911.68835 297.86647 911.63477 292.24219 C 915.48189 298.92356 918.76644 306.63591 921.50977 315.23242 C 926.23502 330.03953 929.24336 347.11234 930.88867 365.38086 C 931.55265 372.75323 931.97815 380.14509 932.16602 387.54492 C 934.60297 380.4607 936.79514 373.29439 938.73633 366.05859 C 952.04979 316.43255 951.29023 272.36958 943.96484 236.6543 C 937.2991 204.15512 925.30567 178.40903 912.22656 158.37891 C 916.01206 140.42063 918.26909 119.22073 917.30469 93.835938 C 917.23769 92.072546 917.15668 90.308918 917.06055 88.546875 C 915.37935 89.082958 913.70341 89.633611 912.03125 90.197266 C 900.96106 93.928833 890.91775 97.999267 881.75 102.2793 C 880.23336 99.857794 878.70808 97.434966 876.99609 95.039062 C 869.75711 84.908199 860.91675 75.361085 850.13477 66.742188 C 831.60728 51.931708 808.62968 40.878816 780.98633 33.570312 C 775.4618 32.109707 769.88942 30.83641 764.2793 29.75 z " d="M 765.80078,21.896484 A 8.0008,8.0008 0 0 0 759.36719,36.064453 C 763.18903,39.037171 766.91258,42.131155 770.5957,45.273438 734.52729,37.14388 699.52161,36.999835 667.44336,44.169922 649.17893,48.252365 632.00062,54.767058 616.07617,63.251953 613.28918,61.118141 610.38667,58.844865 608.00977,57.195312 606.49296,56.14266 604.96517,55.110884 603.42578,54.097656 A 8.0008,8.0008 0 0 0 591.45312,58.205078 C 590.86692,59.930115 590.29563,61.660383 589.74023,63.394531 587.92541,69.06087 585.85092,76.388139 583.84766,84.660156 573.47154,93.168036 563.90961,102.69775 555.39258,113.26953 526.64708,148.94996 509.68489,195.22372 507.59766,248.09766 505.42827,303.05346 519.24051,364.27909 550.78516,428.7793 554.13424,435.62727 557.63148,442.39922 561.26953,449.0957 A 8.0008,8.0008 0 0 0 576.21875,444.14453 C 575.17766,436.86289 574.27019,429.56469 573.5,422.25 570.06004,389.57969 569.70969,360.24329 571.99609,334.10938 572.49851,328.36672 573.17442,322.85556 573.92383,317.44727 575.59745,326.23409 577.65544,334.76162 580.17188,342.82617 583.77248,354.36519 588.22436,364.93634 593.04688,374.74219 592.86905,381.40263 592.59555,387.99206 592.09961,394.37109 590.28695,417.68693 586.22542,441.54432 578.19727,465.50391 570.78093,487.63761 559.8887,510.20255 543.6543,533.27148 541.60514,536.18331 539.50474,539.05722 537.35156,541.89062 A 8.0008,8.0008 0 0 0 545.57812,554.51172 C 549.2236,553.64113 552.85973,552.73359 556.48633,551.79102 572.69044,547.57947 587.59519,542.94498 601.24023,537.42773 614.32644,532.13645 626.29989,526.01138 637.31641,518.57031 647.99947,511.35447 657.70152,502.94783 666.70312,492.99414 669.3724,490.04254 671.92338,486.84461 674.4707,483.62695 674.87079,492.00473 674.23404,500.89039 672.23047,511.80859 671.58036,515.35126 670.83381,518.87512 669.99023,522.37695 A 8.0008,8.0008 0 0 0 682.7168,530.53516 C 685.7123,528.17673 688.66034,525.76382 691.57031,523.30664 691.69029,523.84649 691.66218,524.41059 691.81445,524.94336 693.13534,529.56494 695.56922,533.63834 698.59766,537.08203 701.57544,540.46812 705.13448,543.29578 709.03711,545.72852 712.89758,548.13497 717.16102,550.19062 721.73438,551.97852 730.72331,555.49263 741.07624,558.03753 752.22266,559.75586 763.15575,561.44131 774.89959,562.32533 786.7832,562.38477 798.45496,562.44313 810.28865,561.70711 821.55859,560.0957 832.64212,558.51096 843.26112,556.07942 852.67383,552.58008 857.33752,550.84626 861.75151,548.83428 865.80078,546.45508 869.82147,544.09267 873.54781,541.33563 876.74805,538.02734 879.26493,535.42548 881.31796,532.32995 882.97852,528.96289 892.56757,532.61347 902.67772,535.30283 913.19336,536.88672 932.52483,539.79846 953.03772,539.13347 973.56055,534.61719 980.21419,533.15298 986.77888,531.3037 993.21875,529.07812 A 8.0008,8.0008 0 0 0 991.06836,513.53125 C 985.15442,513.18794 979.2739,512.396 973.48047,511.16211 960.76787,508.45456 950.89692,504.15702 943.07227,498.73242 935.30624,493.34848 929.44708,486.80177 924.89062,479.06445 920.34145,471.33949 917.10681,462.36635 914.95898,452.31445 912.8144,442.27777 911.77736,431.24726 911.53125,419.5957 911.03786,396.23658 913.7275,370.77072 916.17383,346.16797 916.66709,341.20718 917.12385,336.32502 917.56445,331.46289 920.01458,342.14901 921.8123,353.77763 922.92188,366.09766 923.57039,373.29833 923.98445,380.51947 924.16797,387.74805 A 8.0008,8.0008 0 0 0 939.73047,390.14648 C 942.2272,382.88847 944.47366,375.54572 946.46289,368.13086 960.10316,317.28663 959.36451,271.92421 951.80078,235.04688 945.21721,202.94833 933.50927,177.25083 920.62109,156.86914 924.15534,138.95974 926.23399,118.14838 925.29883,93.533203 A 8.0008,8.0008 0 0 0 925.29883,93.53125 C 925.23022,91.725604 925.14746,89.919193 925.04883,88.111328 A 8.0008,8.0008 0 0 0 914.63086,80.925781 C 912.90509,81.476077 911.18747,82.040472 909.47656,82.617188 900.56475,85.621203 892.45479,88.890975 884.74219,92.269531 884.30809,91.629019 883.97053,91.038972 883.50586,90.388672 875.8579,79.685454 866.49754,69.580436 855.13086,60.494141 835.59986,44.881479 811.54245,33.373888 783.03125,25.835938 777.33229,24.329215 771.5856,23.016725 765.80078,21.896484 Z" />
    <g transform="translate(44.154942,-168.12897)" id="g8373">
      <path d="M 848.25913,306.72814 C 894.23681,359.52678 915.15061,442.07762 890.71758,533.15187 887.23482,494.48136 878.0333,464.6317 862.79445,446.66724 870.13528,521.64525 814.33557,667.06841 926.82718,691.02695 851.01568,707.71013 773.67446,668.28071 768.02675,581.19224 760.41061,613.90679 748.23864,636.35355 729.80308,656.32929 724.41417,627.36365 716.22067,604.50652 694.91492,582.63605 689.89905,627.75116 673.7898,653.42064 639.87809,682.10202 644.30171,657.99602 642.90849,641.68109 636.95773,621.18335 607.24411,670.1608 574.51753,691.35958 509.31357,708.30648 574.85751,615.16923 564.8174,518.16851 550.93215,399.12143 Z" style="fill:#5d3513;stroke:#3c210b;stroke-width:8;stroke-miterlimit:20" id="path8299" />
      <path d="M 627.54826,603.44708 C 590.97391,600.54414 539.67127,531.05935 537.8046,449.09128 532.81116,229.82234 846.99758,221.61686 849.55228,437.8023 850.7179,536.44014 818.21227,585.92637 829.98229,681.34271 836.19863,731.73682 647.96248,730.13924 659.03302,681.14384 665.54355,652.3299 668.56141,628.231 670.13331,600.37954 655.80802,603.4312 641.50801,604.55508 627.54826,603.44708 Z" fill="#e49e34" id="path8301" />
      <g id="g8335">
        <path d="M 626.89916,503.94448 C 650.4906,505.68473 655.81024,521.9363 757.67196,523.91998 786.70252,524.48533 795.46285,539.63771 789.93637,581.92011 785.06612,619.18177 783.5659,670.0435 791.514,713.24587 738.85964,726.21891 651.38498,714.99211 659.03302,681.14384 665.54355,652.3299 668.56141,628.231 670.13331,600.37954 655.80802,603.4312 641.50801,604.55508 627.54826,603.44708 601.56216,601.38454 568.14105,565.71073 550.61764,515.72929 584.63344,515.30969 606.70501,502.45483 626.89916,503.94448 Z" fill="#fbf0da" id="path8303" />
        <path d="M 663.73589,321.25196 C 648.17806,350.90544 641.72665,375.92467 636.32234,413.27982 651.49375,375.58261 664.57266,349.29171 686.75113,318.13693 M 621.53847,318.81102 C 624.04302,355.93348 620.75913,384.13432 611.76007,424.41476 629.59633,387.39537 638.44776,355.65414 639.89454,319.7742 M 692.55972,340.19499 C 673.81014,364.50953 664.09732,388.1474 656.88146,420.03007 673.81906,387.66409 687.07738,368.82078 716.80618,344.47815 M 849.23692,463.54759 C 813.83802,489.12891 780.59116,498.30684 732.40093,501.46355 773.4575,509.60224 811.59371,508.10115 846.92909,491.82103 Z M 538.68785,466.74898 C 544.62977,474.98861 552.11874,480.95622 561.81471,486.66463 553.21047,486.35267 545.99316,484.75868 540.79868,480.66087" id="path8305" />
        <g clip-path="url(#clipPath4646)" id="g8314">
          <path d="M 544.04055,430.09553 C 552.37932,390.65445 599.68305,395.22058 601.29581,495.81787 560.82138,494.3751 543.34607,466.97423 544.04055,430.09553 Z" id="path390" fill="#ffffff" />
          <ellipse cx="535.18225" cy="478.44232" rx="22.487892" ry="51.719593" transform="matrix(0.99882109,-0.04854308,0.05707433,0.99836993,0,0)" fill="url(#linearGradient4612)" id="ellipse8308" style="fill:url(#linearGradient4612)" />
          <ellipse rx="41.573563" ry="18.075378" cx="485.20947" cy="-530.68604" transform="rotate(86.614)" id="ellipse8310" />
          <ellipse cx="617.15753" cy="358.90146" rx="7.6140184" ry="22.173344" transform="rotate(7.5701491)" fill="#ffffff" id="ellipse8312" />
        </g>
        <g clip-path="url(#clipPath4630)" id="g8323">
          <path d="M 782.97388,442.91622 C 737.48551,379.38966 660.49994,420.56413 659.00446,499.81114 715.61621,507.0373 762.16205,487.51738 782.97388,442.91622 Z" id="path388" fill="#ffffff" />
          <ellipse cx="746.46289" cy="361.18478" rx="39.618019" ry="56.277359" transform="rotate(8.2562522)" fill="url(#linearGradient4604)" id="ellipse8317" style="fill:url(#linearGradient4604)" />
          <ellipse cx="741.22174" cy="363.65689" rx="31.718103" ry="45.05558" transform="rotate(8.2562522)" id="ellipse8319" />
          <ellipse cx="810.85297" cy="175.34598" rx="14.463384" ry="24.987431" transform="rotate(20.79327)" fill="#ffffff" id="ellipse8321" />
        </g>
        <path d="M 782.97388,442.91622 C 743.02786,373.33538 654.1033,415.73793 659.00446,499.81114 668.51642,416.4323 738.75014,390.6587 782.97388,442.91622 Z" id="path8325" />
        <path d="M 601.29581,495.81787 C 604.52926,388.16901 548.6992,385.77144 544.04055,430.09553 554.19023,397.09185 593.67371,394.13304 601.29581,495.81787 Z" id="path8327" />
        <path d="M 624.79396,509.02364 C 644.26541,510.11332 647.01941,516.99674 623.42445,529.53137 601.91186,515.33466 605.01351,507.91651 624.79396,509.02364 Z" id="path8329" />
        <path d="M 595.41916,558.77797 C 593.5162,564.70314 594.61522,570.6383 598.28252,576.14715 598.96843,570.9595 600.22304,566.36622 602.37749,562.33453 M 639.34314,565.18176 C 639.65832,570.92573 642.03014,575.60973 646.96912,579.98968 646.31386,574.28338 646.90407,568.33202 648.14585,563.40689" fill="#ffffff" stroke="#b0d8e7" stroke-width="3" id="path8331" />
        <path d="M 586.30807,551.66742 C 602.64243,573.06194 640.34082,575.18912 663.28118,557.15638 638.24192,568.614 606.69975,566.50907 586.30807,551.66742 Z" fill="#ae7011" id="path8333" />
      </g>
      <path d="M 762.41817,555.14974 C 762.41817,555.14974 758.40423,557.17025 749.04713,562.40694 741.75387,566.48861 723.05391,577.17003 703.48657,585.47396 700.47968,586.75002 697.34541,587.99949 694.09586,589.19603 675.43734,596.06643 652.37468,601.405 627.86475,599.45962 623.97238,599.15068 619.65628,597.95617 614.98836,595.73206 610.51946,593.60279 605.78177,590.55404 600.89813,586.54071 591.63738,578.93029 581.95197,567.92116 573.04523,553.78616 564.6365,540.4415 556.9596,524.36056 551.28969,506.1899 545.86109,488.79258 542.26898,469.43737 541.80356,449.00021 541.19473,422.26531 545.41372,398.65742 553.38748,378.24023 561.2484,358.11205 572.75579,341.09496 586.8495,327.27861 600.77588,313.6263 617.2194,303.11045 635.07911,295.86558 652.75548,288.6951 671.77985,284.74722 690.97226,284.14946 709.99836,283.5569 729.14803,286.25964 747.19584,292.34605 765.11471,298.38898 781.93051,307.7626 796.41707,320.52923 810.82031,333.22246 822.95049,349.29606 831.55796,368.83746 840.13301,388.30522 845.23855,411.27764 845.55256,437.84957 845.84098,462.25683 844.04936,483.64177 841.367,503.51537 838.68151,523.41211 835.11012,541.74934 831.85234,560.08067 828.57094,578.54493 825.63338,596.87138 824.24833,616.62695 822.84558,636.63505 823.0557,657.86341 826.01238,681.83241 826.32347,684.35439 826.02327,686.64766 825.22231,688.77263 824.41059,690.92614 823.04202,693.01596 821.09256,695.03124 819.12674,697.06343 816.5973,698.99081 813.53954,700.78743 810.4667,702.59291 806.90813,704.23835 802.94339,705.71232 794.92478,708.69338 785.39489,710.91828 775.13951,712.38461 764.73595,713.87214 753.66122,714.56917 742.70742,714.51439 731.55479,714.45861 720.5768,713.62468 710.50599,712.07216 700.21311,710.48541 690.9738,708.16538 683.40404,705.20608 679.5608,703.70361 676.19266,702.05393 673.34691,700.28001 670.46256,698.48202 668.17014,696.59092 666.45873,694.64485 664.73301,692.6825 663.61862,690.68947 663.0428,688.67473 662.46319,686.64675 662.38655,684.45121 662.93466,682.02542 666.46406,666.40519 668.76518,653.06888 670.39229,640.9373 672.43471,625.70916 673.45332,611.94388 674.06848,600.63537 L 666.0803,600.20083 C 665.47192,611.38445 664.46826,624.92489 662.46329,639.87386 660.86715,651.77455 658.60762,664.87729 655.13138,680.26226 654.30536,683.91802 654.38085,687.47941 655.35078,690.87311 656.303,694.20479 658.07323,697.22377 660.45129,699.9279 662.79037,702.58771 665.73048,704.95926 669.1149,707.06897 672.46169,709.15522 676.28938,711.01429 680.49116,712.65693 688.74895,715.88521 698.58723,718.32926 709.2871,719.97876 719.78171,721.59661 731.15565,722.45672 742.66732,722.51429 753.97376,722.57084 765.4426,721.85246 776.27177,720.30408 786.92184,718.78131 797.03685,716.44314 805.73105,713.21092 810.03938,711.60922 814.03734,709.77366 817.5922,707.68496 821.12219,705.61087 824.26498,703.25799 826.8425,700.59346 829.41104,697.93819 831.44554,694.9441 832.70818,691.59427 833.97096,688.24409 834.41999,684.64534 833.95221,680.85306 831.06303,657.43126 830.85928,636.71986 832.22874,617.18645 833.58341,597.86418 836.46026,579.87307 839.72893,561.48047 842.9583,543.30899 846.58015,524.70057 849.29511,504.58544 852.01847,484.4081 853.84591,462.62666 853.552,437.75503 853.22638,410.20054 847.92608,386.1516 838.8792,365.61265 829.79658,344.99254 816.96666,327.97581 801.70652,314.52742 786.36887,301.01075 768.60758,291.12423 749.75229,284.76551 730.76644,278.36277 710.66405,275.53229 690.72337,276.15334 670.60755,276.77985 650.64733,280.91712 632.07205,288.45225 613.29857,296.06779 595.9608,307.14368 581.24913,321.56582 566.35163,336.17014 554.21083,354.14095 545.93568,375.32978 537.54305,396.8195 533.17498,421.48913 533.80564,449.18234 534.28964,470.43575 538.02337,490.53181 543.65285,508.57288 549.53082,527.41034 557.51044,544.13871 566.27686,558.05104 575.55829,572.78068 585.78677,584.47711 595.81887,592.72142 601.11613,597.07466 606.39734,600.50041 611.54727,602.95417 616.92795,605.51788 622.19015,607.03438 627.23177,607.43454 653.25541,609.50006 677.51677,603.82585 696.86016,596.70327 700.23885,595.45918 703.49356,594.16157 706.61181,592.83826 728.3508,583.61273 743.74429,572.03201 751.3186,565.69942 759.6559,558.72892 762.41817,555.14974 762.41817,555.14974 Z" inkscape:path-effect="#path-effect4690" inkscape:original-d="M 762.41817,555.14974 C 719.48112,588.04037 671.80476,606.95976 627.54826,603.44708 590.97391,600.54414 539.67127,531.05935 537.8046,449.09128 532.81116,229.82234 846.99758,221.61686 849.55228,437.8023 850.7179,536.44014 818.21227,585.92637 829.98229,681.34271 836.19863,731.73682 647.96248,730.13924 659.03302,681.14384 665.54355,652.3299 668.56141,628.231 670.07439,600.4181" fill="#ae7011" id="path8337" />
      <g id="g8357">
        <path d="M 788.32559,339.54531 C 745.54169,340.23904 708.27604,357.30089 674.21437,390.30106 676.20141,362.45926 681.85796,338.84233 697.95921,316.64186 654.14078,333.65651 623.42503,358.59876 596.54072,403.53267 598.70835,371.33659 605.51244,348.64445 624.3825,322.13531 535.44176,365.48353 503.82648,462.61609 517.41132,591.63518 391.37623,333.92776 569.55854,160.1179 764.44612,237.64302 756.6791,225.37531 748.89374,216.87048 735.80823,205.56722 785.78028,218.77911 828.72945,246.64112 848.52072,302.13785 Z" style="fill:#5d3513;stroke:#3c210b;stroke-width:8;stroke-miterlimit:20" id="path8339" />
        <g clip-path="url(#clipPath4680)" id="g8353">
          <path d="M 553.55486,399.48582 C 540.03869,347.27824 538.75729,292.18168 557.01291,235.18277 592.46733,259.78787 616.66244,292.52217 626.36123,340.84423" fill="#e49e34" id="path8341" />
          <path d="M 549.4752,262.73581 C 560.31999,267.99774 572.59749,263.41854 577.68361,250.87663 L 557.14998,235.68993 Z" id="path8343" />
          <path d="M 553.55486,399.48582 C 540.03869,347.27824 538.75729,292.18168 557.01291,235.18277 592.46733,259.78787 616.66244,292.52217 626.36123,340.84423" fill="none" stroke="#ae7011" stroke-width="8" id="path8345" />
          <path d="M 568.0913,380.15031 C 559.14147,346.61201 559.67121,308.36424 567.75069,273.9256 589.18086,291.69127 600.97651,315.34031 608.56411,347.33706 595.03997,353.0384 579.54857,363.11382 568.0913,380.15031 Z" fill="#fbf0da" id="path8347" />
          <path d="M 562.40294,347.40758 C 567.86003,337.55162 570.06763,328.60269 570.34999,319.02145 577.19679,325.17755 580.6307,330.18852 584.24587,337.88165 587.38335,329.0041 587.33486,320.94046 585.91419,312.94475 593.07162,317.16989 598.71172,322.73535 604.06487,330.97734" fill="none" stroke="#f5d08d" stroke-width="4" id="path8349" />
          <path d="M 568.0913,380.15031 C 559.14147,346.61201 559.67121,308.36424 567.75069,273.9256 589.18086,291.69127 600.97651,315.34031 608.56411,347.33706 595.03997,353.0384 579.54857,363.11382 568.0913,380.15031 Z" fill="none" stroke="#ae7011" stroke-width="6" id="path8351" />
        </g>
        <path d="M 630.5169,276.96468 C 584.95689,277.09401 541.9022,311.92987 526.04234,368.92147 548.41276,321.74378 587.09872,286.14236 630.5169,276.96468 Z" fill="#3c210b" id="path8355" />
      </g>
      <g id="g8371">
        <path d="M 744.29536,357.73306 C 771.82657,312.51789 812.8216,281.10491 869.15324,262.11651 871.48493,323.49057 855.44391,372.47101 819.62639,423.16057 Z" fill="#e49e34" id="path8359" />
        <path d="M 841.65805,272.32759 869.04443,262.05643 869.29312,291.49731 C 854.33825,295.41967 842.99601,286.99174 841.65805,272.32759 Z" id="path8361" />
        <path d="M 744.29536,357.73306 C 744.29536,357.73306 746.99595,354.90154 753.08441,347.88286 757.9546,342.26858 769.78945,328.38161 784.32164,315.03759 787.92741,311.72664 792.61051,307.66617 798.35636,303.26532 814.65117,290.78485 836.18647,278.07405 865.31371,267.68187 865.97005,300.29248 861.12274,325.44874 854.87751,345.4532 853.21163,350.78931 851.54106,355.44075 850.07124,359.26844 841.90756,380.52824 831.38096,400.2906 827.10222,408.47573 821.74892,418.7165 819.62639,423.16057 819.62639,423.16057 819.62639,423.16057 823.35144,419.90303 830.47241,410.63023 836.9436,402.20355 848.57013,385.49437 857.53956,362.13625 859.05976,358.17735 860.78898,353.36286 862.51402,347.83725 869.35125,325.9365 874.52699,298.20017 873.15036,261.96467 873.08336,260.20128 873.0018,258.43847 872.90567,256.67643 871.22447,257.21251 869.5477,257.76241 867.87555,258.32606 835.28968,269.31018 811.41399,283.18735 793.49191,296.91418 787.52558,301.48389 782.65978,305.70253 778.91082,309.14497 745.67154,339.66658 744.29536,357.73306 744.29536,357.73306 Z" inkscape:path-effect="#path-effect4579" inkscape:original-d="M 744.29536,357.73306 C 771.82657,312.51789 812.8216,281.10491 869.15324,262.11651 871.48493,323.49057 855.44391,372.47101 819.62639,423.16057" fill="#ae7011" id="path8363" />
        <path d="M 769.7601,364.18531 C 787.42253,336.04953 813.57134,312.85261 844.90914,299.66507 841.98639,333.0135 827.91384,365.16206 807.97422,394.90634 797.50954,379.33212 785.11159,369.14419 769.7601,364.18531 Z" fill="#fbf0da" id="path8365" />
        <path d="M 778.97513,350.95166 C 786.44862,345.15003 795.14303,342.16915 802.61787,339.97744 802.61592,347.22736 801.81019,352.87943 798.40931,360.48655 808.92569,356.93416 815.40582,351.50005 822.02936,340.79813 825.36452,352.98838 824.00859,365.00911 817.88577,379.05789" fill="none" stroke="#f5d08d" stroke-width="4" id="path8367" />
        <path d="M 769.7601,364.18531 C 787.42253,336.04953 813.57134,312.85261 844.90914,299.66507 841.98639,333.0135 827.91384,365.16206 807.97422,394.90634 797.50954,379.33212 785.11159,369.14419 769.7601,364.18531 Z" fill="none" stroke="#ae7011" stroke-width="6" id="path8369" />
      </g>
    </g>
  </g>
</svg>
