<svg xmlns="http://www.w3.org/2000/svg" xmlns:inkscape="http://www.inkscape.org/namespaces/inkscape" xmlns:xlink="http://www.w3.org/1999/xlink" height="640" viewBox="0 0 1120 640" width="1120">
  <defs>
    <linearGradient id="linearGradient1219">
      <stop offset="0" stop-color="#f5e0d3" />
      <stop offset="1" stop-color="#cde8fb" />
    </linearGradient>
    <inkscape:path-effect bendpath1="M -30.5,-28.054448 H 28" bendpath2="M 28,-28.054448 C 12.479599,-10.930605 13.071567,9.9961211 28,28.5" bendpath3="M -30.5,28.5 H 28" bendpath4="M -27.967929,-28.181308 C -43.802771,-10.988759 -44.966459,9.1074493 -29.889422,28.568636" effect="envelope" id="path-effect1160" yy="false" />
    <inkscape:path-effect effect="powerstroke" id="path-effect1219" interpolator_type="CubicBezierSmooth" offset_points="0.4,1.5 | 2,1.5" start_linecap_type="zerowidth" />
    <inkscape:path-effect effect="powerstroke" end_linecap_type="zerowidth" id="path-effect1213" interpolator_type="CubicBezierSmooth" offset_points="0.35,1.5 | 3.62,1.5" start_linecap_type="zerowidth" />
    <inkscape:path-effect effect="powerstroke" id="path-effect1161" interpolator_type="CubicBezierSmooth" offset_points="0.31,1.5" start_linecap_type="zerowidth" />
    <inkscape:path-effect effect="powerstroke" id="path-effect1159" interpolator_type="CubicBezierSmooth" offset_points="0.34,1.5 | 3,1.5" start_linecap_type="zerowidth" />
    <inkscape:path-effect effect="powerstroke" end_linecap_type="zerowidth" id="path-effect1157" interpolator_type="CubicBezierSmooth" offset_points="0.35,1.5 | 4.55,1.5" start_linecap_type="zerowidth" />
    <inkscape:path-effect effect="powerstroke" id="path-effect1132" interpolator_type="CubicBezierSmooth" offset_points="0.74,1.5 | 3,1.5" start_linecap_type="zerowidth" />
    <inkscape:path-effect effect="powerstroke" end_linecap_type="zerowidth" id="path-effect1108" interpolator_type="CubicBezierSmooth" offset_points="0.23,1.5 | 2.76,1.5" start_linecap_type="zerowidth" />
    <inkscape:path-effect effect="powerstroke" end_linecap_type="zerowidth" id="path-effect1082" interpolator_type="CubicBezierSmooth" offset_points="0.51,1.1 | 1.22,1.1" start_linecap_type="zerowidth" />
    <inkscape:path-effect effect="powerstroke" end_linecap_type="zerowidth" id="path-effect1051" interpolator_type="CubicBezierSmooth" offset_points="0.2,1.5 | 1.6,1.5" start_linecap_type="zerowidth" />
    <inkscape:path-effect effect="powerstroke" id="path-effect1037" interpolator_type="CubicBezierSmooth" offset_points="0.27,1.5" start_linecap_type="zerowidth" />
    <inkscape:path-effect effect="powerstroke" id="path-effect1011" interpolator_type="CubicBezierSmooth" offset_points="0.27,1.5" start_linecap_type="zerowidth" />
    <inkscape:path-effect effect="powerstroke" end_linecap_type="zerowidth" id="path-effect1009" interpolator_type="CubicBezierSmooth" offset_points="0.22,1.5 | 0.7,1.5" start_linecap_type="zerowidth" />
    <inkscape:path-effect effect="powerstroke" end_linecap_type="zerowidth" id="path-effect986" interpolator_type="CubicBezierSmooth" offset_points="0.56,1.5 | 4.73,1.5" start_linecap_type="zerowidth" />
    <inkscape:path-effect effect="powerstroke" id="path-effect974" interpolator_type="CubicBezierSmooth" offset_points="0.18,1.5 | 6,1.5" start_linecap_type="zerowidth" />
    <inkscape:path-effect effect="powerstroke" end_linecap_type="zerowidth" id="path-effect1606" interpolator_type="CubicBezierSmooth" offset_points="0.64,1.5 | 3,1.3 | 4,1.5 | 2,1.5 | 5.59,1.5" start_linecap_type="zerowidth" />
    <inkscape:path-effect effect="powerstroke" end_linecap_type="zerowidth" id="path-effect1560" interpolator_type="CubicBezierSmooth" offset_points="0.34,1.1 | 1.45,1.1" start_linecap_type="zerowidth" />
    <linearGradient id="linearGradient2410">
      <stop offset="0" stop-color="#867168" />
      <stop offset="1" stop-color="#b39986" />
    </linearGradient>
    <inkscape:path-effect effect="powerstroke" end_linecap_type="zerowidth" id="path-effect2344" interpolator_type="CubicBezierSmooth" offset_points="0.2,1.5 | 1.61,1.5" start_linecap_type="zerowidth" />
    <linearGradient id="linearGradient1198">
      <stop offset="0" stop-color="#51371c" />
      <stop offset="1" stop-color="#754e29" />
    </linearGradient>
    <inkscape:path-effect effect="powerstroke" id="path-effect967" interpolator_type="CubicBezierSmooth" offset_points="0.72,1.5 | 5,1.5" start_linecap_type="zerowidth" />
    <inkscape:path-effect effect="powerstroke" id="path-effect961" interpolator_type="CubicBezierSmooth" offset_points="0.22,1.5" start_linecap_type="zerowidth" />
    <inkscape:path-effect effect="powerstroke" id="path-effect949" interpolator_type="CubicBezierSmooth" offset_points="0.51,1.5 | 6.8,1.5" start_linecap_type="zerowidth" />
    <inkscape:path-effect effect="powerstroke" end_linecap_type="zerowidth" id="path-effect907" interpolator_type="CubicBezierSmooth" offset_points="0.33,1.5 | 2.64,1.5" start_linecap_type="zerowidth" />
    <inkscape:path-effect effect="powerstroke" id="path-effect886" interpolator_type="CubicBezierSmooth" offset_points="6,1.25 | 7,1.5" />
    <inkscape:path-effect effect="powerstroke" id="path-effect884" interpolator_type="CubicBezierSmooth" offset_points="0.62,1.25 | 6,1.25 | 7,1.5 | 11,1.5" start_linecap_type="zerowidth" />
    <inkscape:path-effect effect="powerstroke" end_linecap_type="zerowidth" id="path-effect910" interpolator_type="CubicBezierSmooth" offset_points="0.2,1.5 | 0.77,1.5" start_linecap_type="zerowidth" />
    <linearGradient id="linearGradient870">
      <stop offset="0" stop-color="#b9b1bd" />
      <stop offset="1" stop-color="#edebee" />
    </linearGradient>
    <inkscape:path-effect effect="powerstroke" end_linecap_type="zerowidth" id="path-effect1509" interpolator_type="CubicBezierSmooth" offset_points="0.63,1.5 | 2,1.5" start_linecap_type="zerowidth" />
    <linearGradient gradientUnits="userSpaceOnUse" id="linearGradient872" x1="376.72202" x2="377.97766" y1="252.67278" y2="272.88513" xlink:href="#linearGradient1198" />
    <linearGradient gradientTransform="translate(0.28965549,0.54204899)" gradientUnits="userSpaceOnUse" id="linearGradient880" x1="425.31277" x2="424.91904" y1="240.77013" y2="259.33194" xlink:href="#linearGradient1198" />
    <clipPath id="clipPath891">
      <use xlink:href="#path1521" />
    </clipPath>
    <clipPath id="clipPath971">
      <use xlink:href="#path936" />
    </clipPath>
    <clipPath id="clipPath888">
      <path d="M 342.32872,227.24898 C 348.6793,214.8576 356.47821,207.98779 363.48005,214.97651 368.10786,218.14396 370.51055,234.39966 370.51055,234.39966 L 351.6365,261.74559 C 351.6365,261.74559 322.02515,251.88526 342.32872,227.24898 Z" />
    </clipPath>
    <clipPath id="clipPath874">
      <path d="M 336.83752,227.64361 C 352.56558,229.89988 350.26023,205.48728 367.50786,217.24143 368.36577,192.46923 339.84021,185.92766 336.83752,227.64361 Z" />
    </clipPath>
    <clipPath id="clipPath1047">
      <path d="M 372.24012,579.93558 C 390.27818,566.48902 393.35871,596.72621 422.21962,597.7101 L 420.45095,762.28404 320.42167,764.25183 334.52416,651.10396 Z M 283.36164,603.87701 C 275.49048,620.27526 285.65739,622.89897 300.74378,618.9634 315.83016,615.02782 292.54466,648.48023 313.20644,645.85651 L 306.64714,752.11713 224.65593,727.84773 235.47877,608.46852 Z" />
    </clipPath>
    <clipPath id="clipPath1066">
      <path d="M 280.63917,613.80416 C 276.63836,633.72182 289.01744,642.26977 304.76055,642.46432 L 342.29352,639.73147 367.80319,588.2483 380.82176,576.49496 C 385.76866,598.87555 398.08803,603.33146 414.22996,596.59399 L 432.27311,605.87317 448.04273,543.2585 298.92706,537.46084 Z" />
    </clipPath>
    <clipPath id="clipPath1097">
      <path d="M 511.03404,467.54112 C 535.15228,477.51308 538.49271,485.79917 524.83246,488.64458 514.95938,490.70113 529.00677,501.16751 524.71651,513.57449 L 555.57247,525.82138 568.03514,466.62372 Z" />
    </clipPath>
    <clipPath id="clipPath1107">
      <path d="M 516.20751,469.79907 C 551.97452,476.44981 542.81352,502.76045 525.33958,511.13873 L 412.41581,509.7511 407.00439,399.55491 462.59443,382.99268 Z" />
    </clipPath>
    <linearGradient gradientUnits="userSpaceOnUse" id="linearGradient2412" x1="621.44373" x2="619.87549" y1="598.01544" y2="622.07135" xlink:href="#linearGradient2410" />
    <linearGradient gradientUnits="userSpaceOnUse" id="linearGradient1506" x1="505.35654" x2="525.01007" y1="-743.02106" y2="-743.04517" xlink:href="#linearGradient2410" />
    <clipPath id="clipPath1521">
      <use xlink:href="#path2319" />
    </clipPath>
    <clipPath id="clipPath1534">
      <use xlink:href="#path2317" />
    </clipPath>
    <clipPath id="clipPath996">
      <path d="M 750.89644,513.97856 C 752.82153,506.01805 760.19854,504.13055 763.76982,499.57174 769.15172,492.70165 769.42132,486.17544 784.64644,492.91606 L 883.35315,504.63007 875.04464,569.86067 757.84169,540.33896 Z" />
    </clipPath>
    <clipPath id="clipPath1000">
      <path d="M 752.58985,509.92732 C 765.74074,508.34444 776.90321,502.50414 781.48832,491.62655 L 774.28193,458.66813 733.5349,470.15861 743.69956,504.63007 Z" />
    </clipPath>
    <clipPath id="clipPath1027">
      <path d="M 800.81907,447.06768 C 777.17364,445.1388 777.23958,460.92953 757.68804,462.40982 742.9417,463.52631 745.52871,441.6478 740.66584,442.7902 734.03431,444.3481 723.14453,467.65841 713.41006,437.23074 636.18311,471.44735 622.27121,531.73486 640.98069,605.4547 665.95842,606.44718 685.38252,585.74993 682.35054,568.62172 675.51782,530.0224 723.59075,520.67509 717.97071,546.70477 712.35066,572.73444 720.5425,592.94102 742.29264,600.11901 785.35821,560.12847 802.0276,507.78227 800.81907,447.06768 Z" />
    </clipPath>
    <clipPath id="clipPath1033">
      <path d="M 653.59563,604.09174 684.47937,525.48972 732.0323,489.42727 722.30782,452.13 679,300.5 897,289.5 839.5,449 778.55106,452.86566 722.87738,585.95394 701.75,640.5 643.25,634.25 Z" />
    </clipPath>
    <clipPath id="clipPath1061">
      <path d="M 685.34548,583.86461 C 719.10983,582.09684 708.98546,638.27325 730.02189,645.16754 L 777.11035,525.13616 656.54865,532.91434 Z" />
    </clipPath>
    <clipPath id="clipPath1065">
      <path d="M 688.74882,583.88848 709.62652,579.33153 721.37652,631.62195 724.58675,641.74413 812.55668,752.02541 675.02441,743.36335 Z" />
    </clipPath>
    <linearGradient gradientTransform="matrix(1.1818192,0,0,1.1818192,68.705403,-97.487701)" gradientUnits="userSpaceOnUse" id="linearGradient2412-3" x1="621.56097" x2="619.73279" y1="597.66034" y2="621.78796" xlink:href="#linearGradient870" />
    <clipPath id="clipPath1073">
      <use xlink:href="#path183" />
    </clipPath>
    <clipPath id="A">
      <path inkscape:original-d="M -12.6,-3.9 C -26,6.5 -31.3,-14.8 -18,-18.1 -15.9,-24.2 -10.1,-27.8 -3.4,-25.1 1.4,-29.8 8.4,-29.1 10.5,-21.5 39.6,-20.3 22.4,9 2.5,-4.1 -2.4,-0.5 -7.5,-0.5 -12.6,-3.9 Z" />
    </clipPath>
    <linearGradient gradientUnits="userSpaceOnUse" id="linearGradient1221" x1="146.89714" x2="1007.4966" y1="320" y2="320" xlink:href="#linearGradient1219" />
  </defs>
  <rect fill="url(#linearGradient1221)" height="640" width="1120" />
  <use transform="translate(729.91185)" xlink:href="#path1205" />
  <use transform="translate(384.95592)" xlink:href="#path1205" />
  <ellipse cx="180.23305" cy="590.79071" id="path1205" opacity=".25" rx="125.54573" ry="24.218115" />
  <g transform="translate(-150.83192-150.66384)">
    <path d="M 386.57409,482.52949 C 361.48018,429.55345 289.75963,423.46192 260.80511,486.94737 270.45661,476.65243 277.8706,472.62791 287.73658,469.19626 268.86253,494.93361 278.82125,587.32303 220.48326,612.63142 342.30671,614.34724 319.99832,494.80528 378.3363,493.08946 Z" style="fill:#9234b4;stroke:#67257f;stroke-width:3;stroke-miterlimit:20" />
    <g>
      <path d="M 420.5451,371.96062 C 420.73006,404.67604 422.92614,444.76963 428.03863,480.03051 429.7306,491.70004 432.97404,496.37718 443.42562,497.12232 485.01191,500.32337 510.48483,506.04838 541.06244,513.24305 554.21449,516.33762 563.70185,475.53438 547.53771,473.3003 512.6534,468.47886 488.48923,474.77433 453.72496,468.21503 455.12185,437.27212 454.11422,406.06093 451.95961,376.16289 450.40819,354.63487 440.31743,338.83492 426.15815,337.61336 419.54998,337.04326 411.08843,335.41319 402.93616,331.83072" style="clip-path:url(#clipPath1107);fill:#efcfbb;stroke:#e5b08f;stroke-width:3;stroke-miterlimit:20" />
      <path d="M 456.96188,399.30792 C 457.00336,400.33044 457.0406,401.36985 457.07351,402.42645 444.42867,407.92918 432.30893,408.48193 417.44637,404.08383 418.8113,392.59903 418.93367,381.08301 418.0174,369.27409 L 429.49024,355.6464 Z" fill="#e2d469" />
      <path d="M 456.96188,399.30792 C 457.00336,400.33044 457.0406,401.36985 457.07351,402.42645 444.42867,407.92918 432.30893,408.48193 417.44637,404.08383 418.8113,392.59903 418.93367,381.08301 418.0174,369.27409" style="fill:none;stroke:#c6b53d;stroke-width:3;stroke-miterlimit:20" />
      <path d="M 420.5451,371.96062 C 420.73006,404.67604 422.92614,444.76963 428.03863,480.03051 429.7306,491.70004 432.97404,496.37718 443.42562,497.12232 485.01191,500.32337 510.48483,506.04838 541.06244,513.24305 554.21449,516.33762 563.70185,475.53438 547.53771,473.3003 512.6534,468.47886 488.48923,474.77433 453.72496,468.21503 455.12185,437.27212 454.11422,406.06093 451.95961,376.16289 450.40819,354.63487 440.31743,338.83492 426.15815,337.61336 419.54998,337.04326 411.08843,335.41319 402.93616,331.83072" style="clip-path:url(#clipPath1097);fill:#0b5080;stroke:#083757;stroke-width:3;stroke-miterlimit:20" />
    </g>
    <g>
      <path d="M 374.5768,554.50981 C 368.77342,575.20276 360.2186,594.93841 347.30295,615.96504 329.62026,628.58884 312.18164,637.75433 293.11048,646.13146 288.93169,670.65036 289.66393,692.66505 291.32967,714.47573 292.51613,730.0106 243.26276,731.37217 243.80895,713.26713 244.71862,683.1218 250.86221,654.03308 263.90538,623.80603 284.68491,613.95509 304.68688,602.93781 323.00066,589.38825 322.82703,578.0436 323.78893,565.08427 325.60434,552.42427 Z M 382.74805,558.45372 C 382.87706,568.97594 382.53304,579.05773 381.36464,589.47207 374.98045,599.43234 368.53885,607.6053 357.7512,616.30918 362.0846,658.11305 357.12612,696.02918 348.28786,740.46278 345.48056,757.71019 401.39664,757.84524 402.00631,743.00854 403.76309,700.26117 401.34282,666.10768 389.48471,625.75737 408.2647,610.01765 420.03391,585.27579 426.00637,560.82486 Z" style="clip-path:url(#clipPath1066);fill:#efcfbb;stroke:#e5b08f;stroke-width:3;stroke-miterlimit:20" />
      <path d="M 374.5768,554.50981 C 368.77342,575.20276 360.2186,594.93841 347.30295,615.96504 329.62026,628.58884 312.18164,637.75433 293.11048,646.13146 288.93169,670.65036 289.66393,692.66505 291.32967,714.47573 292.51613,730.0106 243.26276,731.37217 243.80895,713.26713 244.71862,683.1218 250.86221,654.03308 263.90538,623.80603 284.68491,613.95509 304.68688,602.93781 323.00066,589.38825 322.82703,578.0436 323.78893,565.08427 325.60434,552.42427 Z M 382.74805,558.45372 C 382.87706,568.97594 382.53304,579.05773 381.36464,589.47207 374.98045,599.43234 368.53885,607.6053 357.7512,616.30918 362.0846,658.11305 357.12612,696.02918 348.28786,740.46278 345.48056,757.71019 401.39664,757.84524 402.00631,743.00854 403.76309,700.26117 401.34282,666.10768 389.48471,625.75737 408.2647,610.01765 420.03391,585.27579 426.00637,560.82486 Z" style="clip-path:url(#clipPath1047);fill:#0b5080;stroke:#083757;stroke-width:3;stroke-miterlimit:20" />
      <path d="M 374.57698,560.89802 C 358.19944,565.0433 338.91111,563.31834 321.08637,557.55527 327.69425,510.13398 340.96701,501.96491 346.03391,478.32431 371.75613,485.57857 399.17472,486.6535 425.02321,480.82301 429.5846,501.3209 438.02038,509.29481 429.59777,563.49647 412.55696,569.26836 398.27372,567.66245 380.68321,561.34086 381.31173,553.05774 381.08837,547.25126 380.59532,537.77936 379.19464,545.58494 377.39781,553.45386 374.57698,560.89802 Z" fill="#d5edf2" />
      <path fill="#a6ced6" inkscape:original-d="M 383.53206,519.47456 C 381.38208,532.99018 379.60852,547.61982 374.57698,560.89802 358.19944,565.0433 338.91111,563.31834 321.08637,557.55527 327.69425,510.13398 340.96701,501.96491 346.03391,478.32431 371.75613,485.57857 399.17472,486.6535 425.02321,480.82301 429.5846,501.3209 438.02038,509.29481 429.59777,563.49647 412.55696,569.26836 398.27372,567.66245 380.68321,561.34086 381.31173,553.05774 381.08837,547.25126 380.58276,537.83303" inkscape:path-effect="#path-effect949" />
    </g>
    <g>
      <path d="M 422.38831,369.7203 C 433.05599,401.72335 422.53306,444.24935 428.79453,482.74577 403.28484,489.23914 376.91991,490.23913 342.13398,482.12241 351.64214,447.10459 332.49586,403.65097 341.7721,369.79267 L 348.1346,362.54788 419.47156,361.95632 Z" fill="#e2d469" />
      <path fill="#c6b53d" inkscape:original-d="M 422.38831,369.7203 C 433.05599,401.72335 422.53306,444.24935 428.79453,482.74577 403.28484,489.23914 376.91991,490.23913 342.13398,482.12241 351.64214,447.10459 332.49586,403.65097 341.7721,369.79267" inkscape:path-effect="#path-effect961" />
    </g>
    <g>
      <path d="M 458.91428,487.43813 C 464.74428,485.78194 469.47786,484.71388 474.29157,484.54328 478.92422,484.87255 482.81129,485.86233 485.92769,487.90712 488.93844,489.88258 491.30644,486.57616 488.60624,484.17255 485.5352,481.43885 480.76156,479.79424 475.32269,478.71375 469.13361,478.54314 463.55641,479.55161 458.52167,481.511 Z" style="fill:#efcfbb;stroke:#e5b08f;stroke-width:2.5;stroke-miterlimit:20" />
      <path d="M 474.93329,479.63435 C 481.88727,479.08345 488.63453,479.05162 495.43077,480.58061 499.05562,484.44092 503.73115,490.43751 508.92907,492.08562 514.26082,493.77616 513.62312,490.7625 511.15138,488.33637 507.72815,484.97631 501.63731,477.26364 499.89995,475.6114 497.1656,473.01104 487.47117,471.72516 476.9335,470.63356 466.81254,474.7599 457.7137,475.56126 443.63531,476.23806 421.15064,477.31899 384.35369,473.45431 355.735,472.53657 352.55298,439.95699 353.64277,411.58889 345.23225,367.86577 L 374.76038,334.54293 329.53868,357.50165 339.04683,488.76054 445.95558,486.44148 Z" fill="#efcfbb" />
      <path fill="#e5b08f" inkscape:original-d="M 474.93329,479.63435 C 481.88727,479.08345 488.63453,479.05162 495.43077,480.58061 499.05562,484.44092 503.73115,490.43751 508.92907,492.08562 514.26082,493.77616 513.62312,490.7625 511.15138,488.33637 507.72815,484.97631 501.63731,477.26364 499.89995,475.6114 497.1656,473.01104 487.47117,471.72516 476.9335,470.63356 466.81254,474.7599 457.7137,475.56126 443.63531,476.23806 421.15064,477.31899 384.35369,473.45431 355.735,472.53657 352.55298,439.95699 353.64277,411.58889 345.23225,367.86577" inkscape:path-effect="#path-effect886" />
      <path d="M 474.61154,479.28558 C 480.63298,479.39274 486.51252,480.27083 492.22486,482.15218 495.8519,486.7109 500.92473,491.63216 505.25352,493.48236 508.41607,494.8341 509.68408,492.46246 507.47615,490.44633 503.3476,486.67639 500.14189,482.78267 496.47999,478.25546 494.43121,475.72254 485.73955,474.4365 477.31109,474.73012" style="fill:#efcfbb;stroke:#e5b08f;stroke-width:2.5;stroke-miterlimit:20" />
      <path d="M 476.11227,472.99037 C 485.13842,475.69125 490.44863,478.35976 491.93807,480.83146 492.88437,482.40201 495.78064,489.35716 497.61522,492.53474 499.11284,495.12869 497.45432,496.94802 494.59589,495.17991 491.03027,492.97437 488.70614,487.69773 486.8238,484.10834 482.02233,481.69813 478.10885,480.68136 472.72443,479.8157 466.02338,485.87441 461.57829,488.95007 445.25461,491.65636 422.2868,495.46417 380.1216,500.59769 348.74577,500.79028 339.10483,500.84946 333.19592,496.97026 330.60761,487.31059 318.95744,443.83153 313.79064,421.34135 314.38164,371.78196 314.63127,350.84851 326.79785,334.99615 346.41834,334.76665 359.67399,334.6116 370.66786,332.04828 378.85418,326.9824 L 415.71739,342.2943 407.95546,359.90492 337.47584,362.33089 346.49488,480.56222 454.88726,480.07028 Z" fill="#efcfbb" />
      <path fill="#e5b08f" inkscape:original-d="M 476.11227,472.99037 C 485.13842,475.69125 490.44863,478.35976 491.93807,480.83146 492.88437,482.40201 495.78064,489.35716 497.61522,492.53474 499.11284,495.12869 497.45432,496.94802 494.59589,495.17991 491.03027,492.97437 488.70614,487.69773 486.8238,484.10834 482.02233,481.69813 478.10885,480.68136 472.72443,479.8157 466.02338,485.87441 461.57829,488.95007 445.25461,491.65636 422.2868,495.46417 380.1216,500.59769 348.74577,500.79028 339.10483,500.84946 333.19592,496.97026 330.60761,487.31059 318.95744,443.83153 313.79064,421.34135 314.38164,371.78196 314.63127,350.84851 326.79785,334.99615 346.41834,334.76665 359.67399,334.6116 370.66786,332.04828 378.85418,326.9824" inkscape:path-effect="#path-effect884" />
    </g>
    <g>
      <path d="M 360.03095,340.55343 C 373.11495,327.66695 375.99623,309.57482 370.74681,290.33314 L 411.47549,290.19994 C 404.42709,308.91998 404.35937,328.32304 412.66788,341.58129 Z" fill="#efcfbb" />
      <path fill="#e5b08f" inkscape:original-d="M 360.03095,340.55343 C 373.11495,327.66695 375.99623,309.57482 370.74681,290.33314 L 411.47549,290.19994 C 404.42709,308.91998 404.35937,328.32304 412.66788,341.58129" inkscape:path-effect="#path-effect907" />
      <path d="M 347.18403,252.58253 C 347.18403,196.35219 437.07428,198.01994 433.51287,253.94138 432.6306,267.79482 430.84679,278.41744 427.26153,290.38443 418.24024,302.17296 408.59139,309.29666 394.3131,314.11299 375.44213,310.67879 364.49502,304.00199 353.87536,290.37458 348.71916,277.60444 347.18403,263.54288 347.18403,252.58253 Z" fill="#efcfbb" stroke="#e5b08f" stroke-width="3" />
      <g>
        <g clip-path="url(#clipPath891)">
          <path d="M 357.80808,249.38374 C 368.91216,242.26588 382.60103,241.63198 394.23907,248.30948 L 394.5243,265.61633 C 384.31754,273.68464 369.89254,273.97319 358.6434,266.30369 Z" fill="#fff" id="path1521" />
          <ellipse cx="381.91705" cy="261.71002" fill="url(#linearGradient872)" rx="10.374663" ry="14.618209" />
          <ellipse cx="262.22644" cy="-382.82236" rx="11.196362" ry="7.9461474" transform="rotate(90)" />
          <ellipse cx="444.42078" cy="107.85648" fill="#fff" rx="4.2182221" ry="6.1837935" transform="rotate(20.466237)" />
          <ellipse cx="453.74191" cy="101.77923" fill="#fff" rx="1.4295884" ry="2.012013" transform="rotate(22.001694)" />
        </g>
        <path d="M 399.25017,259.5413 C 405.74086,248.24239 408.53094,262.81167 403.31603,274.39054 398.10112,285.96941 410.12714,310.24848 395.63145,309.71815 381.13576,309.18782 380.24667,296.31085 390.6765,289.68172 401.10632,283.0526 392.64073,271.04692 399.25017,259.5413 Z" fill="#0b5080" />
        <path d="M 402.22571,258.21079 C 403.96918,271.79347 408.5353,275.8485 412.34539,278.38846 L 410.13481,302.58672 C 405.46115,305.25144 400.72989,306.5761 395.06847,307.44508 Z" fill="#0b5080" />
        <path fill="#083757" inkscape:original-d="M 402.22571,258.21079 C 403.96918,271.79347 408.5353,275.8485 412.34539,278.38846 L 410.13481,302.58672 C 405.46115,305.25144 400.72989,306.5761 395.06847,307.44508" inkscape:path-effect="#path-effect1509" />
        <path d="M 404.18804,280.39529 C 405.07665,281.88826 405.92155,281.94432 407.13516,280.81905 406.18529,283.34092 404.39764,283.24681 404.18804,280.39529 Z M 398.71148,294.19893 C 402.40491,296.98096 406.21104,298.25723 410.60574,297.28398 L 410.24694,299.06955 C 405.63082,299.80859 401.26019,298.14785 398.71148,294.19893 Z" fill="#083757" />
        <g clip-path="url(#clipPath971)">
          <path d="M 408.23552,265.73598 408.60077,248.71274 C 415.35105,244.22805 422.21865,244.49716 427.71457,249.10315 L 426.75135,265.39195 C 420.98271,269.77751 415.00806,269.91819 408.23552,265.73598 Z" fill="#fff" id="path936" />
          <ellipse cx="422.7471" cy="250.14966" fill="url(#linearGradient880)" rx="6.035028" ry="13.256622" transform="rotate(1.5537216)" />
          <ellipse cx="422.53345" cy="250.56801" rx="4.5158696" ry="9.9196463" transform="rotate(1.5537216)" />
          <ellipse cx="151.49903" cy="-462.6885" fill="#fff" rx="5.4464841" ry="1.9485226" transform="rotate(-76.22467)scale(-1)" />
          <ellipse cx="154.75926" cy="-466.93985" fill="#fff" rx="1.6937422" ry=".75354014" transform="rotate(-75.85488)scale(-1)" />
        </g>
        <path d="M 355.68065,250.56935 C 368.34626,240.08103 384.55378,240.75148 396.25,249.25621 381.28802,243.35673 371.37733,243.18814 355.68065,250.56935 Z" />
        <path d="M 407.02111,249.60518 C 414.99182,242.90566 423.36748,243.6308 429.31114,250.1929 421.47787,245.24557 415.7938,245.2787 407.02111,249.60518 Z" />
      </g>
      <path d="M 350.26772,215.76823 C 334.14378,242.31289 333.0031,263.08864 346.84791,290.45245 345.84383,271.60869 347.4342,253.39654 351.55295,236.5556 Z M 354.94539,225.48164 C 367.17831,221.3293 371.65126,228.94069 364.67782,239.99051 395.36758,232.97937 417.82103,234.9585 438.89145,244.1399 452.5938,203.76004 397.73899,178.05217 353.77573,214.30751" style="fill:#9234b4;stroke:#67257f;stroke-width:3;stroke-miterlimit:20" />
      <g clip-path="url(#clipPath888)">
        <path d="M 350.75,255.625 C 329.5,216.75 363.5,182.30178 363.75,229.30178 Z" fill="#efcfbb" />
        <path fill="#e5b08f" inkscape:original-d="M 350.75,255.625 C 329.5,216.75 363.5,182.30178 363.75,229.30178" inkscape:path-effect="#path-effect910" />
        <path d="M 351.10177,238.63974 C 345.53602,219.8124 355.69843,216.39321 358.58437,222.7148 355.0113,219.00431 348.00969,221.04923 351.10177,238.63974 Z" fill="#e5b08f" />
      </g>
      <g clip-path="url(#clipPath874)">
        <path d="M 350.75,255.625 C 329.5,216.75 363.5,182.30178 363.75,229.30178 Z" fill="#0b5080" />
        <path fill="#083757" inkscape:original-d="M 350.75,255.625 C 329.5,216.75 363.5,182.30178 363.75,229.30178" inkscape:path-effect="#path-effect910" />
      </g>
    </g>
    <path d="M 457.07351,402.42645 C 454.72949,327.1729 430.44061,339.09713 412.82792,332.05634 406.33409,360.05771 370.23998,360.85638 361.62314,330.10683 335.24236,337.82804 304.70069,324.80209 313.19989,407.27167 329.80872,410.33899 342.7754,410.00022 354.02939,403.17622 352.74642,391.07037 350.67402,378.9229 348.31477,367.55557 L 425.4703,367.47433 Z" fill="#e2d469" />
    <path fill="#c6b53d" inkscape:original-d="M 348.31477,367.55557 C 350.67402,378.9229 352.74642,391.07037 354.02939,403.17622 342.7754,410.00022 329.80872,410.33899 313.19989,407.27167 304.70069,324.80209 335.24236,337.82804 361.62314,330.10683 370.23998,360.85638 406.33409,360.05771 412.82792,332.05634 430.44061,339.09713 454.72949,327.1729 457.07351,402.42645" inkscape:path-effect="#path-effect967" />
  </g>
  <g transform="translate(-126.83192-139.66384)">
    <path d="M 665.95796,535.39644 C 634.20245,486.12424 565.29782,488.09719 544.82548,554.80284 553.05955,544.40337 559.12618,540.39017 567.22598,535.70741 551.85098,563.67618 575.82419,642.10326 525.15225,678.65632 647.9363,669.14694 594.82031,555.49972 659.16004,545.87536 Z" style="fill:#9234b4;stroke:#67257f;stroke-width:3;stroke-miterlimit:20" />
    <g>
      <path d="M 689.07556,571.98199 731.26229,559.39096 C 739.1386,580.10563 734.75887,600.45608 726.18158,620.11529 716.54275,642.20754 728.35088,680.33968 760.55325,716.84947 771.71623,729.50563 713.69901,734.55638 706.71638,717.52906 692.48346,682.82175 684.94036,658.85541 690.8824,621.80426 691.47917,618.0831 694.45785,617.19091 699.26009,617.80641 700.57994,602.12732 687.20253,586.34193 689.07556,571.98199 Z" fill="#0b5080" />
      <path clip-path="url(#clipPath1065)" fill="#083757" inkscape:original-d="M 698.03051,624.015 C 704.39448,606.33733 686.95424,588.24545 689.07556,571.98199 L 731.26229,559.39096 C 739.1386,580.10563 734.75887,600.45608 726.18158,620.11529 716.54275,642.20754 728.35088,680.33968 760.55325,716.84947 771.71623,729.50563 713.69901,734.55638 706.71638,717.52906 692.48346,682.82175 684.94036,658.85541 690.8824,621.80426 691.47917,618.0831 694.45785,617.19091 699.16386,617.81838" inkscape:path-effect="#path-effect1037" />
      <path d="M 698.03051,624.015 C 704.39448,606.33733 686.95424,588.24545 689.07556,571.98199 L 731.26229,559.39096 C 739.1386,580.10563 734.75887,600.45608 726.18158,620.11529 716.54275,642.20754 728.35088,680.33968 760.55325,716.84947 724.3438,727.8206 679.26918,697.81704 698.03051,624.015 Z" style="clip-path:url(#clipPath1061);fill:#efcfbb;stroke:#e5b08f;stroke-width:3" />
    </g>
    <g>
      <path d="M 856.99907,417.45868 C 873.3869,411.74806 877.85929,459.64483 859.22733,465.08807 839.25857,470.92185 822.06461,483.92192 809.10847,502.2922 800.51596,514.47538 776.99648,507.81165 755.81665,480.00718 L 772.13492,463.09145 C 779.83614,468.66513 786.59993,471.56265 794.88816,473.58597 808.1278,448.50008 828.86786,427.26148 856.99907,417.45868 Z" fill="#0b5080" />
      <path fill="#083757" inkscape:original-d="M 791.5947,480.35687 C 804.48728,452.37926 826.35905,428.13572 856.99907,417.45868 873.3869,411.74806 877.85929,459.64483 859.22733,465.08807 839.25857,470.92185 822.06461,483.92192 809.10847,502.2922 800.51596,514.47538 776.99648,507.81165 755.81665,480.00718 L 772.13492,463.09145 C 779.83614,468.66513 786.59993,471.56265 794.8342,473.60701" inkscape:path-effect="#path-effect974" />
    </g>
    <path d="M 656.51863,616.85521 C 650.03055,615.48447 647.13083,617.50342 645.35625,621.66047 628.97429,660.03614 624.82908,691.88322 624.69757,732.23775 624.63948,750.06417 687.5383,748.54401 679.55304,731.25789 666.28709,702.54036 666.62927,658.75747 680.4628,624.40834 Z" fill="#0b5080" stroke="#083757" stroke-width="3" />
    <path d="M 671.80242,633.9764 C 683.83623,624.52164 691.39429,613.14097 695.61672,600.81624 743.91736,576.42879 787.3167,532.86832 775.31635,432.27719 L 825.22367,392.44938 C 829.02948,315.91724 721.13088,317.02684 725.66792,385.51106 731.2792,470.21026 712.12583,506.461 676.25385,521.91923 655.59658,530.82102 647.43106,549.05187 648.40024,572.75182 649.28477,594.38172 659.08328,602.86661 655.76787,623.41304 Z" fill="#0b5080" />
    <path fill="#083757" inkscape:original-d="M 671.80242,633.9764 C 696.01516,614.95286 702.10834,588.1325 699.80626,561.78844" inkscape:path-effect="#path-effect1009" />
    <path clip-path="url(#clipPath1033)" fill="#083757" inkscape:original-d="M 655.76787,623.41304 C 659.08328,602.86661 649.28477,594.38172 648.40024,572.75182 647.43106,549.05187 655.59658,530.82102 676.25385,521.91923 712.12583,506.461 731.2792,470.21026 725.66792,385.51106 721.13088,317.02684 829.02948,315.91724 825.22367,392.44938 L 775.31635,432.27719 C 787.3167,532.86832 743.91736,576.42879 695.56303,600.78243" inkscape:path-effect="#path-effect1011" />
    <g>
      <g clip-path="url(#clipPath1521)">
        <ellipse cx="734.25604" cy="525.79962" fill="#fff" id="path2319" rx="3.5338621" ry="15.717892" transform="rotate(-10.944646)" />
        <ellipse cx="515.1106" cy="-742.01489" fill="url(#linearGradient1506)" rx="12.783787" ry="3.3101821" transform="rotate(80.059963)" />
        <ellipse cx="515.31049" cy="-741.70386" rx="10.253888" ry="2.6511467" transform="rotate(80.061508)" />
        <ellipse cx="429.35928" cy="-792.31238" fill="#fff" rx="4.9824038" ry="1.2464377" transform="rotate(86.129843)" />
        <ellipse cx="412.81454" cy="-806.25104" fill="#fff" rx="1.6499877" ry="0.44240561" transform="rotate(87.771524)" />
      </g>
      <path d="M 828.24417,415.32558 823.45741,427.3687 801.30233,420.54013 811.48312,420.60221 801.79895,418.92611 803.16467,409.80065 Z" style="fill:#fff;stroke:#b0d8e7;stroke-width:1.39999998;stroke-miterlimit:20" />
      <path d="M 817.65361,379.39575 C 823.54661,391.49167 828.34719,396.14682 836.57298,401.46762 L 829.76708,416.64238 C 822.00893,418.24032 814.31532,418.15075 805.62981,416.38174 810.73285,422.82836 817.21183,425.57043 826.07095,424.84656 L 822.5507,432.07278 C 791.21164,437.08638 764.673,434.85217 749.29183,424.79526 Z" fill="#0b5080" />
      <path d="M 833.94537,404.22051 C 833.5355,406.02132 832.4249,406.19407 831.17349,405.16931 832.35684,407.91375 834.43282,407.26853 833.94537,404.22051 Z M 814.76852,404.89073 C 815.39599,406.77313 816.78817,407.08687 818.19997,405.7012 816.81431,408.96927 814.48094,408.3418 814.76852,404.89073 Z" fill="#083757" />
      <path fill="#083757" inkscape:original-d="M 817.65361,379.39575 C 823.54661,391.49167 828.34719,396.14682 836.57298,401.46762 L 829.76708,416.64238 C 822.00893,418.24032 814.31532,418.15075 805.62981,416.38174 810.73285,422.82836 817.21183,425.57043 826.07095,424.84656 L 822.5507,432.07278 C 791.21164,437.08638 764.673,434.85217 749.29183,424.79526" inkscape:path-effect="#path-effect1606" />
      <g clip-path="url(#clipPath1534)">
        <ellipse cx="403.00461" cy="765.92505" fill="#fff" id="path2317" rx="18.596333" ry="23.596544" transform="rotate(-35.260431)" />
        <ellipse cx="626.15741" cy="610.23383" fill="url(#linearGradient2412)" rx="12.651608" ry="16.715654" transform="rotate(-17.603265)" />
        <ellipse cx="627.35895" cy="610.92255" rx="10.132741" ry="13.38766" transform="rotate(-17.603265)" />
        <ellipse cx="808.65277" cy="312.90201" fill="#fff" rx="4.3433166" ry="6.7175145" transform="rotate(5.4247168)" />
        <ellipse cx="839.59094" cy="249.36031" fill="#fff" rx="1.5431942" ry="2.2520647" transform="rotate(10.245701)" />
      </g>
      <path inkscape:original-d="M 767.16393,412.86176 C 750.57708,405.25456 745.28751,382.37947 757.60964,373.48621 764.38951,368.59297 774.25392,370.2937 781.72714,376.80971" inkscape:path-effect="#path-effect1560" />
      <path d="M 816.1638,368.14592 C 816.17105,359.52929 819.22097,359.36571 822.31723,370.92111 823.88874,376.78608 824.77129,382.11335 825.22316,388.50912 825.85606,382.34422 825.14185,377.68506 823.48936,370.71072 820.0074,356.01505 814.00901,358.01698 816.1638,368.14592 Z" />
    </g>
    <path d="M 775.31635,432.27719 C 787.3167,532.86832 743.91736,576.42879 695.56303,600.78243 L 655.76787,623.41304 C 659.08328,602.86661 649.28477,594.38172 648.40024,572.75182 647.43106,549.05187 655.59658,530.82102 676.25385,521.91923 712.12583,506.461 731.2792,470.21026 725.66792,385.51106 Z" style="clip-path:url(#clipPath1027);fill:#efcfbb;stroke:#e5b08f;stroke-width:3" />
    <g>
      <path d="M 766.83586,467.61051 C 771.25528,478.39389 778.00356,490.76242 787.62856,502.1552 817.42458,499.89783 847.54768,509.04303 871.41381,529.44251 883.70952,539.95222 841.09656,555.58981 826.25948,543.07424 811.72272,530.812 796.73216,525.29715 769.50375,522.25749 759.10223,521.09631 748.78832,506.61276 741.40146,473.81026 Z" fill="#efcfbb" />
      <path clip-path="url(#clipPath1000)" fill="#e5b08f" inkscape:original-d="M 766.83586,467.61051 C 771.25528,478.39389 778.00356,490.76242 787.62856,502.1552 817.42458,499.89783 847.54768,509.04303 871.41381,529.44251 883.70952,539.95222 841.09656,555.58981 826.25948,543.07424 811.72272,530.812 796.73216,525.29715 769.50375,522.25749 759.10223,521.09631 748.78832,506.61276 741.40146,473.81026" inkscape:path-effect="#path-effect986" />
      <path d="M 766.83586,467.61051 C 771.25528,478.39389 778.00356,490.76242 787.62856,502.1552 817.42458,499.89783 847.54768,509.04303 871.41381,529.44251 883.70952,539.95222 841.09656,555.58981 826.25948,543.07424 811.72272,530.812 796.73216,525.29715 769.50375,522.25749 759.10223,521.09631 748.78832,506.61276 741.40146,473.81026 Z" style="clip-path:url(#clipPath996);fill:#0b5080;stroke:#083757;stroke-width:3" />
    </g>
    <g>
      <path d="M 739.3424,350.27358 C 751.99014,352.56179 758.2219,357.20871 763.36834,368.11036 774.48564,364.03141 780.87504,359.05118 785.59564,352.07178 804.5393,363.97248 815.28134,350.6081 829.78981,362.14805 845.72024,316.0384 792.38235,284.18203 734.30138,330.75941 Z" fill="#9234b4" stroke="#67257f" stroke-width="3" />
      <path d="M 781.77762,343.46517 C 811.95964,306.46586 823.35292,314.11481 799.74365,354.83076" fill="#0b5080" stroke="#083757" stroke-width="3" />
      <path d="M 784.31912,334.41771 C 796.48068,334.32444 803.6633,339.12128 808.18797,348.57915 L 801.06163,355.71813 796.39242,354.28746 779.17228,343.46634 Z" fill="#9234b4" />
      <path d="M 784.31912,334.41771 C 795.83451,335.31259 802.82574,339.78853 808.18797,348.57915 805.0517,338.28531 795.98599,332.99239 784.31912,334.41771 Z" fill="#67257f" />
      <path d="M 790.20149,333.26953 C 798.00518,334.93431 805.0285,334.46609 811.11538,330.82437" fill="none" stroke="#083757" stroke-width="1.5" />
      <path d="M 728.48223,333.71967 C 698.22272,366.82233 715.99327,401.16054 710.83058,447.00305 736.71599,428.02208 722.90356,390.69162 731.62488,372.70228" fill="#9234b4" stroke="#67257f" stroke-width="3" />
      <path d="M 731.0571,392.60669 C 704.7508,350.35162 731.61752,320.12052 733.39618,320.18644 735.83023,320.27665 747.49939,335.7667 746.16525,359.13531 Z" fill="#0b5080" />
      <path fill="#083757" inkscape:original-d="M 731.0571,392.60669 C 704.7508,350.35162 731.61752,320.12052 733.39618,320.18644 735.83023,320.27665 747.49939,335.7667 746.16525,359.13531" inkscape:path-effect="#path-effect2344" />
      <path d="M 731.16479,340.26792 C 727.34405,351.64351 727.38835,362.60117 731.79226,373.83752 729.10615,361.7417 729.29292,352.08315 731.16479,340.26792 Z" fill="#083757" />
    </g>
  </g>
  <g transform="translate(21.168082 7.008492)">
    <path d="M 1013.4206,310.5494 C 1021.1168,317.04179 1027.5004,318.5293 1037,316.5 1027.9129,311.79838 1023.3362,305.24315 1020.0861,293.43158 1012.5228,265.94507 992.05379,258.15132 965.99377,262.37643 969.60345,258.02078 973.17156,254.70502 977.95019,251.46418 951.05459,253.84921 932.61376,263.75361 916.5,283.5 L 919.125,303.875 C 944.41136,286.03194 975.41152,294.89396 1013.4206,310.5494 Z" fill="#9234b4" stroke="#67257f" stroke-width="3" />
    <path d="M 801.11283,380.17757 C 775.11608,383.16696 751.58674,403.13956 744.68017,440.6684 751.65776,429.38728 757.21999,424.69986 764.72459,419.11273 752.68361,448.6704 790.55616,523.80326 744.44629,565.96544 804.61709,554.80752 819.98719,500.53891 819.14496,461.00537 818.38351,425.26345 834.56735,407.91693 851.56043,414.70288 L 863.11166,407.04487 C 846.23951,386.5302 822.65295,377.70064 801.11283,380.17757 Z" style="fill:#9234b4;stroke:#67257f;stroke-width:3;stroke-miterlimit:20" />
    <path d="M 979.15892,527.64684 C 979.22848,526.34477 979.23832,525.05065 979.18491,523.76833 978.57091,509.026 966.56008,485.03103 951.00837,465.47115 L 930.72409,474.24411 C 939.20061,490.63176 944.01679,507.49367 945.79453,527.44718" fill="#0b5080" stroke="#083757" stroke-width="3" />
    <path d="M 851.78982,493.99807 C 840.65809,519.05011 835.94057,547.09175 833.46569,578.558 832.56394,590.0231 883.44013,589.4475 880.60441,578.26511 871.23525,541.31878 875.06887,508.84212 898.22662,476.84553 881.8924,469.92219 863.97733,472.15256 851.78982,493.99807 Z" fill="#0b4a75" stroke="#083757" stroke-width="3" />
    <path d="M 926.00788,490.07277 C 964.66923,483.78899 973.24201,440.89286 961.72254,390.99574 972.88717,392.03375 986.72581,391.74236 1004.8177,390.48847 L 1019.5837,359.58256 C 1010.9956,352.85841 1004.4121,341.28216 1001.2506,327.60159 989.03333,274.73521 903.76447,275.93814 906.55129,354.282 907.43702,379.18192 910.20487,401.33704 909.04719,416.09731 896.84883,413.72583 887.86214,403.35666 870.50911,403.35666 848.88375,403.35666 834.32533,417.67557 833.97179,444.01531 833.57467,473.60162 843.31542,485.6736 842.78487,498.69695 837.92154,497.63411 833.67782,498.1785 831.85048,502.29095 820.71875,527.34299 815.11735,555.20785 812.64247,586.6741 811.74072,598.1392 862.37063,597.62318 859.78119,586.38121 852.53335,554.91496 854.8921,511.36723 878.39887,480.5955 889.60602,489.35664 905.71166,493.3716 926.00788,490.07277 Z" fill="#0b5080" />
    <g transform="rotate(12.644164-1541.1651 4070.8516)scale(.37333178.82317918)" inkscape:path-effect="#path-effect1160">
      <path fill="#f9f0ac" inkscape:original-d="M 9.9,-4.3 8.3,4.2 4.3,1.4 1.2,28.5 6.4,8.9 9.3,12.4 17.2,-3.5 Z M -18.1,-5.1 -13.6,10.5 -11.4,7.3 -8,18.9 -5.7,14 -1.1,28.5 -4.2,6.7 -6.7,9.5 -9.7,-1.4 -11.4,0.5 -12.9,-6.7 Z" />
      <g clip-path="url(#A)">
        <path fill="#fff" inkscape:original-d="M -12.6,-3.9 C -26,6.5 -31.3,-14.8 -18,-18.1 -15.9,-24.2 -10.1,-27.8 -3.4,-25.1 1.4,-29.8 8.4,-29.1 10.5,-21.5 39.6,-20.3 22.4,9 2.5,-4.1 -2.4,-0.5 -7.5,-0.5 -12.6,-3.9 Z" />
        <path fill="#8f9fa2" inkscape:original-d="M -26.7,-13.9 C -27,-4 -18.5,1 -12.1,-6 -6.8,-2.1 -1.1,-3.1 2.3,-6.7 12.7,2.1 30.8,-8 21.7,-19.4 L 28,-18.1 V 0 H -30.5 Z M -3.8,-9 C 0.3,-7.3 4.8,-7.6 8.5,-9.4 5.2,-5.5 -0.1,-5.5 -3.8,-9 Z M -11.7,-10 C -7.8,-8.6 -3.9,-8.7 -0.5,-10.7 -3.4,-7 -7.8,-6.7 -11.7,-10 Z" />
      </g>
    </g>
    <path fill="#083757" inkscape:original-d="M 907.82075,423.91047 C 911.39833,410.16506 907.61572,384.20556 906.55129,354.282 903.76448,275.93814 989.03333,274.73521 1001.2506,327.60159 1004.4121,341.28216 1010.9956,352.85841 1019.5837,359.58256 L 1004.8177,390.48847 C 964.47521,393.28448 945.28115,391.29465 929.89691,380.52246" inkscape:path-effect="#path-effect1157" />
    <g>
      <g clip-path="url(#clipPath1073)">
        <ellipse cx="736.81128" cy="699.57977" fill="#fff" id="path183" rx="19.375" ry="24.079594" transform="rotate(-23.785036)" />
        <ellipse cx="808.71082" cy="623.69922" fill="url(#linearGradient2412-3)" rx="14.951918" ry="19.754885" transform="rotate(-18.275035)" />
        <ellipse cx="809.79333" cy="623.84265" rx="12.015118" ry="15.874697" transform="rotate(-18.275035)" />
        <ellipse cx="1011.8325" cy="49.903831" fill="#fff" rx="5.1330161" ry="7.9388962" transform="rotate(16.310914)" />
        <ellipse cx="1021.9882" cy="-1.0839626" fill="#fff" rx="1.8237776" ry="2.6615343" transform="rotate(19.562672)" />
      </g>
      <path d="M 985.25592,376.77108 C 992.75443,381.41423 999.38924,382.43876 1009.4425,380.49176 L 1008.1454,383.52582 C 998.11277,384.6474 990.46316,383.0473 985.25592,376.77108 Z M 1000.647,360.63826 C 1000.6973,362.856 1002.0357,363.61189 1004.1533,362.76353 1001.5996,365.7038 999.09323,364.35369 1000.647,360.63826 Z" fill="#083757" />
      <path inkscape:original-d="M 948.68461,362.92495 C 933.86579,353.77154 930.80355,328.42087 946.66373,320.96595 953.96653,317.53333 962.84989,320.53185 969.03235,327.33429" inkscape:path-effect="#path-effect1082" />
    </g>
    <path fill="#083757" inkscape:original-d="M 861.75,454 C 867.87075,479.26851 890.54115,495.83732 926.00788,490.07277 964.66923,483.78898 973.24201,440.89286 961.7071,390.98928" inkscape:path-effect="#path-effect1161" />
    <path fill="#083757" inkscape:original-d="M 841.81583,504.58905 C 846.41202,488.85592 833.51605,477.96892 833.97179,444.01531 834.32534,417.67557 848.88375,403.35666 870.50911,403.35666 887.86214,403.35666 896.84883,413.72583 909.04643,416.2007" inkscape:path-effect="#path-effect1159" />
    <path d="M 842.7829,498.69476 C 837.92154,497.63411 833.67782,498.1785 831.85048,502.29095 820.71875,527.34299 815.11735,555.20785 812.64247,586.6741 811.74072,598.1392 862.37063,597.62318 859.78119,586.38121 852.53335,554.91496 854.8921,511.36723 878.4034,480.60808" fill="none" stroke="#083757" stroke-width="3" />
    <g>
      <path d="M 906.27346,474.25148 C 900.6166,508.72294 900.5302,551.72593 909.79644,586.30799 913.1921,598.98077 963.16724,596.67459 957.52614,585.44187 937.3736,545.31356 932.11318,515.72598 930.69897,474.53701 Z" fill="#0b5080" />
      <path fill="#083757" inkscape:original-d="M 906.27346,474.25148 C 900.6166,508.72294 900.5302,551.72593 909.79644,586.30799 913.1921,598.98077 963.16724,596.67459 957.52614,585.44187 937.3736,545.31356 932.11318,515.72598 930.69897,474.53701" inkscape:path-effect="#path-effect1108" />
      <path d="M 953.3604,514.43677 C 947.62144,521.98271 939.88654,527.93468 932.84175,531.74985 918.82515,539.34066 937.87606,587.49261 953.89745,574.06229 968.26348,562.01961 979.93326,541.73635 979.18491,523.76833 970.01496,526.52043 957.08722,520.22168 953.3604,514.43677 Z" fill="#0b5080" />
      <path fill="#083757" inkscape:original-d="M 953.3604,514.43677 C 947.62144,521.98271 939.88654,527.93468 932.84175,531.74985 918.82515,539.34066 937.87606,587.49261 953.89745,574.06229 968.26348,562.01961 979.93326,541.73635 979.18491,523.76833" inkscape:path-effect="#path-effect1132" />
    </g>
    <g>
      <path d="M 908,288 C 884.22559,332.43251 882.2822,395.32571 910.5,446.5 908.93517,431.63011 910.1337,421.77617 914.90381,411.8085 917,418.3986 917.72335,424.65685 917.40165,433.77449 945.15165,394.27449 902,366.25 909.5,333.25 Z" style="fill:#9234b4;stroke:#67257f;stroke-width:3;stroke-miterlimit:20" />
      <path d="M 913.23128,351.21175 C 881.67627,301.28293 914.43575,272.92337 919.29073,273.45594 923.79062,273.94957 930.27364,288.6343 926.27934,312.86642 Z" fill="#0b5080" />
      <path fill="#083757" inkscape:original-d="M 913.23128,351.21175 C 881.67627,301.28293 914.43575,272.92337 919.29073,273.45594 923.79062,273.94957 930.27364,288.6343 926.27934,312.86642" inkscape:path-effect="#path-effect1051" />
      <path d="M 912.75,294.625 C 907.6875,305.125 908.625,317.125 913,329.125 910.6875,316.6875 909.8125,305.625 912.75,294.625 Z" fill="#083757" />
      <path d="M 1012.0456,301.0494 C 1019.8549,316.76679 1019.1357,332.90821 1007.0916,345.81935 1009.0362,320.18673 995.60631,300.29586 976.51447,292.87123 Z" fill="#9234b4" />
      <path fill="#67257f" inkscape:original-d="M 1012.0456,301.0494 C 1019.8549,316.76679 1019.1357,332.90821 1007.0916,345.81935 1009.0362,320.18673 995.60631,300.29586 976.51447,292.87123" inkscape:path-effect="#path-effect1219" />
      <path d="M 971.26776,298.31066 C 1029.1854,239.93819 1032.5693,242.78672 990.03033,314" fill="#0b5080" stroke="#083757" stroke-width="3" />
      <path d="M 1000.8081,269.61779 C 1006.6571,269.8386 1012.0469,268.58718 1016.7731,266.17025 M 988.54169,281.27371 C 996.23081,283.12957 1003.5525,282.2524 1009.9264,279.2796 M 976.06694,293.64017 C 985.77145,297.22855 995.19042,296.28293 1003.0821,292.05178" fill="none" stroke="#083757" stroke-width="1.5" />
      <path d="M 930.14949,287.74479 C 919.96141,310.27252 922.2929,334.85356 933.16942,358.41117 933.21142,330.01472 946.14644,324.79163 946.92588,301.26561 962.77639,314.67158 979.84009,302.65507 995.29289,326.28249 1003.2929,302.78249 992.95406,289.09835 973.80761,280.18718 Z" fill="#9234b4" />
      <path fill="#67257f" inkscape:original-d="M 930.14949,287.74479 C 919.96141,310.27252 922.2929,334.85356 933.16942,358.41117 933.21142,330.01472 946.14644,324.79163 946.92588,301.26561 962.77639,314.67158 979.84009,302.65507 995.29289,326.28249 1003.2929,302.78249 992.95406,289.09835 973.80761,280.18718" inkscape:path-effect="#path-effect1213" />
    </g>
  </g>
</svg>