<svg xmlns="http://www.w3.org/2000/svg" xmlns:inkscape="http://www.inkscape.org/namespaces/inkscape" xmlns:sodipodi="http://sodipodi.sourceforge.net/DTD/sodipodi-0.dtd" xmlns:xlink="http://www.w3.org/1999/xlink" width="1400" height="800" viewBox="0 0 1400 800">
  <defs>
    <linearGradient id="linearGradient1025">
      <stop offset="0" stop-color="#d7e7f4" />
      <stop offset="1" stop-color="#c1d6e6" />
    </linearGradient>
    <linearGradient id="linearGradient9542">
      <stop offset="0" stop-color="#cfe7f4" />
      <stop offset="1" stop-color="#e5f2f9" />
    </linearGradient>
    <inkscape:path-effect effect="powerstroke" id="path-effect9520" offset_points="0.35,3 | 7.64,3" interpolator_type="CubicBezierSmooth" start_linecap_type="zerowidth" linejoin_type="extrp_arc" end_linecap_type="zerowidth" />
    <inkscape:path-effect effect="powerstroke" id="path-effect9518" offset_points="0,3 | 3.75,3" interpolator_type="CubicBezierSmooth" start_linecap_type="butt" linejoin_type="extrp_arc" end_linecap_type="zerowidth" />
    <inkscape:path-effect effect="powerstroke" id="path-effect1015" offset_points="0.7,2.5 | 2,2.5" interpolator_type="CubicBezierSmooth" start_linecap_type="zerowidth" linejoin_type="extrp_arc" end_linecap_type="butt" />
    <inkscape:path-effect effect="powerstroke" id="path-effect15834" offset_points="0.43,1.75 | 2,1.75" interpolator_type="CubicBezierSmooth" start_linecap_type="zerowidth" linejoin_type="extrp_arc" end_linecap_type="butt" />
    <inkscape:path-effect effect="powerstroke" id="path-effect15832" offset_points="0.22,1.75 | 0.75,1.75" interpolator_type="CubicBezierSmooth" start_linecap_type="zerowidth" linejoin_type="extrp_arc" end_linecap_type="zerowidth" />
    <inkscape:path-effect effect="powerstroke" id="path-effect15828" offset_points="0.39,2.5 | 3,2.5" interpolator_type="CubicBezierSmooth" start_linecap_type="zerowidth" linejoin_type="extrp_arc" end_linecap_type="butt" />
    <inkscape:path-effect effect="envelope" id="path-effect5832" yy="false" bendpath1="M -21.6,-22.080316 H 21.6" bendpath2="M 21.322785,-23.583509 C 14.063305,-8.0115984 13.461732,8.9753976 19.814617,22.386636" bendpath3="M -21.6,22.080316 H 21.6" bendpath4="M -13.951655,-23.476752 C -22.943571,-8.5256649 -23.071725,8.9875959 -17.608848,23.672367" />
    <inkscape:path-effect effect="powerstroke" id="path-effect4672" offset_points="0.27,3.75 | 1,3.75" interpolator_type="CubicBezierSmooth" start_linecap_type="zerowidth" linejoin_type="extrp_arc" end_linecap_type="butt" />
    <inkscape:path-effect effect="powerstroke" id="path-effect4668" offset_points="0.56,3.75 | 3.61,3.75" interpolator_type="CubicBezierSmooth" start_linecap_type="zerowidth" linejoin_type="extrp_arc" end_linecap_type="zerowidth" />
    <inkscape:path-effect effect="powerstroke" id="path-effect3501" offset_points="0.18,3.75 | 4.85,3.75" interpolator_type="CubicBezierSmooth" start_linecap_type="zerowidth" linejoin_type="extrp_arc" end_linecap_type="zerowidth" />
    <inkscape:path-effect effect="powerstroke" id="path-effect3478" offset_points="0.3,3.75 | 0.7,3.75" interpolator_type="CubicBezierSmooth" start_linecap_type="zerowidth" linejoin_type="extrp_arc" end_linecap_type="zerowidth" />
    <inkscape:path-effect effect="powerstroke" id="path-effect3039" offset_points="0.36,3.75 | 1.8,3.75" interpolator_type="CubicBezierSmooth" start_linecap_type="zerowidth" linejoin_type="extrp_arc" end_linecap_type="zerowidth" />
    <inkscape:path-effect linejoin_type="extrp_arc" interpolator_type="CubicBezierSmooth" offset_points="0.42,2.5 | 1.65,2.5" id="path-effect6506" effect="powerstroke" start_linecap_type="zerowidth" end_linecap_type="zerowidth" />
    <linearGradient id="linearGradient753">
      <stop offset="0" stop-color="#230f38" />
      <stop offset="1" stop-color="#5c2594" />
    </linearGradient>
    <inkscape:path-effect effect="powerstroke" id="path-effect4023" offset_points="2.5,3.75" interpolator_type="CubicBezierSmooth" start_linecap_type="zerowidth" linejoin_type="extrp_arc" end_linecap_type="zerowidth" />
    <inkscape:path-effect linejoin_type="extrp_arc" interpolator_type="CubicBezierSmooth" offset_points="0.26,3.75 | 2.71,3.75" id="path-effect4544" effect="powerstroke" start_linecap_type="zerowidth" end_linecap_type="zerowidth" />
    <linearGradient xlink:href="#linearGradient753" id="linearGradient3395" x1="-210.62244" y1="769.14752" x2="-290.94922" y2="770.55011" gradientUnits="userSpaceOnUse" />
    <clipPath id="clipPath3411">
      <use xlink:href="#path3282" />
    </clipPath>
    <clipPath id="clipPath3445">
      <use xlink:href="#path4078" />
    </clipPath>
    <clipPath id="clipPath3463">
      <path d="M 864.70913,137.55481 C 872.21927,159.23743 892.85115,170.77702 915.1843,169.60872 1051.7869,126.00088 1014.6226,66.518867 897.17989,129.20469 883.88762,140.79585 879.45338,165.66589 885.59546,187.77832 L 866.05259,213.70027 839.84215,133.02337 Z" />
    </clipPath>
    <inkscape:path-effect effect="powerstroke" id="path-effect1210" offset_points="0,2.5 | 8.42,2.5" interpolator_type="CubicBezierSmooth" start_linecap_type="butt" linejoin_type="extrp_arc" end_linecap_type="zerowidth" />
    <inkscape:path-effect effect="powerstroke" id="path-effect1135" offset_points="0.24,2.5 | 6.44,2.5" interpolator_type="CubicBezierSmooth" linejoin_type="extrp_arc" start_linecap_type="zerowidth" end_linecap_type="zerowidth" />
    <inkscape:path-effect effect="powerstroke" id="path-effect1137" offset_points="0.35,2.5" interpolator_type="CubicBezierSmooth" linejoin_type="extrp_arc" end_linecap_type="butt" start_linecap_type="zerowidth" />
    <inkscape:path-effect effect="powerstroke" id="path-effect1139" offset_points="0.4,2.5 | 3,2.5" interpolator_type="CubicBezierSmooth" linejoin_type="extrp_arc" end_linecap_type="butt" start_linecap_type="zerowidth" />
    <filter id="filter3350" x="-0.021262484" width="1.042525" y="-0.026313836" height="1.0526277" color-interpolation-filters="sRGB">
      <feGaussianBlur stdDeviation="10.121224" />
    </filter>
    <mask id="mask3386">
      <path d="M 414.6992,776.39186 C 249.94055,792.68996 215.89716,649.41338 356.61477,568.45142 L 179.56927,566.2754 331.6572,166.01368 1322.001,276.24639 1305.02,976.37416 846.41159,1109.1378 412.26421,913.48014 Z" fill="#fff" filter="url(#filter3350)" />
    </mask>
    <clipPath id="clipPath5595">
      <path d="M 929.46543,809.41526 829.80543,777.2753 C 859.22337,758.44813 881.11614,730.98204 898.72649,700.0967 L 1072.3336,711.40657 1018.5562,1098.7342 894.51807,1050.691 Z" />
    </clipPath>
    <clipPath id="clipPath5633">
      <path d="M 1008.5937,366.81408 C 988.33357,344.19011 955.12523,351.40785 925.1541,336.50203 L 1255.0566,335.71549 1292.3305,507.95333 1101.3263,476.48416 Z" />
    </clipPath>
    <filter id="filter5836" x="-0.0057334369" width="1.0114669" y="-0.011627743" height="1.0232555" color-interpolation-filters="sRGB">
      <feGaussianBlur stdDeviation="3.6079355" />
    </filter>
    <filter id="filter6482" x="-0.14033796" width="1.2806759" y="-0.19807155" height="1.3961431" color-interpolation-filters="sRGB">
      <feGaussianBlur stdDeviation="2.4772718" />
    </filter>
    <clipPath id="clipPath9488">
      <use xlink:href="#rect14325" />
    </clipPath>
    <clipPath id="clipPath9498">
      <use xlink:href="#rect14327" />
    </clipPath>
    <linearGradient xlink:href="#linearGradient9542" id="linearGradient9544" x1="1143.9535" y1="19.274214" x2="1143.9535" y2="275.06711" gradientUnits="userSpaceOnUse" />
    <filter id="filter11167" x="-0.15976344" width="1.3195269" y="-0.11055457" height="1.2211091" color-interpolation-filters="sRGB">
      <feGaussianBlur stdDeviation="8.7093674" />
    </filter>
    <linearGradient xlink:href="#linearGradient1025" id="linearGradient1027" x1="686.78528" y1="33.189011" x2="686.78528" y2="256.21005" gradientUnits="userSpaceOnUse" />
  </defs>
  <rect width="1400" height="800" fill="url(#linearGradient1027)" />
  <g>
    <path d="M 1032.4326,245.44143 C 943.96119,377.92302 780.70388,328.09944 813.50613,202.75682 843.28439,88.96933 919.10083,64.480382 966.40166,86.98237 965.23526,60.656695 978.35462,40.027755 1006.3039,32.344781 1032.3823,-100.05202 1268.2633,-59.601937 1280.0384,60.425423 1355.8418,92.927422 1378.2699,174.38227 1450.4739,144.51491 1572.7671,93.928026 1530.8628,455.89063 1431.7201,341.5041 1383.6237,286.01261 1273.7627,306.92652 1303.7521,252.89615 1203.186,215.62184 1086.1225,165.04338 1032.4326,245.44143 Z" fill="url(#linearGradient9544)" />
    <path d="M 944.52811,186.69262 C 944.52811,186.69262 945.37858,185.48124 946.00887,182.41506 946.63228,179.38232 947.03819,174.25935 943.90358,168.74875 942.88643,166.96061 941.48234,165.17616 939.61051,163.61566 937.21178,161.6159 934.25723,160.0416 930.83554,159.19152 925.85796,157.9549 919.84767,158.26527 913.76338,161.16632 908.37847,163.7339 902.90784,168.36719 898.47169,175.72735 894.10081,182.97919 892.08497,190.46872 892.56828,197.85274 892.79644,201.33847 893.57948,204.74301 894.88481,208.01311 896.15145,211.1863 897.902,214.21291 900.08644,217.0441 904.29082,222.49326 910.09425,227.20632 917.06143,230.79114 923.73019,234.22241 931.49468,236.62909 939.84074,237.55804 948.0028,238.46651 955.66076,237.76834 962.72822,235.66592 969.68361,233.59682 975.99915,230.18759 981.60374,225.7122 987.12576,221.30275 991.93708,215.87479 995.98278,209.71609 999.97674,203.63616 1003.2262,196.84127 1005.6716,189.61548 1010.4766,175.4176 1012.2002,159.46933 1010.2523,144.13697 1009.2918,136.57667 1007.4352,129.15054 1004.5991,122.18106 1001.7853,115.26627 998.00188,108.7883 993.16732,103.09159 982.86908,90.956853 968.51762,82.312871 952.13082,78.456873 935.91272,74.64059 917.71975,75.523815 899.64174,82.3662 881.6795,89.164791 863.89925,101.82211 848.35592,121.46666 832.8658,141.04401 819.62592,167.52262 810.60387,201.9973 806.41911,217.98792 805.34226,232.84956 806.886,246.35254 808.43141,259.87015 812.59939,271.98955 818.85772,282.47316 825.12551,292.97261 833.46667,301.79276 843.3047,308.72826 853.16441,315.67902 864.5166,320.72918 876.78596,323.699 901.47516,329.67506 929.82486,327.22861 957.49836,315.03422 985.48997,302.69962 1012.6468,280.47171 1034.9274,247.10749 1040.28,239.09239 1046.25,232.45915 1052.7403,227.02539 1059.2547,221.57144 1066.3182,217.30484 1073.8501,214.06326 1081.4149,210.80754 1089.4716,208.57761 1097.942,207.22646 1106.4502,205.86926 1115.375,205.39894 1124.6316,205.66724 1143.2779,206.20771 1163.2312,209.7442 1183.7533,215.02647 1204.4673,220.35814 1225.7892,227.47658 1246.8999,235.08502 1268.2703,242.78705 1289.4739,251.00503 1309.8347,258.50536 1330.4793,266.11026 1350.1915,272.95695 1368.4881,277.89724 1387.0101,282.89836 1404.0646,285.9402 1419.0476,285.79171 1426.6328,285.71654 1433.7183,284.82353 1440.2065,282.93442 1446.7572,281.02709 1452.6841,278.10824 1457.8766,274.01648 1471.9401,262.93427 1480.5189,250.32264 1485.0407,238.03789 1489.7627,225.20897 1490.0994,212.67281 1487.6359,202.11795 1486.3525,196.61946 1484.3029,191.61623 1481.6731,187.28813 1478.9627,182.82736 1475.6293,179.07101 1471.8452,176.19007 1467.9259,173.20624 1463.5418,171.17474 1458.8763,170.2417 1454.0237,169.27127 1448.9623,169.50669 1443.876,170.97283 1438.805,172.43455 1434.5653,174.52964 1431.0666,177.01167 1427.388,179.62136 1424.5274,182.65886 1422.3627,185.85508 1420.0677,189.24364 1418.5456,192.82198 1417.6321,196.33025 1416.6513,200.09675 1416.3607,203.81783 1416.5694,207.27983 1416.7975,211.06329 1417.6213,214.57367 1418.836,217.66721 1418.9906,218.06091 1419.1516,218.4482 1419.3187,218.82892 1420.6875,221.94725 1422.4573,224.44559 1424.3198,226.3664 1427.1759,229.31208 1430.235,230.90487 1432.8143,231.71359 1436.2525,232.79163 1439.084,232.57412 1440.6365,232.31247 1442.2966,232.03267 1442.9938,231.67711 1442.9938,231.67711 1442.9938,231.67711 1439.5893,231.28925 1434.4811,228.01737 1432.6264,226.82939 1430.5175,225.12192 1428.5292,222.62312 1427.2247,220.98366 1425.916,218.9308 1424.8128,216.41743 1424.6774,216.10903 1424.5467,215.79462 1424.4209,215.4743 1423.4315,212.95439 1422.748,210.06146 1422.5585,206.91883 1422.3852,204.04369 1422.6272,200.95738 1423.4384,197.84223 1424.1932,194.94371 1425.447,192.00085 1427.3306,189.21964 1429.1042,186.60083 1431.4632,184.0868 1434.5382,181.90532 1437.4628,179.83056 1441.0858,178.0214 1445.5378,176.73809 1449.7531,175.52304 1453.8407,175.35347 1457.6996,176.1252 1461.4169,176.86861 1464.9696,178.49652 1468.2107,180.96398 1471.347,183.35172 1474.1901,186.52733 1476.5455,190.40373 1478.8302,194.16394 1480.6468,198.57165 1481.7929,203.4817 1483.9922,212.90434 1483.7238,224.24553 1479.41,235.96536 1475.2887,247.16209 1467.3968,258.8754 1454.1631,269.30377 1449.6405,272.86763 1444.4237,275.45737 1438.5293,277.1736 1432.6741,278.87841 1426.1499,279.72103 1418.9881,279.79201 1404.7903,279.93271 1388.3376,277.04194 1370.0522,272.10468 1352.0231,267.23662 1332.5149,260.46598 1311.9087,252.87521 1291.6132,245.39892 1270.3952,237.17509 1248.9343,229.44043 1227.7521,221.80623 1206.2283,214.61584 1185.2491,209.21592 1164.4756,203.86893 1144.0523,200.22763 1124.8055,199.66976 1115.2386,199.39246 1105.9334,199.87584 1096.9968,201.30136 1088.0963,202.72113 1079.5528,205.07684 1071.4782,208.552 1063.433,212.01448 1055.8671,216.58239 1048.8888,222.42475 1041.9369,228.24502 1035.5897,235.31195 1029.9379,243.7752 1008.2301,276.28145 981.92993,297.71166 955.07906,309.54359 928.51034,321.25116 901.50458,323.50892 878.19751,317.8674 866.61587,315.06405 855.96767,310.31416 846.76191,303.82441 837.58184,297.35276 829.82909,289.14623 824.00957,279.3977 818.20099,269.66748 814.29876,258.36798 812.84717,245.67102 811.3961,232.97866 812.39082,218.86814 816.40839,203.51634 825.25915,169.69619 838.17322,144.00594 853.06112,125.18971 867.99118,106.32024 884.90616,94.358913 901.76556,87.977742 918.74488,81.551202 935.72037,80.759203 950.75641,84.297335 965.96172,87.875315 979.16801,95.868556 988.59266,106.97391 992.97354,112.13605 996.44158,118.05301 999.04162,124.44253 1001.663,130.88448 1003.3989,137.79905 1004.3002,144.89315 1006.1311,159.30532 1004.5077,174.33789 999.98824,187.69206 997.69219,194.47645 994.6583,200.80418 990.96801,206.42185 987.23031,212.11168 982.83417,217.05146 977.8598,221.0236 972.81799,225.0496 967.1852,228.08019 961.01749,229.91497 954.75445,231.7781 947.90607,232.41869 940.50446,231.59486 932.87419,230.74558 925.81625,228.54811 919.80655,225.45594 913.52165,222.22218 908.43644,218.04423 904.83682,213.37887 902.96899,210.95803 901.50451,208.41234 900.45726,205.78876 899.3793,203.08825 898.74138,200.30117 898.55547,197.46085 898.16411,191.48176 899.7704,185.19577 903.61045,178.82462 907.48212,172.40102 912.09306,168.60989 916.34572,166.58218 921.16241,164.28553 925.74756,164.10986 929.38888,165.01451 931.90426,165.63943 934.0401,166.78334 935.76845,168.22421 937.10942,169.34213 938.20824,170.56628 939.10852,171.79611 941.85065,175.54203 943.01224,179.72395 943.6334,182.42229 944.27452,185.20734 944.52811,186.69262 944.52811,186.69262 Z" inkscape:path-effect="#path-effect9520" inkscape:original-d="M 944.52811,186.69262 C 948.17231,160.04956 916.93719,150.90228 901.04107,177.27598 884.01336,205.52714 908.8131,231.08601 940.1726,234.57645 1002.9185,241.56032 1027.6104,148.31334 990.87999,105.03275 951.18849,58.263037 849.22596,66.265663 813.50613,202.75682 780.70388,328.09944 943.96118,377.92302 1032.4326,245.44143 1120.3131,113.8447 1377.9816,333.15539 1456.0199,271.66009 1509.6784,229.37644 1482.651,162.91796 1444.7069,173.85546 1407.4262,184.60171 1415.5108,232.48562 1442.9938,231.67711" fill="#fff" />
    <path d="M 969.30489,87.264861 C 969.08609,81.809689 969.44246,75.614294 971.07704,69.346468 972.39545,64.291033 974.54463,59.1953 977.87805,54.446497 980.82242,50.251945 984.70712,46.306191 989.77767,42.922888 994.46197,39.797314 1000.1774,37.14019 1007.0991,35.237481 1007.6976,35.072955 1008.2981,34.91599 1008.9006,34.766621 1009.011,34.151611 1009.1266,33.537542 1009.2474,32.924481 1011.0518,23.763622 1013.8924,15.428935 1017.6435,7.8973052 1021.3501,0.45499698 1025.9476,-6.2070563 1031.3164,-12.107712 1041.8925,-23.73154 1055.4732,-32.408906 1071.0701,-38.211391 1086.4022,-43.915348 1103.5964,-46.804876 1121.4994,-46.981779 1139.1581,-47.156269 1157.4152,-44.688156 1175.0095,-39.750856 1192.4312,-34.861996 1209.1374,-27.56891 1223.8377,-18.110285 1238.4459,-8.7109164 1251.0179,2.7918352 1260.3185,16.116849 1269.5823,29.389291 1275.5993,44.465566 1277.1714,61.104591 1278.7436,77.744776 1275.88,96.051635 1267.2375,115.79459 1261.2651,129.43785 1253.9811,140.14383 1245.9564,148.33967 1237.8864,156.58178 1229.0486,162.30393 1219.986,165.92478 1210.832,169.58222 1201.4105,171.11147 1192.2438,170.90506 1182.95,170.69578 1173.9182,168.70321 1165.6586,165.33196 1157.2519,161.90069 1149.6732,157.05464 1143.3781,151.21674 1136.9429,145.24894 1131.8817,138.27882 1128.5558,130.70855 1125.1416,122.9373 1123.5618,114.55559 1124.125,105.89057 1124.707,96.936207 1127.5759,87.668132 1133.079,78.377839 1137.9348,70.180207 1143.1946,64.203291 1148.4145,59.949771 1153.8914,55.486742 1159.3951,52.860272 1164.5407,51.541849 1170.0133,50.13966 1175.1853,50.186303 1179.7567,51.163725 1184.7089,52.222563 1189.0069,54.374695 1192.4834,57.110878 1196.3409,60.146786 1199.1702,63.880662 1200.9951,67.81472 1203.1131,72.380479 1203.8704,77.165388 1203.5791,81.784122 1203.1944,87.883576 1201.2273,93.42655 1198.8363,98.109328 1195.6467,104.35621 1191.4434,109.52106 1188.9508,112.45996 1186.2987,115.58699 1184.9462,117.06524 1184.9462,117.06524 1184.9462,117.06524 1186.736,116.2698 1190.1839,113.80284 1193.4015,111.50065 1198.7672,107.12914 1203.0924,100.61433 1206.2952,95.789995 1209.1047,89.493862 1209.5672,82.161822 1209.9166,76.622394 1209.0081,70.830222 1206.438,65.289864 1204.2271,60.523624 1200.8136,56.031606 1196.1942,52.395982 1192.0384,49.125207 1186.9017,46.555785 1181.0112,45.296341 1175.5639,44.131641 1169.452,44.089662 1163.0515,45.729594 1157.0287,47.27278 1150.7464,50.30977 1144.6243,55.298493 1138.7957,60.048051 1133.09,66.586325 1127.9166,75.319965 1121.9803,85.341654 1118.7867,95.515456 1118.1376,105.50143 1117.5096,115.16422 1119.2767,124.50469 1123.0625,133.12186 1126.7442,141.50201 1132.3093,149.13481 1139.2982,155.61614 1146.136,161.95735 1154.3301,167.18865 1163.3912,170.88706 1172.2997,174.52313 1182.0483,176.677 1192.1088,176.90354 1202.0386,177.12713 1212.2674,175.46988 1222.2121,171.49655 1232.0649,167.55995 1241.6011,161.36408 1250.2435,152.53731 1258.8297,143.76803 1266.5038,132.43286 1272.7339,118.20065 1281.7362,97.635749 1284.8237,78.309772 1283.1448,60.540208 1281.4661,42.772881 1275.0371,26.721326 1265.2385,12.682754 1255.4178,-1.3874534 1242.2341,-13.408177 1227.0844,-23.155988 1211.8358,-32.967409 1194.5726,-40.492848 1176.6307,-45.52768 1158.5091,-50.612961 1139.6866,-53.161784 1121.4401,-52.981486 1102.9461,-52.798743 1085.0511,-49.814457 1068.978,-43.834842 1052.6155,-37.747532 1038.1872,-28.574702 1026.8784,-16.145624 1021.1402,-9.8388929 1016.2278,-2.7187825 1012.2728,5.2223557 1008.5207,12.75595 1005.6429,21.002854 1003.7301,29.963544 997.01377,31.981562 991.28584,34.703544 986.44747,37.931919 980.74737,41.735287 976.3302,46.208306 972.96716,50.999301 969.16952,56.409446 966.74325,62.187876 965.27123,67.832369 963.45027,74.81482 963.07393,81.626675 963.30971,87.505319 Z" inkscape:path-effect="#path-effect9518" inkscape:original-d="M 966.3073,87.38509 C 965.23526,60.656695 978.35462,40.027755 1006.3039,32.344781 1036.1409,-119.13424 1340.6162,-44.351298 1269.9857,116.99762 1221.2823,228.25609 1083.9563,155.42043 1130.4978,76.8489 1169.8203,10.464473 1243.2686,70.906641 1184.9462,117.06524" fill="#fff" />
    <path d="M 1279.9575,60.429457 C 1355.8418,92.927422 1378.2699,174.38227 1450.4739,144.51491 1572.7671,93.928026 1530.8628,455.89063 1431.7201,341.5041 1383.6237,286.01261 1273.7627,306.92652 1303.5607,252.66819" fill="none" stroke="#fff" stroke-width="6" />
  </g>
  <g>
    <rect width="1400" height="414.47647" y="385.52353" fill="#d2e1e4" />
    <rect width="538.4762" height="335.33115" x="134.56337" y="495.871" ry="51.738415" fill="#9bc6e6" />
    <rect width="538.4762" height="335.33115" x="802.15808" y="495.871" ry="51.738415" fill="#9bc6e6" />
    <path d="M 1119.7083,830.99417 1267.3487,496.39974 1317.9368,500.12172 1233.7064,831.95472 Z M 970.84331,495.04981 877.57997,831.96034 988.34372,831.85977 1041.1792,497.12125 Z M 418.40736,490.79615 326.83453,832.11055 H 414.94461 L 541.68092,493.00929 Z" opacity=".35" fill="#fff" />
    <g clip-path="url(#clipPath9498)">
      <rect id="rect14327" width="1466.6184" height="127.7879" x="-38.171944" y="291.82501" fill="#d2e1e4" />
      <path d="M 893.6535,276.62979 H 1122.1113 L 803.43489,413.978 H 574.97708 Z" fill="#e8eff0" />
    </g>
    <g clip-path="url(#clipPath9488)">
      <rect id="rect14325" width="1457.5348" height="49.192722" x="-38.171944" y="399.12915" fill="#e5bc75" />
      <path d="M 938.95125,373.21382 C 947.90141,400.21504 951.19767,436.96768 951.19767,473.95029 M 1307.8851,373.65738 C 1325.9642,400.41675 1332.6226,436.8402 1332.6226,473.49155 M 562.83278,373.21382 C 553.88262,400.21504 550.58636,436.96768 550.58636,473.95029 M 193.89889,373.65738 C 175.81975,400.41675 169.16137,436.8402 169.16137,473.49155" fill="none" stroke="#c79640" stroke-width="6" />
    </g>
    <path d="M 221.49596,706.21724 C 237.94022,840.794 353.94536,825.5939 340.90777,692.73749 328.79409,569.29589 206.30652,581.90978 221.49596,706.21724 Z" transform="rotate(-23.98408 493.76371-546.08086)scale(-.7393981.7393981)" opacity=".6" fill="#fff" filter="url(#filter11167)" />
    <rect width="538.4762" height="335.33115" x="802.15808" y="495.871" ry="51.738415" fill="none" stroke="#3b5161" stroke-width="22" />
    <rect width="538.4762" height="335.33115" x="134.56337" y="495.871" ry="51.738415" fill="none" stroke="#3b5161" stroke-width="22" />
  </g>
  <text xml:space="preserve" x="35.333565" y="44.590717" font-size="21px" line-height="1.25" font-family="'Latin Modern Sans'"><tspan sodipodi:role="line" x="35.333565" y="44.590717" font-family="'IBM Plex Sans'">Parcly Taxel and Spindle at Abhiyaan SEAPonyCon</tspan><tspan sodipodi:role="line" x="35.333565" y="71.386719" font-family="'IBM Plex Sans'">28 November 2020</tspan></text>
  <ellipse rx="333.89737" ry="47.858364" cx="594.08112" cy="343.40543" opacity=".25" />
  <g transform="translate(12.162162-20.675676)">
    <g>
      <path d="M 547.3396,236.97276 C 597.12696,300.75648 535.99611,357.35313 490.60689,315.11625 423.33504,252.51634 416.72552,171.11893 426.51162,163.95782 437.13028,156.18741 486.6118,184.57355 530.72234,223.0466 Z" fill="#34b0fa" stroke="#1c92cd" stroke-width="7.5" />
      <path d="M 511.53563,206.91432 C 508.96004,212.81169 509.79161,218.7894 516.03548,226.4357 497.3135,221.99298 495.84632,233.4817 518.34401,259.92541 494.86966,256.47352 490.04565,262.46133 512.99221,293.18509 489.77475,287.75621 484.3115,297.94194 497.23253,320.72903" fill="none" stroke="#1c92cd" stroke-width="6" />
      <path d="M 494.02362,293.73615 C 467.32263,260.4642 444.18447,225.52561 423.75937,189.31803 M 503.68574,259.57221 C 475.95518,228.15296 451.14973,196.82236 426.15333,164.70113 M 511.55362,225.46648 444.91664,165.73161" fill="none" stroke="#1c92cd" stroke-width="4" />
    </g>
    <g>
      <path d="M 359.63366,189.10828 C 197.23093,43.244481 72.109233,187.26375 7.395109,210.1507 38.192487,217.5117 61.798136,214.95488 87.102703,205.60878 11.197345,279.37416 -81.447064,308.14615 -176.77188,263.08034 -134.04668,319.49903 -102.05009,341.72176 -58.994922,347.71856 -78.640408,356.64203 -104.33785,359.90645 -129.32203,352.95299 -54.166966,423.43156 63.426672,406.84303 149.59625,316.78627 231.20035,231.50104 292.44236,205.24464 341.13731,214.46433 Z" fill="#f3a4d9" />
      <path d="M 350.91937,200.57988 C 292.80313,156.62496 210.64439,161.44432 109.5729,257.62846 30.6406,332.74396 -92.16773,333.50314 -176.77188,263.08034 -134.04668,319.49903 -102.05009,341.72176 -58.994922,347.71856 -78.640408,356.64203 -104.33785,359.90645 -129.32203,352.95299 -54.166966,423.43156 63.426672,406.84303 149.59625,316.78627 231.20035,231.50104 292.44236,205.24464 341.13731,214.46433 Z" fill="#961370" />
      <path d="M 359.63366,189.10828 C 197.23093,43.244481 72.109233,187.26375 7.395109,210.1507 38.192487,217.5117 61.798136,214.95488 87.102703,205.60878 11.197345,279.37416 -81.447064,308.14615 -176.77188,263.08034 -134.04668,319.49903 -102.05009,341.72176 -58.994922,347.71856 -78.640408,356.64203 -104.33785,359.90645 -129.32203,352.95299 -54.166966,423.43156 63.426672,406.84303 149.59625,316.78627 231.20035,231.50104 292.44236,205.24464 341.13731,214.46433 Z" style="fill:none;stroke:#d91e9b;stroke-width:7.5;stroke-miterlimit:8" />
    </g>
    <path d="M 314.3553,370.58934 C 330.06604,371.85245 345.85775,375.39177 361.43371,381.32754 L 398.11186,314.48065 C 510.42512,423.28745 591.3396,342.25458 669.6349,337.3717 749.91948,404.81885 834.69302,398.79679 862.1627,360.06684 871.88042,346.36567 839.61239,341.40945 847.38075,329.38906 956.48033,160.57351 724.67885,31.976096 643.69283,197.09257 608.64844,226.39131 540.64233,230.59237 484.70161,198.56508 333.08245,111.75978 266.43176,279.66366 315.28657,317.76958 292.96984,344.22117 299.2866,369.37785 314.3553,370.58934 Z" fill="#6dc6fb" />
    <g transform="translate(12.020816)">
      <g clip-path="url(#clipPath3445)">
        <ellipse id="path4078" cx="307.55811" cy="-744.47601" rx="64.263596" ry="50.671566" transform="rotate(87.418496)" fill="#fff" />
        <g clip-path="url(#clipPath3411)">
          <ellipse id="path3282" cx="-249.24962" cy="784.08789" rx="50.409042" ry="38.453297" transform="rotate(-88.246092)" fill="url(#linearGradient3395)" />
          <path d="M 786.50887,279.27586 746.30098,324.13709 730.60092,292.16741 Z" fill="#8f4dd3" />
          <path d="M 786.50887,279.27586 728.2604,279.3669 733.5028,303.8568 Z" fill="#62289e" />
          <ellipse cx="-237.78386" cy="791.789" rx="41.2439" ry="31.495064" transform="rotate(-87.331262)" />
          <ellipse cx="206.28943" cy="780.18738" rx="20.853754" ry="13.528957" transform="rotate(-56.930488)" fill="#fff" />
          <ellipse cx="188.26805" cy="803.6192" rx="8.0437469" ry="5.2184172" transform="rotate(-56.930488)" fill="#fff" />
        </g>
      </g>
      <path d="M 816.33887,384.53515 C 802.3696,377.82078 793.58179,366.63853 795.00895,352.65256 799.08212,366.28335 807.91385,375.10019 824.50819,380.37647 M 836.36368,355.90488 C 831.19032,357.80271 828.3966,355.41197 829.14389,350.70598 824.46644,357.79708 829.61403,362.34983 836.36368,355.90488 Z" fill="#1c92cd" />
      <path d="M 739.27834,212.73192 C 726.18085,180.68432 720.70034,182.60025 733.76699,215.62107 Z M 723.85861,223.07354 C 698.93858,198.59001 695.03612,202.40337 720.03496,227.78239 Z M 712.18045,243.85966 C 735.09701,199.05221 779.57082,205.36578 797.36051,240.25322 813.02223,270.96751 805.60983,303.96425 788.62816,325.33107 811.78953,305.86267 817.6562,267.33055 802.32252,237.82847 780.75046,196.32337 732.06088,196.35394 710.22536,236.21101 683.22862,223.01218 681.01942,227.2077 712.18045,243.85966 Z" />
    </g>
    <path d="M 659.73331,328.39858 C 659.73331,328.39858 661.82433,331.78997 668.3305,338.53388 674.4607,344.88807 686.00769,355.55671 702.91158,365.47676 726.12649,379.10045 752.96734,389.39291 780.89002,391.94881 798.48861,393.55969 815.93887,391.98853 831.33696,386.50856 838.38702,383.99954 844.97112,380.67782 850.80878,376.51253 856.39697,372.52524 861.30166,367.76287 865.22145,362.2363 865.97914,361.16802 866.58793,360.06673 867.02047,358.9226 867.44797,357.7918 867.69554,356.63747 867.74554,355.46812 867.79481,354.31558 867.64971,353.2046 867.34652,352.14574 867.0493,351.10776 866.60841,350.14778 866.08153,349.26376 865.06019,347.55008 863.67542,346.05589 862.23903,344.74179 860.82722,343.45019 859.26165,342.2404 857.7668,341.10826 856.26823,339.9733 854.86438,338.93344 853.60832,337.88575 852.36606,336.84958 851.41836,335.92643 850.77725,335.07356 850.46829,334.66255 850.26023,334.3063 850.12619,334.00123 849.99566,333.70414 849.93734,333.46076 849.91858,333.25536 849.90044,333.05678 849.91339,332.83323 849.98874,332.55963 850.06687,332.2759 850.2206,331.90367 850.53027,331.4245 864.34298,310.05136 872.88384,289.14956 876.94816,269.21264 880.98702,249.40053 880.58586,230.62969 876.6238,213.43716 872.68011,196.32438 865.22611,180.8538 855.22805,167.55327 845.25577,154.28705 832.76734,143.19931 818.74617,134.79946 804.72884,126.40193 789.17779,120.68971 773.07585,118.17409 756.94128,115.65336 740.26631,116.34434 724.045,120.74661 707.75396,125.1678 691.99027,133.31309 677.72384,145.60574 663.54015,157.8271 650.91087,174.0819 640.68431,194.71451 632.36442,201.52238 622.15919,206.86804 610.75895,210.62534 598.77455,214.57516 585.57795,216.73638 571.93965,217.07726 542.62028,217.81007 512.54509,210.18498 486.56482,195.31071 465.08822,183.01488 445.50659,175.87862 427.88175,172.54539 409.49861,169.06876 393.14741,169.71034 378.88058,173.04975 363.88557,176.55962 351.12772,183.06146 340.56743,191.03737 329.34582,199.51276 320.47954,209.73916 313.77499,220.25148 306.53172,231.60847 301.69806,243.45686 298.90137,254.55071 295.80787,266.82192 295.15609,278.29963 296.38407,288.14392 297.05979,293.56092 298.30406,298.50617 300.03287,302.9236 301.13602,305.74238 302.43468,308.34214 303.90724,310.71755 304.96867,312.42977 306.10277,313.95352 307.27417,315.30451 310.99932,319.60073 315.04764,322.11924 318.57433,323.59778 323.26276,325.56337 327.30825,325.80018 329.56273,325.74679 331.97523,325.68966 333.0402,325.35026 333.0402,325.35026 333.0402,325.35026 328.47492,323.92041 321.29184,318.67369 318.71536,316.79176 315.76664,314.21832 312.95475,310.60906 312.05931,309.45971 311.16086,308.184 310.28174,306.76588 309.06033,304.7956 307.96243,302.60587 307.01705,300.19027 305.53483,296.40289 304.43188,292.06959 303.82639,287.21556 302.72448,278.38191 303.28513,267.84292 306.17384,256.38405 308.78855,246.0121 313.30606,234.93437 320.09839,224.28442 326.3831,214.43038 334.66273,204.89583 345.08761,197.02219 354.88558,189.62204 366.69836,183.60395 380.58981,180.35239 393.79913,177.26051 409.09222,176.62485 426.48805,179.91476 443.18216,183.07197 461.9814,189.87837 482.83841,201.81946 509.9949,217.36714 541.42174,225.34236 572.12704,224.57492 586.42146,224.21764 600.35356,221.95159 613.10654,217.74846 625.53106,213.65357 636.82491,207.72239 646.09809,199.96958 646.30508,199.79653 646.51121,199.62245 646.71646,199.44734 646.83037,199.21263 646.94477,198.97816 647.05966,198.74392 656.9488,178.58168 669.11439,162.92418 682.61952,151.2875 696.04119,139.72273 710.80427,132.11127 726.00935,127.98479 741.16115,123.87277 756.76971,123.21754 771.91816,125.5842 787.04182,127.94699 801.68025,133.31846 814.8917,141.23321 828.10605,149.1497 839.85993,159.59077 849.2329,172.05972 858.62542,184.5547 865.61634,199.07029 869.31534,215.12129 873.02968,231.23894 873.42991,248.92396 869.59934,267.71438 865.74279,286.63208 857.5977,306.67097 844.23122,327.35363 843.56768,328.38036 843.06442,329.45538 842.75793,330.56829 842.4468,331.69802 842.34823,332.82694 842.44966,333.93752 842.55112,335.04839 842.84669,336.07807 843.25974,337.01815 843.67254,337.95768 844.20369,338.81056 844.78216,339.5801 845.93253,341.11044 847.38873,342.46448 848.8043,343.64522 850.23545,344.83895 851.84122,346.02868 853.23866,347.08705 854.72652,348.2139 856.04561,349.2408 857.17653,350.27543 858.33532,351.33556 859.13908,352.26473 859.63898,353.10349 859.88624,353.51836 860.04314,353.88505 860.13628,354.21033 860.22906,354.53431 860.26552,354.84053 860.25238,355.14776 860.23899,355.46093 860.17166,355.82975 860.00508,356.27038 859.83345,356.72435 859.5519,357.26581 859.10395,357.89739 855.71765,362.67178 851.43252,366.85404 846.45258,370.40732 841.24751,374.12125 835.29833,377.13796 828.82231,379.44269 814.65238,384.48558 798.32808,386.01365 781.57368,384.48003 754.99931,382.04755 729.21442,372.21654 706.70755,359.00835 691.47753,350.07059 676.94136,339.90882 670.75363,335.6719 663.12465,330.44811 659.73331,328.39858 659.73331,328.39858 Z" inkscape:path-effect="#path-effect3501" inkscape:original-d="M 659.73331,328.39858 C 742.48104,405.27849 833.50522,400.47149 862.1627,360.06684 871.88041,346.36566 839.61239,341.40945 847.38075,329.38906 956.48033,160.57351 724.67885,31.976096 643.69283,197.09257 608.64844,226.39131 540.64233,230.59237 484.70161,198.56508 318.32312,103.30974 254.26073,314.76642 333.0402,325.35026" fill="#1c92cd" />
    <path d="M 673.15825,337.01311 C 594.06766,339.45923 512.32469,425.12772 398.11186,314.48065" style="fill:none;stroke:#1c92cd;stroke-width:7.5;stroke-linejoin:round" />
    <g>
      <path d="M 473.88186,335.29061 C 506.00196,377.53911 562.65093,383.82694 596.1614,348.68898 612.61014,357.69863 628.00457,371.73755 637.44974,391.84439 655.46417,430.19343 769.7771,421.08116 755.09578,384.18646 730.41809,322.17054 638.83956,286.90485 568.11816,286.39141 545.73027,286.22888 534.87892,311.9598 498.47105,297.12356 Z" fill="#6dc6fb" />
      <path d="M 583.60886,342.60963 C 583.60886,342.60963 585.30294,344.08781 589.68195,347.1682 592.42211,349.09575 602.90012,356.13192 611.38377,363.64892 612.41978,364.56689 613.48594,365.53997 614.57125,366.56808 620.25959,371.95663 628.06354,380.68297 634.05557,393.4388 635.33144,396.15485 637.03194,398.6734 639.1105,400.98864 641.12553,403.2331 643.48548,405.27509 646.13974,407.11883 651.24628,410.666 657.45493,413.4875 664.40463,415.60223 677.51339,419.5911 693.40114,421.08567 708.80407,419.97207 716.16894,419.4396 723.40799,418.30732 730.02996,416.5605 736.51048,414.85099 742.49377,412.52756 747.39177,409.54317 749.82158,408.06268 752.02145,406.39689 753.88657,404.53081 755.74387,402.67254 757.29007,400.59432 758.38343,398.28715 759.47777,395.9779 760.09667,393.48327 760.14134,390.83716 760.1858,388.20385 759.66033,385.51475 758.58006,382.79998 752.15063,366.64259 741.41084,352.36153 727.94549,340.04787 714.31718,327.58518 697.94889,317.18163 680.48972,308.84174 662.4377,300.21865 643.24081,293.81094 624.53863,289.51278 604.64852,284.94161 585.41943,282.76692 568.14539,282.64151 564.90068,282.61795 561.94398,283.07714 559.23883,283.78732 556.37859,284.5382 553.73998,285.58715 551.35568,286.67373 545.81412,289.19913 541.215,291.93715 537.00481,293.84422 534.68082,294.89691 532.573,295.70284 530.52027,296.32449 527.28254,297.305 524.3093,297.91228 521.39405,298.26 514.87212,299.03791 508.84866,298.43658 504.7422,297.92957 500.62002,297.42063 498.47105,297.12356 498.47105,297.12356 498.47105,297.12356 500.023,298.54142 503.9239,300.54969 507.63544,302.46049 513.97268,305.03991 521.73532,305.10569 525.21588,305.13519 528.86549,304.66203 532.69402,303.5026 535.11178,302.7704 537.52916,301.84025 540.09939,300.67603 544.74386,298.57224 549.4936,295.76441 554.46585,293.49845 556.61888,292.51727 558.83571,291.64729 561.14323,291.0415 563.30778,290.47326 565.60193,290.12324 568.09094,290.14131 584.79286,290.26257 603.47698,292.36789 622.85876,296.82223 641.0834,301.01063 659.73942,307.24147 677.257,315.60927 694.19743,323.70138 709.91052,333.71857 722.88416,345.58257 735.69782,357.30029 745.68465,370.67854 751.6115,385.57294 752.36834,387.47489 752.66824,389.18039 752.64241,390.71054 752.6166,392.23938 752.26444,393.68581 751.60596,395.07531 750.9395,396.48165 749.93836,397.87171 748.58191,399.22887 747.21643,400.59505 745.51293,401.90542 743.48934,403.13841 739.38527,405.63904 734.12774,407.72298 728.11699,409.30857 722.00743,410.92022 715.23462,411.98757 708.26325,412.49159 693.6236,413.55001 678.6769,412.10561 666.58799,408.42707 660.19518,406.4818 654.73871,403.96006 650.41849,400.9591 648.18211,399.40564 646.27296,397.73994 644.69137,395.97826 643.06361,394.16516 641.78481,392.25297 640.84391,390.24998 634.34032,376.40517 625.8715,366.94189 619.72913,361.12324 618.5561,360.01203 617.39374,358.97683 616.25279,358.01381 605.64505,349.06032 595.86581,345.4118 591.18296,344.03592 585.88723,342.47998 583.60886,342.60963 583.60886,342.60963 Z" inkscape:path-effect="#path-effect4668" inkscape:original-d="M 583.60886,342.60963 C 604.26349,350.85321 625.56573,366.54576 637.44974,391.84439 655.46416,430.19343 769.7771,421.08116 755.09578,384.18646 730.41809,322.17054 638.83956,286.90485 568.11816,286.39141 545.73027,286.22888 534.87892,311.9598 498.47105,297.12356" fill="#1c92cd" />
      <path d="M 473.88186,335.29061 C 473.88186,335.29061 474.61618,338.10779 478.43844,343.66672 481.97074,348.80396 489.50097,357.85507 502.55144,364.84616 509.40742,368.51889 520.27919,373.22066 534.06904,374.74262 545.69,376.02521 557.47631,374.82435 568.60965,370.91768 582.92076,365.89593 592.71253,357.63899 598.72112,351.31663 L 593.28462,346.14995 C 587.82791,351.89162 578.99932,359.32362 566.12636,363.84072 556.10728,367.3564 545.45514,368.45374 534.89181,367.28789 522.33985,365.90255 512.40241,361.61493 506.09306,358.23503 494.6768,352.11937 485.52025,344.64458 481.20153,341.13141 476.18404,337.04981 473.88186,335.29061 473.88186,335.29061 Z" inkscape:path-effect="#path-effect4672" inkscape:original-d="M 473.88186,335.29061 C 506.00196,377.53911 562.65093,383.82694 596.00287,348.73329" fill="#1c92cd" />
    </g>
    <g>
      <g inkscape:path-effect="#path-effect5832" transform="matrix(1.3024675.40027906-.43479557 1.9205446 352.23744 255.30132)">
        <g fill="#54a2e1">
          <path d="M 15.702818,-10.133218 C 13.216585,-5.4259261 11.413682,-2.3196399 9.4325975,0.09815315 5.1324854,5.3624923 0.75610397,5.722543 -2.4442852,5.5325825 -2.5439702,6.2280761 -2.6304114,6.925035 -2.703604,7.6231673 3.3660587,9.6074606 9.6447326,8.5197416 14.986076,-0.0413784 15.177045,-0.34738141 15.368061,-0.66330376 15.559623,-0.9896893 15.364246,-4.0593642 15.419589,-7.1258792 15.702818,-10.133218 Z" inkscape:original-d="M 20.3,-9 C 14.8,5 5.8,5.6 0.4,5.3 L -0.1,7.2 C 6.5,9 15.6,8.4 21.6,-0.4 Z" />
          <path d="M 21.03502,-11.507519 C 19.344537,-4.2365234 16.426392,0.28296644 13.442732,2.9626465 10.42299,5.6747333 7.1733339,6.6863712 4.3938516,7.0217329 3.1854024,7.1660241 2.0490895,7.1851821 1.0368505,7.1584353 0.78319424,7.7056824 0.52573824,8.2465276 0.26461541,8.7804978 1.9420014,9.1635737 3.7930797,9.3838066 5.7164214,9.3190998 5.7164213,9.3190996 5.7164226,9.3190997 5.7164226,9.3190997 11.604599,9.1120622 18.241916,6.2022797 22.268734,-2.6024639 21.909315,-5.5419474 21.502411,-8.5398911 21.03502,-11.507519 Z" inkscape:original-d="M 20.3,-9 C 14.8,5 5.8,5.6 0.4,5.3 L -0.1,7.2 C 6.5,9 15.6,8.4 21.6,-0.4 Z" transform="rotate(120)" />
          <path d="M 19.9803,-6.0519157 C 17.466125,-0.0680254 14.432613,2.3916628 11.370614,3.2195576 8.3387112,4.0393148 4.9899184,3.3090936 2.422,2.709224 2.4340903,2.6484474 2.0667939,4.4978824 2.0788843,4.4371058 5.2410699,5.8683449 8.8229611,7.1671143 11.935117,7.3046564 15.114277,7.4451598 18.003945,6.423675 20.557945,3.1712524 20.44735,0.05832353 20.258379,-3.0044559 19.9803,-6.0519157 Z" inkscape:original-d="M 20.3,-9 C 14.8,5 5.8,5.6 0.4,5.3 L -0.1,7.2 C 6.5,9 15.6,8.4 21.6,-0.4 Z" transform="rotate(-120)" />
        </g>
        <g fill="#5a318e">
          <path d="M 18.527162,-5.0521996 C 16.853268,0.89796733 13.449887,4.2648723 9.7462272,5.9711409 5.9750393,7.7085197 2.1835059,7.646701 -0.6700666,7.2510309 -0.67763166,7.2924005 -0.96854829,8.8855904 -0.97611335,8.9269599 2.6105061,10.043413 6.9020797,10.303838 11.160078,9.1388802 15.372616,7.9863598 19.314253,5.4825819 21.757131,1.5126222 20.61062,-0.59502075 19.537611,-2.7640126 18.527162,-5.0521996 Z" inkscape:original-d="M 20.3,-9 C 14.8,5 5.8,5.6 0.4,5.3 L -0.1,7.2 C 6.5,9 15.6,8.4 21.6,-0.4 Z" transform="rotate(60)" />
          <path d="M 19.809783,-9.6452664 C 19.016244,-5.5894198 17.496382,-2.4818447 15.86239,-0.26217602 15.86239,-0.26217602 15.862389,-0.26217479 15.862389,-0.26217479 11.31322,5.9009307 5.6676425,6.0676513 2.6135027,5.8607353 2.3715726,6.5279756 2.1175843,7.1922494 1.8517439,7.8531616 4.4364942,8.7784879 7.688305,9.1312645 11.117708,8.1202417 14.469558,7.1320826 18.355646,4.6804638 21.17802,-0.12268156 21.17802,-0.12268077 21.173751,-0.19809089 21.173751,-0.1980901 20.993147,-3.3475313 20.533759,-6.5077629 19.809783,-9.6452664 Z" inkscape:original-d="M 20.3,-9 C 14.8,5 5.8,5.6 0.4,5.3 L -0.1,7.2 C 6.5,9 15.6,8.4 21.6,-0.4 Z" transform="scale(-1)" />
          <path d="M 22.051986,-6.8551142 C 18.412648,-3.6605205 14.676729,-1.5420038 10.883329,-0.1480359 7.1472632,1.2248635 3.7244383,1.7537469 0.88957768,1.9897802 0.09376317,2.0572185 -0.64587833,2.1021984 -1.3289044,2.1388895 -1.5589923,2.7291363 -1.7858729,3.3259948 -2.0090293,3.928542 -0.7151383,4.0847703 0.69589713,4.1707708 2.1940344,4.175157 8.2137263,4.2032531 16.009729,2.8162336 22.3424,-0.83931522 22.208629,-2.8911742 22.104158,-4.9090685 22.051986,-6.8551142 Z" inkscape:original-d="M 20.3,-9 C 14.8,5 5.8,5.6 0.4,5.3 L -0.1,7.2 C 6.5,9 15.6,8.4 21.6,-0.4 Z" transform="rotate(-60)" />
        </g>
        <path d="M -11.506255,4.7315776 C -11.439517,3.2436741 -11.312861,1.76185 -11.125749,0.2904318 -10.80515,-2.2424267 -10.305391,-4.7551685 -9.6348874,-7.2212008 -6.4650717,-8.7835163 -3.3265203,-10.288027 -0.03861985,-11.845853 1.8774116,-9.6440843 4.0018497,-7.3840681 6.2421782,-5.1370435 5.8607941,-3.3768736 5.5623774,-1.602884 5.3509439,0.17698286 5.0900856,2.3610377 4.962446,4.5635013 4.9727676,6.7729396 2.1879893,8.5072727 -0.37487885,10.158841 -3.0299511,11.899524 -6.0004421,9.5519031 -8.8759367,7.1141123 -11.506255,4.7315776 Z" inkscape:original-d="M -10.18,4.52 -9,-6.55 1.17,-11.07 10.18,-4.52 9,6.55 -1.17,11.07 Z" fill="none" stroke="#576ab7" />
      </g>
      <path d="M 394.54541,216.87036 C 430.93971,230.93256 435.1914,279.06252 407.40745,307.05868 437.7436,309.08042 478.78106,322.94854 501.75464,343.80302 533.77084,372.86603 446.5651,439.12579 420.29091,416.76913 386.9485,388.39812 350.43834,373.49033 314.3553,370.58934 390.55152,336.40092 355.5219,261.97498 394.54541,216.87036 Z" fill="#6dc6fb" />
      <path d="M 394.54541,216.87036 C 394.54541,216.87036 399.51919,219.45748 407.21922,227.70527 409.99325,230.67664 413.11615,234.62989 415.82377,239.76239 416.68269,241.39055 417.51061,243.1578 418.27436,245.06848 420.22783,249.95548 422.50137,258.07633 421.61614,268.61188 420.7267,279.19748 417.05205,287.42007 414.125,292.51814 412.9916,294.49218 411.80977,296.32793 410.61189,298.02907 403.76071,307.75864 395.72163,313.94991 391.16786,317.23324 386.24932,320.77957 383.83322,322.295 383.83322,322.295 383.83322,322.295 386.6755,322.34835 392.70458,320.16676 398.30038,318.14195 408.22397,313.30741 416.55064,302.3934 417.97398,300.52779 419.34864,298.48285 420.62918,296.25252 423.93055,290.50251 428.08331,281.21852 429.0898,269.23986 430.0944,257.2837 427.5165,247.98334 425.23859,242.28469 424.35153,240.06552 423.34372,238.03048 422.26192,236.17541 418.82556,230.28279 414.65177,226.20531 410.92905,223.47814 405.92954,219.81562 401.31266,218.25255 398.67339,217.576 395.86217,216.85538 394.54541,216.87036 394.54541,216.87036 Z" inkscape:path-effect="#path-effect3478" inkscape:original-d="M 394.54541,216.87036 C 439.38041,234.19392 435.43463,303.21994 383.83322,322.295" fill="#1c92cd" />
      <path d="M 315.15445,317.39343 C 292.96984,344.22117 299.2866,369.37785 314.3553,370.58934 350.43834,373.49033 386.9485,388.39812 420.29091,416.76913 446.5651,439.12579 533.77084,372.86603 501.75464,343.80302 478.78106,322.94854 437.7436,309.08042 406.91261,307.22852" style="fill:none;stroke:#1c92cd;stroke-width:7.5;stroke-linejoin:round" />
    </g>
    <g>
      <path d="M 507.16041,225.68161 C 563.95228,283.3169 509.73529,346.56783 459.79015,309.83067 385.76591,255.38195 369.83996,175.28459 378.73765,167.04563 388.39231,158.10568 440.80983,180.61339 489.05195,213.75873 Z" fill="#6dc6fb" />
      <path inkscape:original-d="M 507.16041,225.68161 C 563.95228,283.3169 509.73529,346.56783 459.79015,309.83067 385.76591,255.38195 369.83996,175.28459 378.73765,167.04563 388.39231,158.10568 440.80983,180.61339 489.05195,213.75873" inkscape:path-effect="#path-effect4544" d="M 507.16041,225.68161 C 507.16041,225.68161 509.54883,228.95492 514.07174,236.30815 518.30415,243.1891 524.91099,254.99849 527.04049,268.89468 527.11675,269.39234 527.18744,269.89335 527.25219,270.39758 528.50175,280.12711 527.07524,291.35245 520.41395,301.01777 517.66544,305.00577 514.08352,308.5978 509.69433,311.37875 505.66744,313.93015 500.95775,315.79629 495.6985,316.57642 490.75627,317.30952 485.28427,317.08749 479.47922,315.50797 473.92772,313.99745 468.02085,311.22957 462.01214,306.80986 444.17892,293.6926 429.47965,278.84446 417.61795,263.42231 406.11689,248.46905 397.59715,233.38079 391.60678,219.61332 388.62839,212.76819 386.30024,206.30652 384.54937,200.41885 382.78328,194.47995 381.61421,189.15802 380.9489,184.62966 380.61276,182.34171 380.40711,180.26947 380.31552,178.42966 380.22281,176.56743 380.2483,174.97001 380.36518,173.64189 380.48468,172.28397 380.6929,171.28736 380.92266,170.60431 381.03692,170.26463 381.14395,170.04031 381.22272,169.90423 381.29916,169.77218 381.3362,169.75023 381.28549,169.79718 381.4326,169.66096 381.71951,169.46368 382.25598,169.27938 382.80875,169.08947 383.55901,168.93714 384.5386,168.86705 386.59619,168.71984 389.29737,168.95885 392.54512,169.59254 395.98282,170.26329 399.8582,171.3406 403.97764,172.715 408.48399,174.21849 413.21968,176.05603 417.95665,178.07098 427.78556,182.25188 437.39472,187.09569 445.3909,191.41338 445.94436,191.71223 450.45755,194.15445 451.01101,194.4533 465.25213,202.16451 473.03589,206.34508 480.12094,209.79989 486.30006,212.81296 489.05195,213.75873 489.05195,213.75873 489.05195,213.75873 487.24185,211.46989 481.98291,206.96646 476.90824,202.62083 467.8178,195.60538 454.63076,187.98557 452.81677,186.9374 450.92255,185.87677 448.95436,184.81401 440.82708,180.42552 431.00013,175.46893 420.89235,171.16941 416.01841,169.0962 411.0911,167.1819 406.3513,165.60053 402.03178,164.15938 397.83061,162.9824 393.98141,162.23135 390.40459,161.53346 386.98137,161.1731 384.00336,161.38617 382.55886,161.48953 381.13854,161.73302 379.81915,162.18629 378.52127,162.63218 377.26073,163.30244 376.1898,164.29409 375.58772,164.8516 375.11111,165.49155 374.73175,166.14693 374.35516,166.79751 374.0552,167.49625 373.81406,168.21313 373.34056,169.62075 373.04786,171.2366 372.89405,172.98443 372.74099,174.7237 372.71879,176.67319 372.8248,178.80257 372.92991,180.91408 373.1624,183.2276 373.52856,185.71985 374.25259,190.64793 375.50632,196.32151 377.3605,202.55663 379.20063,208.74449 381.63403,215.49127 384.72958,222.60566 390.9537,236.91037 399.781,252.53325 411.673,267.99478 423.94234,283.94693 439.14072,299.29712 457.56818,312.85149 464.27,317.78101 471.00775,320.97562 477.51011,322.74487 484.31234,324.59571 490.82944,324.88073 496.79895,323.99524 503.14465,323.05396 508.84054,320.79838 513.70839,317.71415 519.00112,314.36072 523.30909,310.03344 526.58937,305.27384 534.53831,293.74018 536.11639,280.54012 534.6911,269.44221 534.61705,268.86569 534.53395,268.29394 534.44233,267.72722 531.83913,251.62471 523.05819,240.42551 516.95711,234.06825 510.76341,227.61449 507.16041,225.68161 507.16041,225.68161 Z" fill="#1c92cd" />
      <path d="M 468.13739,199.93984 C 466.25706,206.09427 467.77052,211.9367 474.85225,218.81426 455.74358,216.55394 455.60728,228.13517 480.99661,251.81633 457.28103,251.08677 453.17759,257.5896 479.505,285.4708 455.81727,282.74782 451.56157,293.49423 467.01728,314.6443" fill="none" stroke="#1c92cd" stroke-width="6" />
      <path d="M 460.72562,288.1995 C 430.37566,258.21874 403.37324,226.1727 378.91995,192.5541 M 466.39496,253.1511 C 435.23531,225.12916 406.99156,196.8589 378.46721,167.82521 M 470.28867,218.36686 397.22455,166.69117" fill="none" stroke="#1c92cd" stroke-width="4" />
    </g>
    <g>
      <path d="M 672.5832,146.28743 C 581.53229,159.96118 477.66706,212.29108 433.74592,274.50174 431.25372,254.95304 432.39171,234.63767 440.26368,219.8158 407.12,229.22354 371.41932,224.70219 347.01137,199.62393 373.95763,203.79113 400.53102,197.52143 416.90926,183.01969 375.00865,185.53414 334.87277,168.89099 316.62164,120.89307 435.76735,183.16381 577.09661,87.423646 685.11758,100.51636 Z" fill="#f3a4d9" />
      <path d="M 679.66241,121.52438 672.5832,146.28743 C 581.53229,159.96118 477.66706,212.29108 433.74592,274.50174 431.25372,254.95304 432.39171,234.63767 440.26368,219.8158 407.12,229.22354 371.41932,224.70219 347.01137,199.62393 442.37823,246.24137 468.94783,140.56358 679.66241,121.52438 Z" fill="#961370" />
      <path d="M 672.5832,146.28743 C 581.53229,159.96118 477.66706,212.29108 433.74592,274.50174 431.25372,254.95304 432.39171,234.63767 440.26368,219.8158 407.12,229.22354 371.41932,224.70219 347.01137,199.62393 373.95763,203.79113 400.53102,197.52143 416.90926,183.01969 375.00865,185.53414 334.87277,168.89099 316.62164,120.89307 435.76735,183.16381 577.09661,87.423646 685.11758,100.51636 Z" style="fill:none;stroke:#d91e9b;stroke-width:7.5;stroke-miterlimit:20" />
    </g>
    <g transform="translate(12.020816)">
      <path d="M 708.82489,133.13778 C 733.36288,155.16313 730.1962,183.68145 706.3261,197.87569 740.24472,202.20768 759.09781,187.14716 772.13055,159.67297 788.00526,180.36396 788.89345,201.72804 770.48649,221.75094 803.07152,222.33423 820.58583,207.76054 827.41006,182.88216 843.44826,201.66459 845.97523,224.22089 829.60625,246.39357 857.65725,245.82344 873.68207,231.89255 882.27931,204.68409 896.82194,224.20944 895.81316,245.59879 881.92836,266.54482 972.06526,237.37778 957.47052,78.854038 822.38654,93.382728 780.98203,97.835908 741.69992,95.061489 703.14388,83.594366 Z" fill="#f3a4d9" />
      <path d="M 708.82489,133.13778 C 733.36288,155.16313 730.1962,183.68145 706.3261,197.87569 740.24472,202.20768 759.09781,187.14716 772.13055,159.67297 788.00526,180.36396 788.89345,201.72804 770.48649,221.75094 803.07152,222.33423 820.58583,207.76054 827.41006,182.88216 843.44826,201.66459 845.97523,224.22089 829.60625,246.39357 881.58873,220.62097 885.40936,127.86927 814.40202,125.98507 775.88649,124.96305 736.05822,117.14273 705.442,103.69906 Z" fill="#961370" />
      <path d="M 708.82489,133.13778 C 733.36288,155.16313 730.1962,183.68145 706.3261,197.87569 740.24472,202.20768 759.09781,187.14716 772.13055,159.67297 788.00526,180.36396 788.89345,201.72804 770.48649,221.75094 803.07152,222.33423 820.58583,207.76054 827.41006,182.88216 843.44826,201.66459 845.97523,224.22089 829.60625,246.39357 857.65725,245.82344 873.68207,231.89255 882.27931,204.68409 896.82194,224.20944 895.81316,245.59879 881.92836,266.54482 972.06526,237.37778 957.47052,78.854038 822.38654,93.382728 780.98203,97.835908 741.69992,95.061489 703.14388,83.594366 Z" fill="none" stroke="#d91e9b" stroke-width="7.5" />
      <path d="M 858.32347,199.80349 C 1011.6311,108.14258 1007.8685,102.60272 831.60791,150.28944" style="clip-path:url(#clipPath3463);fill:#6dc6fb;stroke:#1c92cd;stroke-width:7.5" />
      <path d="M 919.15386,127.30925 C 926.14633,138.48534 937.09545,143.25436 951.1152,141.94008 M 886.2793,135.85064 C 888.02206,151.12687 904.80907,160.76026 923.41817,160.29925 M 854.30356,143.59161 C 852.78211,164.68117 873.06774,177.5176 896.21504,177.48126" fill="none" stroke="#1c92cd" stroke-width="4" />
      <path d="M 908.77168,169.18666 C 898.35257,159.73595 892.9446,147.62812 893.1046,134.09273 885.41698,136.03018 877.13685,138.1682 868.26165,140.49905 867.4825,157.13574 874.10699,171.49887 886.07774,183.10157 894.23941,178.14918 901.80505,173.51365 908.77168,169.18666 Z" fill="#ebebeb" />
      <path d="M 894.75232,147.39111 869.04636,155.69375 873.9971,168.03247 897.69823,154.50824 Z" fill="#fff" />
      <path d="M 868.55201,164.23185 C 868.55201,164.23185 869.11277,165.9231 871.05954,169.56817 872.8707,172.95931 876.53423,179.07228 883.46817,185.79311 884.16467,186.46821 884.8739,187.13007 885.59546,187.77832 885.59546,187.77832 888.02344,186.30637 888.02344,186.30637 894.41377,182.42883 902.51887,177.48379 910.75065,172.37103 912.22982,171.45232 913.7077,170.53155 915.1843,169.60872 913.83567,168.60547 912.53658,167.53729 911.29162,166.40796 906.75887,162.29622 902.96188,157.38874 900.3956,151.64126 897.83128,145.89814 896.78577,139.96606 896.85471,134.13603 896.8742,132.48759 896.98275,130.84142 897.17989,129.20469 895.51556,129.61935 893.85179,130.03624 892.18859,130.45538 883.10022,132.74571 874.26322,135.04438 867.30945,136.87078 867.30945,136.87078 864.70913,137.55481 864.70913,137.55481 864.62378,138.47572 864.55945,139.39846 864.51618,140.32231 863.66696,158.4535 868.55201,164.23185 868.55201,164.23185 Z M 875.49659,161.39939 C 875.49659,161.39939 874.87436,160.11996 873.9359,156.96367 873.19993,154.48841 871.98932,149.76862 871.95178,143.40704 874.99867,142.60559 882.08085,140.76097 889.52079,138.86781 889.94949,144.13356 891.21326,149.47178 893.54726,154.69907 895.88485,159.93438 899.05773,164.52507 902.75068,168.50406 899.64198,170.44174 892.58189,174.7593 886.66203,178.35829 881.74531,173.16448 879.05596,168.62031 877.67512,166.03488 875.98032,162.86161 875.49659,161.39939 875.49659,161.39939 Z" inkscape:path-effect="#path-effect4023" inkscape:original-d="M 872.0243,162.81562 C 875.06829,170.27882 879.84953,177.06324 886.07812,183.10041 894.23972,178.14809 901.80555,173.51239 908.7721,169.18546 898.35321,159.7343 892.94492,147.62708 893.10497,134.09169 885.41739,136.02901 877.13746,138.16665 868.26207,140.49776 867.88829,148.47818 869.21806,155.93534 872.0243,162.81562 Z" fill="#d7d7d7" />
      <path d="M 859.0912,217.07509 C 878.843,180.02196 867.70699,127.39954 814.40202,125.98507 Z" fill="#961370" />
    </g>
    <g>
      <path d="M 721.49305,149.72119 C 735.8689,110.09238 724.50426,69.859276 714.35084,65.599277 700.61878,59.837871 612.80184,115.10308 646.36844,216.33961 Z" fill="#6dc6fb" />
      <path d="M 721.49305,149.72119 C 721.49305,149.72119 722.91114,148.05344 725.05314,143.52034 727.11504,139.15677 730.06606,131.43308 731.37781,120.75508 731.84499,116.95208 732.1016,112.77563 732.01786,108.32316 731.9395,104.15682 731.62635,99.198831 730.82957,93.844923 730.27458,90.115731 729.50215,86.316728 728.47551,82.632448 727.56482,79.364232 726.46617,76.232346 725.18565,73.415717 723.99716,70.801491 722.63288,68.417716 721.1032,66.4846 720.35945,65.544686 719.55301,64.681432 718.68178,63.945655 717.82324,63.220597 716.86282,62.586521 715.80168,62.141307 714.96944,61.792133 714.10117,61.600511 713.25493,61.509143 712.4075,61.417648 711.53184,61.421239 710.6516,61.492837 708.90118,61.635216 706.98301,62.059165 704.97675,62.695415 702.9505,63.338007 700.76724,64.218651 698.48135,65.313646 696.17089,66.420407 693.74218,67.75255 691.24472,69.294829 686.10407,72.469391 680.71765,76.505085 675.43733,81.290749 669.82392,86.378293 664.47271,92.182173 659.63169,98.5832 647.47828,114.65304 640.4287,131.89988 637.21654,148.55701 636.37681,152.9116 635.8314,157.04827 635.49492,160.9091 633.84708,179.81633 637.84616,195.18463 640.82021,203.75504 643.97696,212.85196 646.36843,216.33961 646.36843,216.33961 646.36843,216.33961 645.71426,212.09723 644.4667,202.88006 643.30526,194.29918 641.45397,178.91575 642.96659,161.56029 643.28244,157.93624 643.79404,154.05735 644.58087,149.97714 647.5868,134.38937 654.18689,118.21617 665.61359,103.10723 670.16876,97.084161 675.20264,91.625441 680.47391,86.847987 685.43628,82.350485 690.45831,78.595305 695.18543,75.676119 697.47957,74.259392 699.67462,73.058129 701.72145,72.077649 703.75206,71.104939 705.6082,70.36328 707.24397,69.84452 708.8855,69.323936 710.22979,69.051917 711.25964,68.968149 711.76969,68.926662 712.16233,68.934765 712.44984,68.965807 712.73117,68.996182 712.88181,69.049616 712.90002,69.057254 713.11403,69.147048 713.4324,69.32918 713.84266,69.675655 714.25608,70.024801 714.72084,70.505457 715.22181,71.138551 716.26531,72.457264 717.33599,74.271424 718.35811,76.519696 719.44767,78.916305 720.42218,81.672129 721.25076,84.645637 722.18274,87.99023 722.89522,91.481412 723.41127,94.948924 724.15194,99.925832 724.44567,104.55565 724.51918,108.4642 724.5976,112.63333 724.52219,116.55635 724.36162,120.16052 723.93212,129.80144 722.793,138.4501 722.26084,142.70228 721.65378,147.55304 721.49305,149.72119 721.49305,149.72119 Z" inkscape:path-effect="#path-effect3039" inkscape:original-d="M 721.49305,149.72119 C 735.8689,110.09238 724.50425,69.859267 714.35084,65.599277 700.61878,59.837871 612.80184,115.10308 646.36843,216.33961" fill="#1c92cd" />
      <path d="M 694.54597,104.28593 C 674.35082,122.00538 663.81237,147.41292 664.61782,173.54214 669.40973,148.25431 677.69379,125.8459 694.54597,104.28593 Z" fill="#1c92cd" />
    </g>
  </g>
  <g mask="url(#mask3386)">
    <g opacity=".6">
      <path d="M 796.76646,786.89877 C 792.67953,769.15125 797.82704,750.22077 812.48918,740.69845 L 1014.0326,737.32556 C 1022.0109,737.19205 1036.3451,791.26401 1033.6678,801.2797 1017.8458,860.46933 1002.243,939.83367 991.855,977.72041 988.30052,990.68414 987.67475,1002.9877 993.1703,1016.5808 965.22146,1018.3773 949.39596,997.39059 969.64314,971.16316 962.90733,923.04741 997.2742,912.63874 1009.8318,796.89099 1010.5726,790.06195 1006.5158,779.28452 999.9322,769.34436 Z" fill="#7689bb" />
      <g id="g3491">
        <path d="M 999.56198,766.79024 C 947.0885,771.34403 878.50685,777.29573 798.76186,784.21621 797.38025,776.76986 797.62994,768.80373 799.97768,761.47703 801.18335,757.71443 802.93854,754.12928 805.28997,750.91473 807.43161,747.98698 810.07658,745.35519 813.26321,743.18585 877.33382,742.11361 944.79677,740.98459 1014.0744,739.82521 1013.9694,739.82697 1013.9033,739.80312 1013.9143,739.80726 1013.9287,739.81271 1014.0025,739.84395 1014.1354,739.93975 1014.4132,740.14004 1014.8072,740.51856 1015.3002,741.15518 1015.7825,741.77801 1016.3069,742.5789 1016.8647,743.55763 1017.4189,744.53007 1017.9917,745.65246 1018.5765,746.90869 1019.743,749.41442 1020.9335,752.40098 1022.1008,755.6963 1023.2619,758.97388 1024.3917,762.53333 1025.4436,766.18814 1027.5386,773.46717 1029.309,781.07124 1030.386,787.45843 1030.9228,790.64118 1031.2806,793.48302 1031.4248,795.80553 1031.4968,796.96464 1031.5138,797.96809 1031.4784,798.80352 1031.4423,799.6536 1031.3548,800.25192 1031.2526,800.63409 1023.3247,830.2921 1015.4555,864.99132 1008.2843,896.94113 1004.6826,912.98814 1001.2766,928.25334 998.11016,941.92764 994.92877,955.66645 992.02008,967.66386 989.44397,977.05933 987.60199,983.77734 986.52975,990.31776 986.61912,996.94828 986.6964,1002.6822 987.64247,1008.379 989.61408,1014.1875 984.30033,1014.1582 979.65049,1013.2203 975.81783,1011.6228 973.46212,1010.641 971.4171,1009.4116 969.69973,1007.9897 967.95999,1006.5492 966.55107,1004.9071 965.48392,1003.1064 964.40139,1001.2797 963.65902,999.27079 963.2835,997.10578 962.90154,994.90364 962.89593,992.5212 963.31393,989.98332 964.17612,984.74868 966.83446,978.89254 971.62206,972.69086 971.83621,972.41347 972.05268,972.13788 972.27146,971.86413 972.21874,971.5152 972.16791,971.16598 972.11899,970.8165 971.29014,964.89581 971.11134,959.64258 971.41616,954.76378 971.72793,949.77378 972.54983,945.11992 973.73537,940.5375 974.95155,935.83664 976.5644,931.16116 978.4237,926.28842 980.31587,921.32951 982.54342,915.96598 984.82071,910.32495 989.74722,898.12155 994.90711,884.5889 999.72027,866.84016 1004.9073,847.71284 1009.2859,825.10132 1012.3172,797.16069 1012.6041,794.51582 1012.2542,791.63433 1011.6279,788.90552 1011.1421,786.78842 1010.4693,784.67294 1009.7111,782.66209 1009.3145,781.61 1008.8857,780.59232 1008.4394,779.61949 1005.2027,772.56369 1001.0725,767.74908 998.70672,765.39952 996.16037,762.87063 994.8056,762.18189 994.8056,762.18189 994.8056,762.18189 995.33028,763.59024 996.87451,766.72316 997.88935,768.78204 1001.5318,775.85574 1003.9121,781.59899 1004.2921,782.51607 1004.6695,783.46303 1005.0327,784.42612 1005.7297,786.2747 1006.3295,788.17132 1006.7546,790.02394 1007.3133,792.45847 1007.5508,794.73749 1007.3464,796.62135 1004.3399,824.33338 1000.0054,846.68505 994.89456,865.53151 990.15471,883.00992 985.07537,896.33752 980.18427,908.45321 977.93425,914.0267 975.66712,919.48744 973.75222,924.50592 971.86009,929.4647 970.1761,934.33238 968.89474,939.28516 967.64184,944.12794 966.76036,949.0988 966.4259,954.45199 966.1171,959.39437 966.27447,964.65447 967.02768,970.47362 962.2577,976.85987 959.36754,983.17747 958.38041,989.1707 957.87915,992.21405 957.87169,995.16194 958.35705,997.96023 958.83486,1000.715 959.78617,1003.2993 961.18252,1005.6555 962.55759,1007.9758 964.351,1010.0525 966.511,1011.8409 968.64051,1013.6041 971.11945,1015.0815 973.8942,1016.238 979.33842,1018.5071 985.94464,1019.5504 993.33067,1019.0757 994.50457,1019.0002 995.6758,1018.8878 996.84263,1018.7387 996.36197,1017.7201 995.91027,1016.688 995.48809,1015.6438 992.89761,1009.2363 991.70216,1003.0755 991.61867,996.8809 991.53726,990.84079 992.51138,984.78086 994.266,978.38147 996.86971,968.88531 999.79663,956.80845 1002.9813,943.0556 1006.1526,929.36011 1009.5637,914.07207 1013.163,898.03614 1020.3371,866.07296 1028.1854,831.47004 1036.083,801.92531 1036.3156,801.05516 1036.4297,800.05711 1036.4739,799.01541 1036.5188,797.95779 1036.4945,796.77245 1036.4152,795.49569 1036.2565,792.93993 1035.8706,789.91327 1035.3164,786.62705 1034.2028,780.02341 1032.3866,772.23386 1030.2485,764.80522 1029.173,761.06844 1028.0131,757.41214 1026.8138,754.02679 1025.6107,750.63034 1024.3616,747.48839 1023.1094,744.79857 1022.4806,743.44788 1021.8455,742.19916 1021.2087,741.08181 1020.5723,739.96523 1019.9197,738.95425 1019.2533,738.09373 1018.5944,737.24283 1017.8651,736.46467 1017.0592,735.88377 1016.6491,735.58812 1016.1899,735.32224 1015.6827,735.13044 1015.1697,734.93648 1014.5999,734.81572 1013.9908,734.82591 944.44914,735.98971 876.73609,737.12291 812.44735,738.1988 L 811.72957,738.21081 811.1275,738.60183 C 807.1395,741.19184 803.86428,744.39488 801.25441,747.96274 798.55668,751.6507 796.56981,755.72688 795.21616,759.95127 792.32404,768.97686 792.30434,778.6624 794.33022,787.45979 L 794.81784,789.57727 796.9826,789.38941 C 877.67143,782.38702 947.03634,776.36735 999.99426,771.77152 Z" inkscape:path-effect="#path-effect1210" inkscape:original-d="M 999.77812,769.28088 796.76646,786.89877 C 792.67953,769.15125 797.82704,750.22077 812.48918,740.69845 L 1014.0326,737.32556 C 1022.0109,737.19205 1036.3451,791.26401 1033.6678,801.2797 1017.8458,860.46933 1002.243,939.83367 991.85498,977.72041 988.30052,990.68414 987.67475,1002.9877 993.17035,1016.5808 965.22146,1018.3773 949.39596,997.39059 969.64314,971.16316 962.90733,923.04741 997.27433,912.63875 1009.8318,796.89099 1010.7596,788.33894 1004.1632,773.59475 994.8056,762.18189" fill="#fff" />
        <path d="M 969.64314,971.16316 C 974.8236,975.74378 984.44313,978.54174 991.85498,977.72041" style="fill:none;stroke:#fff;stroke-width:5;stroke-miterlimit:12" />
      </g>
      <g>
        <path d="M 579.95977,274.49977 C 607.59629,315.12058 645.72899,342.32284 701.16776,348.54372 586.40431,369.61001 438.58872,335.68709 298.43455,446.56866 427.56105,453.41826 557.44399,471.28265 670.66553,506.67615 641.3984,511.47306 616.53584,521.14964 593.9889,536.98875 668.54848,535.39843 734.35659,542.787 794.59295,561.72347 L 1032.7361,362.63482 C 836.7833,250.62004 708.29533,345.20384 579.95977,274.49977 Z" fill="#8f9fc9" />
        <path d="M 670.66553,506.67615 C 641.3984,511.47306 616.53584,521.14964 593.9889,536.98875 668.54848,535.39843 734.35659,542.787 794.59295,561.72347 L 1004.9743,385.9597 C 858.96741,308.41817 797.87605,381.65001 632.22096,379.9502 407.21341,377.64139 422.61334,462.13716 559.26364,446.88959 680.78718,433.32989 680.3285,486.67829 641.27122,497.98689 651.40965,500.81906 661.09713,503.685 670.66553,506.67615 Z" fill="#7689bb" />
        <path d="M 579.95977,274.49977 C 607.59629,315.12058 645.72899,342.32284 701.16776,348.54372 586.40431,369.61001 438.58872,335.68709 298.43455,446.56866 427.56105,453.41826 557.44399,471.28265 670.66553,506.67615 641.3984,511.47306 616.53584,521.14964 593.9889,536.98875 668.54848,535.39843 734.35659,542.787 794.59295,561.72347 L 1032.7361,362.63482 C 836.7833,250.62004 708.29533,345.20384 579.95977,274.49977 Z" style="fill:none;stroke:#fff;stroke-width:5;stroke-miterlimit:20" />
      </g>
      <path d="M 1256.7793,472.51151 C 1249.1999,466.01763 1244.5313,459.9998 1240.3285,452.19861 1157.2991,451.47955 1112.1728,409.31669 1093.1031,362.28809 841.28276,307.53221 854.45874,644.65984 636.7468,601.17307 460.98205,566.06502 302.34209,596.88647 210.33846,704.9805 132.0635,796.94486 52.751858,777.28677 27.95726,647.21082 -12.150859,436.79799 -276.9573,500.01468 -249.97639,749.98754 -228.87363,578.40303 -49.933868,517.30838 -23.09809,698.685 2.979581,874.93775 112.66098,906.0586 239.28063,809.64216 333.02362,738.26015 463.12387,719.74693 600.05862,773.56214 942.17569,908.01378 914.55738,547.09498 1008.7319,479.85339 1016.3992,485.98581 1025.9936,488.0407 1035.9426,485.80113 1139.2569,462.54454 1200.2975,470.80882 1204.9957,502.99207 1230.1177,506.93165 1242.9363,498.71871 1242.2609,481.95887 1247.3561,479.65264 1252.0678,476.08246 1256.7793,472.51151 Z" fill="#7689bb" />
      <path d="M 273.72297,648.93644 C 249.99851,664.66404 228.82351,683.26262 210.33846,704.9805 132.0635,796.94486 52.751858,777.28677 27.95726,647.21082 -12.150859,436.79799 -276.9573,500.01468 -249.97639,749.98754 -228.87363,578.40303 -49.933869,517.30838 -23.09809,698.685 -6.0000708,814.24643 47.038078,867.41758 116.71412,863.1236 235.5282,858.58322 168.31133,723.28481 273.72297,648.93644 Z" fill="#8f9fc9" />
      <path d="M 1252.4682,475.81786 C 1253.9389,474.76618 1255.3777,473.66674 1256.7793,472.51151 1249.1999,466.01763 1244.5313,459.9998 1240.3285,452.19861 1157.2991,451.47955 1112.1728,409.31669 1093.1031,362.28809 841.28276,307.53221 854.45874,644.65984 636.7468,601.17307 460.98205,566.06502 302.34209,596.88647 210.33846,704.9805 132.0635,796.94486 52.751858,777.28677 27.95726,647.21082 -12.150859,436.79799 -276.9573,500.01468 -249.97639,749.98754 -228.87363,578.40303 -49.933868,517.30838 -23.09809,698.685 2.979581,874.93775 112.66098,906.0586 239.28063,809.64216 333.02362,738.26015 463.12387,719.74693 600.05862,773.56214 942.17569,908.01378 914.55738,547.09498 1008.2728,480.07173" fill="none" stroke="#fff" stroke-width="5" />
      <path d="M 996.93783,439.76557 C 996.93783,439.76557 996.31922,441.50218 995.81331,445.52654 995.34387,449.26073 994.9334,455.95686 996.75876,463.27966 997.57651,466.56023 998.87102,470.06659 1000.8775,473.42263 1002.1233,475.50627 1003.6773,477.64832 1005.6158,479.66791 1009.1198,483.31841 1013.7947,486.46593 1019.7463,488.0704 1024.703,489.40664 1030.3808,489.61568 1036.4916,488.2401 1061.3625,482.64153 1084.607,478.68927 1105.5261,476.63815 1125.391,474.6904 1142.7659,474.49739 1157.1753,476.0915 1164.2278,476.87173 1170.5058,478.07327 1175.9799,479.6768 1181.4361,481.27509 1186.045,483.25852 1189.8144,485.58551 1193.5905,487.9166 1196.4944,490.57365 1198.5835,493.50898 1200.6862,496.46355 1201.995,499.74341 1202.5219,503.3532 1202.6088,503.94827 1202.6735,504.54635 1202.716,505.14623 1203.3458,505.25758 1203.9766,505.36281 1204.6084,505.46189 1211.1976,506.49519 1216.8983,506.7039 1221.7633,506.2118 1226.9743,505.68471 1231.2082,504.35562 1234.563,502.39663 1236.3821,501.33436 1237.9222,500.09873 1239.2099,498.73261 1240.6067,497.25081 1241.6846,495.63886 1242.5017,493.96832 1243.4172,492.09647 1243.9967,490.16938 1244.3427,488.28841 1244.7563,486.03998 1244.8389,483.84358 1244.7589,481.8582 L 1239.7629,482.05954 C 1239.8317,483.76729 1239.7568,485.58121 1239.4252,487.38386 1239.1486,488.88764 1238.6961,490.36907 1238.0102,491.77141 1237.4001,493.01872 1236.6027,494.20908 1235.5715,495.30304 1234.6207,496.31176 1233.4592,497.2511 1232.0417,498.07888 1229.4246,499.60712 1225.9113,500.76672 1221.2601,501.23719 1217.3244,501.63528 1212.6402,501.53232 1207.1374,500.77995 1206.353,497.10761 1204.8595,493.70444 1202.6571,490.60982 1200.1192,487.04366 1196.6866,483.95195 1192.4409,481.33093 1188.2113,478.71981 1183.1712,476.57326 1177.3855,474.87843 1171.5769,473.17692 1165.0044,471.92714 1157.7251,471.12182 1142.8673,469.47811 1125.1262,469.69239 1105.0382,471.66201 1083.8676,473.73779 1060.4145,477.72982 1035.3936,483.36215 1030.0602,484.56272 1025.1936,484.36039 1021.0478,483.24275 1016.0781,481.90301 1012.1756,479.28158 1009.223,476.20549 1007.5825,474.49647 1006.2506,472.66597 1005.169,470.85686 1003.4307,467.94942 1002.1333,464.91197 1001.1456,462.00064 998.98138,455.62153 998.09353,449.10661 997.64326,445.52905 997.15322,441.63546 996.93783,439.76557 996.93783,439.76557 Z" id="path9016" inkscape:path-effect="#path-effect15828" inkscape:original-d="M 996.93783,439.76557 C 994.45833,475.31763 1014.3666,490.658 1035.9426,485.80113 1139.2569,462.54455 1200.2975,470.80882 1204.9957,502.99207 1230.1177,506.93165 1242.9363,498.71871 1242.2609,481.95887" fill="#fff" />
      <path d="M 1205.8823,471.00113 C 1205.8823,471.00113 1206.2878,474.06305 1210.2992,478.94357 1211.744,480.70143 1213.7595,482.685 1216.5408,484.40696 1218.2236,485.44885 1220.1996,486.40414 1222.5506,487.17685 1223.0317,487.33497 1223.5732,487.50231 1224.175,487.67187 1226.4229,488.30525 1229.2616,488.90148 1233.0144,489.30277 1233.2524,489.32822 1233.4906,489.35252 1233.7288,489.37566 1233.9419,489.27338 1234.1549,489.17082 1234.3678,489.06798 1238.8344,486.90996 1243.55,484.48321 1248.1218,481.68333 1252.7596,478.84302 1256.0616,476.34275 1258.3693,474.44071 L 1255.1893,470.58231 C 1253.0395,472.35417 1249.9267,474.71483 1245.5105,477.41941 1241.3525,479.96587 1237.0333,482.21176 1232.8403,484.25188 1229.7091,483.88322 1227.3611,483.37492 1225.531,482.85926 1225.0024,482.71033 1224.5294,482.56408 1224.1118,482.42682 1222.0824,481.75983 1220.3591,481.0259 1218.86,480.27931 1216.386,479.04727 1214.3374,477.6839 1212.6773,476.46376 1208.0381,473.05406 1205.8823,471.00113 1205.8823,471.00113 Z" id="path1013" inkscape:path-effect="#path-effect1015" inkscape:original-d="M 1205.8823,471.00113 C 1213.1012,481.46699 1221.0457,485.50869 1233.2802,486.81694 1241.6287,482.78338 1249.6794,478.3632 1256.7793,472.51151" fill="#fff" />
      <path d="M 697.61517,735.4846 C 689.85205,765.57992 697.60902,783.56654 707.84018,786.08435 L 905.53883,834.73616 C 908.86721,848.61284 909.75443,861.41383 905.23762,863.82283 804.25374,917.66905 781.91984,894.26086 746.4215,927.4326 713.32059,925.96389 705.26191,950.98279 722.81276,972.80791 730.76815,960.49179 741.20629,953.96645 753.83893,949.37216 790.96338,935.86939 863.69553,903.2497 923.92433,881.04282 933.65124,877.45552 937.05835,811.86846 929.46543,809.41526 L 737.65505,747.44828 Z" fill="#7689bb" />
      <g id="g3423">
        <path d="M 737.65505,747.44828 C 737.65505,747.44828 748.39512,753.54523 782.92099,764.69929 820.75361,776.92164 870.62187,793.03226 928.69688,811.79419 928.54071,811.74374 928.45944,811.67256 928.46423,811.6769 928.46896,811.68121 928.54557,811.75824 928.64871,811.92124 928.86841,812.26848 929.13776,812.86126 929.41301,813.77284 929.6785,814.65214 929.9243,815.74275 930.14136,817.04118 930.35431,818.31508 930.53517,819.76208 930.68104,821.36421 930.96667,824.50127 931.1135,828.18268 931.11364,832.21095 931.11376,836.12901 930.97491,840.3506 930.69512,844.64107 930.42191,848.8305 930.01476,853.07622 929.47603,857.1196 928.94806,861.08223 928.29564,864.83483 927.5274,868.11203 927.14883,869.72698 926.74467,871.21547 926.31765,872.54764 925.89327,873.87157 925.45344,875.01863 925.00509,875.96998 924.55578,876.92339 924.12672,877.6183 923.74175,878.08656 923.55382,878.31516 923.39489,878.46699 923.27153,878.56407 923.14986,878.65981 923.07829,878.69024 923.05928,878.69725 893.27833,889.67775 860.61522,903.12653 829.25778,916.16308 814.25125,922.4019 799.64947,928.50072 786.6614,933.80778 773.75181,939.08278 762.24989,943.65273 752.98441,947.02274 746.53307,949.36898 740.53789,952.24425 735.10768,956.16799 730.49976,959.49756 726.37093,963.53024 722.72434,968.52279 719.69993,964.17306 717.78525,959.8312 716.88328,955.76288 716.33177,953.27533 716.15935,950.89513 716.33446,948.66851 716.51127,946.42023 717.04257,944.3226 717.90264,942.41073 718.77255,940.47699 719.98755,938.7133 721.54433,937.15832 723.12361,935.58086 725.06817,934.20475 727.38715,933.08501 732.15426,930.78317 738.46904,929.5822 746.31068,929.93014 746.66022,929.94565 747.00962,929.9641 747.35885,929.98548 747.61417,929.74212 747.87068,929.50003 748.12839,929.25921 752.50454,925.16988 756.6128,922.01978 760.62475,919.50132 764.72156,916.92959 768.76165,914.98986 772.90405,913.4064 777.15135,911.78284 781.55579,910.51597 786.24675,909.35253 791.03226,908.16564 796.26829,907.05152 801.81381,905.82079 813.81904,903.15644 827.02522,899.98546 843.63732,894.17263 861.62513,887.87841 882.12055,878.982 906.41386,866.02884 907.00093,865.71579 907.50701,865.31761 907.93927,864.87008 908.3833,864.41035 908.74789,863.90039 909.04874,863.37468 909.67625,862.27817 910.07357,861.03037 910.33239,859.79801 910.61761,858.43994 910.75908,856.98117 910.81222,855.537 910.84245,854.71528 910.84461,853.88307 910.82572,853.05621 910.80709,852.24047 910.76179,851.42373 910.69599,850.61744 910.35781,846.47339 909.46971,842.4322 908.59338,839.30082 907.38394,834.97911 906.04509,831.79406 905.17182,829.96065 904.26526,828.05736 903.72725,827.29258 903.72725,827.29258 903.72725,827.29258 903.68609,828.22564 903.82499,830.31349 903.99058,832.80265 904.25628,835.23705 904.77504,840.04097 905.09951,843.04561 905.55111,847.25881 905.74235,850.95085 905.78088,851.69474 905.81031,852.43839 905.82703,853.17038 905.844,853.91343 905.84165,854.64513 905.8156,855.35315 905.76926,856.61263 905.64867,857.77263 905.43914,858.77033 905.24511,859.6942 904.99122,860.39825 904.70912,860.89119 904.5792,861.11821 904.45416,861.28125 904.34288,861.39647 904.23729,861.50579 904.14323,861.57318 904.06131,861.61686 879.96105,874.46709 859.70006,883.25476 841.98592,889.45322 825.63894,895.17328 812.64769,898.29475 800.73051,900.93956 795.24926,902.15602 789.90818,903.29294 785.04312,904.49956 780.24678,905.68914 775.62779,907.01238 771.11875,908.73599 766.70626,910.42269 762.36888,912.50295 757.96642,915.26655 753.90142,917.8183 749.78668,920.949 745.48084,924.89672 737.49794,924.66957 730.67221,925.94643 725.21304,928.58243 722.43212,929.92523 720.01775,931.61615 718.01084,933.62075 716.02999,935.59931 714.46488,937.86511 713.3428,940.35942 712.23457,942.82294 711.56937,945.48518 711.34985,948.2765 711.13278,951.03672 711.35221,953.91515 712.00181,956.84513 713.28359,962.62653 716.2436,968.62827 720.86455,974.37458 721.60185,975.29145 722.36783,976.18489 723.16134,977.05357 723.71753,976.07403 724.30158,975.11057 724.91276,974.16437 728.6946,968.30953 733.06095,963.8156 738.03607,960.22071 742.9866,956.64358 748.5351,953.96128 754.69339,951.72161 764.05489,948.31668 775.63068,943.71635 788.5526,938.43632 801.55926,933.12166 816.18316,927.01361 831.17721,920.77998 862.54021,907.74112 895.11615,894.32917 924.78916,883.38847 925.37939,883.17079 925.90339,882.85548 926.36361,882.49331 926.82428,882.13079 927.23567,881.70997 927.60409,881.26183 928.33819,880.36888 928.97214,879.28097 929.52798,878.10152 930.09296,876.90268 930.60819,875.54269 931.07901,874.0739 931.55491,872.58925 931.99327,870.96878 932.39543,869.25321 933.21046,865.77639 933.88909,861.85647 934.43223,857.77999 934.98737,853.6134 935.40483,849.2552 935.68452,844.96644 935.97098,840.57381 936.11377,836.24349 936.11364,832.21079 936.1135,828.07054 935.96295,824.23327 935.66044,820.91086 935.5058,819.21236 935.3106,817.63854 935.07293,816.2168 934.8321,814.77621 934.54365,813.46712 934.19957,812.32758 933.85478,811.18564 933.42712,810.12207 932.87398,809.24784 932.5898,808.79871 932.24631,808.35755 931.82614,807.97588 931.39757,807.58658 930.86897,807.24149 930.23405,807.03635 872.15896,788.27439 822.29071,772.16377 784.45809,759.94142 749.93222,748.78736 737.65505,747.44828 737.65505,747.44828 Z" inkscape:path-effect="#path-effect1135" inkscape:original-d="M 737.65505,747.44828 929.46543,809.41526 C 937.05835,811.86846 933.65124,877.45552 923.92433,881.04282 863.69553,903.2497 790.96338,935.86939 753.83893,949.37216 741.20629,953.96645 730.76815,960.49179 722.81276,972.80791 705.26191,950.98279 713.32059,925.96389 746.4215,927.4326 781.91984,894.26086 804.25288,917.66779 905.23762,863.82283 910.51001,861.01139 908.41949,844.04119 903.72725,827.29258" fill="#fff" />
        <path d="M 746.4215,927.4326 C 746.1803,935.16861 749.02461,943.36313 753.83893,949.37216" fill="none" stroke="#fff" stroke-width="5" />
        <path d="M 742.62631,671.85589 C 742.62631,671.85589 745.17308,673.03419 748.16924,676.86445 749.26027,678.2592 750.37191,680.08903 751.17618,682.46338 751.76712,684.20794 752.21486,686.31962 752.3053,688.76472 752.32118,689.19414 752.32602,689.63444 752.31842,690.08478 752.29159,691.6748 752.08267,693.47656 751.57615,695.38817 751.04445,697.39485 750.18333,699.52002 748.89413,701.53217 747.759,703.30387 746.2919,704.98504 744.46139,706.35645 742.78829,707.60993 740.78922,708.62062 738.44562,709.1748 736.24811,709.69443 733.68726,709.82649 730.75102,709.319 727.00361,708.67127 723.59874,707.21068 720.59903,705.0406 717.70093,702.94402 715.18291,700.18467 713.1438,696.89105 711.15721,693.68225 709.64351,689.99357 708.69894,686.01187 707.77149,682.10234 707.40094,677.94188 707.66134,673.75064 707.91894,669.60448 708.79263,665.4542 710.33278,661.52268 711.8658,657.60936 714.0552,653.92399 716.93934,650.67913 719.82966,647.42731 723.42246,644.61134 727.76917,642.43785 732.1585,640.24305 737.3219,638.70082 743.31208,638.02961 748.67987,637.42814 753.70719,637.96431 758.31001,639.39706 763.02886,640.86593 767.32821,643.28496 771.12626,646.4321 779.20186,653.12368 784.89305,662.97995 787.85863,674.04508 791.24026,686.66261 790.98285,700.27205 787.79911,713.221 783.66161,730.04909 775.02386,744.36284 765.22463,755.7355 L 769.01247,758.99928 C 779.20386,747.1715 788.28911,732.16979 792.65451,714.41478 796.01215,700.75852 796.31575,686.28588 792.68819,672.75073 789.51286,660.90296 783.34834,650.06607 774.31646,642.58208 770.05766,639.05315 765.18738,636.30119 759.79607,634.623 754.53101,632.98412 748.80799,632.3825 742.7553,633.06071 736.23407,633.79142 730.49472,635.48476 725.53299,637.96577 720.61643,640.42421 716.51442,643.63093 713.20219,647.35742 709.90109,651.07139 707.41213,655.27033 705.67726,659.69891 703.93645,664.14266 702.95887,668.80656 702.67096,673.44057 702.37999,678.12395 702.79276,682.77699 703.83396,687.16598 704.8939,691.63403 706.60455,695.82729 708.89259,699.52301 711.24277,703.31907 714.19413,706.5783 717.66836,709.09167 721.27552,711.7012 725.38951,713.46641 729.89942,714.24595 733.47592,714.8641 736.71856,714.72108 739.5962,714.04062 742.66096,713.31591 745.28127,711.98979 747.45933,710.35799 749.83235,708.58014 751.69219,706.43329 753.10414,704.22955 754.70698,701.72786 755.76169,699.11317 756.40937,696.66881 757.02742,694.33625 757.28457,692.13332 757.31771,690.16914 757.32709,689.61317 757.31667,689.06809 757.28822,688.53518 757.12544,685.48578 756.37704,682.8584 755.35716,680.72684 753.96374,677.81459 752.08377,675.84238 750.34677,674.56315 748.04531,672.86822 745.84932,672.26707 744.5965,672.03694 743.25841,671.79115 742.62631,671.85589 742.62631,671.85589 Z" inkscape:path-effect="#path-effect1139" inkscape:original-d="M 742.62631,671.85589 C 763.93664,678.69037 755.72687,716.17281 730.32524,711.78248 696.63548,705.95924 692.68795,641.18647 743.03369,635.54516 788.27966,630.47528 815.73201,700.94825 767.11855,757.36739" fill="#fff" />
        <path d="M 697.61517,735.4846 C 697.61517,735.4846 696.412,737.31994 694.87198,741.94489 693.42719,746.28387 691.50113,754.00646 692.11518,762.66426 692.35695,766.07307 692.86605,769.09873 693.56276,771.7551 694.81929,776.54593 696.71017,780.23453 698.89715,782.92069 700.09377,784.39044 701.39116,785.5759 702.74862,786.49078 704.19975,787.46879 705.71283,788.13324 707.23952,788.51112 852.8823,824.56022 904.91905,837.44022 904.91905,837.44022 L 906.12039,832.58668 C 906.12039,832.58668 854.08364,819.70669 708.44087,783.65759 707.49987,783.42468 706.52371,783.00549 705.54304,782.34455 704.62317,781.72459 703.68441,780.88137 702.77456,779.76384 701.1097,777.71897 699.50557,774.70504 698.39918,770.48662 697.78696,768.1524 697.32422,765.43455 697.10265,762.31049 696.56285,754.69988 697.08211,746.63757 697.32642,742.42001 697.60191,737.6642 697.61517,735.4846 697.61517,735.4846 Z" inkscape:path-effect="#path-effect1137" inkscape:original-d="M 697.61517,735.4846 C 689.85205,765.57992 697.61208,783.55272 707.84018,786.08435 L 905.51972,835.01345" fill="#fff" />
      </g>
      <path d="M 987.94082,390.04323 C 958.95409,380.43053 938.65147,362.81481 925.1541,336.50203 955.12523,351.40785 988.33357,344.19011 1008.5937,366.81408 Z" fill="#7689bb" />
      <g id="g3445">
        <path d="M 1224.2856,465.00661 C 1229.2129,465.2778 1232.5739,467.20015 1234.5951,471.53616 1229.8503,471.51839 1226.4113,469.38958 1224.2856,465.00661 Z" fill="none" stroke="#fff" stroke-width="2.5" />
        <path d="M 1071.1182,405.77907 C 1077.7945,415.74446 1077.2527,428.18947 1068.049,435.79576 1052.7709,435.43309 1039.5503,428.67272 1033.2506,420.63726 1045.1094,413.34354 1057.6329,408.69402 1071.1182,405.77907 Z" fill="#fff" />
        <path d="M 987.94082,390.04323 C 987.94082,390.04323 985.74507,388.77212 980.63864,386.03179 976.37721,383.74491 966.72749,378.63428 957.37048,371.642 955.90673,370.54817 954.20817,369.21469 952.3651,367.63631 945.41889,361.68764 937.83686,353.4914 930.91816,341.78672 936.50555,343.98138 942.07287,345.54001 947.4217,346.78054 955.9097,348.74913 963.69222,349.96138 970.02999,351.21615 975.41479,352.28224 979.23833,353.21479 982.54587,354.19474 985.4859,355.0658 988.01751,355.92916 990.29642,356.80757 997.11769,359.43685 1001.6727,362.24757 1004.4393,364.04792 1007.2913,365.90378 1008.5937,366.81408 1008.5937,366.81408 1008.5937,366.81408 1008.0332,365.33034 1005.7631,362.57605 1003.5555,359.89761 999.4408,355.83462 992.151,352.45136 989.76232,351.34275 987.06754,350.31957 983.96622,349.40072 980.47173,348.36539 976.49129,347.39832 971.00106,346.31135 964.54923,345.034 956.79278,343.82123 948.55136,341.90983 941.21438,340.20819 933.64643,337.93348 926.26737,334.26358 923.95408,333.1131 921.70049,331.84629 919.51524,330.46804 920.58187,332.8931 921.72052,335.28584 922.92968,337.64307 931.05638,353.48586 940.51102,364.06753 949.11279,371.43401 951.05181,373.09456 952.83844,374.49715 954.37746,375.64722 964.73856,383.38984 974.46403,386.85143 979.70096,388.34927 985.41353,389.98315 987.94082,390.04323 987.94082,390.04323 Z" inkscape:path-effect="#path-effect6506" inkscape:original-d="M 987.94082,390.04323 C 958.95409,380.43053 938.65147,362.81481 925.1541,336.50203 955.12523,351.40785 988.33357,344.19011 1008.5937,366.81408" fill="#fff" />
        <path d="M 1055.2422,395.61684 C 1055.2422,395.61684 1053.7508,396.60419 1050.8646,397.32854 1049.8241,397.58968 1048.652,397.75155 1047.4107,397.65856 1046.5046,397.59068 1045.548,397.38561 1044.588,396.97481 1044.2246,396.81931 1043.8571,396.63268 1043.4908,396.41041 1043.0929,396.16893 1042.6619,395.85589 1042.2306,395.45105 1041.0958,394.38584 1039.9048,392.60793 1039.6145,390.1212 1039.4939,389.08744 1039.5335,387.93586 1039.8181,386.70539 1040.0867,385.54415 1040.5759,384.30353 1041.3633,383.03163 1042.2103,381.66355 1043.4081,380.52233 1044.936,379.67579 1046.448,378.83803 1048.2871,378.2879 1050.407,378.11267 1052.5389,377.93646 1054.9229,378.14241 1057.4829,378.7895 1060.1055,379.45239 1062.8669,380.56648 1065.6872,382.15438 1071.9157,385.66114 1077.9648,391.20337 1083.4163,398.43962 1090.7621,408.19028 1095.923,419.51322 1099.5064,429.71373 L 1102.8086,428.55369 C 1099.1553,418.15435 1093.8485,406.47047 1086.2118,396.33361 1080.5411,388.80652 1074.1459,382.90017 1067.4044,379.10455 1064.346,377.38264 1061.2972,376.14354 1058.3407,375.39622 1055.4561,374.66711 1052.6832,374.4126 1050.1187,374.62457 1047.5674,374.83545 1045.2375,375.5074 1043.2397,376.61432 1041.2109,377.73843 1039.5631,379.29033 1038.3875,381.18928 1037.403,382.77948 1036.7647,384.37512 1036.4081,385.91667 1036.0305,387.54926 1035.9722,389.10524 1036.1381,390.52694 1036.5374,393.94804 1038.1873,396.45604 1039.8352,398.00293 1040.4592,398.58864 1041.0879,399.04624 1041.675,399.40254 1042.2156,399.73062 1042.7673,399.99382 1043.3183,400.19846 1044.7791,400.741 1046.2207,400.86556 1047.4943,400.73793 1049.2259,400.5644 1050.6439,399.94449 1051.7241,399.26482 1054.6937,397.39644 1055.2422,395.61684 1055.2422,395.61684 Z" inkscape:path-effect="#path-effect15834" inkscape:original-d="M 1055.2422,395.61684 C 1044.7837,405.3698 1032.9316,393.32641 1039.8754,382.11045 1048.0573,368.89451 1082.3872,375.70268 1101.1575,429.13371" fill="#fff" />
        <path d="M 1027.2906,412.80424 C 1027.2906,412.80424 1027.7489,417.04901 1034.1464,423.83484 1035.9481,425.74593 1038.2748,427.78492 1041.2251,429.63219 1041.9179,430.06601 1042.7292,430.54761 1043.6526,431.04834 1049.2045,434.05912 1056.3669,436.43663 1065.5079,436.98296 1074.9257,437.54583 1083.3599,435.95892 1087.9051,434.93272 1095.7499,433.16155 1101.0136,430.57446 1103.4713,429.17738 1106.1968,427.62809 1107.0615,426.722 1107.0615,426.722 1107.0615,426.722 1105.8255,426.82793 1102.8258,427.55079 1099.8062,428.27846 1094.9586,429.7521 1087.1343,431.51866 1082.7206,432.51516 1074.6561,434.02347 1065.7167,433.4892 1057.0899,432.9736 1050.4253,430.73966 1045.3211,427.97164 1044.4692,427.50967 1043.7211,427.06556 1043.0825,426.66571 1040.3768,424.9716 1038.1114,423.21749 1036.2553,421.62969 1029.6842,416.00851 1027.2906,412.80424 1027.2906,412.80424 Z" inkscape:path-effect="#path-effect15832" inkscape:original-d="M 1027.2906,412.80424 C 1046.2005,443.83975 1083.9817,436.94771 1107.0615,426.722" fill="#fff" />
        <path d="M 1033.0011,420.64377 C 1050.1743,410.72992 1068.8357,405.36521 1088.4812,402.74198 M 1134.4725,418.1963 C 1136.3065,428.15526 1138.2887,436.61936 1141.7543,445.75258 1169.3803,452.21783 1193.7587,453.14366 1221.9114,451.07972" fill="none" stroke="#fff" stroke-width="3.5" />
      </g>
    </g>
    <g filter="url(#filter5836)">
      <use xlink:href="#g3445" />
      <use xlink:href="#g3423" />
      <path d="M 1252.4682,475.81786 C 1253.9389,474.76618 1255.3777,473.66674 1256.7793,472.51151 1249.1999,466.01763 1244.5313,459.9998 1240.3285,452.19861 1157.2991,451.47955 1112.1728,409.31669 1093.1031,362.28809 1036.7963,350.04473 993.73847,357.39417 958.38591,375.70053" style="clip-path:url(#clipPath5633);fill:none;stroke:#fff;stroke-width:5" />
      <use xlink:href="#path9016" />
      <use xlink:href="#path1013" />
      <use xlink:href="#g3491" clip-path="url(#clipPath5595)" />
      <path d="M 1022.7916,357.09445 C 832.41075,253.79098 706.11163,344.00077 579.95977,274.49977 607.59629,315.12058 645.72899,342.32284 701.16776,348.54372 586.40431,369.61001 438.58872,335.68709 298.43455,446.56866 427.56105,453.41826 557.44399,471.28265 670.66553,506.67615 641.3984,511.47306 616.53584,521.14964 593.9889,536.98875 664.13327,535.4926 726.53195,541.94342 783.83259,558.48033 M 958.38591,375.70053 C 835.63145,439.26558 805.77859,634.93625 636.7468,601.17307 460.98205,566.06502 302.34209,596.88647 210.33846,704.9805 132.0635,796.94486 52.751858,777.28677 27.95726,647.21082 -12.150859,436.79799 -276.9573,500.01468 -249.97639,749.98754 -228.87363,578.40303 -49.933868,517.30838 -23.09809,698.685 2.979581,874.93775 112.66098,906.0586 239.28063,809.64216 333.02362,738.26015 463.12387,719.74693 600.05862,773.56214 669.77038,800.95879 724.13054,807.7874 767.29377,800.72554 M 829.69864,777.16169 C 936.86331,708.60325 944.2864,525.83343 1008.2728,480.07173" style="fill:none;stroke:#fff;stroke-width:5;stroke-miterlimit:20" />
    </g>
    <path d="M 1071.1182,405.77907 C 1077.7945,415.74446 1077.2527,428.18947 1068.049,435.79576 1052.7709,435.43309 1039.5503,428.67272 1033.2506,420.63726 1045.1094,413.34354 1057.6329,408.69402 1071.1182,405.77907 Z" fill="#fff" filter="url(#filter6482)" />
  </g>
</svg>