<svg xmlns="http://www.w3.org/2000/svg" xmlns:inkscape="http://www.inkscape.org/namespaces/inkscape" height="800" viewBox="0 0 700 799.99997" width="700">
  <defs>
    <inkscape:path-effect bendpath1="m -26.987899,-38.937655 h 53.927549" bendpath2="m 26.93965,-38.937655 c -13.821956,25.407548 -12.800052,50.57888 -2.428338,76.746675" bendpath3="m -26.987899,38.777299 h 53.927549" bendpath4="m -20.525008,-38.806462 c -13.406165,26.666348 -13.45752,54.152228 0.445303,80.152059" effect="envelope" id="path-effect67" yy="false" />
    <inkscape:path-effect effect="powerstroke" id="path-effect4919" interpolator_type="CubicBezierSmooth" offset_points="0.36,4 | 2,4" start_linecap_type="zerowidth" />
    <inkscape:path-effect effect="powerstroke" end_linecap_type="zerowidth" id="path-effect4917" interpolator_type="CubicBezierSmooth" offset_points="0.37,4 | 3.53,4" start_linecap_type="zerowidth" />
    <inkscape:path-effect effect="powerstroke" end_linecap_type="zerowidth" id="path-effect4886" interpolator_type="CubicBezierSmooth" offset_points="0.33,4 | 7.78,4" start_linecap_type="zerowidth" />
    <inkscape:path-effect effect="powerstroke" end_linecap_type="zerowidth" id="path-effect4336" interpolator_type="CubicBezierSmooth" offset_points="0.45,4 | 2,3.5 | 1.38,4 | 3,4 | 3.49,4" start_linecap_type="zerowidth" />
    <inkscape:path-effect effect="powerstroke" end_linecap_type="zerowidth" id="path-effect4325" interpolator_type="CubicBezierSmooth" offset_points="0.51,4 | 3.41,4" start_linecap_type="zerowidth" />
    <inkscape:path-effect effect="powerstroke" end_linecap_type="zerowidth" id="path-effect21" interpolator_type="CubicBezierSmooth" offset_points="0.2,4 | 1.72,4" start_linecap_type="zerowidth" />
  </defs>
  <g inkscape:groupmode="layer" inkscape:label="Drawing">
    <path d="m 92.81164,504.90586 c -32.564853,82.38709 -25.479855,172.19584 28.42385,237.85717 -4.75327,-15.94201 -7.02451,-28.8923 -8.70249,-43.94141 30.93903,66.95902 76.13661,83.41227 141.83996,76.46581 -21.80146,-3.94462 -40.44028,-9.62571 -61.54557,-20.5762 9.69558,0.61416 18.43247,0.40149 28.10865,-0.11371 -45.75985,-11.92744 -55.24661,-39.48305 -50.67841,-95.062 9.02509,18.74483 18.53006,30.9292 31.55471,39.86674 -13.27908,-44.10799 -9.93316,-96.64419 7.95255,-143.1071 2.23861,23.78927 6.01913,42.28633 11.51308,61.51534 6.32008,-55.16002 16.009,-97.9687 30.749,-149.34205 z" style="stroke:#e8dc64;fill:#fffaad;stroke-miterlimit:20;stroke-width:8" />
    <path d="m 214.64521,522.60459 c -5.3828,45.21287 -17.14303,82.42081 -40.28579,107.08694 -28.05627,29.90307 -108.924986,-49.99051 -77.04605,-87.15201 37.95861,-44.24861 57.64486,-75.27159 74.09705,-122.83494 -6.05613,-139.75886 83.75499,-203.58489 156.57246,-135.57384 z" style="stroke:#808aa7;fill:#c2c5d5;stroke-miterlimit:20;stroke-width:8" />
    <g transform="matrix(.75937715.4195199-.5892015 1.3137821 226.64051 333.01643)" inkscape:path-effect="#path-effect67">
      <path fill="#dedeff" inkscape:original-d="m -20.7,28.2 a 6.2,5.3 73 0 1 9,2.6 6.2,5.3 73 1 1 -9,-2.6 z m -4.9,-14.1 a 5.5,5.1 28 0 1 9.1,2.2 5.5,5.1 28 1 1 -9.1,-2.2 z m 16.1,-7.3 c -5.2,4.5 -5.9,12.8 0.9,17.5 6.8,4.7 14.1,-1 13.4,-9.2 -0.7,-8.2 -9.1,-12.8 -14.3,-8.3 z m -11.4,-15.2 a 7.9,7.1 63 0 1 13.1,2.6 7.9,7.1 63 1 1 -13.1,-2.6 z m 20.3,-0.2 a 7.5,6.4 49 0 0 2.9,10.4 7.5,6.4 49 1 0 -2.9,-10.4 z m 1.6,-6.7 c 8.1,-0.3 12.1,-6.6 11.7,-14.2 -0.4,-7.6 -12.6,-13.5 -20.1,-5.9 -7.5,7.6 0.3,20.4 8.4,20.1 z m 20.6,-1.7 c 2.8,0.4 6.8,-2 4.8,-7.9 -2,-5.9 -8.4,-6 -9.6,-2.1 -1.2,3.9 2,9.6 4.8,10 z" />
      <path fill="#e4ffff" inkscape:original-d="m -18.8,30.8 a 2.1,1.5 -10 0 1 1.5,-2.2 2.1,1.5 -10 1 1 -1.5,2.2 z m -3.7,-14.6 a 1.8,1.4 9 0 0 2.7,0.3 1.8,1.4 9 1 0 -2.7,-0.3 z m 17.8,-5 c 1.5,0.9 4,0.9 4.5,-0.1 0.5,-1 -1.2,-2.8 -3.3,-2.9 -2.1,-0.1 -2.7,2.1 -1.2,3 z m -12.4,-18.3 c -0.1,1.4 0.6,1.5 2.9,1.4 2.3,-0.1 2.7,-1.4 1,-2.6 -1.7,-1.2 -3.8,-0.2 -3.9,1.2 z m 24.6,-0.8 a 2.8,1.6 19 0 1 -0.3,2.7 2.8,1.6 19 1 1 0.3,-2.7 z m -5.4,-29 c 4.5,0.1 5.3,3.8 3.3,4.1 -2,0.3 -4.3,0.2 -6.2,-0.2 -1.9,-0.4 -1.6,-4 2.9,-3.9 z m 18.5,9.6 a 2.1,1.4 4 0 0 -0.6,2.1 2.1,1.4 4 1 0 0.6,-2.1 z" />
    </g>
    <g>
      <path d="m 252.37395,345.33843 c -37.45947,13.22121 -126.28639,-13.68559 -129.9683,22.25858 -1.7916,17.49029 12.81807,27.88292 32.8268,32.58947 -45.39968,22.18137 -101.55437,-34.15457 -116.75123,-0.88576 -5.124236,11.21792 -0.418819,23.93166 10.221869,35.22631 -73.004084,-23.98303 -34.769444,108.1263 80.301771,102.55527 13.49341,15.06658 33.94535,24.03754 63.38164,18.19025 44.06107,-64.73491 64.2072,-131.623 59.98745,-209.93412 z" fill="#c2c5d5" />
      <path fill="#808aa7" inkscape:original-d="m 252.37395,345.33843 c -37.45947,13.22121 -126.28639,-13.68559 -129.9683,22.25858 -1.7916,17.49029 12.81807,27.88292 32.8268,32.58947 -45.39968,22.18137 -101.554369,-34.15457 -116.75123,-0.88576 -10.235202,22.4068 18.746456,50.78136 55.178323,61.11078" inkscape:path-effect="#path-effect4917" />
      <path fill="#808aa7" inkscape:original-d="m 191.97148,490.51107 c -23.33831,-22.0958 -42.81681,-68.84875 -68.43544,-54.63837 -27.236396,15.10774 -21.71693,137.39035 68.85046,119.39985" inkscape:path-effect="#path-effect4919" />
      <path d="m 48.795002,434.62544 c -73.095997,-24.08144 -34.861357,108.02789 79.979498,102.68342" style="stroke:#808aa7;fill:none;stroke-miterlimit:20;stroke-width:8" />
      <path d="m 288.12543,643.35066 c 6.26457,44.85303 108.56163,-0.81856 104.44972,-45.42024 -2.98123,-32.3373 -1.29908,-66.81293 6.22345,-95.64154 l -87.52394,18.04531 c -23.01187,34.33141 -30.23873,72.25707 -23.14923,123.01647 z" style="stroke:#727b93;fill:#adb2c0;stroke-miterlimit:20;stroke-width:8" />
      <path d="m 367.25501,452.28585 33.45696,-88.79456 c 17.28083,20.06205 43.32434,31.61695 71.7709,34.61529 55.316,5.83045 41.7117,51.34049 -7.43372,46.2321 13.02667,16.13673 40.76138,22.19445 67.62685,21.68832 50.12137,-0.94425 53.11816,40.16125 4.57898,53.5043 46.71242,-2.61451 54.52414,17.34317 24.62014,47.24717 -33.16394,33.16394 -90.72164,33.49089 -125.84878,11.59271 -38.76971,28.13052 -103.72724,-5.47805 -68.77133,-126.08533 z" fill="#c2c5d5" />
      <path fill="#808aa7" inkscape:original-d="m 396.62296,510.8808 c 40.532,-16.25652 63.68993,-42.31644 80.92624,-24.0418 14.2141,15.07037 3.67031,58.74093 -41.52286,91.53218 -38.76971,28.13052 -103.72724,-5.47805 -68.77133,-126.08533 l 33.45696,-88.79456 c 17.28083,20.06205 43.32434,31.61695 71.7709,34.61529 55.316,5.83045 41.7117,51.34049 -7.43372,46.2321 13.02667,16.13673 40.76138,22.19445 67.62685,21.68832 61.13325,-1.15171 52.16027,60.2531 -34.87337,57.53782" inkscape:path-effect="#path-effect4886" />
      <path d="m 537.22733,519.53153 c 46.74007,-2.61474 54.55179,17.34294 24.64779,47.24694 -33.16394,33.16394 -90.72164,33.49089 -125.84878,11.59271" style="stroke:#808aa7;fill:none;stroke-miterlimit:20;stroke-width:8" />
    </g>
    <g>
      <path d="m 568.69499,271.55432 c 29.99381,-30.31459 34.75458,-63.49727 25.58517,-112.56036 -45.67318,7.31551 -60.91274,59.55352 -25.58517,112.56036 z" style="stroke:#808aa7;fill:#c2c5d5;stroke-miterlimit:20;stroke-width:8" />
      <path d="m 449.4261,384.69412 c -27.17652,42.67 -4.2564,103.34481 -75.28993,129.7105 -125.66467,46.64327 -192.72171,-143.83023 -69.10222,-198.69961 1.82056,-34.93805 -7.963,-64.69069 -7.963,-113.70252 0,-215.009749 388.68041,-154.886782 270.58199,113.86169 z" style="stroke:#808aa7;fill:#c2c5d5;stroke-miterlimit:20;stroke-width:8" />
      <g>
        <path d="m 366.68338,142.06327 c 44.39735,33.23915 82.82919,44.8713 127.40801,41.2238 -24.46666,-15.97088 -49.06057,-32.50291 -70.81097,-56.95884 101.7057,11.1063 173.60336,51.58 237.08562,126.86878 -6.43829,-40.2717 -18.10855,-72.00034 -44.77996,-105.44907 27.55679,14.00252 51.1608,32.77833 72.74579,55.03976 -48.30587,-168.777888 -221.2151,-232.572946 -339.5133,-133.87211 z m -62.77502,43.39462 c 4.37053,56.13622 18.13336,98.77593 37.94199,140.00085 -7.69595,-3.49639 -13.99471,-7.94283 -19.53993,-14.4633 0.76818,28.39199 6.86218,54.06422 17.15795,78.77823 -17.58207,-3.74631 -31.50429,-16.84165 -36.99459,-40.35729 -7.56411,21.39032 -9.27321,42.49716 -7.87274,69.90893 -22.59134,-21.01783 -25.47011,-50.08235 -12.67534,-83.65161 18.82822,-49.39906 4.01495,-114.37577 6.94103,-173.34139 z" style="stroke:#e8dc64;fill:#fffaad;stroke-miterlimit:20;stroke-width:8" />
        <path d="m 315.74778,218.43498 c -82.97351,-99.30779 -16.85917,-196.069665 0.15497,-198.314627 10.88904,-1.436775 74.24579,65.748247 55.13301,138.317207 z" fill="#c2c5d5" />
        <path fill="#808aa7" inkscape:original-d="m 315.74778,218.43498 c -82.97351,-99.30779 -16.85917,-196.069665 0.15497,-198.314627 10.88904,-1.436775 74.24579,65.748247 55.13301,138.317207" inkscape:path-effect="#path-effect21" />
        <path d="m 313.31659,73.829839 c -10.94609,30.538611 -8.90747,65.091891 7.42232,91.841511 -10.33717,-31.25581 -12.37545,-58.66776 -7.42232,-91.841511 z" fill="#808aa7" />
      </g>
      <g>
        <path d="m 236.2862,601.31782 c 14.09795,-93.57687 53.79246,-159.93769 84.63707,-153.97907 36.1439,6.98235 38.52337,78.45228 21.85756,168.91386 -11.77668,63.92349 -115.9765,48.00228 -106.49463,-14.93479 z" style="stroke:#808aa7;fill:#c2c5d5;stroke-miterlimit:20;stroke-width:8" />
        <path d="m 350.42701,381.48849 c -14.28057,-22.17551 -33.94822,-25.33173 -53.05774,-11.28042 -58.84838,43.27147 -124.33755,116.68051 -115.00593,200.35378 5.48525,49.1842 118.87182,-14.54891 116.5678,-71.11678 -0.98259,-24.12423 3.42561,-43.73276 13.8147,-64.00052 26.80816,-11.7435 40.72793,-27.97253 37.68117,-53.95606 z" fill="#c2c5d5" />
        <path fill="#808aa7" inkscape:original-d="m 350.42701,381.48849 c -14.28057,-22.17551 -33.94822,-25.33173 -53.05774,-11.28042 -58.84838,43.27147 -124.33755,116.68051 -115.00593,200.35378 5.48525,49.1842 118.87182,-14.54891 116.5678,-71.11678 -0.98259,-24.12423 3.42561,-43.73276 13.8147,-64.00052" inkscape:path-effect="#path-effect4325" />
      </g>
      <g>
        <path d="m 548.97485,293.77894 c -2.35066,-23.9887 -1.05724,-44.0755 3.29885,-67.03738 l 36.76083,13.57315 c -3.11364,27.60026 -10.78865,51.25548 -20.41501,72.86539 -8.04114,-4.24807 -15.3672,-10.37293 -19.64467,-19.40116 z" fill="#c2c5d5" />
        <path d="m 524.03511,365.56198 -37.37528,30.4955 c -21.06031,-8.55495 -32.67994,-19.00511 -35.25792,-37.65652 l 26.14797,12.47873 -25.61954,-21.30086 c -4.2389,-35.73636 46.49715,-34.72853 72.10477,15.98315 z" style="stroke:#b0d8e7;fill:#fff;stroke-miterlimit:20;stroke-width:4" />
        <path d="m 548.97485,293.77894 c 10.4332,26.29591 48.19568,18.89291 38.18481,40.76831 -24.4733,53.47819 -98.41297,50.37625 -120.96784,-19.67987 -5.23953,33.18925 8.08525,63.96154 27.86639,84.24834 -44.73466,-0.21542 -88.96692,-19.21661 -122.13849,-44.21275 36.80801,-45.70284 98.62857,-70.91791 177.05513,-61.12403 z" fill="#c2c5d5" />
        <path fill="#808aa7" inkscape:original-d="m 548.97485,293.77894 c 10.4332,26.29591 48.19568,18.89291 38.18481,40.76831 -24.4733,53.47819 -98.41297,50.37625 -120.96784,-19.67987 -5.23953,33.18925 8.08525,63.96154 27.86639,84.24834 -44.73466,-0.21542 -88.96692,-19.21661 -122.13849,-44.21275" inkscape:path-effect="#path-effect4336" />
        <path d="m 373.40703,228.93726 108.27798,-6.05989 c 7.37162,-0.41256 14.06463,-6.57977 15.68179,-17.65083 2.99456,12.1543 -1.92369,22.83311 -14.63503,23.50285 l -108.91994,5.73882 c -32.75518,1.72582 -32.74172,-3.72118 -0.4048,-5.53095 z m 206.6576,5.61716 -23.65647,-9.12152 c -6.18508,-2.38486 -9.6356,-7.56042 -8.69527,-17.37598 -5.62104,10.33559 -2.20788,19.46529 6.89574,22.70684 l 23.93729,8.52341 c 22.01487,7.83888 23.47814,3.73443 1.51871,-4.73275 z m -9.01826,31.7306 c 17.03902,-23.94558 13.60758,-26.40627 -4.42973,-2.66014 m 12.69302,17.00657 c 28.39756,-7.56957 27.34145,-11.47758 -1.69763,-4.69848 m -31.10463,-5.47882 c -0.47623,-4.37989 -0.45124,-8.66411 0.21878,-14.54411 -4.75909,8.66762 -5.3477,18.05247 -2.73085,29.11158 8.79897,-28.13964 27.92886,-24.60419 35.95616,-1.65489 -2.03378,-25.79557 -24.85139,-30.21573 -33.44409,-12.91258 z m 29.76841,2.5643 c 29.46532,-19.30298 27.17481,-23.02753 -2.95347,-4.33838 m -173.81345,6.209 c -21.8449,-33.96315 -16.33642,-37.06571 6.8436,-0.81496 m -17.58018,5.00585 c -34.59156,-26.76522 -31.50685,-31.35481 6.3912,-2.89449 m -14.25016,9.49801 c -41.83151,-5.77782 -40.14918,-10.37704 5.67646,-5.2485 m 109.40359,14.39269 c 1.44251,-4.79147 2.15192,-10.39142 2.71023,-16.68783 3.16772,9.63915 2.78558,20.04546 -2.27329,27.72769 -14.66865,-35.63738 -99.07349,-39.77794 -116.89122,-17.95662 7.944,-27.13644 90.84076,-24.08686 116.45428,6.91676 z" />
        <path d="m 454.67968,332.7299 c -1.77468,-50.63367 20.62997,-52.36999 27.71399,-1.13151 -9.64356,-8.82017 -18.96578,-7.70983 -27.71399,1.13151 z" fill="#c2c5d5" />
        <path d="m 454.67968,332.7299 c 5.37518,-12.88308 20.40937,-13.69048 27.71399,-1.13151 -9.49835,-5.5131 -18.53014,-4.71058 -27.71399,1.13151 z m 92.89054,-6.19962 c 1.33722,6.20847 4.85286,8.49713 10.92377,6.7949 -6.87624,7.1209 -14.02666,4.38794 -10.92377,-6.7949 z" fill="#808aa7" />
      </g>
    </g>
  </g>
</svg>