<svg xmlns="http://www.w3.org/2000/svg" xmlns:inkscape="http://www.inkscape.org/namespaces/inkscape" xmlns:sodipodi="http://sodipodi.sourceforge.net/DTD/sodipodi-0.dtd" xmlns:xlink="http://www.w3.org/1999/xlink" height="840" viewBox="0 0 1260 840" width="1260">
  <defs>
    <inkscape:path-effect effect="powerstroke" end_linecap_type="zerowidth" id="path-effect992" interpolator_type="CubicBezierSmooth" offset_points="0.3,3 | 4.67,3" start_linecap_type="zerowidth" />
    <inkscape:path-effect bendpath1="M 0.3,1.367 H 69.6" bendpath2="M 69.6,1.367 C 48.182033,31.33221 48.316026,60.038579 69.6,91.1" bendpath3="M 0.3,91.1 H 69.6" bendpath4="M 4.0776763,1.7588353 C -14.893116,30.261498 -17.079662,60.752321 2.5882921,92.156148" effect="envelope" id="path-effect1708" yy="false" />
    <inkscape:path-effect effect="powerstroke" id="path-effect1666" interpolator_type="CubicBezierSmooth" offset_points="0.39,3" start_linecap_type="zerowidth" />
    <inkscape:path-effect effect="powerstroke" end_linecap_type="zerowidth" id="path-effect1571" interpolator_type="CubicBezierSmooth" offset_points="0.27,3 | 2.77,3" start_linecap_type="zerowidth" />
    <inkscape:path-effect effect="powerstroke" id="path-effect1511" interpolator_type="CubicBezierSmooth" offset_points="0.15,3 | 1,3" start_linecap_type="zerowidth" />
    <inkscape:path-effect effect="powerstroke" id="path-effect1509" interpolator_type="CubicBezierSmooth" offset_points="0.33,3 | 2,3" start_linecap_type="zerowidth" />
    <inkscape:path-effect effect="powerstroke" end_linecap_type="zerowidth" id="path-effect1484" interpolator_type="CubicBezierSmooth" offset_points="0.23,3 | 2.78,3" start_linecap_type="zerowidth" />
    <inkscape:path-effect effect="powerstroke" end_linecap_type="zerowidth" id="path-effect1472" interpolator_type="CubicBezierSmooth" offset_points="0.47,2.3 | 1.18,2.3" start_linecap_type="zerowidth" />
    <inkscape:path-effect effect="powerstroke" end_linecap_type="zerowidth" id="path-effect3037" interpolator_type="CubicBezierSmooth" offset_points="0.35,3 | 1.83,3" start_linecap_type="zerowidth" />
    <linearGradient id="linearGradient966">
      <stop offset="0" stop-color="#4eaaf7" />
      <stop offset="1" stop-color="#a2d2fb" />
    </linearGradient>
    <linearGradient gradientTransform="matrix(0.61772032,0,0,0.61772032,167.26942,-544.33948)" gradientUnits="userSpaceOnUse" id="linearGradient1466" x1="216.18777" x2="309.33432" y1="131.91676" y2="139.41907" xlink:href="#linearGradient966" />
    <clipPath id="clipPath1503">
      <use xlink:href="#path988" />
    </clipPath>
    <clipPath id="clipPath1763">
      <path d="M 437.39766,609.83294 C 450.94084,576.96843 497.50453,568.59163 523.74866,599.95762 L 559.38593,644.11939 421.48995,658.81619 Z" />
    </clipPath>
    <clipPath id="clipPath1779">
      <path d="M 432.18994,595.27904 C 434.83183,614.32019 452.01167,618.12166 457.50779,599.92344 465.81026,619.36903 476.85542,621.65789 480.55507,605.26093 491.06417,624.51776 501.8227,619.41216 504.94236,599.0977 518.08237,620.60974 524.53316,610.66569 521.93103,582.89121 L 499.32861,381.02837 403.89007,398.44681 Z" />
    </clipPath>
    <clipPath id="clipPath1783">
      <path d="M 430.29255,529.57508 C 430.78718,558.84671 433.48872,591.43389 440.08967,624.57323 L 532.05192,621.8097 C 505.48586,556.13792 495.6539,494.80643 491.57342,456.36638 Z" />
    </clipPath>
    <clipPath id="clipPath1846">
      <path clip-path="none" d="M 466.97382,395.01329 C 463.20792,467.59061 472.81109,531.61154 494.75981,600.57332 L 585.79045,597.07664 C 548.76,532.60176 527.94751,462.42701 515.17894,388.09229 Z" />
    </clipPath>
    <clipPath id="clipPath1850">
      <path d="M 490.90839,588.09627 C 503.78964,559.7339 547.02847,552.09742 579.72158,586.19354 L 620.32531,623.62242 479.19649,627.21479 Z" />
    </clipPath>
    <clipPath id="clipPath1854">
      <path clip-path="none" d="M 480.86507,571.46357 C 490.61172,594.00566 505.60259,594.8319 509.21079,576.1674 519.45639,594.66306 528.22034,595.08165 530.22553,578.39248 538.97642,599.48585 552.06267,600.10347 554.27461,575.91871 563.35907,595.39621 581.04961,592.83293 582.36404,574.2033 L 542.70445,364.07369 435.44655,381.00915 Z" />
    </clipPath>
    <clipPath id="clipPath1899">
      <path d="M 307.1577,574.66567 C 336.58074,545.14377 372.38281,545.70444 393.98038,581.56463 L 419.40919,616.56598 282.64253,619.13196 Z" />
    </clipPath>
    <clipPath id="clipPath1912">
      <path clip-path="none" d="M 397.84685,567.87135 C 394.2606,586.86126 384.74257,587.84226 377.01783,571.62483 374.1942,588.00802 361.50012,590.64985 353.14836,577.68153 347.72473,591.22684 334.33266,592.47075 330.5805,572.26357 322.42819,589.41685 308.85716,588.81576 304.20676,557.40484 L 328.95845,375.1074 460.59314,385.37131 Z" />
    </clipPath>
    <clipPath id="clipPath1916">
      <path d="M 336.07954,445.78791 C 320.07267,483.92422 306.51299,529.54875 306.85155,593.32114 L 396.89517,592.04174 C 387.69523,562.27203 385.52963,529.47104 391.77126,495.15141 Z" />
    </clipPath>
    <clipPath id="clipPath1975">
      <path d="M 255.71817,598.49404 C 274.44635,561.9715 316.89374,549.78291 342.79762,602.47763 L 370.52395,636.09709 233.34524,646.70369 Z" />
    </clipPath>
    <clipPath id="clipPath1984">
      <path clip-path="none" d="M 252.07652,583.79796 C 258.24306,611.68654 274.68202,614.26989 285.68468,592.15728 291.95738,611.07155 304.05158,619.6281 309.3734,594.20406 319.97924,613.40778 324.53259,610.2489 327.55002,589.919 334.51824,607.38754 344.66421,607.6959 344.43284,589.04948 L 426,381.75 264,356.25 Z" />
    </clipPath>
    <clipPath id="clipPath1988">
      <path d="M 266.43104,533.6605 C 260.13956,557.87683 256.22358,583.91025 254.58357,615.24433 L 345.3047,614.3195 C 337.38682,581.94494 337.95801,547.81808 345.51156,514.34456 Z" />
    </clipPath>
  </defs>
  <rect fill="#91ccf4" height="840" width="1260" />
  <g transform="translate(1226.666 792.78932)scale(.68023924)">
    <path d="M -10,0 C -4,-6 -6,-14 -14,-18 3,-20 8,-28 -2,-39 8,-37 17,-42 18,-53 36,-20 5,-16 5,0 5,16 36,20 18,53 17,42 8,37 -2,39 8,28 3,20 -14,18 -6,14 -4,6 -10,0 Z" fill="#5a318e" />
    <path d="M -20,0 20,-7 11,0 20,7 Z" fill="#54a2e1" />
    <path d="M 0,-30 25.980762,-15 V 15 L 0,30 -25.980762,15 V -15 Z" fill="none" stroke="#576ab7" stroke-width="1.8" />
  </g>
  <g transform="translate(-42.893866-9.8119249)">
    <ellipse cx="361.9404" cy="771.91089" opacity=".25" rx="223.95145" ry="36.563492" />
    <path d="M 289.78596,446.25187 C 255.148,423.02613 230.45915,403.31623 200.74405,372.66114 202.53223,382.24911 206.29848,390.68396 212.17711,399.60575 151.93834,377.10694 110.09841,421.50034 115.80241,477.56201 119.72475,516.11262 109.7395,542.83428 89.762068,563.70615 102.59822,560.45842 112.37533,553.83835 119.8745,543.17194 122.27194,590.37267 154.98562,616.59629 143.73621,667.76296 207.60382,629.66012 229.94189,584.50765 210.70903,511.20504 219.02958,519.21051 224.92119,526.27806 231.20784,537.95326 220.64957,470.34168 246.44055,446.04427 269.1582,462.26907 Z" style="fill:#f5ec44;stroke:#877b09;stroke-width:6;stroke-miterlimit:20" />
    <g transform="translate(-65.792152 154.16013)">
      <path d="M 463.24702,312.03192 C 501.99585,358.02188 465.95818,410.92849 414.56747,379.27536 377.18057,356.2476 342.30095,281.61292 362.78736,265.95423 371.36537,259.39768 400.59035,266.5163 447.45591,300.27567 Z" fill="#502474" stroke="#210e46" stroke-width="6" />
      <path d="M 416.33691,380.59304 C 396.33331,364.08059 397.07531,341.73225 421.19435,343.21882 400.31734,328.09581 406.18164,311.70522 426.97859,315.14899 413.727,302.20464 417.92048,290.07391 434.82716,291.31892" style="fill:none;stroke:#210e46;stroke-width:4;stroke-miterlimit:20" />
      <path d="M 419.53938,297.54567 366.53363,264.42366 M 403.25161,350.86266 359.79629,301.67044 M 408.82941,321.36152 356.8938,277.03552" stroke="#210e46" stroke-width="3" />
    </g>
    <g transform="translate(-65.792152 154.16013)">
      <path d="M 428.72139,397.30182 C 388.13954,459.28158 374.46281,529.61433 394.02892,592.92752 400.94137,615.29522 309.97054,615.72559 309.85151,593.30521 309.56336,539.02934 319.00428,494.22121 338.84578,446.94892 Z" style="clip-path:url(#clipPath1899);fill:#f8c198;stroke:#e6a06e;stroke-width:6" />
      <g clip-path="url(#clipPath1912)">
        <path d="M 357.05086,391.40322 428.72139,397.30182 C 388.13954,459.28158 374.46281,529.61433 394.02892,592.92752 400.94137,615.29522 309.97054,615.72559 309.85151,593.30521 309.56336,539.02934 319.00428,494.22121 338.84578,446.94892 341.6537,440.25869 348.4617,436.46042 362.63131,439.88674 362.61206,422.78297 356.42941,408.02409 357.05086,391.40322 Z" fill="#502474" />
        <path fill="#210e46" inkscape:original-d="M 361.45244,451.32882 C 365.54137,428.96092 356.29758,411.54996 357.05086,391.40322 L 428.72139,397.30182 C 388.13954,459.28158 374.46281,529.61433 394.02892,592.92752 400.94137,615.29522 309.97054,615.72559 309.85151,593.30521 309.56336,539.02934 319.00428,494.22121 338.84578,446.94892 341.6537,440.25869 348.4617,436.46042 362.7634,439.7742" inkscape:path-effect="#path-effect1666" />
      </g>
      <path d="M 397.84685,567.87135 C 394.2606,586.86126 384.74257,587.84226 377.01783,571.62483 374.1942,588.00802 361.50012,590.64985 353.14836,577.68153 347.72473,591.22684 334.33266,592.47075 330.5805,572.26357 322.42819,589.41685 308.85716,588.81576 304.20676,557.40484" style="clip-path:url(#clipPath1916);fill:none;stroke:#210e46;stroke-width:3;stroke-miterlimit:20" />
    </g>
    <g transform="translate(-65.792152 154.16013)">
      <path d="M 512.22224,388.60017 C 525.02868,463.15534 545.92885,533.69597 583.18898,598.57075 596.15006,621.13769 504.81275,622.26736 497.61851,599.66347 475.76693,531.00691 466.22456,467.34778 469.96979,395.16875 Z" style="clip-path:url(#clipPath1850);fill:#f8c198;stroke:#e6a06e;stroke-width:6" />
      <path d="M 512.22224,388.60017 C 525.02868,463.15534 545.92885,533.69597 583.18898,598.57075 596.15006,621.13769 504.81275,622.26736 497.61851,599.66347 475.76693,531.00691 466.22456,467.34778 469.96979,395.16875 Z" style="clip-path:url(#clipPath1854);fill:#502474;stroke:#210e46;stroke-width:6" />
      <path d="M 480.86507,571.46357 C 490.61172,594.00566 505.60259,594.8319 509.21079,576.1674 519.45639,594.66306 528.22034,595.08165 530.22553,578.39248 538.97642,599.48585 552.06267,600.10347 554.27461,575.91871 563.35907,595.39621 581.04961,592.83293 582.36404,574.2033" style="clip-path:url(#clipPath1846);fill:none;stroke:#210e46;stroke-width:3;stroke-miterlimit:20" />
    </g>
    <path d="M 487.26623,451.80534 C 487.35743,450.76427 487.36637,449.72095 487.2954,448.67913 485.35612,420.20921 370.82083,406.70996 371.50409,430.06241 371.52899,430.91344 371.65256,431.7832 371.8719,432.66811" style="fill:none;stroke:#000;stroke-width:2;stroke-miterlimit:20" />
    <path d="M 392.72215,192.74692 C 401.27017,179.49962 408.83577,171.17512 421.12627,162.11687 359.63556,172.38557 330.33438,229.21699 343.49573,302.47439 332.87269,289.84701 328.15334,281.93038 322.54117,266.27633 319.33422,335.22585 358.73283,350.41081 384.38847,423.36903" style="fill:#f5ec44;stroke:#877b09;stroke-width:6;stroke-miterlimit:20" />
    <g transform="translate(-65.792152 154.16013)">
      <path d="M 385.06269,416.75095 C 344.76946,476.62913 326.30648,549.26765 342.3906,615.03226 347.44328,635.69001 256.40525,637.8361 257.57947,615.40113 260.84177,553.07159 273.1432,512.0815 295.14282,464.45856 298.23976,457.75456 305.31854,452.79181 322.67975,457.84881 L 327.03689,376.41212 375.82725,329.74307 Z" style="clip-path:url(#clipPath1975);fill:#fad3b7;stroke:#ecb58e;stroke-width:6" />
      <path d="M 385.06269,416.75095 C 344.76946,476.62913 326.30648,549.26765 342.3906,615.03226 347.44328,635.69001 256.40525,637.8361 257.57947,615.40113 260.84177,553.07159 273.1432,512.0815 295.14282,464.45856 298.23976,457.75456 305.31854,452.79181 322.67975,457.84881 L 327.03689,376.41212 375.82725,329.74307 Z" style="clip-path:url(#clipPath1984);fill:#642c8f;stroke:#210e46;stroke-width:6" />
      <path d="M 252.07652,583.79796 C 258.24306,611.68654 274.68202,614.26989 285.68468,592.15728 291.95738,611.07155 304.05158,619.6281 309.3734,594.20406 319.97924,613.40778 324.53259,610.2489 327.55002,589.919 334.51824,607.38754 344.66421,607.6959 344.43284,589.04948" style="clip-path:url(#clipPath1988);fill:none;stroke:#210e46;stroke-width:3;stroke-miterlimit:20" />
    </g>
    <path d="M 357.59856,381.51522 C 384.18911,471.40207 597.05244,444.44289 539.0112,248.01986 569.00033,250.45551 598.58905,243.65663 630.6426,242.07931 L 656.5041,184.71255 C 639.51737,172.79989 631.91376,156.56606 624.19205,131.8924 586.79823,12.406013 431.43679,40.630927 434.65541,159.49861 436.0691,211.70778 447.57058,257.72875 440.66365,299.42509 387.70786,266.90877 316.58493,281.99443 306.38375,350.45003 298.35662,404.31652 325.55968,444.34345 317.50146,465.86343 L 334.76427,470.30267 Z" fill="#642c8f" transform="translate(-65.792152 154.16013)" />
    <g transform="matrix(.47092537.12326417-.25795274.95272718 273.20953 450.63978)" inkscape:path-effect="#path-effect1708">
      <path fill="#f5ec44" inkscape:original-d="M 43.5,27.7 50.2,65.8 41.5,63.4 39.8,91.1 19.7,46.8 28.4,49.2 24.3,26.7 Z" />
      <path style="fill:none;stroke:#877b09;stroke-width:2;stroke-miterlimit:20" inkscape:original-d="M 43.5,27.7 50.2,65.8 41.5,63.4 39.8,91.1 19.7,46.8 28.4,49.2 24.3,26.7 M 37.2,34.2 41.3,56.7 32.6,54.3 39.8,91.1" />
      <path fill="#8d8d8d" inkscape:original-d="M 20.7,15.2 C 15.8,9.3 1.2,11.3 1.2,27 1.2,42.3 13.9,45.3 22,38.9 31.6,45.1 39.8,44.5 46.2,37 66.1,51.5 82.2,15.6 51.1,12.6 50.1,0 29.7,-2.9 20.7,15.2 Z" />
      <path fill="#5d5d5d" inkscape:original-d="M 38.5,20.5 C 44.5,26.3 52,22.6 52,12.6 52,-0.2 29.5,-5.3 19.8,15 L 21.6,15.8 C 30.4,-2.3 50,1.8 50,12.6 50,20.4 45.4,23.6 38.5,20.5 Z M 22.4,24.7 C 28.4,7.5 0.3,5.5 0.3,26.3 0.3,42.1 11.8,46.9 22,39.9 31.3,46.2 40.7,45.4 46.6,38.1 57.7,46.7 69.6,37.4 69.6,26.8 69.6,17.9 61.9,12.8 51.2,11.5 L 51,13.5 C 59.5,14.4 67.6,18.5 67.6,26.8 67.6,36 56.6,45 46.2,35.2 41.1,43.7 30.9,44.3 22,37.4 12.6,44.8 2.3,40.9 2.3,26.3 2.3,10.1 23.4,8.1 22.4,24.7 Z" />
    </g>
    <g clip-path="url(#clipPath1503)" transform="translate(-65.792152 154.16013)">
      <ellipse cx="371.0545" cy="-419.84131" fill="#fff" id="path988" rx="49.257568" ry="39.998959" transform="rotate(64.984717)" />
      <ellipse cx="326.18033" cy="-450.14948" fill="url(#linearGradient1466)" rx="38.425644" ry="29.878033" transform="rotate(72.12398)" />
      <ellipse cx="327.93335" cy="-447.59174" rx="31.196648" ry="24.257097" transform="rotate(72.123964)" />
      <ellipse cx="537.2229" cy="2.7108901" fill="#fff" rx="10.269141" ry="15.558669" transform="rotate(17.273211)" />
      <ellipse cx="554.97321" cy="15.948136" fill="#fff" rx="3.8244212" ry="5.3903503" transform="rotate(17.40462)" />
    </g>
    <path transform="translate(-65.792152 154.16013)" inkscape:original-d="M 513.60346,193.18704 C 485.24562,163.92682 493.15966,125.07694 516.53316,114.07669 532.29832,106.65714 551.57386,112.91206 564.64007,127.94212" inkscape:path-effect="#path-effect1472" />
    <path fill="#210e46" transform="rotate(2.3018993-5445.3097-15200.917)" inkscape:original-d="M 1043.0612,138.1418 C 1092.8266,163.80548 1136.3602,146.744 1186.4591,142.25597 L 1209.9956,83.896768 C 1192.5441,72.675994 1184.2946,56.760663 1175.5881,32.417056 1133.4253,-85.470994 979.32288,-51.028777 987.31321,67.613712 991.15568,124.66767 1006.7831,173.82388 996.70536,218.97264" inkscape:path-effect="#path-effect992" />
    <path fill="#210e46" transform="translate(-65.792152 154.16013)" inkscape:original-d="M 317.50146,465.86343 C 325.55968,444.34345 298.35662,404.31652 306.38375,350.45003 316.58493,281.99443 387.70786,266.90877 440.82809,299.47422" inkscape:path-effect="#path-effect1509" />
    <path fill="#210e46" transform="translate(-65.792152 154.16013)" inkscape:original-d="M 357.59856,381.51522 C 384.18911,471.40207 597.05244,444.44289 538.89012,248.04807" inkscape:path-effect="#path-effect1511" />
    <path d="M 371.50409,430.06241 C 371.99875,446.96898 411.43247,471.26634 467.13519,474.89518 481.84191,467.97019 487.9481,458.2612 487.2954,448.67913" style="fill:none;stroke:#000;stroke-width:2;stroke-miterlimit:20" />
    <path d="M 462.53245,467.64095 476.35213,462.9652 469.52178,484.39353 479.73758,480.8638 468.57964,512.96296 469.52944,493.19311 459.13904,496.83323 Z" style="fill:#f5ec44;stroke:#877b09;stroke-width:2;stroke-miterlimit:20" />
    <path d="M 559.50321,349.8877 C 552.62476,353.03791 549.69695,347.08718 553.90821,342.81283 553.53377,346.96955 555.18117,349.4739 559.50321,349.8877 Z M 574.47866,374.9488 C 546.70435,380.47847 535.62418,376.56719 526.54202,363.93099 530.89697,380.22343 547.11487,385.34508 572.45373,380.32122" fill="#210e46" />
    <g transform="translate(-65.792152 154.16013)">
      <path d="M 462.16641,84.572386 C 478.80249,96.398032 475.74516,113.75318 464.75564,126.70675 489.19399,122.15378 495.78737,109.94411 498.30908,92.05977 530.33244,125.17422 574.85009,137.34282 627.47793,133.85242 615.33383,122.17115 611.79715,111.49662 614.04664,93.680284 623.00922,95.469952 630.91696,101.58026 640.10256,115.92019 634.89724,64.074879 609.83556,39.427117 567.27794,31.59335 587.71715,29.596897 598.19892,23.882765 605.78092,11.627625 545.44907,25.635463 503.11915,4.4189927 458.5143,38.586795 Z" fill="#f5ec44" />
      <path d="M 462.16641,84.572386 C 478.80249,96.398032 475.74516,113.75318 464.75564,126.70675 489.19399,122.15378 495.78737,109.94411 498.30908,92.05977 530.33244,125.17422 574.85009,137.34282 627.47793,133.85242 615.33383,122.17115 611.79715,111.49662 614.04664,93.680284 623.00922,95.469952 630.91696,101.58026 640.10256,115.92019 634.89724,64.074879 609.83556,39.427117 567.27794,31.59335 584.45119,28.326802 597.65459,22.249786 605.78092,11.627625 545.44907,25.635463 503.11915,4.4189927 458.5143,38.586795 467.06232,25.339486 474.62792,17.014986 486.91842,7.9567382" style="fill:none;stroke:#877b09;stroke-width:6;stroke-miterlimit:20" />
      <path d="M 467.95232,101.09268 C 471.42298,52.600207 460.69419,28.996398 449.83152,28.974898 441.41336,28.95828 384.3334,86.659097 446.37887,178.13036 448.21484,149.35809 453.60807,122.54923 467.95232,101.09268 Z" fill="#642c8f" />
      <path fill="#210e46" inkscape:original-d="M 467.95244,101.09268 C 471.42312,52.60022 460.69438,28.99639 449.8315,28.974913 441.41349,28.958269 384.33349,86.65911 446.3789,178.13033" inkscape:path-effect="#path-effect3037" />
      <path d="M 439.71178,68.78488 C 436.18504,92.306366 438.20228,112.90372 445.03358,135.49488 434.29496,114.02587 431.13696,91.907793 439.71178,68.78488 Z" fill="#210e46" />
    </g>
    <g transform="translate(-65.792152 154.16013)">
      <path d="M 424.81141,312.65102 C 464.97502,357.40025 430.51528,411.31457 378.13562,381.26212 340.02925,359.39886 302.87089,285.93182 322.89633,269.67825 331.28133,262.87261 360.73959,269.09757 408.65502,301.38973 Z" fill="#642c8f" />
      <path fill="#210e46" inkscape:original-d="M 424.81141,312.65102 C 464.97502,357.40025 430.51528,411.31457 378.13562,381.26212 340.02925,359.39886 302.87089,285.93182 322.89633,269.67825 331.28133,262.87261 360.73959,269.09757 408.65502,301.38973" inkscape:path-effect="#path-effect1571" />
      <path d="M 379.946,382.52434 C 359.43067,366.64135 359.49722,344.30475 383.67607,345.06051 362.32883,330.59122 367.70102,314.04854 388.61493,316.85885 374.96368,304.33456 378.79287,292.09571 395.74761,292.82812" style="fill:none;stroke:#210e46;stroke-width:4;stroke-miterlimit:20" />
      <path d="M 380.63875,299.50714 326.59861,268.03686 M 365.95347,353.23465 320.98363,305.43022 M 370.64247,323.61011 317.33428,280.92061" stroke="#210e46" stroke-width="3" />
    </g>
    <g transform="translate(-65.792152 154.16013)">
      <path d="M 485.08902,405.0589 C 487.32712,479.9371 501.8485,555.14616 529.27085,622.93472 537.97853,644.46028 447.59951,646.91848 443.03187,623.98718 429.59273,556.5175 430.29112,480.4977 442.98064,409.06407 Z" style="clip-path:url(#clipPath1763);fill:#fad3b7;stroke:#ecb58e;stroke-width:6" />
      <g clip-path="url(#clipPath1779)">
        <path d="M 485.08902,405.0589 C 487.32712,479.9371 501.8485,555.14616 529.27085,622.93472 537.97853,644.46028 447.59951,646.91848 443.03187,623.98718 429.59273,556.5175 430.29112,480.4977 442.98064,409.06407 Z" fill="#642c8f" />
        <path fill="#210e46" inkscape:original-d="M 485.08902,405.0589 C 487.32712,479.9371 501.8485,555.14616 529.27085,622.93472 537.97853,644.46028 447.59951,646.91848 443.03187,623.98718 429.59273,556.5175 430.29112,480.4977 442.98064,409.06407" inkscape:path-effect="#path-effect1484" />
      </g>
      <path d="M 432.18994,595.27904 C 434.83183,614.32019 452.01167,618.12166 457.50779,599.92344 465.81026,619.36903 476.85542,621.65789 480.55507,605.26093 491.06417,624.51776 501.8227,619.41216 504.94236,599.0977 518.08237,620.60974 524.53316,610.66569 521.93103,582.89121" style="clip-path:url(#clipPath1783);fill:none;stroke:#210e46;stroke-width:3;stroke-miterlimit:20" />
    </g>
  </g>
  <text style="font-size:56px;line-height:1.25;font-family:Junction;text-align:center;text-anchor:middle" x="300" y="96" xml:space="preserve"><tspan x="298" y="96" sodipodi:role="line">Sky Thundercloud</tspan></text>
  <g transform="translate(76.107054 167.88892)scale(1.7497175)">
    <path d="M 43.5,27.7 50.2,65.8 41.5,63.4 39.8,91.1 19.7,46.8 28.4,49.2 24.3,26.7 Z" fill="#f5ec44" />
    <path d="M 43.5,27.7 50.2,65.8 41.5,63.4 39.8,91.1 19.7,46.8 28.4,49.2 24.3,26.7 M 37.2,34.2 41.3,56.7 32.6,54.3 39.8,91.1" style="stroke-miterlimit:8;fill:none;stroke:#877b09;stroke-width:2" />
    <path d="M 20.7,15.2 C 15.8,9.3 1.2,11.3 1.2,27 1.2,42.3 13.9,45.3 22,38.9 31.6,45.1 39.8,44.5 46.2,37 66.1,51.5 82.2,15.6 51.1,12.6 50.1,0 29.7,-2.9 20.7,15.2 Z" fill="#8d8d8d" />
    <path d="M 38.5,20.5 C 44.5,26.3 52,22.6 52,12.6 52,-0.2 29.5,-5.3 19.8,15 L 21.6,15.8 C 30.4,-2.3 50,1.8 50,12.6 50,20.4 45.4,23.6 38.5,20.5 Z M 22.4,24.7 C 28.4,7.5 0.3,5.5 0.3,26.3 0.3,42.1 11.8,46.9 22,39.9 31.3,46.2 40.7,45.4 46.6,38.1 57.7,46.7 69.6,37.4 69.6,26.8 69.6,17.9 61.9,12.8 51.2,11.5 L 51,13.5 C 59.5,14.4 67.6,18.5 67.6,26.8 67.6,36 56.6,45 46.2,35.2 41.1,43.7 30.9,44.3 22,37.4 12.6,44.8 2.3,40.9 2.3,26.3 2.3,10.1 23.4,8.1 22.4,24.7 Z" fill="#5d5d5d" />
  </g>
  <text style="font-size:32px;font-family:Junction;text-align:center;text-anchor:middle" x="760" y="114" xml:space="preserve"><tspan x="760" y="114" sodipodi:role="line">Coat</tspan></text>
  <rect fill="#642c8f" height="48" width="48" x="736" y="128" />
  <rect fill="#210e46" height="24.000008" width="48" x="736" y="176" />
  <rect fill="#502474" height="48" width="48" x="736" y="200" />
  <text style="font-size:20px;font-family:Junction;text-align:end;text-anchor:end" x="722" y="196" xml:space="preserve"><tspan x="722" y="196" sodipodi:role="line">Outline</tspan></text>
  <text style="font-size:20px;font-family:Junction;text-align:end;text-anchor:end" x="722" y="160" xml:space="preserve"><tspan x="722" y="160" sodipodi:role="line">Fill</tspan></text>
  <text style="font-size:20px;font-family:Junction;text-align:end;text-anchor:end" x="722" y="232" xml:space="preserve"><tspan x="722" y="232" sodipodi:role="line">Shadow Fill</tspan></text>
  <text font-family="'DejaVu Sans Mono'" font-size="20px" x="797" y="196" xml:space="preserve"><tspan x="797" y="196" sodipodi:role="line">210E46</tspan></text>
  <text font-family="'DejaVu Sans Mono'" font-size="20px" x="797" y="160" xml:space="preserve"><tspan x="797" y="160" sodipodi:role="line">642C8F</tspan></text>
  <text font-family="'DejaVu Sans Mono'" font-size="20px" x="797" y="232" xml:space="preserve"><tspan x="797" y="232" sodipodi:role="line">502474</tspan></text>
  <rect fill="none" height="72" stroke="#000" stroke-width="2" width="48" x="736" y="361" />
  <text style="font-size:32px;font-family:Junction;text-align:center;text-anchor:middle" x="760" y="347" xml:space="preserve"><tspan x="760" y="347" sodipodi:role="line">Mane &amp; Tail</tspan></text>
  <rect fill="#f5ec44" height="48" width="48" x="736" y="361" />
  <rect fill="#877b09" height="24.000008" width="48" x="736" y="409" />
  <text style="font-size:20px;font-family:Junction;text-align:end;text-anchor:end" x="722" y="429" xml:space="preserve"><tspan x="722" y="429" sodipodi:role="line">Outline</tspan></text>
  <text style="font-size:20px;font-family:Junction;text-align:end;text-anchor:end" x="722" y="393" xml:space="preserve"><tspan x="722" y="393" sodipodi:role="line">Fill</tspan></text>
  <text font-family="'DejaVu Sans Mono'" font-size="20px" x="797" y="429" xml:space="preserve"><tspan x="797" y="429" sodipodi:role="line">877B09</tspan></text>
  <text font-family="'DejaVu Sans Mono'" font-size="20px" x="797" y="393" xml:space="preserve"><tspan x="797" y="393" sodipodi:role="line">F5EC44</tspan></text>
  <text style="font-size:16px;font-family:Junction;text-align:center;text-anchor:middle" x="760" y="457" xml:space="preserve"><tspan x="760" y="457" sodipodi:role="line">These colours are also used</tspan><tspan x="760" y="477" sodipodi:role="line">for the lightning bolts in the</tspan><tspan x="760" y="497" sodipodi:role="line">cutie mark and necklace</tspan></text>
  <rect fill="none" height="144" stroke="#000" stroke-width="2" width="48" x="736" y="600" />
  <text style="font-size:32px;font-family:Junction;text-align:center;text-anchor:middle" x="760" y="586" xml:space="preserve"><tspan x="760" y="586" sodipodi:role="line">Hooves</tspan></text>
  <rect fill="#fad3b7" height="48" width="48" x="736" y="600" />
  <rect fill="#ecb58e" height="24.000008" width="48" x="736" y="648" />
  <rect fill="#f8c198" height="48" width="48" x="736" y="672" />
  <text style="font-size:20px;font-family:Junction;text-align:end;text-anchor:end" x="722" y="668" xml:space="preserve"><tspan x="722" y="668" sodipodi:role="line">Outline</tspan></text>
  <text style="font-size:20px;font-family:Junction;text-align:end;text-anchor:end" x="722" y="632" xml:space="preserve"><tspan x="722" y="632" sodipodi:role="line">Fill</tspan></text>
  <text style="font-size:20px;font-family:Junction;text-align:end;text-anchor:end" x="722" y="704" xml:space="preserve"><tspan x="722" y="704" sodipodi:role="line">Shadow Fill</tspan></text>
  <text font-family="'DejaVu Sans Mono'" font-size="20px" x="797" y="668" xml:space="preserve"><tspan x="797" y="668" sodipodi:role="line">ECB58E</tspan></text>
  <text font-family="'DejaVu Sans Mono'" font-size="20px" x="797" y="632" xml:space="preserve"><tspan x="797" y="632" sodipodi:role="line">FAD3B7</tspan></text>
  <text font-family="'DejaVu Sans Mono'" font-size="20px" x="797" y="704" xml:space="preserve"><tspan x="797" y="704" sodipodi:role="line">F8C198</tspan></text>
  <rect fill="#e6a06e" height="24.000008" width="48" x="736" y="720" />
  <text style="font-size:20px;font-family:Junction;text-align:end;text-anchor:end" x="722" y="740" xml:space="preserve"><tspan x="722" y="740" sodipodi:role="line">Shadow Outline</tspan></text>
  <text font-family="'DejaVu Sans Mono'" font-size="20px" x="797" y="740" xml:space="preserve"><tspan x="797" y="740" sodipodi:role="line">E6A06E</tspan></text>
  <rect fill="none" height="96" stroke="#000" stroke-width="2" width="48" x="1072" y="238" />
  <text style="font-size:32px;font-family:Junction;text-align:center;text-anchor:middle" x="1096" y="224" xml:space="preserve"><tspan x="1096" y="224" sodipodi:role="line">Iris</tspan></text>
  <rect fill="#4eaaf7" height="48" width="48" x="1072" y="238" />
  <rect fill="#a2d2fb" height="48" width="48" x="1072" y="286" />
  <text style="font-size:20px;font-family:Junction;text-align:end;text-anchor:end" x="1058" y="270" xml:space="preserve"><tspan x="1058" y="270" sodipodi:role="line">Gradient Top</tspan></text>
  <text style="font-size:20px;font-family:Junction;text-align:end;text-anchor:end" x="1058" y="318" xml:space="preserve"><tspan x="1058" y="318" sodipodi:role="line">Gradient Bottom</tspan></text>
  <text font-family="'DejaVu Sans Mono'" font-size="20px" x="1133" y="270" xml:space="preserve"><tspan x="1133" y="270" sodipodi:role="line">4EAAF7</tspan></text>
  <text font-family="'DejaVu Sans Mono'" font-size="20px" x="1133" y="318" xml:space="preserve"><tspan x="1133" y="318" sodipodi:role="line">A2D2FB</tspan></text>
  <rect height="24.000008" width="48" x="1072" y="585" />
  <text style="font-size:20px;font-family:Junction;text-align:end;text-anchor:end" x="1058" y="605" xml:space="preserve"><tspan x="1058" y="605" sodipodi:role="line">Necklace String</tspan></text>
  <text font-family="'DejaVu Sans Mono'" font-size="20px" x="1133" y="605" xml:space="preserve"><tspan x="1133" y="605" sodipodi:role="line">000000</tspan></text>
  <text style="font-size:32px;font-family:Junction;text-align:center;text-anchor:middle" x="1096" y="451" xml:space="preserve"><tspan x="1096" y="451" sodipodi:role="line">Cutie Mark</tspan></text>
  <rect fill="#8d8d8d" height="48" width="48" x="1072" y="465" />
  <rect fill="#5d5d5d" height="24.000008" width="48" x="1072" y="513" />
  <text style="font-size:20px;font-family:Junction;text-align:end;text-anchor:end" x="1058" y="533" xml:space="preserve"><tspan x="1058" y="533" sodipodi:role="line">Cloud Outline</tspan></text>
  <text style="font-size:20px;font-family:Junction;text-align:end;text-anchor:end" x="1058" y="497" xml:space="preserve"><tspan x="1058" y="497" sodipodi:role="line">Cloud Fill</tspan></text>
  <text font-family="'DejaVu Sans Mono'" font-size="20px" x="1133" y="533" xml:space="preserve"><tspan x="1133" y="533" sodipodi:role="line">5D5D5D</tspan></text>
  <text font-family="'DejaVu Sans Mono'" font-size="20px" x="1133" y="497" xml:space="preserve"><tspan x="1133" y="497" sodipodi:role="line">8D8D8D</tspan></text>
</svg>