<?xml version="1.0" encoding="UTF-8" standalone="no"?>
<!-- Created with Inkscape (http://www.inkscape.org/) -->

<svg
   xmlns:dc="http://purl.org/dc/elements/1.1/"
   xmlns:cc="http://creativecommons.org/ns#"
   xmlns:rdf="http://www.w3.org/1999/02/22-rdf-syntax-ns#"
   xmlns:svg="http://www.w3.org/2000/svg"
   xmlns="http://www.w3.org/2000/svg"
   xmlns:xlink="http://www.w3.org/1999/xlink"
   xmlns:sodipodi="http://sodipodi.sourceforge.net/DTD/sodipodi-0.dtd"
   xmlns:inkscape="http://www.inkscape.org/namespaces/inkscape"
   width="400.54382"
   height="263.63345"
   id="svg3599"
   version="1.1"
   inkscape:version="0.48.3.1 r9886"
   sodipodi:docname="The Lollipop from the Boomerang Nebula.svg"
   inkscape:export-filename="/home/parclytaxel/Pictures/The Lollipop from the Boomerang Nebula.png"
   inkscape:export-xdpi="1398.3051"
   inkscape:export-ydpi="1398.3051">
  <defs
     id="defs3601">
    <clipPath
       clipPathUnits="userSpaceOnUse"
       id="clipPath4383">
      <path
         style="fill:#bf8e83;fill-opacity:1;stroke:none"
         d="m 1307.6646,1102.7315 111.9509,67.741 c 30.1459,18.2412 57.377,-23.5907 35.1946,-37.5591 l -115.4212,-72.6818 c -16.5492,9.39 -26.8852,22.7838 -31.7243,42.4999 z"
         id="path4385"
         inkscape:connector-curvature="0"
         sodipodi:nodetypes="csscc" />
    </clipPath>
    <filter
       color-interpolation-filters="sRGB"
       inkscape:collect="always"
       id="filter4093">
      <feGaussianBlur
         inkscape:collect="always"
         stdDeviation="2.1370712"
         id="feGaussianBlur4095" />
    </filter>
    <linearGradient
       id="linearGradient5881"
       inkscape:collect="always">
      <stop
         id="stop5883"
         offset="0"
         style="stop-color:#c04070;stop-opacity:0.6" />
      <stop
         id="stop5885"
         offset="1"
         style="stop-color:#c04070;stop-opacity:0" />
    </linearGradient>
    <filter
       color-interpolation-filters="sRGB"
       inkscape:collect="always"
       id="filter4345">
      <feGaussianBlur
         inkscape:collect="always"
         stdDeviation="5.2499055"
         id="feGaussianBlur4347" />
    </filter>
    <linearGradient
       y2="1118.7544"
       x2="1337.1954"
       y1="1057.6499"
       x1="1226.485"
       gradientUnits="userSpaceOnUse"
       id="linearGradient3597"
       xlink:href="#linearGradient5881"
       inkscape:collect="always" />
    <clipPath
       clipPathUnits="userSpaceOnUse"
       id="clipPath4463">
      <path
         style="font-size:medium;font-style:normal;font-variant:normal;font-weight:normal;font-stretch:normal;text-indent:0;text-align:start;text-decoration:none;line-height:normal;letter-spacing:normal;word-spacing:normal;text-transform:none;direction:ltr;block-progression:tb;writing-mode:lr-tb;text-anchor:start;baseline-shift:baseline;color:#000000;fill:none;stroke:#000000;stroke-width:1;stroke-miterlimit:4;stroke-dasharray:none;marker:none;visibility:visible;display:inline;overflow:visible;enable-background:accumulate;font-family:Sans;-inkscape-font-specification:Sans"
         d="m 1122.6738,911.37406 c -6.0218,0.12183 -12.3278,2.15177 -18.3437,5.40625 -10.2673,5.55432 -20.1176,14.73624 -27.75,25.1875 -7.6325,10.45126 -13.0635,22.18416 -14.0625,33.1875 -0.9989,11.00334 2.928,21.55936 13.5625,27.59379 l 136.9062,77.6875 c 4.4301,19.0421 13.5732,29.9005 21.875,32.5625 2.4045,0.771 4.7824,0.8097 6.875,0.031 2.0926,-0.7782 3.8375,-2.3859 4.9688,-4.625 1.0622,-2.1025 1.6358,-4.7427 1.6562,-7.9062 l 33.0938,18.7812 c 5.8098,3.2968 12.8375,4.0166 19.2187,2.9063 6.3812,-1.1103 12.287,-4.0471 15.5313,-9.0625 l 33.1562,-51.25 c 3.3763,-5.2196 4.5557,-11.9877 3.4688,-18.4375 -1.087,-6.4498 -4.5991,-12.7191 -10.9688,-16.125 l 0,0.031 -207.0312,-113.12499 c -3.4433,-1.88091 -7.1395,-2.75684 -10.9688,-2.84375 -0.3989,-0.009 -0.786,-0.008 -1.1875,0 z"
         id="path4465"
         inkscape:connector-curvature="0" />
    </clipPath>
  </defs>
  <sodipodi:namedview
     id="base"
     pagecolor="#ffffff"
     bordercolor="#666666"
     borderopacity="1.0"
     inkscape:pageopacity="0.0"
     inkscape:pageshadow="2"
     inkscape:zoom="2.0861884"
     inkscape:cx="200.2759"
     inkscape:cy="131.81935"
     inkscape:document-units="px"
     inkscape:current-layer="layer1"
     showgrid="false"
     fit-margin-top="0"
     fit-margin-left="0"
     fit-margin-right="0"
     fit-margin-bottom="0"
     inkscape:window-width="1364"
     inkscape:window-height="698"
     inkscape:window-x="0"
     inkscape:window-y="0"
     inkscape:window-maximized="1" />
  <metadata
     id="metadata3604">
    <rdf:RDF>
      <cc:Work
         rdf:about="">
        <dc:format>image/svg+xml</dc:format>
        <dc:type
           rdf:resource="http://purl.org/dc/dcmitype/StillImage" />
        <dc:title></dc:title>
      </cc:Work>
    </rdf:RDF>
  </metadata>
  <g
     inkscape:label="Layer 1"
     inkscape:groupmode="layer"
     id="layer1"
     transform="translate(3.8688166,-677.90009)">
    <g
       transform="translate(-1066.2363,-233.46781)"
       style="display:inline"
       id="g4965"
       clip-path="none">
      <path
         sodipodi:nodetypes="ccc"
         inkscape:connector-curvature="0"
         id="path4813"
         d="m 1212.7341,1070.5992 c 6.367,49.4383 43.2584,53.9327 32.0225,17.603 z"
         style="fill:#f4dae4;fill-opacity:1;stroke:#e09ab4;stroke-width:3;stroke-miterlimit:4;stroke-opacity:1;stroke-dasharray:none" />
      <path
         sodipodi:nodetypes="sssssss"
         inkscape:connector-curvature="0"
         id="path3661"
         d="m 1077.5848,1000.1304 205.374,116.5363 c 10.1029,5.7328 25.5622,2.8584 30.7527,-5.1659 l 33.1458,-51.2411 c 5.7764,-8.93 4.4565,-24.4879 -6.4079,-30.2972 L 1133.4086,916.86495 c -31.9495,-17.45267 -94.4715,61.33537 -55.8238,83.26545 z"
         style="fill:#f4dae4;fill-opacity:1;stroke:none" />
      <path
         sodipodi:nodetypes="ccc"
         inkscape:connector-curvature="0"
         id="path3107"
         d="m 1297.0339,1107.8609 c -0.8565,-28.5103 23.2273,-61.4415 41.6748,-65.7565 -18.9074,7.4897 -39.3234,37.6142 -41.6748,65.7565 z"
         style="fill:#e09ab4;fill-opacity:1;stroke:none" />
      <path
         style="fill:none;stroke:#e09ab4;stroke-width:6;stroke-miterlimit:4;stroke-opacity:1;stroke-dasharray:none"
         d="m 1077.5848,1000.1304 205.374,116.5363 c 10.1029,5.7328 25.5622,2.8584 30.7527,-5.1659 l 33.1458,-51.2411 c 5.7764,-8.93 4.4565,-24.4879 -6.4079,-30.2972 L 1133.4086,916.86495 c -31.9495,-17.45267 -94.4715,61.33537 -55.8238,83.26545 z"
         id="path4267"
         inkscape:connector-curvature="0"
         sodipodi:nodetypes="sssssss" />
      <path
         sodipodi:nodetypes="csscc"
         inkscape:connector-curvature="0"
         id="path3109"
         d="m 1307.6646,1102.7315 111.9509,67.741 c 30.1459,18.2412 57.377,-23.5907 35.1946,-37.5591 l -115.4212,-72.6818 c -16.5492,9.39 -26.8852,22.7838 -31.7243,42.4999 z"
         style="fill:#bf8e83;fill-opacity:1;stroke:none" />
      <path
         clip-path="url(#clipPath4383)"
         style="fill:#935160;fill-opacity:1;stroke:none;filter:url(#filter4093)"
         d="m 1303.7778,1075.3364 c 43.6976,40.2547 106.4633,79.2129 167.1103,101.4589 -52.7587,40.6039 -198.6341,-29.4185 -167.1103,-101.4589 z"
         id="path3885"
         inkscape:connector-curvature="0"
         sodipodi:nodetypes="ccc" />
      <path
         sodipodi:nodetypes="ccc"
         inkscape:connector-curvature="0"
         id="path3881"
         d="m 1319.403,1089.9297 c 34.8795,25.8808 68.0811,46.1604 106.7556,66.414 -36.6169,-24.327 -68.5699,-44.7022 -106.7556,-66.414 z"
         style="fill:#884b59;fill-opacity:1;stroke:none" />
      <path
         clip-path="url(#clipPath4463)"
         sodipodi:nodetypes="ccccc"
         inkscape:connector-curvature="0"
         id="path4217"
         d="m 1055.2333,940.89975 243.1833,134.23575 c -15.2429,19.7262 -19.9265,36.3509 -7.5028,63.118 -56.8426,-42.1273 -96.4057,-61.784 -128.308,-33.9935 -117.8283,18.4629 -201.44932,-111.09326 -107.3725,-163.36025 z"
         style="fill:url(#linearGradient3597);fill-opacity:1;stroke:none;filter:url(#filter4345)" />
    </g>
  </g>
</svg>
