<svg xmlns="http://www.w3.org/2000/svg" viewBox="-40 -40 80 80">
  <path d="M35 0A35 35 0 1 0-35 0 35 35 0 1 0 35 0Z" fill="#fff"/>
  <path d="M-17.7-30.6l3.2 5.5m-16.1 42.8l5.5-3.2m42.8 16.1l-3.2-5.5m16.1-42.8l-5.5 3.2m-7.4-16.1l-3.2 5.5m16.1 42.8l-5.5-3.2m-42.8 16.1l3.2-5.5m-16.1-42.8l5.5 3.2" style="fill:none;stroke:#000;stroke-width:1.5;stroke-linecap:round"/>
  <path d="M0 35.3V22.8M35.3 0H22.8M0-35.3v12.5M-35.3 0h12.5" style="fill:none;stroke:#000;stroke-width:2;stroke-linecap:round"/>
  <path d="M33 0A33 33 0 1 0-33 0 33 33 0 1 0 33 0ZM37.4 0A37.4 37.4 0 1 1-37.4 0 37.4 37.4 0 1 1 37.4 0ZM-.8.7l6.1 8.1L3.7 10l5.6 2.2-.6-6-1.6 1.2L1-.7zM1.7.1v-16.7h3L0-24.2l-4.7 7.6h3V.1z" fill="#44d8b2"/>
  <path d="M2.3 0A2.3 2.3 0 1 0-2.3 0 2.3 2.3 0 1 0 2.3 0Z"/>
</svg>

