<svg xmlns="http://www.w3.org/2000/svg" xmlns:inkscape="http://www.inkscape.org/namespaces/inkscape" xmlns:xlink="http://www.w3.org/1999/xlink" height="586" viewBox="0 0 518 586.00002" width="518">
  <defs>
    <inkscape:path-effect bendpath1="M -23.505994,-46.055658 H 23.750905" bendpath2="M 20.506798,-45.877441 C 44.15437,-14.400423 42.569271,14.237051 21.304134,47.842093" bendpath3="M -23.505994,46.3 H 23.750905" bendpath4="M -25.063984,-45.832857 C -3.8788262,-16.273464 -5.5950709,15.656032 -25.491573,45.306697" effect="envelope" id="path-effect4685" yy="false" />
    <inkscape:path-effect effect="powerstroke" id="path-effect4317" interpolator_type="CubicBezierSmooth" offset_points="0.36,3" start_linecap_type="zerowidth" />
    <inkscape:path-effect effect="powerstroke" end_linecap_type="zerowidth" id="path-effect4315" interpolator_type="CubicBezierSmooth" offset_points="0.38,3 | 4.7,3" start_linecap_type="zerowidth" />
    <linearGradient id="linearGradient4132">
      <stop offset="0" stop-color="#580d36" />
      <stop offset="1" stop-color="#bc1d75" />
    </linearGradient>
    <inkscape:path-effect effect="powerstroke" id="path-effect856" interpolator_type="CubicBezierSmooth" offset_points="0.34,3" start_linecap_type="zerowidth" />
    <inkscape:path-effect effect="powerstroke" id="path-effect840" interpolator_type="CubicBezierSmooth" offset_points="0.59,3 | 6,3" start_linecap_type="zerowidth" />
    <inkscape:path-effect effect="powerstroke" end_linecap_type="zerowidth" id="path-effect830" interpolator_type="CubicBezierSmooth" offset_points="0.19,3 | 2.79,3" start_linecap_type="zerowidth" />
    <inkscape:path-effect effect="powerstroke" end_linecap_type="zerowidth" id="path-effect4605" interpolator_type="CubicBezierSmooth" offset_points="0.53,3 | 1.75,3" start_linecap_type="zerowidth" />
    <inkscape:path-effect effect="powerstroke" end_linecap_type="zerowidth" id="path-effect4765" interpolator_type="CubicBezierSmooth" offset_points="0.22,3 | 1.67,3" start_linecap_type="zerowidth" />
    <linearGradient gradientTransform="matrix(0.58024912,0,0,0.58024912,-286.66175,-142.17783)" gradientUnits="userSpaceOnUse" id="linearGradient4154" x1="848.4848" x2="928.11627" y1="-390.83066" y2="-386.01157" xlink:href="#linearGradient4132" />
    <linearGradient gradientTransform="matrix(0.57694186,0,0,0.57694186,-308.66727,-63.46858)" gradientUnits="userSpaceOnUse" id="linearGradient4224" x1="655.71625" x2="727.13995" y1="-765.66699" y2="-765.57458" xlink:href="#linearGradient4132" />
    <clipPath id="clipPath4236">
      <use xlink:href="#path4297" />
    </clipPath>
    <clipPath id="clipPath4250">
      <use xlink:href="#path5053" />
    </clipPath>
    <clipPath id="clipPath4266">
      <use xlink:href="#path4541-3" />
    </clipPath>
    <clipPath id="clipPath4282">
      <use xlink:href="#path12893-0" />
    </clipPath>
    <inkscape:path-effect effect="powerstroke" id="path-effect2770" interpolator_type="CubicBezierSmooth" offset_points="0.34,3" start_linecap_type="zerowidth" />
  </defs>
  <g>
    <path d="M 234.4,251.09419 C 214.29884,194.87907 172.39303,163.53489 113.11163,148.54419 118.83151,153.44272 122.7311,157.77666 125.54709,161.8314 83.770619,154.55242 36.941271,157.85369 9.6058143,195.92325 18.498644,191.31892 27.050775,188.74991 35.773256,187.38372 -2.472555,223.38356 -15.147786,273.50013 14.65,332.52093 L 23.50814,302.88023 C 37.763584,341.22198 63.204221,366.2853 91.136628,388.225 86.47009,375.35346 83.041203,362.23439 80.645561,348.90867 116.63313,373.35358 141.57319,394.9955 157.46788,433.52568 157.8476,394.19667 139.01829,361.63547 111.54217,323.63857 127.5723,333.79351 142.00969,345.91149 153.26977,358.73256 151.5053,341.91017 147.24345,330.03107 133.14575,307.60187 106.02233,264.44896 163.86095,228.45206 207.54334,267.47189 Z" fill="#3167cc" />
    <path d="M 227.86202,255.08117 234.4,251.09419 C 214.29884,194.87907 172.39303,163.53489 113.11163,148.54419 118.83151,153.44272 122.7311,157.77666 125.54709,161.8314 83.770619,154.55242 36.941271,157.85369 9.6058143,195.92325 18.498644,191.31892 27.050775,188.74991 35.773256,187.38372 79.49653,149.65007 174.17767,160.07176 227.86202,255.08117 Z M 212.12558,264.67755 219.15098,260.40516 C 140.00904,152.21677 -24.888698,215.5298 85.886471,352.6314 121.15131,375.87176 141.09137,397.4046 157.46788,433.52568 157.8476,394.19667 139.01829,361.63547 111.54217,323.63857 43.503882,235.72168 144.1932,178.32437 212.12558,264.67755 Z" fill="#05ece6" />
    <path d="M 234.4,251.09419 C 214.29884,194.87907 172.39303,163.53489 113.11163,148.54419 118.83151,153.44272 122.7311,157.77666 125.54709,161.8314 83.770619,154.55242 36.941271,157.85369 9.6058143,195.92325 18.498644,191.31892 27.050775,188.74991 35.773256,187.38372 -2.472555,223.38356 -15.147786,273.50013 14.65,332.52093 L 23.50814,302.88023 C 37.763584,341.22198 63.204221,366.2853 91.136628,388.225 86.47009,375.35346 83.041203,362.23439 80.645561,348.90867 116.63313,373.35358 141.57319,394.9955 157.46788,433.52568 157.8476,394.19667 139.01829,361.63547 111.54217,323.63857 127.5723,333.79351 142.00969,345.91149 153.26977,358.73256 151.5053,341.91017 147.24345,330.03107 133.14575,307.60187 106.02233,264.44896 163.86095,228.45206 207.54334,267.47189 Z" style="fill:none;stroke:#1f3e7d;stroke-width:6;stroke-miterlimit:20" />
  </g>
  <g>
    <path d="M 519,102.5 C 555.87868,171.67157 552,242 514.5,308.5 517.55527,278.01707 516.86272,255.78431 506,228 501.52427,289.2968 482.79425,329.13748 435.5,365.5 448.78755,340.1953 453.77368,315.88327 456,288.5 448.20545,300.65605 440.30859,309.05618 427.03553,315.6915 430.33082,304.61099 432.33188,294.16603 431.37348,281.33883 425.08483,286.58272 418.62179,291.41967 411.34315,294.35355 412.76967,286.42333 413.56709,278.59795 413,271 405.19412,276.81715 398.28932,280.23129 390,282.5 L 397.29911,86.46122 Z" fill="#3167cc" />
    <path d="M 519,102.5 C 555.87868,171.67157 552,242 514.5,308.5 517.55527,278.01707 516.86272,255.78431 506,228 503.59097,260.99262 497.09221,294.34339 474.19268,326.70741 487.09149,241.43831 487.86762,169.55462 477.99621,97.096171 Z" fill="#05ece6" />
    <path d="M 519,102.5 C 555.87868,171.67157 552,242 514.5,308.5 517.55527,278.01707 516.86272,255.78431 506,228 501.52427,289.2968 482.79425,329.13748 435.5,365.5 448.78755,340.1953 453.77368,315.88327 456,288.5 448.20545,300.65605 440.30859,309.05618 427.03553,315.6915 430.33082,304.61099 432.33188,294.16603 431.37348,281.33883 425.08483,286.58272 418.62179,291.41967 411.34315,294.35355 412.76967,286.42333 413.56709,278.59795 413,271 405.19412,276.81715 398.28932,280.23129 390,282.5 L 397.29911,86.46122 Z" style="fill:none;stroke:#1f3e7d;stroke-width:6;stroke-miterlimit:20" />
  </g>
  <g>
    <path d="M 341.50594,282.69847 C 372.62373,315.53007 336.03221,380.15218 289.19143,345.00394 247.67106,313.84753 237.855,249.0026 247.26575,239.08911 258.37979,227.3819 291.9655,244.79921 321.46659,271.5314 Z" fill="#8cc7e7" stroke="#5c96c9" stroke-width="6" />
    <path d="M 244.43424,264.65743 279.14106,317.57005 M 259.54024,234.63546 306.3376,278.10551 M 245.6217,242.00385 283.96251,285.15532" style="fill:none;stroke:#5c96c9;stroke-width:3;stroke-miterlimit:20" />
  </g>
  <g>
    <path d="M 225.02814,313.23466 298.50139,367.77792 C 277.7239,422.4425 294.64442,489.95394 327.35836,532.28395 342.35959,551.69472 258.02725,555.15651 250.0677,532.0413 234.56654,487.02465 228.5281,442.08453 240.21513,397.7922 241.48076,392.99564 247.05968,391.13433 255.71738,391.41931 250.0446,371.91853 231.44765,348.68487 225.02814,313.23466 Z" fill="#8cc7e7" />
    <path fill="#5c96c9" inkscape:original-d="M 257.09065,400.00713 C 255.84092,378.55424 232.40165,353.95313 225.02814,313.23466 L 298.50139,367.77792 C 277.7239,422.4425 294.64442,489.95394 327.35836,532.28395 342.35959,551.69472 258.02725,555.15651 250.0677,532.0413 234.56654,487.02465 228.5281,442.08453 240.21513,397.7922 241.48076,392.99564 247.05968,391.13433 255.86068,391.34457" inkscape:path-effect="#path-effect856" />
    <path d="M 361.81705,399.7274 C 331.94286,415.48686 336.76086,485.50316 360.97497,474.21048 405.17894,453.59518 423.80313,392.35777 423.80313,361.21387 423.80313,339.3493 397.09652,335.21763 359.39197,357.22363 L 335.37526,355.50934 C 336.91708,395.73687 364.27234,383.01198 382.5715,383.74649 376.73235,390.72112 370.41044,395.19415 361.81705,399.7274 Z" fill="#8cc7e7" />
    <path fill="#5c96c9" inkscape:original-d="M 388.80845,374.66018 C 381.10759,387.41283 373.59626,393.51354 361.81705,399.7274 331.94286,415.48686 336.76086,485.50316 360.97497,474.21048 405.17894,453.59518 423.80313,392.35777 423.80313,361.21387 423.80313,339.3493 397.09652,335.21763 359.39197,357.22363 L 335.37526,355.50934 C 336.91708,395.73687 364.27234,383.01198 382.62949,383.81142" inkscape:path-effect="#path-effect840" />
  </g>
  <path d="M 208.68774,544.4733 C 217.42902,563.88407 130.58741,567.51152 130.63434,544.23065 130.76183,480.99247 144.23041,433.92032 169.46022,390.18865 172.23382,385.38108 177.32833,383.32053 187.04834,383.81104 187.28087,364.40406 176.70155,341.38992 181.61694,306.63111 188.51656,257.84098 224.77899,240.07478 257.26408,246.19201 283.77313,251.1839 290.40167,262.77228 311.75158,264.62971 318.89554,241.85092 322.16303,211.27985 323.2758,164.72529 326.82237,16.348971 548.44914,61.983613 485.59731,211.47372 L 399.61752,248.38839 C 400.20206,312.42189 380.69574,362.92978 329.16541,375.86555 292.07116,385.1774 257.51767,380.93309 238.01411,361.6222 192.62522,433.78015 189.62521,502.14329 208.68774,544.4733 Z" fill="#9bdbf5" />
  <g transform="matrix(-.37581516-.12650374-.25875573.71871938 212.31129 294.19534)" inkscape:path-effect="#path-effect4685">
    <path fill="#1b98d1" inkscape:original-d="M 5.4,-14.7 C 1.2,-12 -2,-8.7 -5.1,-4.1 L 3,-8.2 C -5.4,4.7 -6.5,22.3 -4.1,46.3 -26.7,-29.5 9.5,-30.9 5.4,-14.7 Z" />
    <path fill="#fde85f" inkscape:original-d="M 3.9,-26.6 C -4,-19.3 -8.1,-10 -11.3,1 L -3.1,-3.3 C -9,10.7 -8.1,26.3 -4.1,46.3 -20.5,7.1 0.7,-3.7 -21.2,10.8 -11.8,-39.7 3,-35.5 3.9,-26.6 Z" />
    <path fill="#ec4141" inkscape:original-d="M -8.4,-36.9 C -18.9,-21.9 -23.7,-5.4 -23.5,14.6 L -11.8,6.6 C -13.7,18.8 -11.1,31.4 -4.1,46.3 -10.1,28.4 -11.5,14.5 -8,0.8 L -18.5,7.6 C -15.9,-8.8 -10.9,-21.7 -1.5,-33.1 Z" />
    <path fill="#fff" inkscape:original-d="M -3.1,-27.4 C -13.6,-17.6 -4.2,-8.5 3.9,-19 1.9,-4.5 12.5,-2.8 18.9,-8.2 25.3,-13.6 24.7,-24 16.7,-28.1 25.5,-36.7 14.2,-47.9 6.1,-42.7 -4,-52.7 -19.9,-34.4 -3.1,-27.4 Z" />
    <path fill="#1b98d1" inkscape:original-d="M 5.9,-42.4 C -3.9,-51.8 -19.4,-34.1 -2.2,-27.6 -13.4,-17.6 -3.8,-8.3 4.7,-21 1.5,-5.4 12.2,-3.1 18.6,-8.5 25,-13.9 24,-24.1 16,-28 24,-36 16.3,-43.6 10.6,-43.6 4.9,-43.6 0.7,-36.8 7.1,-34.6 -5.4,-22.2 15.4,-16.6 10.8,-26.9 17.2,-15.4 -6.3,-20.6 5.5,-34.3 0.4,-36.6 3.2,-44.5 10.6,-44.5 18,-44.5 24.4,-35.2 17.4,-28.3 25,-24 26,-13.5 19.2,-7.8 12.4,-2.1 1.9,-4.4 3.3,-17.6 -5.3,-8.1 -13.8,-18.1 -3.9,-27.3 -20.4,-34.5 -4.5,-53.4 6.6,-43 Z" />
  </g>
  <path fill="#6babda" inkscape:original-d="M 306.88945,277.25393 C 317.54203,253.14544 321.94645,220.34067 323.2758,164.72529 326.82235,16.34897 548.44914,61.983613 485.59731,211.47372 L 399.61752,248.38839 C 400.20206,312.42189 380.69574,362.92977 329.16541,375.86555 272.55275,390.07715 221.85811,372.71321 221.46166,318.00336" inkscape:path-effect="#path-effect4315" />
  <g>
    <path d="M 491.74349,143.04761 492.91251,146.28368 C 512.17147,140.99868 511.44454,137.83437 491.74349,143.04761 Z M 492.44,153.23849 492.82268,156.79586 C 512.77616,155.96029 512.80823,152.57211 492.44,153.23849 Z" />
    <g clip-path="url(#clipPath4282)">
      <path d="M 471.24766,198.94135 C 466.8089,174.9318 473.39934,147.65099 492.76692,133.3641 499.61841,156.18979 497.8596,184.0083 485.27868,211.2519 478.91567,209.24851 473.28825,204.36579 471.24766,198.94135 Z" fill="#fff" id="path12893-0" />
      <g clip-path="url(#clipPath4250)">
        <ellipse cx="89.509399" cy="-500.98318" fill="url(#linearGradient4224)" id="path5053" rx="28.696369" ry="11.136456" transform="rotate(-80.092445)scale(-1)" />
        <path d="M 474.71889,178.09358 491.5979,188.4475 483.33694,208.46732 Z" fill="#fcb6df" />
        <path d="M 474.71889,178.09358 489.95922,195.30076 493.71613,181.90386 Z" fill="#d9539d" />
        <ellipse cx="90.068672" cy="-500.27206" rx="22.221901" ry="8.6238518" transform="rotate(-80.092445)scale(-1)" />
        <ellipse cx="-11.557693" cy="509.10544" fill="#fff" rx="10.898472" ry="3.4660053" transform="rotate(-72.475191)" />
        <ellipse cx="-8.7346621" cy="514.87677" fill="#fff" rx="3.3624761" ry="1.1272519" transform="rotate(-70.501671)" />
      </g>
    </g>
    <path d="M 471.24766,198.94135 C 475.75242,211.62644 494.84206,210.26291 490.9014,221.73545 478.83367,256.86844 419.34362,270.00494 363.33821,231.75261 Z" fill="#9bdbf5" />
    <path fill="#6babda" inkscape:original-d="M 471.24766,198.94135 C 475.75242,211.62644 494.84206,210.26291 490.9014,221.73545 478.83367,256.86844 419.34362,270.00494 363.33821,231.75261" inkscape:path-effect="#path-effect4605" />
    <path d="M 450.1175,223.83881 C 453.19927,236.33898 460.87899,242.70336 471.98724,244.44365 L 477.95549,240.84468 C 463.9067,239.71163 457.16094,234.65612 450.1175,223.83881 Z M 480.29212,220.41768 C 476.88415,222.33005 474.23245,221.27133 473.88798,217.13851 471.12085,223.43428 476.65903,225.99714 480.29212,220.41768 Z" fill="#6babda" />
    <g clip-path="url(#clipPath4266)">
      <ellipse cx="323.1846" cy="-294.66437" fill="#fff" id="path4541-3" rx="44.547031" ry="37.528152" transform="rotate(65.012827)" />
      <g clip-path="url(#clipPath4236)">
        <ellipse cx="227.47211" cy="-357.89069" fill="url(#linearGradient4154)" id="path4297" rx="32.375713" ry="27.274645" transform="rotate(81.052779)" />
        <path d="M 414.39853,202.89696 381.12082,169.95744 421.96983,179.45666 Z" fill="#fcb6df" />
        <path d="M 423.99796,172.10679 381.12082,169.95744 421.70713,188.25574 Z" fill="#d9539d" />
        <ellipse cx="240.24615" cy="-347.48938" rx="25.896708" ry="21.816462" transform="rotate(79.034483)" />
        <ellipse cx="422.64169" cy="-33.042374" fill="#fff" rx="9.0192356" ry="12.868146" transform="rotate(26.224795)" />
        <ellipse cx="436.65027" cy="-32.16769" fill="#fff" rx="3.021765" ry="4.1494122" transform="rotate(27.771475)" />
      </g>
    </g>
    <path d="M 471.24766,198.94135 C 463.81496,170.25505 474.93825,145.31779 490.6061,132.98905 504.04144,122.41708 506.32551,124.79765 491.9475,136.13892 477.75816,147.33131 468.23615,166.66049 471.24766,198.94135 Z" />
    <path d="M 435.44137,197.78578 C 449.14197,167.56081 433.89011,139.06141 412.47292,129.85139 395.05748,122.36225 372.40956,128.97079 365.41706,154.83585 339.66456,151.58976 340.26104,147.72539 362.88117,150.61266 371.48116,124.84347 394.689,118.21449 413.83066,126.40577 435.96012,135.87562 455.45469,168.78439 435.44137,197.78578 Z M 368.15931,144.02604 C 346.1117,130.27488 347.87236,126.50738 369.88429,140.29513 Z M 374.62117,134.48187 C 360.2849,114.25702 362.53904,111.70236 377.65114,131.60401 Z" />
  </g>
  <path d="M 238.03888,361.73503 C 192.62522,433.78015 189.62521,502.14329 208.68774,544.4733 217.42902,563.88407 130.58741,567.51152 130.63434,544.23065 130.76183,480.99247 144.23041,433.92032 169.46022,390.18865 172.23382,385.38108 177.32833,383.32053 187.13992,383.88119" fill="none" stroke="#6babda" stroke-width="6" />
  <path fill="#6babda" inkscape:original-d="M 185.69538,393.40358 C 191.36419,371.95069 175.85877,347.34958 181.61694,306.63111 188.51656,257.84098 224.77899,240.07478 257.26408,246.19201 283.77313,251.1839 290.40167,262.77228 311.89099,264.54221" inkscape:path-effect="#path-effect4317" />
  <g>
    <path d="M 296.54326,358.43873 C 260.86292,423.85268 251.34816,518.20735 257.69133,553.88769 261.79642,576.97879 349.28134,572.35595 340.77387,553.75382 322.30523,513.37096 319.70147,431.68545 331.03425,362.40322 Z" fill="#9bdbf5" />
    <path fill="#6babda" inkscape:original-d="M 296.54326,358.43873 C 260.86292,423.85268 251.34816,518.20735 257.69133,553.88769 261.79642,576.97879 349.28134,572.35595 340.77387,553.75382 322.30523,513.37096 319.70147,431.68545 331.03425,362.40322" inkscape:path-effect="#path-effect830" />
  </g>
  <g>
    <path d="M 293.63754,283.03842 C 325.56321,315.08499 290.59217,380.59822 242.8907,346.62724 200.60739,316.51438 189.17969,251.93398 198.34067,241.78923 209.15974,229.80891 243.16874,246.38451 273.32633,272.37381 Z" fill="#9bdbf5" />
    <path fill="#6babda" inkscape:original-d="M 293.63754,283.03842 C 325.56321,315.08499 290.59217,380.59822 242.8907,346.62724 200.60739,316.51438 189.17969,251.93398 198.34067,241.78923 209.15974,229.80891 243.16874,246.38451 273.32633,272.37381 265.45259,273.48475 259.90323,276.77063 254.72241,284.21228 240.42838,277.85989 223.67077,291.41342 233.68976,311.66695 229.14016,322.03179 233.5376,337.1333 242.8907,346.62724" inkscape:path-effect="#path-effect2770" />
    <path d="M 196.1467,267.42013 232.16032,319.45212 M 210.50045,237.03132 258.36574,279.3226 M 196.76971,244.74401 236.17313,286.92738" style="fill:none;stroke:#6babda;stroke-width:3;stroke-miterlimit:20" />
  </g>
  <g>
    <path d="M 363.67718,85.976495 C 387.92241,91.696734 407.4572,100.54643 427.10836,114.04663 424.7941,102.41006 421.25855,95.148122 412.09676,85.040825 474.30635,104.54126 521.04489,137.63172 556.41077,186.78479 553.56106,156.34612 547.45091,130.44867 527.90277,99.664473 539.3289,106.24391 549.00084,113.60736 558.2956,124.85985 549.3784,86.944022 528.92549,64.244328 490.01551,46.894366 503.70938,45.470048 514.7861,45.815895 528.80241,47.591479 481.19247,13.336236 407.52419,16.548939 354.39199,50.994295 Z M 328.54839,127.47124 C 322.37965,169.68895 335.5976,215.35464 358.09826,254.48118 341.79416,245.78205 331.93397,234.40873 320.44165,220.74581 322.51207,248.5974 329.23469,276.8802 343.33741,303.64782 324.18413,288.4053 314.03648,267.88387 307.93891,248.53053 305.95811,262.70645 305.07047,275.72761 305.90644,290.14297 294.68773,264.97491 289.63697,239.08541 287.37399,210.35855 281.69477,221.48179 278.20961,230.17035 274.17987,242.97169 270.07617,177.71438 287.45602,111.19929 329.40343,67.131794 Z" fill="#3167cc" />
    <path d="M 527.90277,99.664473 C 539.3289,106.24391 549.00084,113.60736 558.2956,124.85985 549.3784,86.944022 528.92549,64.244328 490.01551,46.894366 L 502.25865,45.979078 C 449.72328,36.914947 398.28197,43.10329 356.74593,59.86283 L 359.8689,71.62869 C 409.14722,59.281559 472.70585,65.907712 527.90277,99.664473 Z M 329.13585,86.014654 328.98645,102.50423 C 311.95821,141.08222 310.52931,177.0604 320.72076,224.62107 323.1709,251.29492 329.90809,278.15835 343.33741,303.64782 324.18413,288.4053 314.03648,267.88387 307.93891,248.53053 305.95811,262.70645 305.07047,275.72761 305.90644,290.14297 295.1771,266.07277 290.08935,241.34269 287.52603,214.12801 291.05255,165.94494 301.83939,121.004 329.13585,86.014654 Z" fill="#05ece6" />
    <path d="M 363.67718,85.976495 C 387.92241,91.696734 407.4572,100.54643 427.10836,114.04663 424.7941,102.41006 421.25855,95.148122 412.09676,85.040825 474.30635,104.54126 521.04489,137.63172 556.41077,186.78479 553.56106,156.34612 547.45091,130.44867 527.90277,99.664473 539.3289,106.24391 549.00084,113.60736 558.2956,124.85985 549.3784,86.944022 528.92549,64.244328 490.01551,46.894366 503.70938,45.470048 514.7861,45.815895 528.80241,47.591479 481.19247,13.336236 407.52419,16.548939 354.39199,50.994295 Z M 328.54839,127.47124 C 322.37965,169.68895 335.5976,215.35464 358.09826,254.48118 341.79416,245.78205 331.93397,234.40873 320.44165,220.74581 322.51207,248.5974 329.23469,276.8802 343.33741,303.64782 324.18413,288.4053 314.03648,267.88387 307.93891,248.53053 305.95811,262.70645 305.07047,275.72761 305.90644,290.14297 294.68773,264.97491 289.63697,239.08541 287.37399,210.35855 281.69477,221.48179 278.20961,230.17035 274.17987,242.97169 270.07617,177.71438 287.45602,111.19929 329.40343,67.131794 Z" style="fill:none;stroke:#1f3e7d;stroke-width:6;stroke-miterlimit:20" />
    <path d="M 333.1092,148.61816 C 297.80178,83.535495 343.8408,33.652518 350.61506,34.284653 357.28968,34.90749 379.32876,61.335237 375.99513,99.325915 Z" fill="#9bdbf5" />
    <path fill="#6babda" inkscape:original-d="M 333.1092,148.61816 C 297.80178,83.535495 343.8408,33.652518 350.61506,34.284653 357.28968,34.90749 379.32876,61.335237 375.99513,99.325915" inkscape:path-effect="#path-effect4765" />
    <path d="M 347.58195,64.219075 C 341.23855,80.678515 338.97744,98.358008 342.1801,117.12065 335.0265,100.9164 336.89733,80.141062 347.58195,64.219075 Z" fill="#6babda" />
  </g>
</svg>