<svg xmlns="http://www.w3.org/2000/svg" viewBox="0 0 100 100">
  <path d="M66.6 45L50 17.5 33.4 45 50 72.5zM50 80.3L28.8 45 50 9.7 71.2 45zm0-39c-22.8-32.2-59.7-3.2 0 49 59.7-52.2 22.8-81.2 0-49z" fill="#920845"/>
</svg>
