<?xml version="1.0" encoding="UTF-8" standalone="no"?>
<!-- Created with Inkscape (http://www.inkscape.org/) -->

<svg width="800" height="800" viewBox="0 0 800 800.00003" version="1.1" id="svg327" sodipodi:docname="construction.svg" inkscape:version="1.2.2 (732a01da63, 2022-12-09, custom)" inkscape:export-filename="../3f049a95/construction.png" inkscape:export-xdpi="192" inkscape:export-ydpi="192" xmlns:inkscape="http://www.inkscape.org/namespaces/inkscape" xmlns:sodipodi="http://sodipodi.sourceforge.net/DTD/sodipodi-0.dtd" xmlns="http://www.w3.org/2000/svg" xmlns:svg="http://www.w3.org/2000/svg">
  <sodipodi:namedview id="namedview329" pagecolor="#ffffff" bordercolor="#000000" borderopacity="0.25" inkscape:showpageshadow="2" inkscape:pageopacity="0.0" inkscape:pagecheckerboard="0" inkscape:deskcolor="#d1d1d1" inkscape:document-units="px" showgrid="true" inkscape:zoom="1.6386577" inkscape:cx="452.80964" inkscape:cy="306.65343" inkscape:window-width="1850" inkscape:window-height="1016" inkscape:window-x="0" inkscape:window-y="0" inkscape:window-maximized="1" inkscape:current-layer="svg327" showguides="false" />
  <defs id="defs324" />
  <g id="g3021">
    <path id="path2995" style="fill:#54a2e1;stroke:none;stroke-opacity:1" d="m 129.91466,203.39841 c 224.05629,-33.13847 301.14348,80.69111 335.80438,152.09475 l 28.97807,-7.76362 C 467.79889,247.34741 390.71205,133.51779 232.3757,122.14985 Z M 364.78071,732.20168 C 224.0538,554.73247 284.08953,431.05823 328.59645,365.33919 l -21.21253,-21.21394 c -73.48438,73.4856 -133.5203,197.15957 -64.19706,339.96686 z m 340.524,-467.80166 C 621.97532,475.00772 484.85242,484.85236 405.6846,479.16774 l -7.76553,28.97757 C 498.30163,535.04187 635.4244,525.1975 724.43754,393.75816 Z" />
    <path id="path1924" style="fill:#5a318e;stroke:none;stroke-opacity:1;stroke-linejoin:round;stroke-linecap:round" d="m 435.21938,67.798384 c 140.7269,177.469196 80.69119,301.143456 36.18428,366.862486 l 21.21223,21.21423 C 566.10055,382.38921 626.13646,258.71523 556.81322,115.90795 Z M 94.69529,535.59998 C 178.02467,324.9923 315.14758,315.14763 394.3154,320.83224 l 7.76554,-28.97756 C 301.69836,264.95815 164.57559,274.8025 75.56248,406.24183 Z m 575.39013,61.00173 C 446.02911,629.74019 368.94195,515.91059 334.28106,444.50694 l -28.97808,7.76363 c 26.8982,100.38214 103.98505,214.21176 262.32141,225.57971 z" />
    <path style="fill:none;stroke:#576ab7;stroke-opacity:1;stroke-width:15;stroke-dasharray:none" d="m 552.65311,332.19943 -135.04359,-98.3012 -152.65311,67.80058 -17.60953,166.10177 135.0436,98.30118 152.6531,-67.80057 z" id="path2013" sodipodi:nodetypes="ccccccc" />
  </g>
  <path id="path2980" style="fill:none;stroke:#000000;stroke-width:1;stroke-dasharray:none;stroke-opacity:1;stroke-linejoin:round;stroke-linecap:round" d="M 550.57196,440.34589 423.293,313.067 l 202.84346,-54.35177 15.52925,-57.9554 m -67.8007,152.6532 -127.27751,-127.27968 173.86422,-46.58708 -69.87976,260.79962 -86.93231,23.2924 M 462.116,168.17899 578.02601,137.12102 492.61589,455.8751 407.764,371.023 581.62947,324.43605 454.35101,197.15701 599.23919,158.3347 521.59369,448.11025 415.529,342.045 589.39396,295.45796 Z m 7.765,-28.97699 86.93269,-23.29418 -93.17404,347.73047 M 448.66858,117.98897 464.19719,60.033668 633.901,229.73787 431.05812,284.08946 558.33646,411.36775 442.42597,442.42545 535.60002,94.69502 Z M 626.13646,258.71523 435.2194,67.798408 427.45516,96.774932 597.15842,266.47994 M 427.45516,96.774932 514.38683,73.481328 421.21279,421.21171 566.10095,382.38962 438.823,255.112 641.66494,200.7598 M 145.44156,145.44156 52.26671,493.17486 306.82514,747.7333 654.55844,654.55844 747.7333,306.82514 493.17486,52.2667 Z M 306.82514,747.7333 400.00004,400.00006 493.175,52.2667 M 145.44156,145.44156 400,400 654.55844,654.55844 M 52.26671,493.17486 400,400 747.73337,306.82526" />
  <g id="g4666">
    <path id="path2564" style="fill:none;stroke:#54a2e1;stroke-width:1;stroke-dasharray:none;stroke-opacity:1" d="m 566.09984,382.38992 -73.48395,73.48518 m 23.2937,-86.93323 -44.50593,65.719 M 626.13646,258.71523 556.81322,115.90795 M 575.94566,245.26696 435.2194,67.798408" sodipodi:nodetypes="cccccccc" />
    <circle style="fill:#ffffff;stroke:#000000;stroke-width:1;stroke-linecap:round;stroke-linejoin:round;stroke-dasharray:none;stroke-opacity:1" id="path4054" cx="515.90961" cy="368.94186" r="3.8967171" />
    <circle style="fill:#ffffff;stroke:#000000;stroke-width:1;stroke-linecap:round;stroke-linejoin:round;stroke-dasharray:none;stroke-opacity:1" id="circle4160" cx="471.40366" cy="434.66086" r="3.8967171" />
    <circle style="fill:#ffffff;stroke:#000000;stroke-width:1;stroke-linecap:round;stroke-linejoin:round;stroke-dasharray:none;stroke-opacity:1" id="circle4162" cx="492.61588" cy="455.87509" r="3.8967171" />
    <circle style="fill:#ffffff;stroke:#000000;stroke-width:1;stroke-linecap:round;stroke-linejoin:round;stroke-dasharray:none;stroke-opacity:1" id="circle4164" cx="566.09985" cy="382.38992" r="3.8967171" />
    <circle style="fill:#ffffff;stroke:#000000;stroke-width:1;stroke-linecap:round;stroke-linejoin:round;stroke-dasharray:none;stroke-opacity:1" id="circle4166" cx="556.81323" cy="115.90795" r="3.8967171" />
    <circle style="fill:#ffffff;stroke:#000000;stroke-width:1;stroke-linecap:round;stroke-linejoin:round;stroke-dasharray:none;stroke-opacity:1" id="circle4168" cx="435.21939" cy="67.798409" r="3.8967171" />
    <circle style="fill:#ffffff;stroke:#000000;stroke-width:1;stroke-linecap:round;stroke-linejoin:round;stroke-dasharray:none;stroke-opacity:1" id="circle4170" cx="626.13647" cy="258.71524" r="3.8967171" />
    <circle style="fill:#ffffff;stroke:#000000;stroke-width:1;stroke-linecap:round;stroke-linejoin:round;stroke-dasharray:none;stroke-opacity:1" id="circle4172" cx="575.94568" cy="245.26695" r="3.8967171" />
    <circle style="fill:#ffffff;stroke:#000000;stroke-width:1;stroke-linecap:round;stroke-linejoin:round;stroke-dasharray:none;stroke-opacity:1" id="circle4687" cx="552.65314" cy="332.19943" r="3.8967171" />
  </g>
  <rect style="fill:#ffffff;fill-opacity:1;stroke:#000000;stroke-width:1;stroke-linecap:round;stroke-linejoin:round;stroke-dasharray:none;stroke-opacity:1" id="rect5399" width="27.887026" height="16.441185" x="480.82916" y="353.09714" />
  <text xml:space="preserve" style="font-size:10px;font-family:'IBM Plex Sans';-inkscape-font-specification:'IBM Plex Sans';text-align:center;text-anchor:middle;fill:#000000;fill-opacity:1;stroke:none;stroke-width:1;stroke-linecap:round;stroke-linejoin:round;stroke-dasharray:none;stroke-opacity:1" x="494.77264" y="364.43274" id="text5293"><tspan sodipodi:role="line" id="tspan5291" x="494.77264" y="364.43274">(4,0)</tspan></text>
  <rect style="fill:#ffffff;fill-opacity:1;stroke:#000000;stroke-width:1;stroke-linecap:round;stroke-linejoin:round;stroke-dasharray:none;stroke-opacity:1" id="rect5453" width="27.887026" height="16.441185" x="553.74243" y="307.99484" />
  <text xml:space="preserve" style="font-size:10px;font-family:'IBM Plex Sans';-inkscape-font-specification:'IBM Plex Sans';text-align:center;text-anchor:middle;fill:#000000;fill-opacity:1;stroke:none;stroke-width:1;stroke-linecap:round;stroke-linejoin:round;stroke-dasharray:none;stroke-opacity:1" x="567.68591" y="319.33044" id="text5457"><tspan sodipodi:role="line" id="tspan5455" x="567.68591" y="319.33044">(5,1)</tspan></text>
  <rect style="fill:#ffffff;fill-opacity:1;stroke:#000000;stroke-width:1;stroke-linecap:round;stroke-linejoin:round;stroke-dasharray:none;stroke-opacity:1" id="rect5509" width="30.084898" height="16.441193" x="575.04755" y="378.29996" />
  <text xml:space="preserve" style="font-size:10px;font-family:'IBM Plex Sans';-inkscape-font-specification:'IBM Plex Sans';text-align:center;text-anchor:middle;fill:#000000;fill-opacity:1;stroke:none;stroke-width:1;stroke-linecap:round;stroke-linejoin:round;stroke-dasharray:none;stroke-opacity:1" x="590.08997" y="389.63556" id="text5513"><tspan sodipodi:role="line" id="tspan5511" x="590.08997" y="389.63556">(6,-1)</tspan></text>
  <rect style="fill:#ffffff;fill-opacity:1;stroke:#000000;stroke-width:1;stroke-linecap:round;stroke-linejoin:round;stroke-dasharray:none;stroke-opacity:1" id="rect5515" width="30.084898" height="16.441193" x="430.65778" y="430.29996" />
  <text xml:space="preserve" style="font-size:10px;font-family:'IBM Plex Sans';-inkscape-font-specification:'IBM Plex Sans';text-align:center;text-anchor:middle;fill:#000000;fill-opacity:1;stroke:none;stroke-width:1;stroke-linecap:round;stroke-linejoin:round;stroke-dasharray:none;stroke-opacity:1" x="445.7002" y="441.63556" id="text5519"><tspan sodipodi:role="line" id="tspan5517" x="445.7002" y="441.63556">(3,-2)</tspan></text>
  <rect style="fill:#ffffff;fill-opacity:1;stroke:#000000;stroke-width:1;stroke-linecap:round;stroke-linejoin:round;stroke-dasharray:none;stroke-opacity:1" id="rect5521" width="30.084898" height="16.441193" x="451.96289" y="452.29996" />
  <text xml:space="preserve" style="font-size:10px;font-family:'IBM Plex Sans';-inkscape-font-specification:'IBM Plex Sans';text-align:center;text-anchor:middle;fill:#000000;fill-opacity:1;stroke:none;stroke-width:1;stroke-linecap:round;stroke-linejoin:round;stroke-dasharray:none;stroke-opacity:1" x="467.00531" y="463.63556" id="text5525"><tspan sodipodi:role="line" id="tspan5523" x="467.00531" y="463.63556">(4,-3)</tspan></text>
  <rect style="fill:#ffffff;fill-opacity:1;stroke:#000000;stroke-width:1;stroke-linecap:round;stroke-linejoin:round;stroke-dasharray:none;stroke-opacity:1" id="rect5527" width="27.887026" height="16.441185" x="614.04755" y="267.68973" />
  <text xml:space="preserve" style="font-size:10px;font-family:'IBM Plex Sans';-inkscape-font-specification:'IBM Plex Sans';text-align:center;text-anchor:middle;fill:#000000;fill-opacity:1;stroke:none;stroke-width:1;stroke-linecap:round;stroke-linejoin:round;stroke-dasharray:none;stroke-opacity:1" x="627.99103" y="279.02533" id="text5531"><tspan sodipodi:role="line" id="tspan5529" x="627.99103" y="279.02533">(7,3)</tspan></text>
  <rect style="fill:#ffffff;fill-opacity:1;stroke:#000000;stroke-width:1;stroke-linecap:round;stroke-linejoin:round;stroke-dasharray:none;stroke-opacity:1" id="rect5533" width="27.887026" height="16.441185" x="536.74243" y="242.68973" />
  <text xml:space="preserve" style="font-size:10px;font-family:'IBM Plex Sans';-inkscape-font-specification:'IBM Plex Sans';text-align:center;text-anchor:middle;fill:#000000;fill-opacity:1;stroke:none;stroke-width:1;stroke-linecap:round;stroke-linejoin:round;stroke-dasharray:none;stroke-opacity:1" x="550.68591" y="254.02531" id="text5537"><tspan sodipodi:role="line" id="tspan5535" x="550.68591" y="254.02531">(5,4)</tspan></text>
  <rect style="fill:#ffffff;fill-opacity:1;stroke:#000000;stroke-width:1;stroke-linecap:round;stroke-linejoin:round;stroke-dasharray:none;stroke-opacity:1" id="rect5539" width="27.887026" height="16.441185" x="555.18335" y="90.825638" />
  <text xml:space="preserve" style="font-size:10px;font-family:'IBM Plex Sans';-inkscape-font-specification:'IBM Plex Sans';text-align:center;text-anchor:middle;fill:#000000;fill-opacity:1;stroke:none;stroke-width:1;stroke-linecap:round;stroke-linejoin:round;stroke-dasharray:none;stroke-opacity:1" x="569.12683" y="102.16124" id="text5543"><tspan sodipodi:role="line" id="tspan5541" x="569.12683" y="102.16124">(3,9)</tspan></text>
  <rect style="fill:#ffffff;fill-opacity:1;stroke:#000000;stroke-width:1;stroke-linecap:round;stroke-linejoin:round;stroke-dasharray:none;stroke-opacity:1" id="rect5545" width="37.841831" height="16.441185" x="407.81616" y="41.741024" />
  <text xml:space="preserve" style="font-size:10px;font-family:'IBM Plex Sans';-inkscape-font-specification:'IBM Plex Sans';text-align:center;text-anchor:middle;fill:#000000;fill-opacity:1;stroke:none;stroke-width:1;stroke-linecap:round;stroke-linejoin:round;stroke-dasharray:none;stroke-opacity:1" x="426.73706" y="53.076618" id="text5549"><tspan sodipodi:role="line" id="tspan5547" x="426.73706" y="53.076618">(-2,12)</tspan></text>
  <text xml:space="preserve" style="font-size:10px;font-family:'IBM Plex Sans';-inkscape-font-specification:'IBM Plex Sans';text-align:center;text-anchor:middle;fill:#000000;fill-opacity:1;stroke:none;stroke-width:1;stroke-linecap:round;stroke-linejoin:round;stroke-dasharray:none;stroke-opacity:1" x="309.47931" y="248.15341" id="text5615"><tspan sodipodi:role="line" id="tspan5613" x="309.47931" y="248.15341">hexagon width = ½</tspan></text>
</svg>
