<svg xmlns="http://www.w3.org/2000/svg" xmlns:inkscape="http://www.inkscape.org/namespaces/inkscape" xmlns:xlink="http://www.w3.org/1999/xlink" height="855" viewBox="0 0 604 855" width="604">
  <defs>
    <inkscape:path-effect bendpath1="M 0.2,0.5551043 H 51.736499" bendpath2="M 45.980876,0.13509096 C 55.319126,19.403903 57.190543,39.278816 52.02989,58.490992" bendpath3="M 0.2,59.7 H 51.736499" bendpath4="M -0.13570001,1.3872303 C 9.0970142,18.879341 14.153354,41.356906 7.6586388,58.839921" effect="envelope" id="path-effect218" yy="false" />
    <inkscape:path-effect effect="powerstroke" id="path-effect1144" interpolator_type="CubicBezierSmooth" offset_points="0.34,3 | 1,3" start_linecap_type="zerowidth" />
    <inkscape:path-effect effect="powerstroke" id="path-effect1116" interpolator_type="CubicBezierSmooth" offset_points="0.68,3" start_linecap_type="zerowidth" />
    <inkscape:path-effect effect="powerstroke" id="path-effect1106" interpolator_type="CubicBezierSmooth" offset_points="0.55,3 | 6,3" start_linecap_type="zerowidth" />
    <inkscape:path-effect effect="powerstroke" end_linecap_type="zerowidth" id="path-effect1087" interpolator_type="CubicBezierSmooth" offset_points="0.72,3 | 4.45,3" start_linecap_type="zerowidth" />
    <inkscape:path-effect effect="powerstroke" id="path-effect1050" interpolator_type="CubicBezierSmooth" offset_points="0.51,3 | 5,3" start_linecap_type="zerowidth" />
    <inkscape:path-effect effect="powerstroke" end_linecap_type="zerowidth" id="path-effect958" interpolator_type="CubicBezierSmooth" offset_points="0.54,3" start_linecap_type="zerowidth" />
    <inkscape:path-effect effect="powerstroke" id="path-effect956" interpolator_type="CubicBezierSmooth" offset_points="0.32,3 | 4,3" start_linecap_type="zerowidth" />
    <inkscape:path-effect effect="powerstroke" end_linecap_type="zerowidth" id="path-effect930" interpolator_type="CubicBezierSmooth" offset_points="0.27,3 | 1.74,3" start_linecap_type="zerowidth" />
    <inkscape:path-effect effect="powerstroke" end_linecap_type="zerowidth" id="path-effect915" interpolator_type="CubicBezierSmooth" offset_points="0.63,2.25 | 1.12,2.25" start_linecap_type="zerowidth" />
    <linearGradient id="linearGradient908">
      <stop offset="0" stop-color="#5c3840" />
      <stop offset="1" stop-color="#a8717c" />
    </linearGradient>
    <linearGradient gradientTransform="matrix(1.0105046,0,0,1.0105046,-4.8204576,-2.8028503)" gradientUnits="userSpaceOnUse" id="linearGradient910" x1="453.70767" x2="455.58649" y1="216.74887" y2="279.06613" xlink:href="#linearGradient908" />
    <clipPath id="clipPath926">
      <use xlink:href="#white" />
    </clipPath>
  </defs>
  <g>
    <rect fill="#fff" height="28.715425" ry="10.226805" stroke="#dcdcdc" stroke-width="3" width="79.266342" x="56.571609" y="192.82315" />
    <rect fill="#fff" height="28.715425" ry="10.226805" stroke="#dcdcdc" stroke-width="3" width="79.266342" x="511.15143" y="192.82315" />
    <path d="M 65.064496,207.18086 H 127.34506 M 519.6443,207.18085 H 581.92488" style="fill:#fff;stroke:#b8b8b8;stroke-width:2.4;stroke-linecap:round" />
    <g id="g911" transform="translate(-20.590423)">
      <path d="M 159.33221,632.72177 C 103.41191,550.86866 62.618853,433.19492 202.6013,427.08775 140.0269,387.5435 122.35232,312.62843 213.2252,265.68253 167.44064,247.99042 138.22148,224.69754 117.02439,192.5646 112.18921,185.23465 102.80784,189.40108 103.42596,199.77027 110.52148,318.79281 -15.82981,345.32707 7.1733915,424.42099 14.245838,404.75499 22.372855,393.18025 32.123589,382.1104 13.667922,481.80204 75.989132,570.8245 159.33221,632.72177 Z" fill="#213763" />
      <path d="M 51.162838,397.14958 C 57.297679,379.62497 115.26425,395.80781 181.52795,429.50426 L 201.77248,427.03502 183.2924,413.23768 C 121.70015,400.69852 60.183278,371.69466 59.333165,359.63164 57.870294,338.87365 129.16291,306.95223 178.9887,289.14897 189.10484,280.17875 199.55109,271.50177 212.84243,265.34918 L 196.76472,258.76766 C 159.48794,288.74025 87.396853,326.07042 81.840996,316.09754 76.285119,306.12462 133.25152,251.42431 108.03335,189.57039 104.65609,191.69458 103.22619,196.42092 103.42596,199.77027 110.52162,318.7928 -15.82981,345.32707 7.1733915,424.42099 14.245838,404.75499 22.372855,393.18025 32.123589,382.1104 13.667922,481.80204 75.989132,570.8245 159.33221,632.72177 153.35564,623.97364 147.55186,614.81635 143.19873,606.27084 70.931333,551.32325 27.581508,464.51141 51.162838,397.14958 Z" fill="#365592" />
      <path d="M 159.33221,632.72177 C 103.41191,550.86866 62.618853,433.19492 202.6013,427.08775 140.0269,387.5435 122.35232,312.62843 213.2252,265.68253 167.44064,247.99042 138.22139,224.6976 117.02439,192.5646 112.18912,185.23471 102.8078,189.40108 103.42596,199.77027 110.52144,318.79281 -15.82981,345.32707 7.1733915,424.42099 14.245838,404.75499 22.372855,393.18025 32.123589,382.1104 13.667922,481.80204 75.989132,570.8245 159.33221,632.72177 Z" style="fill:none;stroke:#0e2451;stroke-width:6;stroke-miterlimit:20" />
    </g>
    <circle cx="80.704811" cy="207.18086" fill="#fff" id="path1402" r="7.5797873" stroke="#dcdcdc" stroke-width="3" />
    <use transform="translate(31.000008)" xlink:href="#path1402" />
    <use transform="translate(461.57984)" xlink:href="#path1402" />
    <use transform="translate(478.57984)" xlink:href="#path1402" />
  </g>
  <g>
    <path d="M 451.07168,162.18611 C 553.62298,66.477959 359.93459,-28.372569 193.30004,136.19652 237.60178,130.15775 260.66983,135.01155 287.76124,142.28263 315.22512,182.63329 395.57421,150.60187 451.07168,162.18611 Z" fill="#2e16be" />
    <path d="M 193.30004,136.19652 C 359.93459,-28.372569 553.62298,66.477959 451.07168,162.18611 L 435.38108,150.79271 C 516.60289,69.309227 353.94131,18.332633 215.91657,133.94443 208.88783,134.34267 201.45355,135.08511 193.30004,136.19652 Z" fill="#9186ec" />
    <path d="M 451.07168,162.18611 C 553.62298,66.477959 359.93459,-28.372569 193.30004,136.19652 197.73624,135.59182 201.95953,135.09634 205.99526,134.70158" style="fill:none;stroke:#220e94;stroke-width:6;stroke-miterlimit:20" />
  </g>
  <path d="M 274.15225,455.21086 C 301.16105,490.90602 334.5742,502.6293 353.82725,497.22103 376.12013,490.95887 382.82029,451.30128 458.82533,429.62065 492.27185,420.07995 478.98958,324.21048 445.49478,334.99982 399.69718,349.75213 355.7488,390.02155 333.11685,434.20794 Z" fill="#163b81" stroke="#0f2a62" stroke-width="5.84" />
  <path d="M 292.05437,569.0801 C 388.41049,524.30551 422.47561,444.08158 407.29856,327.45641 430.10483,327.66083 457.24026,324.75358 492.12691,317.34387 L 520.64602,264.08771 C 505.19164,238.87789 488.55695,208.0939 477.54069,186.27044 427.49433,87.1275 293.77499,107.1159 297.15846,228.98856 300.58115,352.27343 307.02828,400.11141 217.86634,432.23343 167.88728,450.23918 130.62129,510.2337 141.71135,582.9128 136.03107,582.89251 131.88597,585.37015 128.92546,588.81977 84.061037,641.09643 56.311437,706.20781 53.909137,773.05044 52.936374,800.117 157.58817,798.8851 152.39628,773.68531 139.82716,712.67869 153.06688,644.0261 188.81849,599.9607 215.37507,567.22855 226.90047,545.95709 230.71588,511.79101 Z" fill="#1a4393" />
  <path fill="#102e6b" inkscape:original-d="M 361.73956,323.29292 C 394.42187,329.50251 431.61381,330.19648 492.12691,317.34387 L 520.64602,264.08771 C 505.19164,238.87789 488.55695,208.0939 477.54069,186.27044 427.49433,87.1275 293.77499,107.1159 297.15846,228.98856 300.58115,352.27343 307.02828,400.11141 217.86634,432.23343 167.88728,450.23918 130.62129,510.2337 141.46847,582.89118" inkscape:path-effect="#path-effect1106" />
  <path fill="#102e6b" inkscape:original-d="M 150.26345,584.39063 C 139.6647,581.0083 133.11113,583.94258 128.92546,588.81977 84.061037,641.09643 56.311437,706.20781 53.909137,773.05044 52.936374,800.117 157.58817,798.8851 152.39628,773.68531 139.82716,712.67869 153.06688,644.0261 188.81849,599.9607 215.37507,567.22855 226.90047,545.95709 230.71588,511.79101" inkscape:path-effect="#path-effect1116" />
  <path d="M 292.05437,569.0801 C 388.41049,524.30551 422.47561,444.08158 407.48109,327.30834" fill="none" stroke="#102e6b" stroke-width="6" />
  <use transform="rotate(10.825948-351.13402 3301.0567)scale(-1 1)" xlink:href="#g911" />
  <g>
    <path d="M 379.31637,432.44949 C 390.3842,441.04203 401.01557,445.9873 412.86441,449.03095 437.77111,405.54362 491.4167,362.65238 540.37353,349.64222 573.21902,340.91362 583.83236,436.56932 551.12601,444.59298 470.26056,464.43124 456.80792,506.86965 433.06766,512.53419 412.56458,517.42633 377.508,504.83842 349.82386,468.48307" fill="#1a4393" />
    <path fill="#102e6b" inkscape:original-d="M 349.82386,468.48307 C 377.508,504.83842 412.56458,517.42633 433.06766,512.53419 456.80792,506.86965 470.26056,464.43124 551.12601,444.59298 583.83236,436.56932 573.21902,340.91362 540.37353,349.64222 491.4167,362.65238 437.77111,405.54362 412.7274,449.06753" inkscape:path-effect="#path-effect956" />
    <path fill="#102e6b" inkscape:original-d="M 379.31637,432.44949 C 394.753,444.43376 409.3406,449.32311 427.93819,451.75441" inkscape:path-effect="#path-effect958" />
  </g>
  <g>
    <path d="M 344.31075,137.01454 C 276.4285,187.21912 310.73359,266.61609 303.52039,343.31815 284.79078,332.3863 271.25,326.75 248.75,323 258.36723,316.8178 267.18399,313.53464 277.25,312.75 259.41633,295.84683 241.17021,287.57309 213.5,281.75 230.03273,274.53273 242.80418,271.05418 261.75,272.75 239.4746,254.87176 217.38459,250.53136 206.46292,228.11342 197.57237,224.45549 188.56691,219.493 179.281,212.82174 223.12162,204.92111 248.82621,196.61232 282.41378,181.3963 256.00877,177.67637 232.89965,177.85386 206.29141,182.58043 230.33304,159.7564 255.23433,148.42756 287.76124,142.28263" fill="#2e16be" />
    <path d="M 206.59087,228.16589 C 217.38459,250.53136 239.4746,254.87176 261.75,272.75 242.80418,271.05418 230.03273,274.53273 213.5,281.75 241.17021,287.57309 259.41633,295.84683 277.25,312.75 267.18399,313.53464 258.36723,316.8178 248.75,323 271.25,326.75 284.79078,332.3863 303.52039,343.31815 310.73359,266.61609 276.4285,187.21912 344.31075,137.01454" style="fill:none;stroke:#220e94;stroke-width:6;stroke-miterlimit:20" />
    <path d="M 329.21979,190.16559 C 315.53597,118.56958 378.26871,77.503653 388.96385,79.460482 401.81829,81.812384 416.72242,113.9698 390.77543,193.63717 Z" fill="#1a4393" />
    <path fill="#102e6b" inkscape:original-d="M 329.21979,190.16559 C 315.53597,118.56958 378.26871,77.503653 388.96385,79.460482 401.81829,81.812384 416.72242,113.9698 390.77543,193.63717" inkscape:path-effect="#path-effect930" />
    <path d="M 224.11861,180.03705 C 218.21984,180.66489 212.34622,181.50488 206.29141,182.58043 230.25423,159.43723 260.66956,144.98434 295.58192,142.78874 266.93676,151.7492 243.56623,163.55766 224.11861,180.03705 Z M 286.8332,181.54275 C 260.93945,199.84808 235.91228,209.49886 202.75736,216.85875 223.4414,228.53106 245.89764,234.42823 271.70058,234.66455 243.41631,238.76118 213.22213,237.206 179.281,212.82174 223.12162,204.92111 248.82621,196.61232 282.41378,181.3963 Z" fill="#9186ec" />
    <path fill="#220e94" inkscape:original-d="M 271.70058,234.66455 C 243.41631,238.76118 213.22213,237.206 179.281,212.82174 223.12162,204.92111 248.82621,196.61232 282.41378,181.3963 256.00877,177.67637 232.89965,177.85386 206.29141,182.58043 230.33304,159.7564 255.23433,148.42756 287.76124,142.28263 260.66983,135.01155 237.60178,130.15775 193.30004,136.19652" inkscape:path-effect="#path-effect1050" />
  </g>
  <g>
    <path d="M 218.3033,470.38909 C 179.90559,419.07285 106.58813,430.41326 93.550253,507.44544 90.224488,527.09518 85.287355,540.78819 77.17031,556.5901 89.043218,552.10482 97.284168,547.09756 106.63604,538.73223 103.78249,574.37132 89.785534,591.45711 89.550253,633 95.561786,624.55873 101.62368,618.09171 109.29289,611.60051 100.82113,647.84169 109.07983,662.0887 97.5,696.5 158.33361,661.25987 176.4868,624.89482 173.36396,568.19239 178.35923,575.78164 183.27941,582.81088 186.70711,594.12742 191.72087,572.77312 191.09123,550.31832 188.01683,529.74761 183.84342,501.82343 192.79449,488.51312 214,490.1967 Z" fill="#2e16be" />
    <path d="M 106.63604,538.73223 C 103.78249,574.37132 89.785534,591.45711 89.550253,633 92.339619,629.08323 95.139829,625.59151 97.876433,622.87599 100.16421,587.59225 110.06802,565.39645 108.70711,535.07322 Z M 109.29289,611.60051 C 100.82113,647.84169 109.07983,662.0887 97.5,696.5 158.33361,661.25987 176.4868,624.89482 173.36396,568.19239 L 170.96967,561.05806 C 171.14277,617.99372 149.47855,653.0481 110.39645,678.83211 114.46231,651.6085 106.43934,633.5533 112.46967,606.24696 Z M 216.41483,479.0815 218.3033,470.38909 C 179.90559,419.07285 106.58813,430.41326 93.550253,507.44544 90.224488,527.09518 85.287355,540.78819 77.17031,556.5901 L 87.864391,551.84979 C 94.5,540.25 100.52279,525.62634 104.75,506 118.75,441 178.5,433.75 216.25,479.25" fill="#9186ec" />
    <path d="M 218.3033,470.38909 C 179.90559,419.07285 106.58813,430.41326 93.550253,507.44544 90.224488,527.09518 85.287355,540.78819 77.17031,556.5901 89.043218,552.10482 97.284168,547.09756 106.63604,538.73223 103.78249,574.37132 89.785534,591.45711 89.550253,633 95.561786,624.55873 101.62368,618.09171 109.29289,611.60051 100.82113,647.84169 109.07983,662.0887 97.5,696.5 158.33361,661.25987 176.4868,624.89482 173.36396,568.19239 178.35923,575.78164 183.27941,582.81088 186.70711,594.12742 191.72087,572.77312 191.09123,550.31832 188.01683,529.74761 183.84342,501.82343 192.79449,488.51312 214,490.1967 Z" fill="none" stroke="#220e94" stroke-width="6" />
    <path d="M 219.1268,457.30551 C 197.71439,498.96808 199.81113,565.35738 219.67344,605.98796 213.60206,606.20125 208.90848,608.85896 206.53232,612.33349 170.40992,665.15318 162.79419,724.99941 168.53307,799.56844 170.70424,827.77982 281.05078,826.42245 269.20965,800.27173 238.98233,733.51586 240.70556,669.17962 269.74816,620.39024 289.36966,587.42759 297.19124,559.0681 296.64915,524.7878 Z" fill="#1a4393" />
    <path fill="#102e6b" inkscape:original-d="M 230.288,607.04543 C 219.3154,603.58085 210.18532,606.99192 206.53232,612.33349 170.40997,665.15321 162.79419,724.99941 168.53307,799.56844 170.70424,827.77982 281.05078,826.42245 269.20965,800.27173 238.98233,733.51586 240.70556,669.17962 269.74816,620.39024 289.36966,587.42759 297.19124,559.0681 296.64915,524.7878" inkscape:path-effect="#path-effect1087" />
    <path fill="#102e6b" inkscape:original-d="M 219.1268,457.30551 C 197.42886,501.29651 199.29336,560.53631 219.73414,606.25457" inkscape:path-effect="#path-effect1144" />
    <g transform="matrix(1.0885434-.20730718.01143103 1.8546602 221.58025 466.30487)" inkscape:path-effect="#path-effect218">
      <path fill="#e6ea1e" inkscape:original-d="M 38.1,59.7 C 42.5,50.2 34.9,44.5 26.1,46.9 30.1,40.5 22.7,31.2 0.2,34.4 22.8,27.5 23.6,22 19.3,18.3 33,14.9 33.1,5.5 22.1,2.8 43.5,-0.8 51.6,43.7 38.1,59.7 Z" />
      <path fill="#ffffb6" inkscape:original-d="M 22.1,2.8 C 43.5,-0.8 51.6,43.7 38.1,59.7 66.6,38 45.1,-10.4 22.1,2.8 Z" />
      <path fill="#ffff3a" inkscape:original-d="M 31.1,37.7 C 40.8,34.1 40.2,21.8 29.6,21.1 38.2,13.7 34.6,3 22.1,2.8 43.5,-3.5 56.2,41.1 38.1,59.7 44,51.3 42.7,40.6 31.1,37.7 Z" />
    </g>
  </g>
  <g>
    <g clip-path="url(#clipPath926)">
      <ellipse cx="434.70526" cy="255.86525" fill="#fff" id="white" rx="27.641693" ry="49.612709" transform="rotate(-4.0907193)" />
      <ellipse cx="459.7179" cy="246.73796" fill="url(#linearGradient910)" rx="14.865929" ry="40.231091" transform="rotate(-2.3571952)" />
      <ellipse cx="462.1116" cy="247.37428" rx="11.724599" ry="33.570797" transform="rotate(-2.3572046)" />
      <ellipse cx="488.56836" cy="150.57536" fill="#fff" rx="5.163229" ry="15.866926" transform="rotate(7.5165007)" />
      <ellipse cx="502.88867" cy="148.33192" fill="#fff" rx="1.7197895" ry="4.8510652" transform="rotate(9.9189398)" />
    </g>
    <path d="M 498.35159,301.2501 C 489.09216,300.57586 483.07118,297.49606 477.8523,289.96829 491.32813,284.52626 498.9954,289.70765 498.35159,301.2501 Z" fill="#1a4393" />
    <path d="M 503.47147,262.5969 C 503.57519,266.08996 505.73804,267.07839 508.63864,265.00827 505.67126,270.23667 501.1637,268.12078 503.47147,262.5969 Z M 477.8523,289.96829 C 483.92773,295.72147 491.59282,299.50172 501.07626,298.90862 L 499.0464,303.46087 C 489.00596,302.95606 481.9379,298.55223 477.8523,289.96829 Z" fill="#102e6b" />
    <path transform="rotate(-4.0907193)" inkscape:original-d="M 412.20294,284.67853 C 400.13954,256.21605 410.20618,206.60107 434.70526,206.25254 444.12012,206.1186 452.43287,214.69888 457.42398,227.60431" inkscape:path-effect="#path-effect915" />
  </g>
  <path d="M 320.2442,433.03469 C 329.04753,420.91795 344.59729,428.24144 335.54134,440.7059 326.48539,453.17036 311.44087,445.15143 320.2442,433.03469 Z" fill="#163b81" stroke="#102e6b" stroke-width="3" />
</svg>
