<svg xmlns="http://www.w3.org/2000/svg" xmlns:inkscape="http://www.inkscape.org/namespaces/inkscape" xmlns:xlink="http://www.w3.org/1999/xlink" height="1000" viewBox="0 0 1000 1000" width="1000">
  <defs>
    <inkscape:path-effect bendpath1="M 5.7,2.1 H 91.883631" bendpath2="M 86.898215,1.7134764 C 70.85919,31.56331 71.42323,64.823812 86.751105,95.798361" bendpath3="M 5.7,95.106425 H 91.883631" bendpath4="M 7.5868367,2.9294621 C -11.24954,34.244715 -12.989255,66.59858 6.4009564,97.160612" effect="envelope" id="path-effect1728" yy="false" />
    <inkscape:path-effect effect="powerstroke" id="path-effect4022" interpolator_type="CubicBezierSmooth" offset_points="0.57,3 | 3,3" start_linecap_type="zerowidth" />
    <inkscape:path-effect effect="powerstroke" id="path-effect4020" interpolator_type="CubicBezierSmooth" offset_points="0.38,3 | 2,3" start_linecap_type="zerowidth" />
    <inkscape:path-effect effect="powerstroke" end_linecap_type="zerowidth" id="path-effect4018" interpolator_type="CubicBezierSmooth" offset_points="0.22,3 | 0.79,3" start_linecap_type="zerowidth" />
    <inkscape:path-effect effect="powerstroke" end_linecap_type="zerowidth" id="path-effect3965" interpolator_type="CubicBezierSmooth" offset_points="0.26,3 | 4.76,3" start_linecap_type="zerowidth" />
    <inkscape:path-effect effect="powerstroke" id="path-effect3947" interpolator_type="CubicBezierSmooth" offset_points="0.2,3 | 6,3" start_linecap_type="zerowidth" />
    <inkscape:path-effect effect="powerstroke" end_linecap_type="zerowidth" id="path-effect3931" interpolator_type="CubicBezierSmooth" offset_points="0.21,3 | 3.68,3" start_linecap_type="zerowidth" />
    <inkscape:path-effect effect="powerstroke" end_linecap_type="zerowidth" id="path-effect2618" interpolator_type="CubicBezierSmooth" offset_points="0.54,3 | 5.7,3 | 4,3 | 3,2.7 | 2,3" start_linecap_type="zerowidth" />
    <linearGradient id="linearGradient1140">
      <stop offset="0" stop-color="#3f7eb9" />
      <stop offset="1" stop-color="#8fb5d9" />
    </linearGradient>
    <inkscape:path-effect effect="powerstroke" end_linecap_type="zerowidth" id="path-effect848" interpolator_type="CubicBezierSmooth" offset_points="0.33,3 | 1.8,3" start_linecap_type="zerowidth" />
    <inkscape:path-effect effect="powerstroke" end_linecap_type="zerowidth" id="path-effect973" interpolator_type="CubicBezierSmooth" offset_points="0.84,2.25 | 1.5,2.25" start_linecap_type="zerowidth" />
    <clipPath id="clipPath1162">
      <use xlink:href="#path1010" />
    </clipPath>
    <clipPath id="clipPath1178">
      <use xlink:href="#path1012" />
    </clipPath>
    <clipPath id="clipPath1302">
      <use xlink:href="#path1182" />
    </clipPath>
    <clipPath id="clipPath1318">
      <use xlink:href="#path1184" />
    </clipPath>
    <inkscape:path-effect effect="powerstroke" id="path-effect2777" interpolator_type="CubicBezierSmooth" offset_points="0.73,3 | 1,3" start_linecap_type="zerowidth" />
    <clipPath id="G">
      <path inkscape:original-d="M 16.9,-21.6 C 16.9,-21.6 1.1,-24.6 -14.9,-22.9 V -32.1 C -14.9,-32.1 -1.7,-35 16.9,-30.1 Z M 19.9,24.2 C 19.9,24.2 -8.6,24.1 -19.9,25.2 L -18.9,32.6 C -18.9,32.6 5.4,33.3 18.7,32.5 Z" />
    </clipPath>
    <linearGradient gradientUnits="userSpaceOnUse" id="linearGradient1991" x1="533.2735" x2="580.10834" y1="-450.20309" y2="-448.93164" xlink:href="#linearGradient1140" />
    <linearGradient gradientUnits="userSpaceOnUse" id="linearGradient1993" x1="588.61487" x2="642.57257" y1="-233.2059" y2="-224.92255" xlink:href="#linearGradient1140" />
    <clipPath id="clipPath1999">
      <path d="M 396.62552,507.76859 C 422.58709,522.48546 516.32573,525.51534 553.97559,514.13449 L 651.69057,517.5104 690.23498,262.0302 368.04331,193.3421 350.25359,543.70082 378.42065,546.17162 Z" />
    </clipPath>
  </defs>
  <path d="M 195.63447,649.36821 C 153.97741,634.24519 107.13676,654.84619 92.29378,697.62802 105.54047,684.60953 116.41178,680.79596 127.49012,680.84478 94.5786,705.5411 96.709498,750.57442 126.75989,785.86616 125.08534,768.6724 129.23043,755.94273 134.26368,745.09883 137.81545,781.44158 167.53016,810.67414 199.91195,813.49851 248.83412,817.76555 272.73041,830.76861 281.59804,864.36199 295.17271,840.37381 291.49043,818.04333 275.22849,796.12595 301.18377,799.80705 315.2551,815.30639 321.16946,840.66668 338.09178,795.57878 318.08041,763.59464 250.50272,761.98652 207.07791,760.95314 193.74776,746.4275 186.60593,721.38308 198.70166,732.54575 210.60724,736.00927 224.04131,733.02653 194.62961,717.06319 190.90729,690.25296 202.59298,672.67594 Z" style="fill:#fae981;stroke:#d2ab29;stroke-width:6;stroke-miterlimit:20" />
  <g>
    <path d="M 467.58224,543.12044 C 470.89352,516.88646 560.98075,521.76436 556.24777,547.38076 544.89873,608.80541 487.75065,651.22569 423.34447,656.49276 394.85999,658.82219 354.78701,638.63428 337.39628,579.229 L 380.23067,554.01228 C 390.73593,575.12073 404.97207,589.12071 421.91532,600.80576 449.58859,590.26518 463.85124,572.67967 467.58224,543.12044 Z" fill="#e6ebec" stroke="#b6c1c5" stroke-width="6" />
    <path d="M 480.14567,544.48095 C 498.46837,554.65183 522.76235,556.52758 543.44337,546.87294 526.13985,562.12351 494.02583,560.35729 480.14567,544.48095 Z" fill="#b6c1c5" />
    <path d="M 338.12188,597.44372 281.29473,703.18338 C 278.23111,724.78724 284.48334,746.83299 295.69588,747.19252 334.88065,748.44873 376.93391,758.62195 412.4836,779.00079 445.84549,798.12518 519.55033,757.92766 492.66038,735.41533 460.46737,708.46327 421.63034,695.00804 377.38148,693.97984 404.87536,657.48648 384.21465,602.93778 338.12188,597.44372 Z" fill="#e6ebec" />
    <path fill="#b6c1c5" inkscape:original-d="M 354.96679,713.22716 C 412.12851,681.29358 393.44231,604.03768 338.12188,597.44372 L 281.29473,703.18338 C 278.23111,724.78724 284.48334,746.83299 295.69588,747.19252 334.88065,748.44873 376.93391,758.62195 412.4836,779.00079 445.84549,798.12518 519.55033,757.92766 492.66038,735.41533 460.46737,708.46327 421.63034,695.00804 377.34087,693.95725" inkscape:path-effect="#path-effect3947" />
  </g>
  <path d="M 234.43654,759.04359 C 273.43454,763.06607 314.66385,776.18564 348.68434,799.02582 380.61133,820.46009 456.97264,785.57191 431.74091,761.21553 401.53307,732.05576 363.61938,715.88071 319.62036,711.72754 331.88047,697.75912 336.34413,680.24566 334.24754,663.82306 396.96957,609.21376 405.8623,516.21176 369.76961,453.69691 356.25657,430.29155 253.5008,440.73407 264.13521,464.92497 271.00699,480.55673 275.14548,495.86716 276.39397,513.2837 250.87119,562.14081 187.36207,570.38443 184.56556,632.8297 182.99786,667.83611 201.70537,700.47379 223.09182,715.87619 218.66362,736.64862 223.50942,757.9165 234.43654,759.04359 Z" fill="#f2f6f9" />
  <g transform="rotate(-22.337858 1659.0737-163.6967)scale(.61441521.95165907)" inkscape:path-effect="#path-effect1728">
    <path fill="#e5e1bc" stroke="#d7c470" stroke-width="0.6" inkscape:original-d="M 6.9,74.1 C 8,77.4 8.1,81.2 7.4,84.8 L 55.5,93.4 59.4,91.7 C 65.5,95.4 70.4,91.6 70,78.4 Z" />
    <path fill="#d7c470" inkscape:original-d="M 48.1,87.4 C 54.8,87.8 61.6,88.5 67.6,89.5 61.2,89.2 54.6,88.4 48.1,87.4 Z M 48.8,83.8 C 55.9,83.8 62.2,84 68.4,84.5 62,84.7 55,84.4 48.8,83.8 Z M 18,84.4 C 26.6,84.5 34.9,85.4 42.8,87.1 34.6,86.1 26.5,85.2 18,84.4 Z M 17.5,81.9 C 28.1,82.8 37.9,83.9 48.6,85.6 38,84.6 28,83.4 17.5,81.9 Z M 10.6,77.9 C 19.1,79.1 27.2,79.8 35.8,80.3 27.1,80.4 18.4,79.8 10.6,77.9 Z" />
    <path fill="#006837" inkscape:original-d="M 6.8,83.3 7.5,86.7 56,94.7 59.5,92.9 C 62.7,97.3 68.6,94.7 70.4,88.8 L 91.6,19.3 C 93.3,13.8 87.1,6.8 79.9,12.1 L 76.9,8.8 C 60.6,8.3 43.9,6.6 30.1,2.1 23.7,25 15.6,48.6 5.7,70.8 L 5.9,75 C 22.2,77 38.7,79 55.5,79.6 L 59.3,82.1 C 63.8,77.8 67.5,82.5 67.1,86.6 66.7,90.7 62.6,92.9 58.7,89.7 L 55.2,91.8 C 38.9,89.5 22.6,87 6.8,83.3 Z" />
    <path fill="#004f25" inkscape:original-d="M 59.4,79.1 56,76.7 C 38.8,76.1 20.7,74 5.7,70.8 L 5.9,75 C 22.2,77 38.7,79 55.5,79.6 L 59.3,82.1 C 63.8,77.8 67.5,82.5 67.1,86.6 66.7,90.7 62.6,92.9 58.7,89.7 L 55.2,91.8 C 38.9,89.5 22.6,87 6.8,83.3 L 7.5,86.7 56,94.7 59.5,92.9 C 62.7,97.3 68.6,94.7 70.4,88.8 71.2,79 64,74 59.4,79.1 Z" />
    <path fill="none" stroke="#003a1d" inkscape:original-d="M 70.4,88.8 C 71.2,79 64,74 59.4,79.1 L 56,76.7 C 38.8,76.1 20.7,74 5.7,70.8 M 6.8,83.3 7.5,86.7 56,94.7 59.5,92.9 C 62.7,97.3 68.6,94.7 70.4,88.8 L 91.6,19.3 C 93.3,13.8 87.1,6.8 79.9,12.1 L 76.9,8.8 C 60.6,8.3 43.9,6.6 30.1,2.1 23.7,25 15.6,48.6 5.7,70.8 L 5.9,75 C 22.2,77 38.7,79 55.5,79.6 L 59.3,82.1 C 63.8,77.8 67.5,82.5 67.1,86.6 66.7,90.7 62.6,92.9 58.7,89.7 L 55.2,91.8 C 38.9,89.5 22.6,87 6.8,83.3 Z" />
    <path fill="#003a1d" inkscape:original-d="M 65.5,69 C 72.4,51.3 77.4,33.2 82.6,14.4 Z M 79.3,13.3 C 72.3,33.7 65.5,53.6 60.2,74.3 Z" />
    <g transform="rotate(15-133 186)scale(.87)">
      <clipPath>
        <path d="M 16.9,-21.6 C 16.9,-21.6 1.1,-24.6 -14.9,-22.9 V -32.1 C -14.9,-32.1 -1.7,-35 16.9,-30.1 Z M 19.9,24.2 C 19.9,24.2 -8.6,24.1 -19.9,25.2 L -18.9,32.6 C -18.9,32.6 5.4,33.3 18.7,32.5 Z" />
      </clipPath>
      <path fill="#bae9fa" inkscape:original-d="M -12.8,27 C -23.9,10.4 -3.2,7.85 -3.2,0.2 -3.2,-7.45 -25.1,-10.3 -8.6,-26.4 H 11.5 C 24.2,-5.8 3.9,-7.1 3.9,0.4 3.9,7.9 24.8,7.4 14.6,27.3 Z" />
      <path fill="#d3cf96" inkscape:original-d="M -10.7,26.1 C -19.1,7.9 -0.7,10.1 -0.7,1.2 -0.7,-6.4 -10.9,-8.3 -11.5,-17.7 -11.5,-17.7 -0.6,-19.8 11.4,-17.1 9.9,-7.1 1.7,-7 1.7,0.3 1.7,10.6 18.8,8.5 11.8,25.3 Z" />
      <path fill="#f6f5eb" transform="rotate(30)" inkscape:original-d="M -11.3,-11.5 A 3.2,3.7 0 0 1 -17.7,-11.5 3.2,3.7 0 0 1 -11.3,-11.5 Z" />
      <path fill="#f6f5eb" transform="rotate(56)" inkscape:original-d="M 8.8,14.5 A 3.1,3.5 0 0 1 2.6,14.5 3.1,3.5 0 0 1 8.8,14.5 Z" />
      <g clip-path="url(#G)">
        <path fill="#dcbe10" inkscape:original-d="M 16.9,-21.6 C 16.9,-21.6 1.1,-24.6 -14.9,-22.9 V -32.1 C -14.9,-32.1 -1.7,-35 16.9,-30.1 Z M 19.9,24.2 C 19.9,24.2 -8.6,24.1 -19.9,25.2 L -18.9,32.6 C -18.9,32.6 5.4,33.3 18.7,32.5 Z" />
        <path fill="#ffea9b" inkscape:original-d="M -6.9,-22.3 C -6.9,-22.3 -11.3,-26.8 -8,-33.3 H 3 C 3,-33.3 -1,-27.2 2.4,-22.1 Z M -9.8,24 C -9.8,24 -13.5,29.1 -9.3,33.6 H 0.7 C 0.7,33.6 -3.6,29.9 0.9,23.8 Z" />
      </g>
    </g>
  </g>
  <path fill="#b6c1c5" inkscape:original-d="M 234.40639,722.30498 C 208.48903,711.26476 182.73665,673.6583 184.56556,632.8297 187.44404,568.55404 254.64649,561.70411 278.52987,508.74404" inkscape:path-effect="#path-effect4020" />
  <path d="M 275.375,506.625 276.6875,522.1875 283.625,509.375 Z" fill="#f2f6f9" />
  <path fill="#b6c1c5" inkscape:original-d="M 276.66524,532.47974 C 277.67726,506.40046 273.37941,485.95346 264.13521,464.92497 253.50117,440.73391 356.25657,430.29155 369.76961,453.69691 405.8623,516.21176 396.96957,609.21376 334.1837,663.85684" inkscape:path-effect="#path-effect4022" />
  <path d="M 277.80175,464.54945 C 301.51971,475.73425 336.92079,473.87553 358.37301,459.59745 334.54704,467.28266 305.0895,469.88503 277.80175,464.54945 Z" fill="#b6c1c5" />
  <path fill="#b6c1c5" inkscape:original-d="M 287.33939,612.66751 C 342.05548,623.15454 355.23523,701.53783 295.95967,729.35191" inkscape:path-effect="#path-effect4018" />
  <path d="M 222.77521,715.72343 C 218.66362,736.64862 223.50942,757.9165 234.43654,759.04359 273.43454,763.06607 314.66385,776.18564 348.68434,799.02582 380.61133,820.46009 456.97264,785.57191 431.74091,761.21553 401.53307,732.05576 363.61938,715.88071 319.51492,711.70249" fill="none" stroke="#b6c1c5" stroke-width="6" />
  <g>
    <path d="M 317.52569,568.88062 C 315.04251,640.89857 345.70027,668.03844 368.95771,669.54814 420.77267,672.9116 502.8259,630.89473 520.86087,565.18925 527.75608,540.0684 440.59028,522.5946 433.74655,548.13574 426.19606,576.31455 408.30019,596.82047 384.09853,607.42872 373.77496,591.26931 370.43467,579.85351 367.36961,558.78377 Z" fill="#f2f6f9" />
    <path fill="#b6c1c5" inkscape:original-d="M 367.36961,558.78377 C 370.43467,579.85351 373.77496,591.26931 384.12411,607.39577" inkscape:path-effect="#path-effect2777" />
    <path d="M 445.92941,551.65083 C 462.58636,564.36751 486.35273,569.74108 508.21374,563.18263 488.8844,575.76707 457.36453,569.36961 445.92941,551.65083 Z" fill="#b6c1c5" />
    <path fill="#b6c1c5" inkscape:original-d="M 317.52569,568.88062 C 315.04251,640.89857 345.70027,668.03844 368.95771,669.54814 420.77267,672.9116 502.8259,630.89473 520.86087,565.18925 527.75608,540.0684 440.59028,522.5946 433.74655,548.13574 424.8039,581.51017 401.3492,604.1214 370.05132,612.32792" inkscape:path-effect="#path-effect3931" />
  </g>
  <path d="M 400.58201,477.12178 C 405.32619,511.04368 422.4653,535.39797 434.17454,542.55892 456.65159,556.30508 540.60447,562.49316 551.16576,547.70365 565.34146,527.8527 574.16635,504.43512 578.71612,480.10871 Z" style="fill:#cb9c60;stroke:#a37a4d;stroke-width:6;stroke-miterlimit:20" />
  <path d="M 333.79431,472.46854 C 332.96758,517.50128 540.90197,538.60095 655.14752,498.15069 583.62726,496.73191 606.30644,451.20073 663.70058,472.81319 623.32919,416.10832 334.75713,420.01832 333.79431,472.46854 Z" style="fill:#cb9c60;stroke:#a37a4d;stroke-width:6;stroke-miterlimit:20" />
  <path d="M 398.89507,472.88937 C 396.24544,499.72556 577.04553,503.63408 578.77818,476.64332 580.4665,450.34311 401.64259,445.06175 398.89507,472.88937 Z" style="fill:#b98b50;stroke:#a37a4d;stroke-width:6;stroke-miterlimit:20" />
  <g clip-path="url(#clipPath1999)" transform="translate(9-26)">
    <path d="M 596.56158,399.58056 C 670.62996,369.88995 644.67482,282.9794 587.75649,291.52926 543.75649,232.02926 440.18185,238.7597 418.60721,314.81353 Z" style="fill:#fae981;stroke:#d2ab29;stroke-width:6;stroke-miterlimit:20" />
    <path d="M 442.9604,537.17116 C 439.9728,503.94823 429.23908,466.70506 421.4285,434.42489 387.34227,293.55066 606.20296,231.7677 624.88755,414.71372 L 537.24978,499.76823 C 540.78531,508.35232 544.16127,517.43262 545.92938,526.03874 551.15959,551.49638 445.53838,565.83906 442.9604,537.17116 Z" fill="#f2f6f9" stroke="#b6c1c5" stroke-width="6" />
    <g>
      <g clip-path="url(#clipPath1318)">
        <ellipse cx="555.29114" cy="-450.73795" fill="#fff" id="path1184" rx="39.176891" ry="7.9942904" transform="rotate(70.766844)" />
        <g clip-path="url(#clipPath1178)">
          <ellipse cx="555.52771" cy="-448.05328" fill="url(#linearGradient1991)" id="path1012" rx="31.177076" ry="5.931169" transform="rotate(70.901553)" />
          <path d="M 604.04481,383.99084 619.98623,408.86482 617.85061,389.74724 Z" fill="#c2daf1" />
          <path d="M 604.04481,383.99084 615.2507,381.54502 619.08033,395.70591 Z" fill="#82b4e1" />
          <ellipse cx="556.36951" cy="-445.91125" rx="24.491146" ry="4.6232209" transform="rotate(70.826324)" />
          <ellipse cx="519.18732" cy="474.11804" fill="#fff" rx="2.5402479" ry="10.742458" transform="rotate(-11.052908)" />
          <ellipse cx="539.38007" cy="469.95288" fill="#fff" rx="0.92131817" ry="3.8961637" transform="rotate(-9.0570822)" />
        </g>
      </g>
      <path d="M 622.08231,394.86069 C 620.54698,379.78839 616.17097,367.08259 608.85118,351.99759 597.13478,327.85184 587.28036,336.69107 594.93351,356.85201 593.39823,337.05834 596.95601,336.28286 606.0293,353.5414 613.17157,367.1269 617.62125,379.62065 622.08231,394.86069 Z" />
      <path d="M 628.71168,451.90665 C 618.50579,462.88348 616.69541,475.80605 618.66051,489.33126 555.19436,474.65658 563.00928,439.08072 628.71168,451.90665 Z" fill="#bb1c76" />
      <path d="M 603.86109,386.23733 C 614.6014,403.77878 628.33356,414.89607 643.41355,423.27688 L 633.92146,456.24624 C 617.05278,461.67138 601.33267,460.78274 583.81902,452.66413 589.30576,474.68565 605.50706,482.88257 625.32486,483.67195 L 620.77518,497.75502 C 569.04525,495.10116 517.70214,513.02924 474.68526,485.71574 Z" fill="#f2f6f9" />
      <path d="M 633.85112,431.10625 C 638.20887,431.34665 640.53459,428.9736 640.21373,424.9832 644.03694,431.19429 639.71304,435.10097 633.85112,431.10625 Z M 611.77908,436.04114 C 607.23786,437.92325 604.15605,436.22257 603.00751,431.86224 601.26304,439.88984 607.04077,442.47442 611.77908,436.04114 Z" fill="#b6c1c5" />
      <path d="M 617.50884,486.04181 C 615.29366,474.33229 602.63379,466.57271 589.58962,467.24438 594.84029,476.54813 603.88182,483.01246 617.50884,486.04181 Z" fill="#ef6f2f" />
      <path fill="#b6c1c5" inkscape:original-d="M 603.86109,386.23733 C 614.6014,403.77878 628.33356,414.89607 643.41355,423.27688 L 633.92146,456.24624 C 617.05278,461.67138 601.33267,460.78274 583.81902,452.66413 589.30576,474.68565 605.50706,482.88257 625.32486,483.67195 L 620.77518,497.75502 C 569.04525,495.10116 517.70214,513.02924 474.68526,485.71574" inkscape:path-effect="#path-effect2618" />
      <g clip-path="url(#clipPath1302)">
        <ellipse cx="609.43298" cy="-233.26062" fill="#fff" id="path1182" rx="47.935478" ry="38.925388" transform="rotate(59.7306)" />
        <g clip-path="url(#clipPath1162)">
          <ellipse cx="611.37585" cy="-217.33313" fill="url(#linearGradient1993)" id="path1010" rx="37.394272" ry="29.076097" transform="rotate(59.635445)" />
          <path d="M 492.78699,425.21613 529.75332,443.26402 531.64447,417.88316 Z" fill="#c2daf1" />
          <path d="M 492.78699,425.21613 530.51449,409.75103 533.11844,426.75107 Z" fill="#82b4e1" />
          <ellipse cx="611.99695" cy="-215.37355" rx="30.359322" ry="23.606026" transform="rotate(59.635409)" />
          <ellipse cx="492.81628" cy="404.39603" fill="#fff" rx="9.9935122" ry="15.141067" transform="rotate(-.1035999)" />
          <ellipse cx="536.59552" cy="382.19681" fill="#fff" rx="3.7217717" ry="5.2456713" transform="rotate(3.6796466)" />
        </g>
      </g>
      <path inkscape:original-d="M 532.63941,376.79991 C 518.61225,363.16455 499.12256,358.55257 484.49112,367.3668 459.44823,382.45308 462.65432,423.09401 488.9479,444.48645" inkscape:path-effect="#path-effect973" />
    </g>
    <g>
      <path d="M 418.60721,314.81353 C 362.46151,319.16634 350.62193,389.26432 389.12193,421.26432 381.69731,450.96281 392.13844,479.40824 376.93564,509.46028 395.13613,495.59664 402.65761,483.07455 405.1194,464.559 419.6151,512.64226 381.46077,538.91613 403.02753,589.12071 409.22427,535.22234 458.54777,553.29385 441.45393,602.09989 476.10216,573.10851 448.7689,537.51484 444.97601,507.84022 458.64848,514.95723 471.5363,516.03261 484.56663,512.02525 448.32741,493.4637 423.82042,459.70976 422.05265,413.04071 Z" style="fill:#fae981;stroke:#d2ab29;stroke-width:6;stroke-miterlimit:20" />
      <path d="M 449.37416,361.1939 C 441.98961,317.88774 423.30249,281.57425 412.7795,283.36863 401.73251,285.25236 367.98592,365.07623 430.83957,440.57369 Z" fill="#f2f6f9" />
      <path fill="#b6c1c5" inkscape:original-d="M 449.37416,361.1939 C 441.98961,317.88774 423.30249,281.57425 412.7795,283.36863 401.73251,285.25236 367.98592,365.07623 430.83957,440.57369" inkscape:path-effect="#path-effect848" />
      <path d="M 411.92873,327.94146 C 406.54656,352.75338 410.30254,378.80114 424.44283,401.12301 414.89999,377.18276 411.16655,352.55288 411.92873,327.94146 Z" fill="#b6c1c5" />
      <path d="M 441.99199,301.76328 C 441.36457,351.26685 423.09376,370.78157 395.09376,373.28157 410.12929,386.55238 422.96382,387.51685 441.96382,381.51685 421.96382,414.85999 419.20951,453.58413 439.56916,488.81205 438.15495,419.51558 519.31968,404.98005 468.40799,327.1983 541.23998,359.01811 576.90294,322.22774 623.92554,360.41151 605.36414,293.8087 512.65477,262.62009 441.99199,301.76328 Z" fill="#fae981" />
      <path fill="#d2ab29" inkscape:original-d="M 441.99199,301.76328 C 441.36457,351.26685 423.09376,370.78157 395.09376,373.28157 410.12929,386.55238 422.96382,387.51685 441.96382,381.51685 421.96382,414.85999 419.20951,453.58413 439.56916,488.81205 438.15495,419.51558 519.31968,404.98005 468.40799,327.1983 541.23998,359.01811 576.90294,322.22774 623.92554,360.41151" inkscape:path-effect="#path-effect3965" />
    </g>
  </g>
  <path d="M 405.62552,481.76859 C 431.58709,496.48546 525.32573,499.51534 562.97559,488.13449" style="fill:none;stroke:#a37a4d;stroke-width:6;stroke-miterlimit:20" />
  <path d="M 134.26368,745.09883 C 137.81545,781.44158 167.53016,810.67414 199.91195,813.49851 248.83412,817.76555 272.73041,830.76861 281.59804,864.36199 295.17271,840.37381 291.49043,818.04333 275.22849,796.12595 301.18377,799.80705 315.2551,815.30639 321.16946,840.66668 338.09178,795.57878 318.08041,763.59464 250.50272,761.98652 207.07791,760.95314 193.74776,746.4275 186.60593,721.38308 198.70166,732.54575 210.60724,736.00927 224.04131,733.02653 207.79367,724.20805 199.38563,712.07943 197.08394,700.02581 L 190.61034,708.40636 165.62659,703.68915 143.61293,752.60839 Z" fill="#fae981" />
  <path d="M 134.26368,745.09883 C 137.81545,781.44158 167.53016,810.67414 199.91195,813.49851 248.83412,817.76555 272.73041,830.76861 281.59804,864.36199 295.17271,840.37381 291.49043,818.04333 275.22849,796.12595 301.18377,799.80705 315.2551,815.30639 321.16946,840.66668 338.09178,795.57878 318.08041,763.59464 250.50272,761.98652 207.07791,760.95314 193.74776,746.4275 186.60593,721.38308 198.70166,732.54575 210.60724,736.00927 224.04131,733.02653 207.79367,724.20805 199.38563,712.07943 197.08394,700.02581" style="fill:none;stroke:#d2ab29;stroke-width:6;stroke-miterlimit:20" />
</svg>