<svg xmlns="http://www.w3.org/2000/svg" viewBox="-32 -24 64 48">
  <path d="M2 15l12.6 5.2 7.5-16L2.5 2.4zM-13.2-5.3l12.1 3.4 6.6-16.6-19.3.3zm-13.9 27l13.3.1 1.9-17.7-17 4.1z" fill="#c28142"/>
  <path d="M-27.2 15.4a.4.4 0 1 0 .8 0 .4.4 0 1 0-.8 0zm6.3 3a.3.3 0 1 0 .4 0 .3.3 0 0 0-.4 0zm1-3.5a.5.5 0 1 0 .6.1.5.5 0 0 0-.6-.1zm1.9 2.4a.5.5 0 1 0 .8.6.5.5 0 1 0-.8-.6zm5.8-27.2a.2.2 0 0 0 .1-.3.2.2 0 1 0-.1.3zm0 2.4a.5.5 0 1 0 .6.8.5.5 0 1 0-.6-.8zm5.3-1a.3.3 0 0 0 .5 0 .3.3 0 1 0-.5 0zm1.9 4a.4.4 0 0 0 .6-.4.4.4 0 1 0-.6.4zm1.3-2.1a.2.2 0 0 0 .3-.1.2.2 0 1 0-.3.1zm8 16.3a.2.2 0 1 0 .3 0 .2.2 0 0 0-.3 0zm1.1 5.1a.5.5 0 1 0 .6.8.5.5 0 1 0-.6-.8zm3-2.2a.4.4 0 1 0 .6 0 .4.4 0 0 0-.6 0zm2.9-3.7a.5.5 0 1 0 .8.2.5.5 0 0 0-.8-.2zm.4 3.9a.4.4 0 1 0 .6 0 .4.4 0 0 0-.6 0zm.8 4.4a.4.4 0 1 0 .7-.1.4.4 0 0 0-.7.1z" fill="#955826"/>
  <path d="M14.6 20.2l.5-13.8 12.8-1.1-.4 13.2zm-28.4 1.6L-16 8.6-3.9 3-2 15.4zM-1.1-1.9l-.3-12.8 12.2-3.9.5 13.2z" fill="#8b5d2f"/>
  <path d="M-13.2 18.3a.2.2 0 1 0 .4 0 .2.2 0 1 0-.4 0zm3.2-1.7a.4.4 0 1 0 .8 0 .4.4 0 1 0-.8 0zm2.7-3.7a.5.5 0 1 0 1 0 .5.5 0 1 0-1 0zM3.2-5.6a.3.3 0 1 0 .4-.2.3.3 0 0 0-.4.2zm1.4-4.3a.5.5 0 1 0 .9-.3.5.5 0 0 0-.9.3zm4.1.4a.4.4 0 1 0 .7-.1.4.4 0 0 0-.7.1zM18 16.4a.5.5 0 1 0 1 0 .5.5 0 1 0-1 0zm3.3-4a.3.3 0 1 0 .5 0 .3.3 0 0 0-.5 0zm3 3.8a.5.5 0 1 0 1 0 .5.5 0 1 0-1 0z" fill="#75481f"/>
  <path d="M29.1 3.4c.2 4.2-1.4 4.7-2.3 3.5-1 1.6-2.3 1.5-2.9-.3-1.9 3.8-3.1 3.6-4 0-2.9 6.1-5.5 6.1-8.7.6C9.7 9.5 8.2 9 6 5.4 4.5 7.3 3.3 7 2.6 4.2 1.4 5.3.1 5 1 .7zM-30 7c.5 4.2 2.2 4.5 2.8 3 1.3 1.6 2.2 1.3 2.7-.5 2.2 3.5 3.5 3.1 3.9-.5 3.2 5.8 6.7 5.7 8.9-.5 1.8 2 3.4 1.3 5.2-2.4C-5 7.9-3.6 7.5-3.2 4.8c1.5.6 2.4-.2.9-4.3zm41.9-27.5c.5 4-1.2 6.5-2.3 3.7-.8 2.4-1.6 2.2-2.5.4-1.4 3.9-2.7 3.8-4 .8-1.7 5.3-4.7 6.7-8 1.3-1.4 2.6-3.1 2.2-5.5-1.2-.9 2-2.1 2-3.1-.3-1.2.9-2.3.6-2-3.9z" fill="#fffadc" stroke="#d7c87e"/>
</svg>
