<?xml version="1.0" encoding="UTF-8" standalone="no"?>
<!-- Created with Inkscape (http://www.inkscape.org/) -->

<svg
   xmlns:svg="http://www.w3.org/2000/svg"
   xmlns="http://www.w3.org/2000/svg"
   xmlns:sodipodi="http://sodipodi.sourceforge.net/DTD/sodipodi-0.dtd"
   xmlns:inkscape="http://www.inkscape.org/namespaces/inkscape"
   id="svg2"
   version="1.1"
   inkscape:version="0.48.3.1 r9886"
   width="362.52832"
   height="522.82373"
   sodipodi:docname="Cheerilee Cutie Mark.svg">
  <defs
     id="defs6" />
  <sodipodi:namedview
     pagecolor="#ffffff"
     bordercolor="#666666"
     borderopacity="1"
     objecttolerance="10"
     gridtolerance="10"
     guidetolerance="10"
     inkscape:pageopacity="0"
     inkscape:pageshadow="2"
     inkscape:window-width="1364"
     inkscape:window-height="698"
     id="namedview4"
     showgrid="false"
     fit-margin-top="0"
     fit-margin-left="0"
     fit-margin-right="0"
     fit-margin-bottom="0"
     inkscape:zoom="1.0596306"
     inkscape:cx="181.26416"
     inkscape:cy="261.41187"
     inkscape:window-x="0"
     inkscape:window-y="0"
     inkscape:window-maximized="1"
     inkscape:current-layer="svg2" />
  <path
     id="A"
     style="fill:#f4d7e3"
     d="m 41.115672,446.36413 c -49.3043902,18.86091 -59.23129,-63.04309 -2.27299,-60.8355 -49.39855,-19.62069 -3.51772,-102.04291 29.68703,-43.08557 -31.35661,-69.63799 56.210388,-74.65069 44.073948,-11.17205 22.07177,-49.58398 80.32506,-3.49469 38.22045,36.2943 53.70607,-31.05292 54.27014,66.36478 7.00127,54.42559 54.53487,22.43316 14.37083,96.76653 -23.99741,47.81954 19.74289,57.71908 -56.985628,77.95249 -51.679238,11.22408 -21.59034,70.31689 -81.96995018,-6.32862 -41.03306,-34.67039 z M 233.0272,345.3461 c -14.56922,81.11972 69.84656,72.44095 57.03025,10.64738 30.49701,63.04316 93.74271,-10.612 29.46251,-45.23665 61.152,18.73706 54.62623,-82.19263 -3.95439,-66.29685 58.71782,-24.07553 -0.84645,-93.62854 -24.92785,-42.16638 4.39957,-57.74692 -46.27199,-54.22014 -41.0539,-4.15541 -18.04534,-60.26181 -86.2828,-3.50165 -38.89305,39.71514 -53.14951,-36.2334 -60.65106,60.32122 -6.20834,62.35155 -74.27328,11.14219 0.63203,116.62962 28.54477,45.14122 z M 98.038812,44.500791 c -4.28189,-75.68311 73.674788,-42.6531597 47.547168,9.0566 31.611,-29.54935 77.64428,33.50943 20.98558,53.854609 60.51995,-5.89231 33.16257,86.03383 -9.66483,52.10765 44.49666,48.21423 -21.33243,92.8662 -38.03773,29.79246 -5.46453,68.03441 -76.977228,36.53269 -52.528298,-13.03774 -45.83631,51.49553 -74.4800002,-50.34184 -27.16981,-51.62264 -60.34572,-13.42239 -23.8729,-84.982209 16.75471,-57.509429 -40.28465,-45.68644 33.90733,-88.65979 42.11321,-22.64151 z"
     inkscape:connector-curvature="0" />
  <path
     id="B"
     style="fill:#f7f4b1"
     d="m 146.44088,403.00486 c 3.98061,37.29709 -17.6888,70.18948 -48.400008,73.4672 -30.711195,3.27772 -58.834458,-24.30045 -62.815069,-61.59754 -3.980612,-37.29709 17.688803,-70.18947 48.399998,-73.46719 30.711209,-3.27772 58.834469,24.30043 62.815079,61.59753 z m 55.4042,-112.40617 c 4.21955,41.00956 34.6621,71.47403 67.99535,68.04432 33.33324,-3.42972 56.93457,-39.45485 52.71503,-80.46441 -4.21954,-41.00954 -34.6621,-71.47403 -67.99535,-68.04431 -33.33325,3.42971 -56.93457,39.45486 -52.71503,80.4644 z M 156.14591,112.37351 c 5.67205,37.07757 -15.11849,71.01879 -46.43696,75.80982 C 78.390473,192.97437 48.403724,166.80096 42.731678,129.72339 37.059631,92.645815 57.850166,58.704603 89.16864,53.913569 c 31.31847,-4.791036 61.30522,21.382373 66.97727,58.459941 z"
     inkscape:connector-curvature="0" />
  <path
     id="C"
     style="fill:#bc5b93"
     d="m 111.27078,413.47667 c -4.82499,29.12248 -15.940898,34.84532 -35.574978,14.46567 18.89515,25.5024 35.856078,19.92783 35.574978,-14.46567 z m 11.18817,-25.55783 c -20.15289,-22.54302 -35.915228,-15.81257 -25.038678,17.23933 -19.20724,-37.32712 9.020918,-53.47518 25.038678,-17.23933 z m -65.355298,44.96755 c -7.22253,-36.30183 6.07712,-42.77073 24.7719,-19.28355 -16.1587,-35.72417 -42.78465,-20.14924 -24.7719,19.28355 z M 235.56033,287.04326 c 2.09604,30.65857 14.88223,36.90206 35.11082,21.61029 -15.29783,22.2571 -38.12241,15.46352 -35.11082,-21.61029 z m -12.68207,-27.68657 c 22.64345,-29.56189 35.68992,-17.96629 28.2096,15.08561 18.528,-39.36486 -9.92769,-57.20825 -28.2096,-15.08561 z m 72.54286,47.9287 c 2.81077,-36.43446 -7.17034,-48.74464 -26.05269,-19.28355 15.21419,-41.41672 40.66922,-21.82793 26.05269,19.28355 z M 115.25414,122.68088 c -7.05913,26.81617 -18.973788,34.03911 -36.960988,10.58226 16.89883,28.82119 33.550548,25.0895 36.960988,-10.58226 z m 14.5844,-22.1616 c -21.96421,-29.335479 -35.235978,-18.303139 -26.85,12.48461 -17.622338,-38.006369 11.28507,-51.211029 26.85,-12.48461 z m -69.784258,35.48531 c -4.73197,-36.754659 8.13094,-41.059859 26.37289,-15.76136 -14.57379,-38.214729 -40.98942,-25.029919 -26.37289,15.76136 z"
     inkscape:connector-curvature="0" />
</svg>
