<svg xmlns="http://www.w3.org/2000/svg" viewBox="-40 -56 80 112">
  <path d="M9.8 55.5C-1.7 35.2-12.1 16.7-21.3-5.2L5.5 3.1 2.1-17l5.9-.2c3.9 13.1 8.3 26 13.2 39.1L5.8 14.5z" fill="#b22269"/>
  <path d="M12.3-28.8l22 14-27.6 1.5-43.6-.6L-23-27.8l-8.3-23.5 24 12z" fill="#ff80b2"/>
  <path d="M6.7-13.3L.6-24l-37.5 10.1-2.8 2.8h24.2L-5 7.5z" fill="#1fa2f2"/>
  <path d="M-15.580711-43.440356L-11.4-16.3l24.724287-11.848181L13-44zM14.4-10.8L39.5 6.3l-15.3 4.6z" fill="#9bd5f5"/>
  <path d="M-15.580711-43.440356L-7.3-39.3l4.509044-2.72969 15.329441 11.109821L12.3-28.8l1.024287.651819L34.3-38.2l-51.8-17.7z" fill="#b22269"/>
  <path d="M15-52.8l-2.461515 21.880131L2.3-26.2l-5.090956-15.82969z" fill="#1fa2f2"/>
</svg>
