<svg xmlns="http://www.w3.org/2000/svg" viewBox="0 0 67 64">
  <path fill="#55357a" d="M30.4 53.2c4.7-2.1 8.6-4 12.8-6.4 2.8 5.4 6.1 10.9 9.6 16.5-.5-5.5-.7-11.1-.6-16 4.1-.9 9.4-1.7 14.6-2.2-5.1-2.1-10.1-3.7-15.1-5-1-5.5-1.4-10.9-1.5-16.8-3.2 4.8-5.8 9.4-8.1 14-4.8-1.8-9.5-3.3-14.4-4.7 3.3 3.3 6.3 6.1 9.5 9.6-2.1 3.8-4 6.9-6.8 11ZM.7 45.7c3.1-1.5 5.6-2.9 8.2-4.5-.8-4.7-.7-9.7.3-14.4 1 4.3 2.4 7.6 4.6 11.2 3-1.8 5.6-3.6 8.7-6-1.8 4.4-3.3 7.5-5.5 11.4 2.2 3.4 5.1 6.9 8.3 10.2-3.7-1.6-7.1-3.2-10.3-4.9-.8 2.4-1.5 5.5-1.8 8.5-1.5-3.2-2.4-6.3-2.9-9.6-3.5-.4-6.7-1-9.6-1.9ZM33.7.8C31.5 3.5 30 6 28.3 9.1c-3-.5-5.7-1.2-8.6-2.2 1.2 3.2 2.8 5.8 4.6 8.4-2.7 3.3-4.8 6.8-6.4 10.4 2.7-2.6 5.1-4.4 8.5-5.9 1.5 3.1 2.9 6.4 4.3 10.5 1.1-4.7 1.3-9 1.3-13.3 3.9-1.2 8.1-2.9 11.8-4.8-3.8-.4-7.3-1-10.9-2 0-3.1.3-6.1.8-9.4Z"/>
</svg>
