<svg xmlns="http://www.w3.org/2000/svg" xmlns:inkscape="http://www.inkscape.org/namespaces/inkscape" xmlns:xlink="http://www.w3.org/1999/xlink" height="587" viewBox="0 0 629 587" width="629">
  <defs>
    <inkscape:path-effect effect="powerstroke" id="path-effect1330" interpolator_type="CubicBezierSmooth" offset_points="0.34,2.5" start_linecap_type="zerowidth" />
    <inkscape:path-effect effect="powerstroke" end_linecap_type="zerowidth" id="path-effect1328" interpolator_type="CubicBezierSmooth" offset_points="0.3,2.5 | 0.71,2.5" start_linecap_type="zerowidth" />
    <inkscape:path-effect effect="powerstroke" end_linecap_type="zerowidth" id="path-effect1242" interpolator_type="CubicBezierSmooth" offset_points="0.1,2.5 | 5.65,2.5" start_linecap_type="zerowidth" />
    <inkscape:path-effect effect="powerstroke" end_linecap_type="zerowidth" id="path-effect1211" interpolator_type="CubicBezierSmooth" offset_points="0.44,2.5 | 3.36,2.5" start_linecap_type="zerowidth" />
    <inkscape:path-effect effect="powerstroke" id="path-effect1192" interpolator_type="CubicBezierSmooth" offset_points="0.4,2.5" start_linecap_type="zerowidth" />
    <inkscape:path-effect effect="powerstroke" end_linecap_type="zerowidth" id="path-effect1190" interpolator_type="CubicBezierSmooth" offset_points="0.65,2.5 | 3.64,2.5" start_linecap_type="zerowidth" />
    <inkscape:path-effect effect="powerstroke" end_linecap_type="zerowidth" id="path-effect1180" interpolator_type="CubicBezierSmooth" offset_points="0.22,2.5 | 1.61,2.5" start_linecap_type="zerowidth" />
    <linearGradient id="linearGradient1079">
      <stop offset="0" stop-color="#3c539f" />
      <stop offset="1" stop-color="#72c8f0" />
    </linearGradient>
    <clipPath id="clipPath1093">
      <use xlink:href="#ellipse264" />
    </clipPath>
    <clipPath id="clipPath1155">
      <use xlink:href="#path1107" />
    </clipPath>
    <linearGradient gradientUnits="userSpaceOnUse" id="linearGradient1315" x1="98.829033" x2="97.205856" y1="207.48351" y2="262.72354" xlink:href="#linearGradient1079" />
    <clipPath id="a">
      <path d="M 23.8,-6.2 C 31.2,-9.4 31,-15.3 25.3,-15.5 28.2,-20.1 25.1,-24.2 21.4,-23.3 16.2,-34 -0.5,-32.2 8.2,-20.5 1.6,-22.9 0.4,-18.2 5.9,-14.6 -3.4,-10.8 12.1,-6.4 11.7,1.1 17.2,-2.5 28.4,-2 23.8,-6.2 Z" />
    </clipPath>
    <clipPath id="b">
      <path d="M -11.6,-13.7 C -8.9,-12.4 -6.5,-12.5 -3.3,-15.1 -5.8,-9.5 -6.6,-4.8 -6.8,1.1 9.3,2.4 10.5,2.7 13.4,-5.1 13.8,6.3 14.7,10.4 -7.6,7.1 -7.1,18.7 -6.9,23.3 -5.2,29.6 -3.5,35.9 -15,31.3 -15.1,27.7 -15.2,24.1 -15.5,20.2 -16.2,15.8 -30.3,7 -31.2,7.2 -28.2,-8.9 -25.2,3.3 -23.8,6.5 -16.4,9.1 -16.6,0.9 -15.6,-6.8 -11.6,-13.7 Z" />
    </clipPath>
  </defs>
  <g>
    <path d="M 440.61696,418.35151 C 441.88314,424.5015 457.12728,407.87877 467.6796,419.28208 497.60338,451.61906 518.12859,472.40944 548.4179,504.32944 569.82155,526.88541 515.76914,593.98509 501.96721,561.13599 483.78652,517.86527 470.52263,488.21297 428.82697,438.58774 397.74941,444.22496 377.66697,414.69699 373.08187,380.18812 L 426.65508,332.40661 C 458.99206,380.67076 438.44668,407.81014 440.61696,418.35151 Z" style="fill:#5c5148;stroke:#342d2d;stroke-width:5;stroke-miterlimit:20" />
    <path d="M 398.28044,301.44269 C 482.74269,273.20817 485.00384,333.99992 561.10715,311.30756 554.29846,319.71968 548.09425,325.24479 537.07752,331.3719 564.9231,329.68801 584.63081,323.35375 608.00762,311.17039 602.03702,320.98484 593.72801,328.61831 580.01441,335.90577 590.66359,334.30077 597.63874,331.96656 606.63895,327.34556 584.77123,384.06421 501.68715,402.51591 424.99885,348.84944 Z" style="fill:#b3b3b3;stroke:#818181;stroke-width:5;stroke-miterlimit:20" />
    <path d="M 401.68547,307.49244 C 428.30523,297.59535 466.57994,298.08343 494.56483,309.51628 M 403.39186,312.09971 C 471.30639,303.3971 506.77558,401.7093 591.75407,333.62413 M 407.78081,318.73081 C 459.48459,323.67936 464.69912,378.81977 538.41541,379.16105" style="fill:none;stroke:#818181;stroke-width:2.5;stroke-miterlimit:20" />
  </g>
  <g>
    <path d="M 169.27442,366.82733 C 190.43373,367.68053 211.59303,363.92646 228.65698,356.07703 L 240.26046,379.33168 C 218.4186,428.81715 201.88285,406.55872 131.75,393.59012 Z" style="fill:#665c50;stroke:#3c3330;stroke-width:5;stroke-miterlimit:20" />
    <path d="M 200.95074,370.74189 C 181.88641,357.95189 159.66841,348.20097 149.06679,350.50567 112.43861,358.46832 48.098376,409.10353 53.779809,467.8917 56.396145,494.96402 139.89948,465.18881 136.96604,440.96453 135.07832,425.37587 141.12455,403.22024 148.85894,389.365 Z" fill="#665c50" />
    <path fill="#3c3330" inkscape:original-d="M 200.95074,370.74189 C 181.88641,357.95189 159.66841,348.20097 149.06679,350.50567 112.43861,358.46832 48.098376,409.10353 53.779809,467.8917 56.396145,494.96402 139.89948,465.18881 136.96604,440.96453 135.07832,425.37587 141.12455,403.22024 148.85894,389.365" inkscape:path-effect="#path-effect1211" />
  </g>
  <path d="M 299.1641,568.56386 C 289.32142,579.88294 364.88235,582.51124 373.28428,569.4597 398.14032,530.84839 416.55433,492.16095 431.27489,442.93151 433.65263,434.9797 431.29204,434.25987 407.40224,435.29609 419.76849,412.18386 435.70641,401.19502 438.96244,369.81133 443.15544,329.39654 416.08964,288.77319 370.06354,293.21813 339.88286,296.13281 298.65048,297.03367 267.03746,287.13952 238.49532,281.92149 197.16416,238.91772 181.78645,272.59458 202.34012,420.02735 243.0447,427.24566 345.34304,421.36344 351.25275,440.59211 361.57497,453.75838 377.7581,458.55429 359.89455,501.91918 328.12258,535.26159 299.1641,568.56386 Z" fill="#665c50" />
  <path fill="#3c3330" inkscape:original-d="M 339.06076,378.81977 C 340.76716,424.89244 353.75959,455.94884 384.81599,460.21483" inkscape:path-effect="#path-effect1328" />
  <path fill="#3c3330" inkscape:original-d="M 403.00564,444.79265 C 415.55432,414.62756 435.29648,405.14621 438.96244,369.81133 443.15543,329.39654 416.08964,288.77319 370.06354,293.21813 339.88286,296.13281 298.65048,297.03367 267.03746,287.13952 238.49532,281.92149 197.16416,238.91772 181.78645,272.59458 202.34012,420.02735 243.0447,427.24566 345.3647,421.45397" inkscape:path-effect="#path-effect1330" />
  <path d="M 377.9936,458.48144 C 359.89455,501.91918 328.12258,535.26159 299.1641,568.56386 289.32142,579.88294 364.88235,582.51124 373.28428,569.4597 398.14032,530.84839 416.55433,492.16095 431.27489,442.93151 433.65263,434.9797 431.29204,434.25987 407.35191,435.208" style="fill:none;stroke:#3c3330;stroke-width:5;stroke-miterlimit:20" />
  <g>
    <path d="M 297.93663,111.34229 318.17122,115.66977 C 302.05913,143.91164 296.79119,178.49566 297.93663,218.10116 309.98146,212.4288 323.67471,211.53225 335.8186,224.56163 323.81244,225.35939 314.53263,227.71849 304.76221,233.77616 336.36771,234.66304 342.28109,258.66659 342.98547,287.35698 333.31639,270.3402 319.33591,258.54465 301.03198,254.25291 321.94356,271.84942 332.67351,289.57347 327.11599,322.1436 311.07587,301.32558 293.50001,287.67442 270.97558,281.5314 L 227.97442,115.01105" style="fill:#b3b3b3;stroke:#818181;stroke-width:5;stroke-miterlimit:20" />
    <path d="M 264.28093,255.51124 C 296.73858,255.75256 315.64754,279.55737 328.67885,302.72416 M 234.09361,138.09884 C 257.8125,144.58314 286.33314,163.15523 298.78983,185.33837" style="fill:none;stroke:#818181;stroke-width:2.5;stroke-miterlimit:20" />
    <path d="M 279.93206,303.56565 C 283.61915,231.2672 264.9084,181.01297 237.29871,149.46929 L 230.50543,131.3193 C 161.19744,69.848436 48.743916,113.17238 73.033721,207.10872 81.210225,238.72984 71.327326,250.98691 56.481687,264.12616 L 87.026163,304.76221 C 138.38866,299.30174 175.75872,289.23401 193.67587,275.07093 Z" fill="#665c50" />
    <path fill="#3c3330" inkscape:original-d="M 279.93206,303.56565 C 283.61915,231.2672 264.9084,181.01297 237.29871,149.46929 L 230.50543,131.3193 C 161.19744,69.848436 48.743916,113.17238 73.033721,207.10872 81.210225,238.72984 71.327326,250.98691 56.481687,264.12616 L 87.026163,304.76221 C 138.38866,299.30174 175.75872,289.23401 193.67587,275.07093" inkscape:path-effect="#path-effect1242" />
    <g clip-path="url(#clipPath1155)">
      <path d="M 106.18113,219.83049 C 131.26693,211.01829 155.78336,200.68776 179.90461,189.30341 192.28187,265.92608 109.21777,289.6557 106.18113,219.83049 Z" fill="#fff" id="path1107" />
      <g clip-path="url(#clipPath1093)">
        <ellipse cx="94.357628" cy="233.15701" fill="url(#linearGradient1315)" id="ellipse264" rx="16.825294" ry="38.391533" transform="rotate(-6.6699746)" />
        <path d="M 113.21934,225.67078 145.98212,253.22907 151.61323,235.48256 Z" fill="#c9f0ff" />
        <path d="M 113.21934,225.67078 155.02602,225.24419 150.58939,241.34579 Z" fill="#54a0f5" />
        <ellipse cx="89.497124" cy="235.0882" rx="11.640653" ry="29.277197" transform="rotate(-6.6699746)" />
        <ellipse cx="84.163071" cy="225.94991" fill="#fff" rx="5.8472319" ry="12.996613" transform="rotate(-10.409917)" />
        <ellipse cx="54.447567" cy="249.37779" fill="#fff" rx="2.0092463" ry="4.2265525" transform="rotate(-15.247962)" />
      </g>
    </g>
    <path d="M 176.78256,190.775 C 179.46488,199.64972 180.50485,208.96881 179.46937,220.80946 183.64782,209.52381 183.90173,198.20775 181.13387,188.38605 Z M 100.04209,207.26717 C 98.248822,213.18019 97.667269,219.1814 98.665467,224.77756 149.89363,206.39578 177.27079,194.7392 189.91943,183.39106 173.88624,186.62819 162.87687,197.52902 102.56132,217.89992 101.30352,214.58034 100.58216,211.45167 100.04209,207.26717 Z" />
    <path d="M 76.337883,264.02084 C 78.989142,264.41953 80.406756,263.12078 79.960196,260.15026 83.216056,264.34449 80.60269,267.06702 76.337883,264.02084 Z M 75.618713,289.91346 C 90.483152,286.1412 94.836541,279.46036 96.286977,269.90454 100.12637,281.76399 90.445913,289.58327 78.187921,292.95067" fill="#3c3330" />
    <path d="M 214.77546,127.04266 C 177.85339,101.22134 101.63075,102.46266 81.118487,159.17304 15.16928,138.1788 11.420853,94.87672 32.221594,60.724667 34.422074,73.018044 38.452565,83.521451 43.85436,94.5343 41.39355,61.479522 46.714968,41.43218 65.307268,22.183139 66.717783,41.201567 68.379323,57.996096 77.640989,77.081395 82.365592,49.66404 95.119275,32.635649 113.98721,22.524418 105.40173,38.86285 98.964869,56.849277 100.50669,77.78779 113.05705,42.522123 146.77301,40.028492 179.39282,56.347276 211.11583,72.217414 266.57432,92.428483 320.92446,105.38999 L 297.93663,111.34229 318.17122,115.66977" style="fill:#b3b3b3;stroke:#818181;stroke-width:5;stroke-miterlimit:20" />
    <path d="M 21.865697,107.01482 C 34.493023,129.3686 58.529361,143.67849 87.026162,146.40872 M 146.75,46.731394 C 162.96075,64.989825 167.0561,88.415116 155.28198,111.11018 M 120.15407,52.045058 C 140.80145,69.279651 146.06744,89.756395 141.63081,112.62209 M 64.91528,24.722665 C 43.575974,59.249183 58.684974,109.73672 95.567445,135.47446" style="fill:none;stroke:#818181;stroke-width:2.5;stroke-miterlimit:20" />
    <path d="M 188.38605,130.02732 C 218.07732,99.482848 281.84884,98.800286 317.17122,140.43634 288.50378,165.52035 251.15756,171.34593 227.26802,168.27442 Z" fill="#665c50" />
    <path fill="#3c3330" inkscape:original-d="M 188.38605,130.02732 C 218.07732,99.482848 281.84884,98.800286 317.17122,140.43634 288.50378,165.52035 251.15756,171.34593 227.26802,168.27442" inkscape:path-effect="#path-effect1180" />
  </g>
  <g>
    <path d="M 277.80116,380.52616 C 290.25785,402.36802 294.18256,431.71802 267.72789,437.09225 273.11566,439.25405 278.40673,441.20763 283.75848,442.93151 309.06179,451.08208 297.36362,536.80993 274.72546,524.22189 220.91093,494.29812 183.51042,408.38125 199.92022,387.62766 205.60986,380.43193 220.26476,376.78787 255.49343,396.70333 Z" fill="#665c50" />
    <path fill="#3c3330" inkscape:original-d="M 231.84524,415.05897 C 248.25713,428.64569 265.66081,437.10198 283.75848,442.93151 309.06179,451.08209 297.36362,536.80993 274.72546,524.22189 220.91093,494.29812 183.51042,408.38125 199.92022,387.62766 205.60986,380.43193 220.26476,376.78787 255.49343,396.70333" inkscape:path-effect="#path-effect1190" />
    <path fill="#3c3330" inkscape:original-d="M 277.80116,380.52616 C 290.25785,402.36802 294.18256,431.71802 267.56279,437.17849" inkscape:path-effect="#path-effect1192" />
  </g>
  <g transform="matrix(-.97856414-.09867543-.13547032 1.0562252 380.59836 359.56137)">
    <g clip-path="url(#a)">
      <path d="M 23.8,-6.2 C 31.2,-9.4 31,-15.3 25.3,-15.5 28.2,-20.1 25.1,-24.2 21.4,-23.3 16.2,-34 -0.5,-32.2 8.2,-20.5 1.6,-22.9 0.4,-18.2 5.9,-14.6 -3.4,-10.8 12.1,-6.4 11.7,1.1 17.2,-2.5 28.4,-2 23.8,-6.2 Z" fill="#999c65" />
      <path d="M 12.4,-32.6 C 17,-22.6 18.2,-13.2 13.2,3 L 10.6,2.1 C 15.8,-9.7 15.5,-22.5 10.9,-32.5 Z M 3.8,-23.5 C 8.4,-21.6 12,-19.4 15.5,-16 L 15.3,-13.2 C 11.7,-17.9 8.2,-20.2 2.8,-22.4 Z M 15.1,-10.7 C 20.1,-13.7 23.8,-17 27.5,-22.1 L 27.8,-20.1 C 24,-14.9 20.3,-11.7 14.7,-8 Z M 3,-15.1 C 7.7,-13.7 12,-10.6 14.8,-6.8 L 14.2,-4.7 C 11.1,-9.5 6.9,-12.6 2.4,-14 Z M 14.9,-5.8 C 20.5,-6.8 25.1,-8.3 30.1,-10.7 L 30,-9.5 C 25.3,-7.1 20.5,-5.5 14.2,-4.1 Z" fill="#a7a678" />
    </g>
    <g clip-path="url(#b)">
      <path d="M -11.6,-13.7 C -8.9,-12.4 -6.5,-12.5 -3.3,-15.1 -5.8,-9.5 -6.6,-4.8 -6.8,1.1 9.3,2.4 10.5,2.7 13.4,-5.1 13.8,6.3 14.7,10.4 -7.6,7.1 -7.1,18.7 -6.9,23.3 -5.2,29.6 -3.5,35.9 -15,31.3 -15.1,27.7 -15.2,24.1 -15.5,20.2 -16.2,15.8 -30.3,7 -31.2,7.2 -28.2,-8.9 -25.2,3.3 -23.8,6.5 -16.4,9.1 -16.6,0.9 -15.6,-6.8 -11.6,-13.7 Z" fill="#9b8266" />
      <path d="M -12.4,0.6 C -10.8,0.7 -9.3,1.6 -9.1,3.2 -10.8,3.2 -12,2.1 -12.4,0.6 Z M -30.9,2.8 C -27.2,6.2 -24.1,6 -23.7,1.7 L -29,-16.4 Z M -16.6,-5.2 C -14.2,-7.6 -10.9,-6.6 -11.5,-2 -8.4,-7.8 -6.4,-5.1 -6.3,0.5 L -0.4,-17.3 -13,-18.2 Z M -21.7,4.7 C -25.6,6 -17.6,11.9 -18.2,7.4 Z M -24.9,11.8 C -24.5,6.8 -17.5,12.2 -21.6,13.3 Z M -17.4,17 C -10.8,12.9 -10.1,27.3 -16.7,21 Z M -6.2,13.1 C -11.2,14.6 -8.2,19.7 -9.5,22.3 -10.8,24.9 -14.9,23.6 -15.8,31.3 L -1.6,36.6 Z" fill="#423c32" />
      <path d="M -13.8,6 C -13.7,11.2 -12,13.7 -11.2,17.6 -11.1,13.3 -13,10.3 -13.8,6 Z M -17,16.3 C -13.3,15.5 -15.9,10.4 -20.8,9.8 -16,12.4 -15.3,14.7 -17.5,15.7 Z M -9.5,13.5 C -14.3,6.8 -8.1,3 -3.1,6 -9,5.1 -11,7.2 -9.5,13.5 Z M -2.2,2.3 C 2.1,3.8 5.4,3.4 7.7,0.9 L 10.1,0.1 C 5.9,4.8 1.5,5.6 -2.2,2.3 Z" fill="#8b7155" />
    </g>
  </g>
</svg>