<svg xmlns="http://www.w3.org/2000/svg" xmlns:inkscape="http://www.inkscape.org/namespaces/inkscape" xmlns:xlink="http://www.w3.org/1999/xlink" height="724" viewBox="0 0 597 724" width="597">
  <defs>
    <inkscape:path-effect effect="powerstroke" end_linecap_type="zerowidth" id="path-effect944" interpolator_type="CubicBezierSmooth" offset_points="0.43,3.5 | 3.5,3.5" start_linecap_type="zerowidth" />
    <inkscape:path-effect effect="powerstroke" id="path-effect892" interpolator_type="CubicBezierSmooth" offset_points="0.22,3.5 | 3,3.5" start_linecap_type="zerowidth" />
    <inkscape:path-effect effect="powerstroke" end_linecap_type="zerowidth" id="path-effect884" interpolator_type="CubicBezierSmooth" offset_points="0.21,3.5 | 3.74,3.5" start_linecap_type="zerowidth" />
    <inkscape:path-effect effect="powerstroke" id="path-effect5088" interpolator_type="CubicBezierSmooth" offset_points="0.49,3.5 | 5,3.5" start_linecap_type="zerowidth" />
    <inkscape:path-effect effect="powerstroke" id="path-effect5086" interpolator_type="CubicBezierSmooth" offset_points="0.33,3.5" start_linecap_type="zerowidth" />
    <inkscape:path-effect effect="powerstroke" id="path-effect5084" interpolator_type="CubicBezierSmooth" offset_points="0.28,3.5 | 5,3.5" start_linecap_type="zerowidth" />
    <inkscape:path-effect effect="powerstroke" end_linecap_type="zerowidth" id="path-effect5063" interpolator_type="CubicBezierSmooth" offset_points="0.24,3.5 | 2.69,3.5" start_linecap_type="zerowidth" />
    <linearGradient id="linearGradient2431">
      <stop offset="0" stop-color="#d38013" />
      <stop offset="1" stop-color="#f6bd40" />
    </linearGradient>
    <inkscape:path-effect effect="powerstroke" end_linecap_type="zerowidth" id="path-effect2350" interpolator_type="CubicBezierSmooth" offset_points="0.17,3.5 | 2.78,3.5" start_linecap_type="zerowidth" />
    <inkscape:path-effect effect="powerstroke" end_linecap_type="zerowidth" id="path-effect2257" interpolator_type="CubicBezierSmooth" offset_points="0.21,3.5 | 1.6,3.5" start_linecap_type="zerowidth" />
    <inkscape:path-effect effect="powerstroke" end_linecap_type="zerowidth" id="path-effect2756" interpolator_type="CubicBezierSmooth" offset_points="0.53,3.5 | 1.75,3.5" start_linecap_type="zerowidth" />
    <clipPath id="clipPath5027">
      <use xlink:href="#path5561" />
    </clipPath>
    <clipPath id="clipPath5043">
      <use xlink:href="#path4797" />
    </clipPath>
    <linearGradient gradientTransform="translate(7.0574624,-1.5088695)" gradientUnits="userSpaceOnUse" id="linearGradient5111" x1="161.68269" x2="227.32291" y1="-509.31747" y2="-510.29871" xlink:href="#linearGradient2431" />
  </defs>
  <g>
    <path d="M 201.19983,401.93023 C 192.7342,432.05409 187.46232,462.48348 163.80769,491.10006 103.70395,563.81155 75.131529,627.79583 94.344644,695.42325 100.92949,718.60097 -4.4677833,720.22097 -2.806705,694.84418 1.9875981,621.60018 36.933333,555.63227 75.262525,503.69069 88.216678,486.13594 107.99228,503.45529 109.85969,489.80369 114.23527,457.81621 102.42687,433.33808 108.56595,388.77633 118.22181,318.68734 192.44432,304.6127 250.12568,343.72817 Z M 323.45344,468.00219 C 301.986,542.30258 294.66738,626.19742 314.94425,702.35587 321.88085,728.40922 427.26203,726.15589 416.5628,701.47907 385.52591,629.89529 373.26048,549.10232 374.52326,457.33953 Z" fill="#d3b211" stroke="#ae940e" stroke-width="7" />
    <path d="M 65.443652,331.19134 C 148.66905,461.37258 17.483055,470.16642 48.156855,555.3934 69.878857,615.74786 52.313709,670.74264 -21.753048,678.29416 46.083262,612.62027 -86.852814,574.19386 -46.547728,499.94765 -26.934668,463.81833 -24.334523,436.9649 -45.547728,408.68063 Z" fill="#f6bc3e" stroke="#db7c0d" stroke-width="7" />
    <path d="M 62.584799,351.37862 C 83.960393,327.44048 121.96262,327.98803 143.07107,347.87868 L 166.04289,333.75 C 111.17589,120.17579 -191.06223,263.4992 -49.093454,426.91724 -21.833877,458.29531 -19.091883,484.24054 -38.183767,511.11061 29.747037,479.33271 25.387279,405.86798 62.584799,351.37862 Z" fill="#f6bc3e" />
    <path fill="#db7c0d" inkscape:original-d="M 62.584799,351.37862 C 83.960393,327.44048 121.96262,327.98803 143.07107,347.87868 L 166.04289,333.75 C 111.17589,120.17579 -191.06223,263.4992 -49.093454,426.91724 -21.833877,458.29531 -19.091883,484.24054 -38.183767,511.11061" inkscape:path-effect="#path-effect944" />
  </g>
  <path d="M 575.43761,193.09348 C 573.45503,197.07217 571.2941,201.05262 568.94976,205.02944 503.99242,315.21971 659.50611,373.94975 511,479 520.88034,432.5654 510.71739,390.62427 471.94174,360.84 476.94174,406.84 458.17576,442.33748 419.15137,464.66338 432.45036,411.71616 419.88792,373.31919 388.88792,330.81919 L 289.24831,382.22478 C 298.10617,252.9872 220.00209,193.13437 300.49094,51.005911 L 551.54329,57.905406" fill="#f6bc3e" stroke="#db7c0d" stroke-width="7" />
  <path d="M 302.1857,186.67887 C 296.06011,-3.0925869 583.84696,20.642697 521.44414,236.45813 L 404.56513,292.80929 C 395.72559,358.05349 434.972,411.03477 377.30698,467.02558 343.83287,499.52783 265.79513,505.90465 217.09143,476.63529 213.2183,488.06504 208.34997,499.72417 201.46745,512.74651 178.05215,557.05036 170.42474,643.48187 216.30466,714.47674 230.69712,736.74772 125.16378,739.73446 118.35362,714.3186 100.0814,646.12576 105.54884,577.2 127.01628,518.69069 129.7529,511.23206 137.11977,510.18778 147.7758,510.65402 139.77079,479.70793 111.53443,453.21141 109.56342,402.77633 106.84919,333.3234 173.8575,301.34758 244.46776,333.30724 266.72487,343.38127 282.12758,346.41641 301.6738,344.7606 306.89814,303.67622 303.88483,239.31792 302.1857,186.67887 Z" fill="#e2c018" />
  <g transform="translate(124.02499 345.76332)scale(1.1163637)">
    <path d="M 57.3,22.2 C 58.9,25.4 59.5,28.8 61,32 62.3,29.1 63.1,26.1 63.6,23 64.2,27.8 64.2,34.1 67.3,35.3 68.3,34.3 69,34 70,34 69.6,35 69.6,35.9 69.7,37 82,48.6 79.3,68.5 68.6,75.5 71.9,76 75.3,76.8 78.1,78.9 59.5,81.8 51.4,88.9 48.9,93.3 46.4,97.7 39.8,98.1 37.3,93.1 30.3,79.1 3.2,75.2 1.7,53.3 3.8,55.5 5.8,57.4 8.1,59.3 7.6,38.9 18.8,42.4 18.9,25.7 20.3,27.9 21.3,29.9 21.6,32.6 23.2,30.2 23.9,27.6 24.5,24.5 26.2,26 27.3,28.4 28.4,30.5 28.6,27.3 28.5,24.3 28.1,20.6 30.2,22.8 31.2,25.2 32.1,28.7 32.4,23 31.9,17.6 30.6,12 35,17.2 37.6,22.3 38.2,29.7 40.3,21.7 41,13.5 42,6 44.2,14.5 46.6,24.8 50.2,31.5 50.8,25.8 51.1,19.9 51.4,14.3 54,19.2 55.6,24.3 57.1,30.1 Z" fill="#c48d32" stroke="#8e6014" stroke-miterlimit="20" />
    <path d="M 43.4,91.6 C 50.5,75 73.2,74.2 73.2,56.3 73.2,38.4 54,29.9 43.4,48.3 32.8,29.9 13.6,38.4 13.6,56.3 13.6,74.2 36.3,75 43.4,91.6 Z" fill="#eeaa3f" stroke="#8e6014" />
    <path d="M 11.3,49.9 A 8.5,8.5 0 1 1 28.3,49.9 8.5,8.5 0 1 1 11.3,49.9 Z M 55.1,74.2 A 5.8,5.8 0 1 1 66.7,74.2 5.8,5.8 0 1 1 55.1,74.2 Z" fill="#f4ca69" />
  </g>
  <path fill="#ae940e" inkscape:original-d="M 296.23024,370.10232 C 308.43722,335.58604 304.29695,252.08558 302.1857,186.67887 296.06011,-3.092587 583.84696,20.642697 521.44414,236.45813 L 404.56513,292.80929 C 395.72559,358.05349 434.972,411.03477 377.30698,467.02558 343.83287,499.52783 265.79513,505.90465 217.38816,476.43953" inkscape:path-effect="#path-effect5084" />
  <path fill="#ae940e" inkscape:original-d="M 149.71424,524.2818 C 148.33693,486.76281 111.81485,460.38692 109.56342,402.77633 106.84919,333.3234 173.8575,301.34758 244.46776,333.30724 266.72487,343.38127 282.12758,346.41641 301.70084,344.73268" inkscape:path-effect="#path-effect5086" />
  <path fill="#ae940e" inkscape:original-d="M 227.14419,420.93023 C 223.7625,453.52896 219.62292,478.39474 201.46745,512.74651 178.05215,557.05036 170.42474,643.48187 216.30466,714.47674 230.69712,736.74772 125.16378,739.73446 118.35362,714.3186 100.0814,646.12576 105.54884,577.2 127.01628,518.69069 129.7529,511.23206 137.11977,510.18778 147.85349,510.60872" inkscape:path-effect="#path-effect5088" />
  <g>
    <path d="M 300.41962,462.23262 C 273.10147,553.53218 230.15295,599.65925 203.99964,657.00592 175.28392,719.9712 276.78811,768.95966 287.36465,712.53042 303.59418,625.94058 359.18737,539.09151 354.62936,451.34314 Z" fill="#e2c018" />
    <path fill="#ae940e" inkscape:original-d="M 300.41962,462.23262 C 273.10147,553.53218 230.15295,599.65925 203.99964,657.00592 175.28392,719.9712 276.78811,768.95966 287.36465,712.53042 303.59418,625.94058 359.18737,539.09151 354.62936,451.34314" inkscape:path-effect="#path-effect2350" />
  </g>
  <g>
    <path d="M 522.58533,146.90107 523.68055,152.14318 C 534.05182,152.62885 542.55319,148.80903 547.12192,139.00674 539.44658,146.28649 531.89343,147.98243 522.58533,146.90107 Z M 518.02387,135.50563 520.5989,140.40788 C 531.33043,136.70916 537.40907,130.23658 539.75895,118.14846 533.83839,128.16267 527.89644,132.86423 518.02387,135.50563 Z" />
    <g clip-path="url(#clipPath5043)">
      <path d="M 505.51194,223.51313 C 490.99649,182.27715 499.48066,141.53361 518.41025,122.08013 535.37923,160.1852 532.04701,200.51177 521.03416,235.22228 514.38815,232.33124 509.80643,228.89169 505.51194,223.51313 Z" fill="#fff" id="path4797" />
      <g clip-path="url(#clipPath5027)">
        <ellipse cx="201.16402" cy="-505.37762" fill="url(#linearGradient5111)" id="path5561" rx="43.163891" ry="15.671556" transform="rotate(88.907461)" />
        <path d="M 507.74045,197.75848 524.37944,237.10228 537.76196,210.88675 Z" fill="#ffe9b9" />
        <path d="M 507.74045,197.75848 538.76036,198.82805 533.38959,220.34722 Z" fill="#f8d485" />
        <ellipse cx="204.04433" cy="-503.11621" rx="35.021744" ry="12.860332" transform="rotate(88.690594)" />
        <ellipse cx="-98.739563" cy="531.11316" fill="#fff" rx="15.595099" ry="5.3968" transform="rotate(-81.764684)" />
        <ellipse cx="-98.372292" cy="544.04175" fill="#fff" rx="5.2484145" ry="1.8394593" transform="rotate(-79.51368)" />
      </g>
    </g>
    <path d="M 505.51194,223.51313 C 488.85896,183.55284 496.62143,142.11245 516.79416,120.87746 522.82391,114.5302 526.35498,109.74168 528.56264,100.00585 529.41373,110.92929 526.51002,117.62169 519.77128,124.78048 501.5735,144.1126 493.83863,177.33563 505.51194,223.51313 Z" />
    <path d="M 462.50937,212.72163 C 453.7443,119.59632 339.78197,101.71982 359.2859,198.35383 402.24264,192.34342 440.61265,193.30474 462.50937,212.72163 Z" fill="#c5a301" />
    <path d="M 368.62842,198.3245 C 362.67809,191.19262 361.97177,183.7678 364.59335,174.28316 365.18315,184.26916 368.19869,191.56297 375.94646,196.76864 M 357.90648,198.96009 C 350.37466,193.89892 347.65534,185.54663 348.41263,175.56664 351.11932,186.59275 356.45299,193.67865 367.38435,197.47012 M 468.08172,218.43552 C 445.4543,197.57587 409.47764,194.03819 362.92103,200.5057 349.63445,202.35143 338.70783,197.75786 335.1723,186.62093 342.06658,194.92942 350.12345,197.28999 361.92623,195.52563 400.86647,189.70456 449.97453,190.75757 468.08172,218.43552 Z" />
    <path d="M 505.51194,223.51313 C 513.60867,240.16323 545.33426,237.13144 541.21263,253.29822 528.61879,302.69666 447.67907,323.69989 363.18933,284.37854 Z" fill="#e2c018" />
    <path fill="#ae940e" inkscape:original-d="M 505.51194,223.51313 C 513.60867,240.16323 545.33426,237.13144 541.21263,253.29822 528.61879,302.69666 447.67907,323.69989 363.18933,284.37854" inkscape:path-effect="#path-effect2756" />
    <path d="M 484.70773,261.07261 C 490.83105,277.68783 502.30092,285.21325 517.74964,285.89366 L 525.35783,280.06265 C 505.98171,280.66097 495.98858,274.78226 484.70773,261.07261 Z M 525.42393,251.87691 C 521.4032,254.7638 517.91606,253.8042 516.90105,248.65055 514.30394,256.96505 521.63566,259.41175 525.42393,251.87691 Z" fill="#ae940e" />
  </g>
  <g>
    <path d="M 277.66073,373.92148 C 325.39044,421.29763 298.09639,485.79593 236.64854,453.12785 178.08602,421.99372 145.25303,342.10885 153.20994,334.15193 160.63456,326.72731 200.2932,336.62681 252.97266,362.4362 Z" fill="#e2c018" />
    <path fill="#ae940e" inkscape:original-d="M 277.66073,373.92148 C 325.39044,421.29763 298.09639,485.79593 236.64854,453.12785 178.08602,421.99372 145.25303,342.10885 153.20994,334.15193 160.63456,326.72731 200.2932,336.62681 252.97266,362.4362" inkscape:path-effect="#path-effect5063" />
    <path d="M 238.47176,355.05447 C 236.44143,362.5131 241.60564,367.53607 250.43191,372.86082 226.23989,373.03066 227.91196,382.38388 257.32621,402.38253 235.8979,399.93915 223.82961,405.92205 253.96745,430.31325 230.09245,429.18825 229.70983,440.76452 250.08204,459.51541" style="fill:none;stroke:#ae940e;stroke-width:4.5;stroke-miterlimit:20" />
    <path d="M 153.75,349.75 C 177.66308,380.63369 206.74506,409.2994 237.5,433.25 M 153.25,333.5 C 181.21304,357.23145 209.81641,380.70677 240.125,403.5 M 171.21236,332.33239 240.57163,374.03392" fill="none" stroke="#ae940e" stroke-width="3.5" />
  </g>
  <g>
    <use transform="translate(97.85782 22.501185)" xlink:href="#path883" />
    <circle cx="307.14926" cy="313.85779" fill="#bad6fe" id="path883" r="13.725119" stroke="#709ce5" stroke-width="3.5" />
    <use transform="translate(21.85782 10.125625)" xlink:href="#path883" />
    <use transform="translate(75.59133 23.853876)" xlink:href="#path883" />
    <use transform="translate(48.28673 18.85782)" xlink:href="#path883" />
  </g>
  <g>
    <path d="M 547.2504,164.89426 C 498.60826,82.02673 428.98337,144.88816 342.63666,69.884591 L 307.5,41.236538 C 473.73044,-109.91675 660.16232,50.301176 568.94976,205.02944 Z" fill="#f6bc3e" />
    <path fill="#db7c0d" inkscape:original-d="M 547.2504,164.89426 C 498.60826,82.02673 428.98337,144.88816 342.63666,69.884591 L 307.5,41.236538 C 473.73044,-109.91675 660.16232,50.301176 568.94976,205.02944" inkscape:path-effect="#path-effect892" />
    <path d="M 310.46061,180.66246 C 242.40128,103.39696 298.85857,22.728221 310.00841,21.607345 317.819,20.822156 350.21534,53.673264 358.02204,92.459665 Z" fill="#e2c018" />
    <path d="M 308.83946,65.865173 C 297.54745,90.937384 300.5934,115.645 313.97084,138.82966 305.12951,114.07075 302.78816,91.973647 308.83946,65.865173 Z" fill="#ae940e" />
    <path fill="#ae940e" inkscape:original-d="M 310.46061,180.66246 C 242.40128,103.39696 298.85857,22.728221 310.00841,21.607345 317.819,20.822156 350.21534,53.673264 358.02204,92.459665" inkscape:path-effect="#path-effect2257" />
    <path d="M 352.5,49.999995 C 298.85642,102.91821 285.93489,177.4514 310.14969,264.19282 332.76499,345.20455 331.22195,385.4591 300,448 375.48062,404.07769 374.1578,335.37531 353.0325,255.75415 336.29827,192.68287 361.15531,114.17906 410,72.999995 Z" fill="#f6bc3e" />
    <path fill="#db7c0d" inkscape:original-d="M 352.5,49.999995 C 298.85642,102.91821 285.93489,177.4514 310.14969,264.19282 332.76499,345.20455 331.22195,385.4591 300,448 375.48062,404.07769 374.1578,335.37531 353.0325,255.75415 336.29827,192.68287 361.15531,114.17906 410,72.999995" inkscape:path-effect="#path-effect884" />
    <path d="M 454.88407,69.714236 C 572.07324,-49.407059 587.95463,-38.230965 486.37797,109.82354" fill="#e2c018" stroke="#ae940e" stroke-width="7" />
    <path d="M 512.31191,14.397551 C 525.85363,17.500293 537.44015,16.298359 547.8031,11.065149 M 486.95611,37.381562 C 504.61021,44.84979 519.49578,44.87759 533.10034,38.178388 M 463.40403,60.839363 C 481.6881,72.449227 498.96263,74.149207 515.35169,67.22478" fill="none" stroke="#ae940e" stroke-width="3.5" />
    <path d="M 462.64644,47.67677 C 492.18195,45.102385 511.74601,55.300934 520.28033,85.207101 L 494,115.49999 479.625,110.87499 445.375,68.749994 Z" fill="#f6bc3e" />
    <path d="M 462.64644,47.67677 C 490.53464,48.176771 509.3934,59.059762 520.28033,85.207101 517.2448,56.169412 494.26777,39.987431 462.64644,47.67677 Z" fill="#db7c0d" />
  </g>
</svg>