<svg xmlns="http://www.w3.org/2000/svg" viewBox="0 0 100 100">
  <path d="M52.7 49c7.3-8.8 2.4-10.6 2.5-14.4-11.4-1.1-22.2-7.1-26.5-18 14.5-6.4 23.1 2 27.7 15.3 3.9-17.5 12.8-26.2 25-26.5.8 16-8.3 26.7-23.8 29.2.7 4.4 9 5.7-1.8 16.6z" fill="#618c30"/>
  <path d="M63.9 44.7c-5 4.2-.6 12.1-6.9 19.9s-18.6 2.5-16.3-7.8 12.6-11 13.9-17.3c2.3 2.6 1.4 6 .3 9.2 2.4-2.8 5.7-4.8 9-4zm7.1 24C47.3 72 41.2 85 48.5 91.9s19.5 1 22.5-23.2zM22.9 51.4c-9.4 21.8-2 34.1 7.9 31.5s10.8-16.7-7.9-31.5z" fill="#35251b"/>
  <path d="M46 27c3.4 1.9 8.9 5.4 10.4 6.9 1.6-2.3 7.6-8 12.3-13-4.2 4.8-7.8 8.7-12.2 13.5C53 31.9 49.2 29.5 46 27z" fill="#8cb45b"/>
</svg>
