<svg xmlns="http://www.w3.org/2000/svg" xmlns:xlink="http://www.w3.org/1999/xlink" viewBox="-25 -23 50 46">
  <clipPath id="T2"><use xlink:href="#T1"/></clipPath>
  <clipPath id="T4"><use xlink:href="#T3"/></clipPath>
  <clipPath id="T6"><use xlink:href="#T5"/></clipPath>
  <g clip-path="url(#T2)">
    <path d="m-13.7 4.2c-6.2 2.7-7.3 9.8-4 13.1 9 9 16.6.8 23.1 4C2.7 16.1 8.9 8.6 3.9 2.2s-14.9-3.9-17.6 2z" fill="#32ec6a" id="T1"/>
    <path d="m-20 5.2c2.5 13 7.5 12.2 8.2 5.5 5.2 3.9 6.2 3.3 3.5-1.5 7.4 2.7 7.8 1.4 2.6-2.3 4.2-.6 4.8-1.7 2.2-3.6 5.8-.8 6.1-2.7-1.9-6.4z" fill="#0aa136"/>
  </g>
  <g clip-path="url(#T4)">
    <path d="m5.3-10.8c4.8-2 11 1.5 11 8.2C16.3 6.1 7.2 7 3.7 12.4 2 6.3-7.1 5.8-7.1-2.7c0-7.1 7.2-10.5 12.4-8.1z" fill="#935922" id="T3"/>
    <path d="m-2.3-11.9c-5.8 4.1-3 7.1 1 5.4-.3 4.9 2.6 5.8 4.4 1.3.8 2.9 4 3.4 4.5-.5 2.3 3.6 4.8 2.7 2.3-2.3 4.3 3.8 7.1 3.2 2.1-3.9z" fill="#dea16a"/>
  </g>
  <g clip-path="url(#T6)">
    <path d="m19.4 6.5c5.1 2.6 6.1 9 1.9 13.2C15.4 25.6 7.9 18.8 2 21.3 4.6 16.4-.3 9 5.3 3.4 9.9-1.2 17.3 1.3 19.4 6.5Z" fill="#f8f8f8" id="T5"/>
    <path d="M15.5 1C6.3.9 8.7 5 11.1 5.6c-3.3 4.2-1.9 5.6 1.8 3-2.1 5.9-.1 7.3 3.5 3.2-.7 5.3.7 5.9 3.7.1.1 4.5 2.3 8.3 5.1-.6z" fill="#6c1a58"/>
  </g>
  <path d="m6.2-21.3c-1.4 3.4-1.8 7.1-1.6 11.5 0 .7 1.3.7 1.3 0 .1-3.8.8-7.6 2.2-10.6.6-1.4-1.4-2.1-1.9-.9zM18.1 6.6c-.4.4.3 1.3.8.9 2.7-2.3 4-6.3 3.2-10.5-.3-1.4-2.1-1-1.8.3.9 3.8.1 7-2.2 9.3zm-41.6-8.4c4.3 1.2 7.8 3.2 9.6 6.8.3.6 1.6 0 1.3-.7-1.6-3.7-4.9-6.5-10.1-8.2-1.7-.5-2.1 1.7-.8 2.1z" fill="#0d2917"/>
</svg>
