<svg xmlns="http://www.w3.org/2000/svg" xmlns:inkscape="http://www.inkscape.org/namespaces/inkscape" xmlns:xlink="http://www.w3.org/1999/xlink" height="1100" viewBox="0 0 550 1100" width="550">
  <defs>
    <linearGradient id="linearGradient8164">
      <stop offset="0" stop-color="#2c174a" />
      <stop offset="1" stop-color="#462576" />
    </linearGradient>
    <linearGradient id="linearGradient3627">
      <stop offset="0" stop-color="#032939" stop-opacity="0" />
      <stop offset="0.28345913" stop-color="#021e29" stop-opacity="0" />
      <stop offset="1" stop-opacity=".6" />
    </linearGradient>
    <linearGradient id="linearGradient2747">
      <stop offset="0" stop-color="#fcfaa3" />
      <stop offset="1" stop-color="#fff" />
    </linearGradient>
    <inkscape:path-effect effect="powerstroke" id="path-effect2673" interpolator_type="CubicBezierSmooth" offset_points="0.45,4 | 3,4" start_linecap_type="zerowidth" />
    <inkscape:path-effect effect="powerstroke" end_linecap_type="zerowidth" id="path-effect2661" interpolator_type="CubicBezierSmooth" offset_points="0.44,4 | 3.73,4" start_linecap_type="zerowidth" />
    <inkscape:path-effect effect="powerstroke" end_linecap_type="zerowidth" id="path-effect2631" interpolator_type="CubicBezierSmooth" offset_points="0.38,4 | 4.55,4" start_linecap_type="zerowidth" />
    <inkscape:path-effect effect="powerstroke" id="path-effect2275" interpolator_type="CubicBezierSmooth" offset_points="0.6,4 | 2,4" start_linecap_type="zerowidth" />
    <inkscape:path-effect effect="powerstroke" id="path-effect2014" interpolator_type="CubicBezierSmooth" offset_points="0.3,4 | 5,4" start_linecap_type="zerowidth" />
    <inkscape:path-effect effect="powerstroke" end_linecap_type="zerowidth" id="path-effect1835" interpolator_type="CubicBezierSmooth" offset_points="0.23,4 | 3.74,4" start_linecap_type="zerowidth" />
    <inkscape:path-effect effect="powerstroke" end_linecap_type="zerowidth" id="path-effect1691" interpolator_type="CubicBezierSmooth" offset_points="0.49,2.8 | 2.1,2.8" start_linecap_type="zerowidth" />
    <inkscape:path-effect effect="powerstroke" end_linecap_type="zerowidth" id="path-effect1628" interpolator_type="CubicBezierSmooth" offset_points="0.49,2.8 | 2.1,2.8" start_linecap_type="zerowidth" />
    <linearGradient id="linearGradient758">
      <stop offset="0" stop-color="#3c6e8f" />
      <stop offset="1" stop-color="#69bef6" />
    </linearGradient>
    <inkscape:path-effect effect="powerstroke" end_linecap_type="zerowidth" id="path-effect162" interpolator_type="CubicBezierSmooth" offset_points="0.46,4 | 1.79,4" start_linecap_type="zerowidth" />
    <clipPath id="clipPath1587">
      <use xlink:href="#ellipse2712" />
    </clipPath>
    <clipPath id="clipPath1617">
      <use xlink:href="#path9269" />
    </clipPath>
    <clipPath id="clipPath1650">
      <use xlink:href="#path23" />
    </clipPath>
    <clipPath id="clipPath1789">
      <use xlink:href="#path1695" />
    </clipPath>
    <clipPath id="clipPath2354">
      <use xlink:href="#path2290" />
    </clipPath>
    <linearGradient gradientUnits="userSpaceOnUse" id="linearGradient2749" x1="302.81613" x2="302.78299" y1="474.70969" y2="487.7475" xlink:href="#linearGradient2747" />
    <filter color-interpolation-filters="sRGB" height="1.0968339" id="filter3304" width="1.2807468" x="-0.14037341" y="-0.048416954">
      <feGaussianBlur stdDeviation="1.2183403" />
    </filter>
    <linearGradient gradientTransform="matrix(1.2102195,0,0,1.2102195,-391.00235,-124.75317)" gradientUnits="userSpaceOnUse" id="linearGradient3576" x1="479.36264" x2="478.07825" y1="356.00391" y2="430.65286" xlink:href="#linearGradient758" />
    <linearGradient gradientTransform="matrix(1.1644552,0,0,1.1644552,-1421.5949,64.61445)" gradientUnits="userSpaceOnUse" id="linearGradient3578" x1="992.99792" x2="916.83838" y1="281.10129" y2="280.05872" xlink:href="#linearGradient758" />
    <radialGradient cx="317.78409" cy="497.20004" fx="317.78409" fy="497.20004" gradientTransform="matrix(0.75005189,0,0,0.75005189,85.276337,118.4274)" gradientUnits="userSpaceOnUse" id="radialGradient3629" r="517.62555" xlink:href="#linearGradient3627" />
    <linearGradient gradientUnits="userSpaceOnUse" id="linearGradient8166" x1="158.62885" x2="158.62885" y1="46.80851" y2="748.93616" xlink:href="#linearGradient8164" />
  </defs>
  <rect fill="url(#linearGradient8166)" height="1100" width="550" />
  <rect fill="#031d39" height="317" width="550" y="783" />
  <path d="M 461.60755,1023.0117 C 529.87352,1033.1156 534.49986,1069.0805 440.03438,1083.991 551.6253,1080.1421 542.87589,1022.7425 461.60755,1023.0117 Z M 265.87015,1031.8961 C 211.08691,1045.2864 237.33339,1072.3712 305.40209,1074.2709 240.44934,1062.859 234.73933,1046.4708 265.87015,1031.8961 Z M 316.27566,1011.737 C 189.39763,1020.9311 188.01852,1046.6744 201.80961,1060.4655 158.59753,1047.1342 195.37377,1007.5997 316.27566,1011.737 Z M 399.8227,1033.6879 C 443.70568,1032.0627 474.58629,1046.6903 466.78487,1061.9681 486.93853,1049.2908 458.00827,1023.9362 399.8227,1033.6879 Z" fill="#fff" opacity=".4" />
  <g transform="translate(22.585786 9.4142136)">
    <g>
      <path d="M 350.78807,1048.1461 C 341.56893,1006.1991 349.41654,970.9359 389.05882,950.6538 409.80187,984.07317 404.95048,1020.9497 377.0626,1051.1424" fill="#006eb6" stroke="#094873" stroke-width="4" />
      <path d="M 319.21253,1044.228 C 303.37565,1014.7343 301.89201,975.64246 323.91971,950.80241 358.96438,974.92394 367.89007,1009.8641 357.47194,1044.228" fill="#006eb6" stroke="#094873" stroke-width="4" />
      <path d="M 306.7667,1046.0718 C 277.95691,1017.9535 269.96825,992.67895 274.57782,959.95102 319.98206,973.54925 345.71755,1002.0505 349.63568,1040.5404" fill="#006eb6" stroke="#094873" stroke-width="4" />
      <path d="M 323,1050.5 C 373.5,1000.5 385.20743,920.88938 314.5,885 248.5,851.5 255.98708,785.49361 331.31937,780.13647 451.41176,771.59629 465.86293,704.14013 357.80213,697.4136 272.12429,692.08036 232.08907,738.14166 145.08695,727.74695 55.457028,717.03828 72.02426,611.93844 169.86179,630.06186 251.69519,610.35166 285.74593,520.99844 232.74524,503.94599 213.18034,507.55334 196.60403,504.20053 160.32326,491.96815 -17.361884,432.06006 -86.318348,759.90178 143.40144,759.90178 224.86752,759.90178 254.46354,721.56146 337.63918,725.40498 379.68926,727.3481 377.84189,753.1124 328.17724,757.53849 210.91965,767.98843 195.78958,858.08563 299.63561,908.1167 351.68602,933.19361 361.97013,981.5528 305.97013,1050.0528" fill="#f6b3b3" />
      <path d="M 335.57951,963.41576 C 356.39636,972.68973 372.17066,990.65311 377.45097,1009.1633 391.50133,991.27533 411.02833,979.48719 441.13559,971.62733 437.21746,998.13235 423.78297,1026.0202 393.12934,1049.99 367.14949,1063.1177 317.43788,1062.7191 288.10174,1048.3804 268.96825,1027.864 256.52242,1003.5971 249.60807,972.94346 275.65212,981.47116 301.62871,1000.2631 320.31492,1027.7816 316.16767,1006.1803 320.9725,982.55441 335.57951,963.41576 Z" fill="#006eb6" />
      <path d="M 333.96315,1059.2092 C 313.82079,1031.9316 313.38611,992.49438 335.57951,963.41576 356.39636,972.68973 372.17066,990.65311 377.45715,1009.1554 M 353.41654,1058.9824 C 368.62811,1010.5819 389.04747,985.22556 441.13559,971.62733 437.21746,998.13235 423.78297,1026.0202 393.12934,1049.99 367.14949,1063.1177 317.43788,1062.7191 288.10174,1048.3804 268.96825,1027.864 256.52242,1003.5971 249.60807,972.94346 275.65212,981.47116 301.62871,1000.2631 320.29746,1027.6901" fill="none" stroke="#094873" stroke-width="4" />
    </g>
    <path d="M 419.81797,530.63948 372.22991,541.39568 355.70775,628.22649 C 395.33888,685.2889 448.69848,707.95251 482.00331,682.40265 485.91196,679.40412 489.29473,675.71921 492.15029,671.44333" fill="#f6b3b3" stroke="#c99292" stroke-width="8" />
    <g>
      <path d="M 161.89192,413.95997 C 130.52887,350.82763 129.64749,292.21198 165.10943,234.67287 L 258.55844,486.97826 C 224.61731,522.68715 189.26197,524.98525 145.42136,514.37865 119.58434,508.12776 131.7542,450.32628 147.89623,457.98689 158.32605,462.93663 164.69001,463.64374 174.4698,462.0365 173.72877,446.89599 169.91968,430.11947 161.89192,413.95997 Z" fill="#f6ea86" />
      <path d="M 171.71964,489.74658 148.6692,487.46355 C 148.6692,487.46355 155.11007,461.37014 147.89623,457.98689 131.7542,450.32628 119.5713,508.18189 145.42136,514.37865 157.21148,517.20497 166.94648,506.71112 171.71964,489.74658 Z M 147.37121,271.52823 C 151.68072,259.17251 157.57472,246.89839 165.10943,234.67287 L 258.55844,486.97826 C 236.13333,510.57134 213.09087,519.57953 187.39162,519.91717 238.35674,440.33776 145.9343,392.06497 147.37121,271.52823 Z" fill="#d6cc74" />
      <path d="M 147.89623,457.98689 C 155.11007,461.37014 148.6692,487.46355 148.6692,487.46355 L 171.8824,489.76165 M 145.42136,514.37865 C 171.03405,520.39426 186.84812,464.19562 161.89192,413.95997 130.52887,350.82763 129.64749,292.21198 165.10943,234.67287 L 258.55844,486.97826 C 224.61731,522.68715 189.26197,524.98525 145.42136,514.37865 119.58434,508.12776 131.7542,450.32628 147.89623,457.98689 158.32605,462.93663 164.69001,463.64374 174.58951,462.05275" fill="none" stroke="#aea65e" stroke-width="7" />
    </g>
    <g>
      <path d="M 431.25511,196.2509 C 487.75529,308.4005 413.81009,394.72213 423.53863,456.21446 427.6517,482.21245 446.36717,502.34894 470.90452,482.94588 450.50146,548.34912 392.97886,554.20736 363.58327,497.17729 L 355.5,221 Z" fill="#f6ea86" />
      <path d="M 399.36771,479.36334 C 404.9533,505.88736 418.67659,520.92162 441.83418,527.72028 453.78998,519.07168 464.29497,504.13319 470.90452,482.94588 446.36717,502.34894 427.6517,482.21245 423.53863,456.21446 413.81009,394.72213 487.75529,308.4005 431.25511,196.2509 L 408.96663,203.27171 C 460.87021,345.53883 382.66343,400.0406 399.36771,479.36334 Z" fill="#d6cc74" />
      <path d="M 431.25511,196.2509 C 487.75529,308.4005 413.81009,394.72213 423.53863,456.21446 427.6517,482.21245 446.36717,502.34894 470.90452,482.94588 450.50146,548.34912 392.97886,554.20736 363.58327,497.17729 L 355.5,221 Z" fill="none" stroke="#aea65e" stroke-width="8" />
    </g>
    <path d="M 226.99108,526.58533 C 238.72744,490.03531 237.66149,436.5242 231.85052,393.18145 L 364.7934,392.02477 C 358.76813,469.03889 389.52059,515.17586 389.52059,578.94732 389.52059,622.94213 357.68676,670.13446 300.00612,670.06488 254.6047,670.01011 205.06752,636.58327 169.86179,630.06186 Z" fill="#f6b3b3" />
    <path fill="#c99292" inkscape:original-d="M 226.99108,526.58533 C 238.72744,490.03531 237.66149,436.5242 231.85052,393.18145 L 364.7934,392.02477 C 358.76813,469.03889 389.52059,515.17586 389.52059,578.94732 389.52059,622.94213 357.68676,670.13446 300.00612,670.06488 254.6047,670.01011 205.06752,636.58327 169.86179,630.06186" inkscape:path-effect="#path-effect2631" />
    <g>
      <g>
        <path d="M 386.51284,453.68077 C 368.54347,460.94574 360.53376,469.2764 348.86483,489.56601 345.67312,440.15915 357.88178,403.68157 377.14092,378.41894 Z" fill="#d6cc74" />
        <path d="M 348.86483,489.56601 C 357.80461,453.06831 370.18717,424.3076 391.75786,391.16468 L 386.51284,453.68077 C 367.83688,460.63252 358.08884,472.19786 348.86483,489.56601 Z" fill="#f6ea86" />
        <path fill="#aea65e" inkscape:original-d="M 386.51284,453.68077 C 368.54347,460.94574 360.53376,469.2764 348.86483,489.56601 345.67312,440.15915 357.88178,403.68157 377.14092,378.41894" inkscape:path-effect="#path-effect2275" />
      </g>
      <path d="M 166.92062,310.15416 C 160.96484,114.24166 423.65374,93.199735 430.4559,302.9778 433.40674,393.98145 373.7768,452.79735 305.67272,454.10402 234.49223,455.46971 169.8439,406.31358 166.92062,310.15416 Z" fill="#f6b3b3" stroke="#c99292" stroke-width="8" />
      <g>
        <path d="M 275.92685,199.27293 C 267.06336,198.59125 261.5553,207.69187 267.52029,214.68253 258.61419,218.04187 256.82172,228.07337 265.76299,232.6244 256.66989,239.25523 258.64296,249.04471 268.19926,251.99421 262.01099,259.13539 266.4368,270.9452 276.97475,269.37933 275.00789,279.29677 285.11414,284.872 292.38434,277.78586 296.70055,286.91108 305.82763,287.21656 311.33977,277.95936 322.80202,282.37342 327.12563,275.4722 326.37059,266.95782 336.74519,266.1694 339.01572,255.67208 334.36183,249.52893 343.54082,246.46774 344.5566,237.47903 337.32591,232.63881 343.76295,228.57349 343.45854,219.32199 334.54509,215.50649 338.93224,207.73059 334.78803,198.42427 325.46713,199.35973 328.93147,190.64467 319.20758,183.78373 310.62031,189.47557 305.00118,180.24014 294.70583,181.33836 290.81458,190.87107 283.58966,184.86041 274.48573,190.63355 275.92685,199.27293 Z" fill="#fee200" stroke="#cab712" stroke-width="2" />
        <g clip-path="url(#clipPath2354)">
          <ellipse cx="233.9805" cy="-301.31329" fill="#004674" id="path2290" rx="40.214577" ry="30.759146" transform="rotate(90)" />
          <path d="M 276.00908,274.6244 C 259.74563,227.77858 311.54119,221.76816 296.51518,188.53415 L 314.01607,189.94836 C 330.80986,215.75776 285.57063,248.98658 310.31937,281.33671 Z" fill="#006eb7" />
        </g>
        <ellipse cx="362.1384" cy="45.242092" fill="#fff" rx="8.816987" ry="14.299037" transform="rotate(30)" />
      </g>
      <g>
        <path d="M 413.99622,166.96219 C 463.91083,114.439 447.1586,73.447763 390.20765,68.10938 L 218.71782,67.584254 C 159.9991,75.39751 145.95398,113.91388 196.57569,163.96219 Z" fill="#f6ea86" />
        <path d="M 189.54959,75.544581 C 156.97901,90.899101 155.85111,123.6989 196.57569,163.96219 L 222.50593,164.31998 C 193.11161,135.80558 183.98703,106.83285 189.54959,75.544581 Z M 390.24814,166.63451 413.99622,166.96219 C 450.985,128.04035 451.36422,95.451186 425.90474,79.010381 428.18423,108.46982 418.56612,137.51325 390.24814,166.63451 Z" fill="#d6cc74" />
        <path d="M 413.99622,166.96219 C 463.91083,114.439 447.1586,73.447763 390.20765,68.10938 L 218.71782,67.584254 C 159.9991,75.39751 145.95398,113.91388 196.57569,163.96219 Z" fill="none" stroke="#aea65e" stroke-width="8" />
        <path d="M 357.52847,23.726054 C 408.78139,32.605468 429.64127,70.918774 365.76659,145.94138 L 244.41631,141.68833 C 188.44747,75.44117 200.73092,35.462266 248.20034,25.490644 269.28209,21.062125 290.19859,26.003697 305.14957,36.480087 312.56071,22.548757 330.58797,19.058694 357.52847,23.726054 Z" fill="#f6ea86" />
        <path d="M 348.56203,22.439948 C 329.08579,55.999999 331.39645,102.42678 350.5,145.25 L 326.25,144.75 C 285.03649,52.866399 296.5326,14.226328 348.56203,22.439948 Z M 274.25931,142.73426 244.41631,141.68833 C 191.74146,79.340085 199.52147,40.259097 240.19141,27.562311 230.64158,64.49565 243.71373,105.61721 274.25931,142.73426 Z" fill="#d6cc74" />
        <path fill="#aea65e" inkscape:original-d="M 304.68509,84.23229 C 290.90556,31.586415 311.2658,15.711186 357.52847,23.726054 408.78139,32.605468 429.64127,70.918774 365.76659,145.94138 L 244.41631,141.68833 C 188.44747,75.44117 200.73092,35.462266 248.20034,25.490644 269.28209,21.062125 290.19859,26.003697 305.16683,36.390081" inkscape:path-effect="#path-effect2014" />
        <path d="M 172.34988,157.55556 C 268.68558,75.404263 368.11111,106.22695 415.39243,149.37116 Z" fill="#f6ea86" />
        <path d="M 208.44614,143.26722 C 233.89443,134.27034 251.09497,125.61434 264.02445,110.49446 287.12876,105.30653 310.73085,104.10094 335.16652,109.56391 348.97493,122.58789 366.21756,132.99507 383.03276,139.9598 Z" fill="#d6cc74" />
        <path d="M 172.34988,157.55556 C 268.68558,75.404263 368.11111,106.22695 415.39243,149.37116" fill="none" stroke="#aea65e" stroke-width="8" />
      </g>
      <g transform="rotate(-3.8485333-8.8969514-8628.6173)scale(-1 1)">
        <path d="M 388.07829,206.40927 C 384.26153,166.25065 398.19443,117.266 412.96352,116.59192 442.5461,115.24174 497.48735,240.1111 423.9593,295.15062 Z" fill="#f6b3b3" />
        <path fill="#c99292" inkscape:original-d="M 388.07829,206.40927 C 384.26153,166.25065 398.19443,117.266 412.96352,116.59192 442.5461,115.24174 497.48735,240.1111 423.9593,295.15062" inkscape:path-effect="#path-effect162" />
        <path d="M 423.49574,164.86681 C 437.86471,189.52575 440.63543,217.18388 429.35157,245.38542 434.68604,217.07032 432.67234,191.76442 423.49574,164.86681 Z" fill="#c99292" />
      </g>
      <g>
        <path d="M 388.07829,206.40927 C 384.26153,166.25065 398.19443,117.266 412.96352,116.59192 442.5461,115.24174 497.48735,240.1111 423.9593,295.15062 Z" fill="#f6b3b3" />
        <path fill="#c99292" inkscape:original-d="M 388.07829,206.40927 C 384.26153,166.25065 398.19443,117.266 412.96352,116.59192 442.5461,115.24174 497.48735,240.1111 423.9593,295.15062" inkscape:path-effect="#path-effect162" />
        <path d="M 423.49574,164.86681 C 437.86471,189.52575 440.63543,217.18388 429.35157,245.38542 434.68604,217.07032 432.67234,191.76442 423.49574,164.86681 Z" fill="#c99292" />
      </g>
      <path d="M 271.43657,408.2884 C 282.03378,437.98486 317.28088,439.02468 328.93252,408.5494 324.72315,445.6588 273.91349,443.66845 271.43657,408.2884 Z M 316.71927,381.62142 C 317.66517,386.57887 316.07715,388.95037 311.7586,390.4608 318.10883,393.06751 322.14592,387.04223 316.71927,381.62142 Z M 282.40227,382.97844 C 281.84111,388.46531 284.07097,390.44684 288.18583,391.18619 282.14574,394.44829 277.73904,389.49434 282.40227,382.97844 Z M 281.53554,371.57291 C 294.21642,368.81569 304.78939,368.10888 317.82762,370.10439 305.40036,363.65696 292.85732,364.51383 281.53554,371.57291 Z" fill="#c99292" />
      <g>
        <path d="M 178.72051,386.78057 C 177.76325,375.84314 184.51982,369.226 195.84708,368.49298 L 198.44637,372.43687 C 187.65254,372.64102 181.99,377.6237 178.72051,386.78057 Z M 163.50487,351.77358 C 171.07431,344.47828 181.34866,344.49606 189.26551,351.77682 L 188.54127,355.93669 C 180.84279,349.11167 171.86365,348.61083 163.50487,351.77358 Z M 166.79392,372.34662 C 169.61531,361.46868 178.03241,357.71858 188.46451,359.36252 L 189.82622,363.88547 C 180.07167,361.62391 172.01709,364.45969 166.79392,372.34662 Z" />
        <g clip-path="url(#clipPath1650)">
          <ellipse cx="176.36612" cy="350.42014" fill="#fff" id="path23" rx="43.505756" ry="80.772751" transform="rotate(-7.7097663)" />
          <g clip-path="url(#clipPath1587)">
            <ellipse cx="202.5341" cy="351.82263" fill="url(#linearGradient3576)" id="ellipse2712" rx="35.123497" ry="60.381065" transform="rotate(-5.9111435)" />
            <path d="M 246.78572,339.63186 214.2854,388.62603 197.59273,364.40948 Z" fill="#d8eaf6" />
            <path d="M 246.78572,339.63186 192.91427,347.36507 201.16497,369.73672 Z" fill="#93cff6" />
            <ellipse cx="352.95828" cy="-205.99594" rx="49.312752" ry="28.685091" transform="rotate(84.088831)" />
            <ellipse cx="313.0864" cy="214.7598" fill="#fff" rx="13.828047" ry="25.177864" transform="rotate(19.096447)" />
            <ellipse cx="353.87329" cy="209.08452" fill="#fff" rx="4.9873471" ry="8.5497379" transform="rotate(23.820864)" />
          </g>
        </g>
        <path transform="rotate(-7.7097663)" inkscape:original-d="M 209.41148,402.95746 C 233.22915,352.77378 214.59721,270.61324 176.36612,269.64738 159.93581,269.23229 145.39132,287.21221 138.22339,311.53829 133.09368,328.94721 127.1123,335.15451 116.00207,339.34369" inkscape:path-effect="#path-effect1628" />
        <path d="M 182.3684,274.09828 C 176.03557,282.84494 167.32982,287.66012 156.5964,290.30438 166.15415,291.86903 174.28108,289.43768 180.40594,284.35969 M 179.27707,286.56155 C 173.44485,295.83646 164.59244,301.77751 155.04574,304.71185 164.48257,306.01098 172.10978,302.92147 178.19214,296.95245" />
      </g>
      <g>
        <path d="M 424.37326,383.65036 C 424.806,372.6797 417.74057,366.39347 406.39114,366.20335 L 403.98357,370.26711 C 414.77481,369.95448 420.6693,374.66056 424.37326,383.65036 Z M 437.89617,347.95542 C 429.98632,341.03067 419.72464,341.54006 412.16529,349.19141 L 413.08773,353.31184 C 420.45079,346.12621 429.39574,345.1963 437.89617,347.95542 Z M 435.59544,368.66225 C 432.25674,357.93177 423.66983,354.58876 413.32831,356.73005 L 412.18462,361.31299 C 421.81973,358.58723 430.00083,361.03429 435.59544,368.66225 Z" />
        <g clip-path="url(#clipPath1789)">
          <ellipse cx="-288.68954" cy="404.85895" fill="#fff" id="path1695" rx="80.772743" ry="43.505764" transform="rotate(-85.041135)" />
          <g clip-path="url(#clipPath1617)">
            <ellipse cx="-309.19556" cy="376.4978" fill="url(#linearGradient3578)" id="path9269" rx="60.381065" ry="35.123505" transform="rotate(-87.160816)" />
            <path d="M 348.5698,336.82433 387.04041,385.84356 402.6036,360.88613 Z" fill="#d8eaf6" />
            <path d="M 348.5698,336.82433 406.49463,343.64492 399.27979,366.37176 Z" fill="#93cff6" />
            <ellipse cx="-310.26816" cy="373.04456" rx="49.312752" ry="28.685102" transform="rotate(-87.160783)" />
            <ellipse cx="448.43961" cy="161.95268" fill="#fff" rx="13.828047" ry="25.177864" transform="rotate(20.069743)" />
            <ellipse cx="483.89233" cy="147.04247" fill="#fff" rx="4.9873471" ry="8.5497379" transform="rotate(24.49945)" />
          </g>
        </g>
        <path d="M 415.38233,271.27686 C 422.12767,279.70951 431.05443,284.10128 441.90244,286.22735 432.43079,288.24891 424.19658,286.21043 417.83502,281.43224 M 419.06827,283.5774 C 425.33889,292.56169 434.46625,298.07105 444.1428,300.54379 434.77918,302.29437 427.01249,299.57446 420.65066,293.90425" />
        <path transform="rotate(4.9588627 422.19096 6742.2735)scale(-.99999999.99999999)" inkscape:original-d="M 209.29048,403.21869 C 233.10815,353.03501 214.59721,270.61324 176.36612,269.64738 159.93581,269.23229 145.39132,287.21221 138.22339,311.53829 133.09368,328.94721 127.1123,335.15451 116.00207,339.34369" inkscape:path-effect="#path-effect1691" />
      </g>
      <path d="M 208.44614,143.26722 C 143.37355,166.2727 119.21955,247.56513 150.5767,320.79071 188.21946,253.55043 263.31548,248.23815 300.98055,179.61947 339.75018,248.72963 414.13786,232.6295 449.41652,319.56391 498.72493,227.33789 449.01703,167.28998 383.03276,139.9598 323.86968,136.30678 267.19448,137.58513 208.44614,143.26722 Z" fill="#d6cc74" />
      <path d="M 300.98055,179.61947 C 339.46323,248.21812 413.03868,232.86316 448.6268,317.65048 471.3795,175.65875 341.01177,206.77769 299.77775,133.63198 259.60438,208.22744 150.28873,179.04532 151.21872,319.70721 189.05235,253.45996 263.51255,247.87913 300.98055,179.61947 Z" fill="#f6ea86" />
      <path fill="#aea65e" inkscape:original-d="M 208.44614,143.26722 C 143.37355,166.2727 119.21955,247.56513 150.5767,320.79071 188.21946,253.55043 263.31548,248.23815 300.98055,179.61947 339.75018,248.72963 414.13786,232.6295 449.41652,319.56391 498.72493,227.33789 449.01703,167.28998 383.03276,139.9598" inkscape:path-effect="#path-effect1835" />
    </g>
    <g>
      <path d="M 229.35244,498.4666 C 229.35244,508.47287 284.27763,531.6978 303.42953,531.6978 322.58143,531.6978 377.50662,508.47287 377.50662,498.4666 377.50662,489.98184 352.82552,481.6884 303.42953,481.6884 254.03354,481.6884 229.35244,489.98184 229.35244,498.4666 Z" fill="#f1ce34" />
      <path d="M 236.3849,506.47518 C 251.8238,488.17788 362.059,491.70736 370.681,506.14923 329.28591,533.36569 274.52054,530.75813 236.3849,506.47518 Z" fill="#436c0c" opacity=".804" />
      <path d="M 300.44618,531.94326 C 303.17717,516.40831 303.13083,505.05075 300.53824,489.66239 300.03358,486.66699 304.44359,485.84065 304.96646,489.28871 307.54267,506.27743 306.77077,517.74824 304.27025,532.2692 Z" fill="#defab3" />
      <path d="M 303.42953,536.6978 C 262.61285,536.6978 236.33115,522.68204 229.35244,498.4666 229.35244,508.47287 288.67892,507.48245 303.42953,519.6978 318.18014,507.48245 377.50662,508.47287 377.50662,498.4666 370.52791,522.68204 344.24621,536.6978 303.42953,536.6978 Z" fill="#c5a40d" />
      <g filter="url(#filter3304)">
        <path d="M 302.69618,435.57181 C 298.08661,461.27015 291.25532,463.28096 292.16848,482.12844 293.09473,501.24614 313.0333,500.41697 312.91531,480.47794 312.80007,461.00252 306.72955,461.50063 302.69618,435.57181 Z" fill="#ebc011" opacity=".5" />
        <path d="M 302.17069,450.46222 C 312.41194,471.09372 311.89402,493.25895 302.64633,493.11676 293.96113,492.10671 292.81768,473.07113 302.17069,450.46222 Z" fill="#fbf730" opacity=".75" />
        <path d="M 302.81546,490.5678 C 297.91785,490.69009 298.27759,477.71869 302.44393,469.93287 307.71692,476.82594 307.07577,490.46143 302.81546,490.5678 Z" fill="url(#linearGradient2749)" />
      </g>
    </g>
    <g>
      <path d="M 214.57225,596.22022 C 224.25503,581.47246 235.46381,568.21558 248.06942,556.98579 283.7846,525.16869 196.65813,447.95336 170.645,480.43947 105.96303,561.21657 99.458123,670.11035 144.95903,693.55232 180.25557,711.73702 228.65317,686.41747 263.80407,623.89694 Z" fill="#f6b3b3" />
      <path fill="#c99292" inkscape:original-d="M 187.66677,651.4771 C 200.58738,614.2144 221.14126,580.97492 248.06942,556.98579 283.7846,525.16869 196.65813,447.95336 170.645,480.43947 105.96303,561.21657 99.458123,670.11035 144.95903,693.55232 180.25557,711.73702 228.65317,686.41747 263.80407,623.89694" inkscape:path-effect="#path-effect2661" />
      <path d="M 434.53559,645.78167 C 417.21797,610.34796 392.49977,577.48979 362.68273,557.20315 323.13606,530.29667 399.25519,442.66148 429.50417,471.24527 506.08209,543.60708 523.07329,650.89575 482.00331,682.40265 479.94352,659.89391 456.36454,643.8397 434.53559,645.78167 Z" fill="#f6b3b3" />
      <path fill="#c99292" inkscape:original-d="M 434.53559,645.78167 C 417.21797,610.34796 392.49977,577.48979 362.68273,557.20315 323.13606,530.29667 399.25519,442.66148 429.50417,471.24527 506.08209,543.60708 523.07329,650.89575 482.00331,682.40265" inkscape:path-effect="#path-effect2673" />
    </g>
  </g>
  <rect fill="url(#radialGradient3629)" height="1100" width="550" />
</svg>