<?xml version="1.0" encoding="UTF-8" standalone="no"?>
<!-- Created with Inkscape (http://www.inkscape.org/) -->

<svg
   xmlns:dc="http://purl.org/dc/elements/1.1/"
   xmlns:cc="http://creativecommons.org/ns#"
   xmlns:rdf="http://www.w3.org/1999/02/22-rdf-syntax-ns#"
   xmlns:svg="http://www.w3.org/2000/svg"
   xmlns="http://www.w3.org/2000/svg"
   xmlns:xlink="http://www.w3.org/1999/xlink"
   xmlns:sodipodi="http://sodipodi.sourceforge.net/DTD/sodipodi-0.dtd"
   xmlns:inkscape="http://www.inkscape.org/namespaces/inkscape"
   width="1537.5048"
   height="2013.8776"
   id="svg7282"
   version="1.1"
   inkscape:version="0.48.3.1 r9886"
   sodipodi:docname="Luna in a Bottle.svg"
   inkscape:export-filename="/home/parclytaxel/Pictures/Luna in a Bottle.png"
   inkscape:export-xdpi="374.633"
   inkscape:export-ydpi="374.633">
  <defs
     id="defs7284">
    <linearGradient
       inkscape:collect="always"
       id="linearGradient8110">
      <stop
         style="stop-color:#101930;stop-opacity:0"
         offset="0"
         id="stop8112" />
      <stop
         id="stop8118"
         offset="0.4156819"
         style="stop-color:#101930;stop-opacity:0.4" />
      <stop
         style="stop-color:#101930;stop-opacity:0.4"
         offset="0.64081246"
         id="stop8120" />
      <stop
         style="stop-color:#101930;stop-opacity:0;"
         offset="1"
         id="stop8114" />
    </linearGradient>
    <linearGradient
       id="linearGradient3138"
       inkscape:collect="always">
      <stop
         id="stop3140"
         offset="0"
         style="stop-color:#007a96;stop-opacity:1" />
      <stop
         id="stop3142"
         offset="1"
         style="stop-color:#00d2b5;stop-opacity:1" />
    </linearGradient>
    <inkscape:path-effect
       effect="skeletal"
       id="path-effect8295"
       is_visible="true"
       pattern="m 260.54319,529.31993 0,9 77,0 c 8.80166,0 12.64286,-1.20921 20.14286,-4.5 -6.95054,-3.21429 -11.3412,-4.5 -20.14286,-4.5 z"
       copytype="single_stretched"
       prop_scale="1"
       scale_y_rel="false"
       spacing="0"
       normal_offset="0"
       tang_offset="0"
       prop_units="false"
       vertical_pattern="false"
       fuse_tolerance="0"
       pattern-nodetypes="ccscsc" />
    <inkscape:path-effect
       effect="skeletal"
       id="path-effect8275"
       is_visible="true"
       pattern="m 107.28571,445.71429 0,9 184,0 c 8.80166,0 12.64286,-1.20921 20.14286,-4.5 -6.95054,-3.21429 -11.3412,-4.5 -20.14286,-4.5 z"
       copytype="single_stretched"
       prop_scale="1"
       scale_y_rel="false"
       spacing="0"
       normal_offset="0"
       tang_offset="0"
       prop_units="false"
       vertical_pattern="false"
       fuse_tolerance="0"
       pattern-nodetypes="ccscsc" />
    <inkscape:path-effect
       effect="skeletal"
       id="path-effect4550"
       is_visible="true"
       pattern="m 509.83261,608.11183 c -9.71003,0 -18.21662,0.80545 -29,2.75 10.78338,1.94454 19.28997,2.75 29,2.75 l 259,0 c 6.08503,0 11.77728,-0.75368 17.5,-2.75 -5.72272,-1.87132 -11.28997,-2.75 -17.5,-2.75 z"
       copytype="single_stretched"
       prop_scale="1"
       scale_y_rel="false"
       spacing="0"
       normal_offset="0"
       tang_offset="0"
       prop_units="false"
       vertical_pattern="false"
       fuse_tolerance="0"
       pattern-nodetypes="scsscss" />
    <clipPath
       clipPathUnits="userSpaceOnUse"
       id="clipPath4621">
      <path
         id="path4623"
         style="font-size:medium;font-style:normal;font-variant:normal;font-weight:normal;font-stretch:normal;text-indent:0;text-align:start;text-decoration:none;line-height:normal;letter-spacing:normal;word-spacing:normal;text-transform:none;direction:ltr;block-progression:tb;writing-mode:lr-tb;text-anchor:start;baseline-shift:baseline;color:#000000;fill:none;stroke:#ff0000;stroke-width:1;stroke-miterlimit:4;stroke-dasharray:none;marker:none;visibility:visible;display:inline;overflow:visible;enable-background:accumulate;font-family:Sans;-inkscape-font-specification:Sans"
         d="m 629.625,639.375 c -7.41348,2.15972 -20.41542,-1.59803 -36.3125,-14.46875 -4.13768,-33.75845 7.61769,-56.92154 39.46875,-66.6875 27.60187,7.04898 39.44991,23.51433 39.78125,36.125 L 789.5,493.17113 l -271.5,-16.5 -33,290.5 145,-3.5 z"
         inkscape:connector-curvature="0"
         sodipodi:nodetypes="cccc" />
    </clipPath>
    <clipPath
       clipPathUnits="userSpaceOnUse"
       id="clipPath4617">
      <path
         id="path4619"
         style="fill:none;stroke:#ff0000;stroke-width:1;stroke-miterlimit:4;stroke-dasharray:none"
         d="m 672.45079,560.38217 c -9.60566,3.71595 -20.15737,4.946 -30.69159,4.9385 l -37.71573,61.06556 c 1.80214,5.4974 3.41036,10.96596 3.96733,16.45845 59.09279,53.63813 108.07782,-55.71738 64.43999,-82.46251 z"
         inkscape:connector-curvature="0"
         sodipodi:nodetypes="ccccc" />
    </clipPath>
    <inkscape:path-effect
       effect="skeletal"
       id="path-effect3889"
       is_visible="true"
       pattern="m 221.14607,701.3633 c -17.73023,0 -33.5,1.25 -50,4.5 16.5,3 32.26977,4.5 50,4.5 l 351,0 6,-9 z"
       copytype="single_stretched"
       prop_scale="1"
       scale_y_rel="false"
       spacing="0"
       normal_offset="0"
       tang_offset="0"
       prop_units="false"
       vertical_pattern="false"
       fuse_tolerance="0"
       pattern-nodetypes="scsccs" />
    <clipPath
       clipPathUnits="userSpaceOnUse"
       id="clipPath6767">
      <path
         style="fill:none;stroke:#ffff00;stroke-width:0.5;stroke-miterlimit:4;stroke-dasharray:none"
         d="m 483,379.53096 c 5.70593,9.49863 11.22172,16.83634 16.28145,22.58261 13.73868,-29.959 4.14305,-74.59661 -7.43842,-109.64129 C 479.1047,304.9398 473.90063,323.9091 483,379.53096 z"
         id="path6769"
         inkscape:connector-curvature="0"
         sodipodi:nodetypes="cccc" />
    </clipPath>
    <linearGradient
       inkscape:collect="always"
       xlink:href="#linearGradient3138"
       id="linearGradient6734"
       x1="498.67172"
       y1="432.71539"
       x2="496.14206"
       y2="473.03284"
       gradientUnits="userSpaceOnUse" />
    <clipPath
       clipPathUnits="userSpaceOnUse"
       id="clipPath6724">
      <path
         sodipodi:type="arc"
         style="fill:none;stroke:#ffff00;stroke-width:0.30000001;stroke-linecap:butt;stroke-linejoin:miter;stroke-miterlimit:4;stroke-opacity:1;stroke-dasharray:none"
         id="path6726"
         sodipodi:cx="496.875"
         sodipodi:cy="452.75"
         sodipodi:rx="8.3365278"
         sodipodi:ry="24.798262"
         d="m 505.21153,452.75 a 8.3365278,24.798262 0 1 1 -16.67306,0 8.3365278,24.798262 0 1 1 16.67306,0 z"
         transform="matrix(1.2975474,-0.13658428,0.13658428,1.2975474,-210.14555,-147.17796)" />
    </clipPath>
    <inkscape:path-effect
       effect="skeletal"
       id="path-effect6696"
       is_visible="true"
       pattern="m 250.06496,232.18503 c -17.73023,0 -33.5,1.25 -50,4.5 16.5,3 32.26977,4.5 50,4.5 l 147,0 c 17.73023,0 36.5,-1 54,-4.5 -17.60355,-2.5 -36.26977,-4.5 -54,-4.5 z"
       copytype="single_stretched"
       prop_scale="1"
       scale_y_rel="false"
       spacing="0"
       normal_offset="0"
       tang_offset="0"
       prop_units="false"
       vertical_pattern="false"
       fuse_tolerance="0"
       pattern-nodetypes="scsscss" />
    <inkscape:path-effect
       effect="skeletal"
       id="path-effect8327"
       is_visible="true"
       pattern="m 330.01429,749.07185 c -17.73023,0 -33.5,1.25 -50,4.5 16.5,3 32.26977,4.5 50,4.5 l 357,0 c 17.73023,0 36.5,-1 54,-4.5 -17.60355,-2.5 -36.26977,-4.5 -54,-4.5 z"
       copytype="single_stretched"
       prop_scale="1"
       scale_y_rel="false"
       spacing="0"
       normal_offset="0"
       tang_offset="0"
       prop_units="false"
       vertical_pattern="false"
       fuse_tolerance="0"
       pattern-nodetypes="scsscss" />
    <inkscape:path-effect
       effect="skeletal"
       id="path-effect8319"
       is_visible="true"
       pattern="m 301.73001,785.8414 c -17.73023,0 -33.5,1.25 -50,4.5 16.5,3 32.26977,4.5 50,4.5 l 73,0 7,-9 z"
       copytype="single_stretched"
       prop_scale="1"
       scale_y_rel="false"
       spacing="0"
       normal_offset="0"
       tang_offset="0"
       prop_units="false"
       vertical_pattern="false"
       fuse_tolerance="0"
       pattern-nodetypes="scsccs" />
    <clipPath
       clipPathUnits="userSpaceOnUse"
       id="clipPath4467">
      <path
         id="path4469"
         style="fill:none;stroke:#ff00ff"
         d="m 193.55115,698.65005 c -1.11506,-12.27912 0.18122,-24.91785 1.52637,-37.72361 L -126.76704,451.73149 c -25.76536,-6.29268 -50.09106,-18.99115 -68.87578,-37.49378 -447.87865,-36.97746 122.069494,577.46256 389.19397,284.41234 z"
         inkscape:connector-curvature="0"
         sodipodi:nodetypes="ccccc" />
    </clipPath>
    <inkscape:path-effect
       effect="skeletal"
       id="path-effect4319"
       is_visible="true"
       pattern="m -830.21948,744.53405 c -17.73023,0 -33.5,1.25 -50,4.5 16.5,3 32.26977,4.5 50,4.5 l 1033,0 c 17.73023,0 36.5,-1 54,-4.5 -17.60355,-2.5 -36.26977,-4.5 -54,-4.5 z"
       copytype="single_stretched"
       prop_scale="1"
       scale_y_rel="false"
       spacing="0"
       normal_offset="0"
       tang_offset="0"
       prop_units="false"
       vertical_pattern="false"
       fuse_tolerance="0"
       pattern-nodetypes="scsscss" />
    <clipPath
       clipPathUnits="userSpaceOnUse"
       id="clipPath4463">
      <path
         id="path4465"
         style="font-size:medium;font-style:normal;font-variant:normal;font-weight:normal;font-stretch:normal;text-indent:0;text-align:start;text-decoration:none;line-height:normal;letter-spacing:normal;word-spacing:normal;text-transform:none;direction:ltr;block-progression:tb;writing-mode:lr-tb;text-anchor:start;baseline-shift:baseline;color:#000000;fill:none;stroke:#000000;stroke-width:1;stroke-miterlimit:4;stroke-dasharray:none;marker:none;visibility:visible;display:inline;overflow:visible;enable-background:accumulate;font-family:Sans;-inkscape-font-specification:Sans"
         d="m -208.84375,521.57887 c 22.60455,11.26238 54.58873,19.89614 101.25,-3.5625 169.205942,-52.95739 329.13932,84.73099 319.09375,238.375 -23.84454,10.45451 -43.11344,16.58317 -53.84375,15.125 L 153,860 369,848 334,303 -415,319 z"
         inkscape:connector-curvature="0"
         sodipodi:nodetypes="cccc" />
    </clipPath>
    <inkscape:path-effect
       effect="skeletal"
       id="path-effect4395"
       is_visible="true"
       pattern="m -56.594625,611.62529 c -9.710032,0 -18.216622,0.80545 -29,2.75 10.783378,1.94454 19.289968,2.75 29,2.75 l 208.999995,0 c 6.08504,0 11.77729,-0.75368 17.5,-2.75 -5.72271,-1.87132 -11.28996,-2.75 -17.5,-2.75 z"
       copytype="single_stretched"
       prop_scale="1"
       scale_y_rel="false"
       spacing="0"
       normal_offset="0"
       tang_offset="0"
       prop_units="false"
       vertical_pattern="false"
       fuse_tolerance="0"
       pattern-nodetypes="scsscss" />
    <clipPath
       clipPathUnits="userSpaceOnUse"
       id="clipPath4424">
      <path
         style="font-size:medium;font-style:normal;font-variant:normal;font-weight:normal;font-stretch:normal;text-indent:0;text-align:start;text-decoration:none;line-height:normal;letter-spacing:normal;word-spacing:normal;text-transform:none;direction:ltr;block-progression:tb;writing-mode:lr-tb;text-anchor:start;baseline-shift:baseline;color:#000000;fill:none;stroke:#ffff00;stroke-width:1;stroke-miterlimit:4;stroke-dasharray:none;marker:none;visibility:visible;display:inline;overflow:visible;enable-background:accumulate;font-family:Sans;-inkscape-font-specification:Sans"
         d="m 69.65625,531.76488 c 0.679026,-13.78917 14.428869,-31.76731 45.8125,-40.4375 41.53125,8.34375 60.84375,41.46875 43.0625,75.53125 -20.36632,12.81537 -35.83981,17.4808 -43.96875,15.53125 L 188.79751,760.57697 313.95541,701.18 140.00714,357.52611 -19.091883,441.67181 z"
         id="path4426"
         inkscape:connector-curvature="0"
         sodipodi:nodetypes="cccc" />
    </clipPath>
    <clipPath
       clipPathUnits="userSpaceOnUse"
       id="clipPath4420">
      <path
         style="fill:none;stroke:#ffff00;stroke-width:1;stroke-miterlimit:4;stroke-dasharray:none"
         d="m 139.67727,664.03695 c 1.01399,-6.47634 3.22761,-12.87554 5.53186,-19.33452 l -41.45836,-71.7974 c -11.508477,-0.0635 -23.056547,-1.52055 -33.362409,-5.9773 -55.037972,41.47056 7.429404,141.31029 69.288909,97.10922 z"
         id="path4422"
         inkscape:connector-curvature="0"
         sodipodi:nodetypes="ccccc" />
    </clipPath>
    <inkscape:path-effect
       effect="skeletal"
       id="path-effect6669"
       is_visible="true"
       pattern="m 120.79394,362.66905 c -17.73023,0 -36.500001,1.25 -53.000001,4.5 16.5,3 35.269771,4.5 53.000001,4.5 l 147,0 c 17.73023,0 35.5,-1 53,-4.5 -17.25,-2.5 -35.26977,-4.5 -53,-4.5 z"
       copytype="single_stretched"
       prop_scale="1"
       scale_y_rel="false"
       spacing="0"
       normal_offset="0"
       tang_offset="0"
       prop_units="false"
       vertical_pattern="false"
       fuse_tolerance="0"
       pattern-nodetypes="scsscss" />
    <clipPath
       clipPathUnits="userSpaceOnUse"
       id="clipPath6630">
      <path
         sodipodi:nodetypes="cccc"
         inkscape:connector-curvature="0"
         id="path6632"
         d="m 383.03345,333.98056 c 19.63472,21.63425 34.14879,54.90856 33.76867,100.85168 -100.67929,7.11873 -139.51033,-37.98358 -134.76451,-100.35728 23.07897,-9.12222 65.06852,-9.1907 100.99584,-0.4944 z"
         style="fill:none;stroke:#ffff00;stroke-width:0.5;stroke-linecap:round;stroke-linejoin:round;stroke-miterlimit:4;stroke-opacity:1;stroke-dasharray:none" />
    </clipPath>
    <linearGradient
       inkscape:collect="always"
       xlink:href="#linearGradient3138"
       id="linearGradient4434"
       gradientUnits="userSpaceOnUse"
       x1="384.98679"
       y1="468.68481"
       x2="383.21252"
       y2="515.77863" />
    <clipPath
       clipPathUnits="userSpaceOnUse"
       id="clipPath4411">
      <path
         sodipodi:type="arc"
         style="fill:none;stroke:#000000;stroke-width:0.38489208;stroke-miterlimit:4;stroke-dasharray:none"
         id="path4413"
         sodipodi:cx="394.83572"
         sodipodi:cy="490.96591"
         sodipodi:rx="23.561193"
         sodipodi:ry="33.02071"
         d="m 418.39692,490.96591 a 23.561193,33.02071 0 1 1 -47.12239,0 23.561193,33.02071 0 1 1 47.12239,0 z"
         transform="matrix(1.2559401,-0.3319423,0.3319423,1.2559401,-267.87409,-76.576685)" />
    </clipPath>
    <linearGradient
       inkscape:collect="always"
       xlink:href="#linearGradient8110"
       id="linearGradient8116"
       x1="58.826481"
       y1="529.80469"
       x2="103.50765"
       y2="765.51129"
       gradientUnits="userSpaceOnUse" />
  </defs>
  <sodipodi:namedview
     id="base"
     pagecolor="#ffffff"
     bordercolor="#666666"
     borderopacity="1.0"
     inkscape:pageopacity="0.0"
     inkscape:pageshadow="2"
     inkscape:zoom="0.26516011"
     inkscape:cx="768.75238"
     inkscape:cy="1006.9388"
     inkscape:document-units="px"
     inkscape:current-layer="layer1"
     showgrid="true"
     fit-margin-top="0"
     fit-margin-left="0"
     fit-margin-right="0"
     fit-margin-bottom="0"
     showguides="true"
     inkscape:window-width="1364"
     inkscape:window-height="698"
     inkscape:window-x="0"
     inkscape:window-y="0"
     inkscape:window-maximized="1"
     inkscape:guide-bbox="true"
     inkscape:snap-nodes="true" />
  <metadata
     id="metadata7287">
    <rdf:RDF>
      <cc:Work
         rdf:about="">
        <dc:format>image/svg+xml</dc:format>
        <dc:type
           rdf:resource="http://purl.org/dc/dcmitype/StillImage" />
        <dc:title></dc:title>
      </cc:Work>
    </rdf:RDF>
  </metadata>
  <g
     inkscape:label="Layer 1"
     inkscape:groupmode="layer"
     id="layer1"
     transform="translate(403.03812,222.58502)">
    <g
       id="g4625"
       transform="translate(-133.86101,-219.90197)">
      <path
         clip-path="none"
         sodipodi:nodetypes="cccccccscsssscc"
         inkscape:connector-curvature="0"
         id="path4480"
         d="m 487.74614,749.50495 c 42.48178,14.00386 62.9491,9.25279 64.69265,-19.71405 22.65426,20.81056 51.45082,16.16894 49.69635,-17.36046 38.97497,39.65229 68.60488,10.09374 63.53562,-32.32622 61.49912,61.34284 111.27498,70.68814 88.35568,-5.30322 71.1326,50.98685 126.05292,31.27287 77.67909,-19.35518 108.06677,32.97821 144.36547,-22.89454 35.23654,-66.54632 48.26146,-13.52272 131.58905,-61.23764 105.87212,-85.69882 -23.42865,-22.28463 -46.99764,21.27918 -97.22839,13.35769 82.91103,-36.95869 105.29523,-140.24929 76.64856,-145.53417 -31.20984,-5.75775 -29.46916,83.68815 -111.49941,97.36644 -74.46255,12.41641 -120.75046,-10.21115 -184.12901,-5.21738 -77.70743,6.12278 -84.00982,150.83772 -128.85082,210.32279 -27.80777,36.88918 -63.3115,-2.57039 -82.98374,35.3308 z"
         style="fill:#284282;fill-opacity:1;stroke:#071b42;stroke-width:9;stroke-miterlimit:10;stroke-opacity:1;stroke-dasharray:none" />
      <path
         style="fill:#071b42;fill-opacity:1;stroke:none"
         d="m 554.30045,697.12455 c -0.80445,2.32893 -1.66967,4.57732 -2.61849,6.75794 -1.36527,3.13921 -2.91357,6.14274 -4.68352,9.0064 -1.76995,2.86366 -3.76102,5.589 -6.05726,8.15144 0,0 0,0 0,0 -2.38914,2.68033 -5.1111,5.18351 -8.17838,7.53167 -3.06728,2.34816 -6.48238,4.5418 -10.24991,6.55141 8.1812,-2.44938 15.30829,-6.22811 21.13214,-11.34781 0,0 0,-1e-5 0,-1e-5 5.57466,-4.92548 9.82432,-10.95452 12.95624,-17.6744 1.08044,-2.31866 2.03809,-4.71123 2.8933,-7.17975 1.6916,-4.88266 2.98436,-9.8679 4.07022,-14.84319 1.83485,-8.37255 3.14208,-16.78806 4.47527,-25.13093 0,-10e-6 0,-2e-5 10e-6,-3e-5 3.13645,-19.5487 6.66,-39.00852 13.17715,-57.43475 0,0 0,-10e-6 0,-2e-5 8.22086,-23.31098 21.14973,-44.91844 37.45382,-63.54521 0,0 0,-10e-6 1e-5,-10e-6 8.36001,-9.52541 17.53212,-18.34615 28.12255,-24.88971 7.12779,-4.37761 14.86941,-7.8084 22.87983,-8.53626 5.73667,-0.52302 11.64689,0.36187 16.44139,3.15325 10e-6,1e-5 2e-5,1e-5 2e-5,1e-5 4.19794,2.39229 7.61882,6.22106 9.61614,10.65009 2.05622,4.52739 2.67241,9.74403 1.91248,14.71874 -0.83773,5.55973 -3.47359,10.8715 -7.1948,15.21725 -10e-6,10e-6 -10e-6,10e-6 -2e-5,2e-5 -4.66091,5.4694 -11.09581,9.42326 -17.99785,12.10148 -9.60566,3.71595 -20.15737,4.946 -30.69159,4.9385 -6.85987,-0.0117 -13.65452,1.97474 -19.44113,5.63011 0,0 -1e-5,10e-6 -2e-5,10e-6 -5.71742,3.63061 -10.38311,8.69423 -13.77254,14.43846 -7.23018,12.22637 -8.94665,27.48923 -4.50205,40.99696 10e-6,10e-6 10e-6,10e-6 10e-6,2e-5 1.80214,5.4974 3.41036,10.96596 3.96733,16.45845 0.17775,2.0833 0.25801,4.1485 0.0425,6.0604 -0.17515,1.55357 -0.52342,2.99005 -1.14084,4.27373 -1.05312,2.55643 -3.46821,4.60153 -6.2317,6.0296 -2.13948,1.08919 -4.47117,1.87228 -6.92232,2.51499 -2.45115,0.6427 -5.02292,1.1444 -7.60521,1.63466 2.59312,0.47841 5.23024,0.82161 7.91263,0.84412 2.68239,0.0225 5.41044,-0.27359 8.14238,-1.0755 3.76453,-1.10853 7.40715,-3.62007 9.5345,-7.60811 0.92451,-1.89035 1.48916,-3.89718 1.76173,-5.93389 0.33351,-2.49214 0.25965,-4.97394 -0.0233,-7.31019 -0.65615,-6.14612 -2.34702,-11.99966 -4.21526,-17.6134 -3.95164,-11.90978 -2.39854,-25.66337 4.01192,-36.46915 3.01122,-5.06323 7.07904,-9.5114 11.97896,-12.59208 4.89768,-3.09824 10.70788,-4.80106 16.48779,-4.77921 10.98395,0.0497 22.1981,-1.30232 32.67893,-5.30443 7.5781,-2.88566 14.74577,-7.35585 20.19616,-13.65049 4.35537,-5.05099 7.4129,-11.27893 8.4598,-17.96576 0.92689,-5.98645 0.16979,-12.23595 -2.3352,-17.81735 -2.47556,-5.484 -6.65662,-10.14977 -11.89668,-13.16108 0,-10e-6 -10e-6,-10e-6 -2e-5,-2e-5 -6.02716,-3.40441 -13.02342,-4.52322 -19.69954,-3.85504 -9.17415,0.92126 -17.70652,4.61874 -25.25207,9.33632 -11.22858,6.98082 -20.81423,16.15221 -29.36318,25.94169 -10e-6,1e-5 -10e-6,1e-5 -2e-5,2e-5 -16.74684,19.12688 -30.02512,41.33184 -38.50206,65.33772 0,10e-6 -10e-6,2e-5 -10e-6,3e-5 -6.68593,18.98761 -10.29096,38.76793 -13.42158,58.39626 0,0 0,10e-6 0,2e-5 -1.33867,8.35956 -2.62632,16.67175 -4.41653,24.82098 -1.06756,4.83928 -2.30096,9.61846 -3.89213,14.22503 z"
         id="path4486"
         inkscape:connector-curvature="0"
         sodipodi:nodetypes="csssc"
         clip-path="url(#clipPath4621)"
         inkscape:path-effect="#path-effect4550"
         inkscape:original-d="m 522.51289,735.12341 c 65.82976,-27.09465 16.97176,-110.87747 94.08901,-198.9675 81.71154,-93.33803 127.6004,32.18708 25.14999,31.91475 -26.65303,-0.0708 -43.88849,30.83963 -35.0972,57.453 8.70122,26.34076 5.26794,37.91824 -20.5015,37.8344" />
      <path
         style="fill:none;stroke:#071b42;stroke-width:5.5;stroke-linecap:butt;stroke-linejoin:miter;stroke-miterlimit:4;stroke-opacity:1;stroke-dasharray:none"
         d="m 591.59743,627.05852 c 32.62153,26.12261 54.46969,17.58129 49.48614,-12.08898 44.6062,9.54384 49.22518,-44.89963 -7.61055,-59.41436"
         id="path4488"
         inkscape:connector-curvature="0"
         sodipodi:nodetypes="ccc"
         clip-path="url(#clipPath4617)" />
    </g>
    <g
       id="g3899"
       transform="translate(-133.86101,-219.90197)">
      <path
         sodipodi:nodetypes="ssssscs"
         inkscape:connector-curvature="0"
         id="path3897"
         d="m 487.62816,802.98276 c -21.69443,23.11219 40.60359,140.69345 55.54092,124.80621 39.81451,-42.34638 61.70736,-70.30078 62.46909,-101.76539 1.23638,-51.07015 -39.60715,-189.87788 -54.2078,-198.4413 -30.63084,-17.96529 -46.51782,-1.98597 -89.51593,103.88698 -23.88818,58.81915 -3.61836,96.14794 44.35906,18.30358 -0.25517,27.39793 -5.96863,39.70477 -18.64534,53.20992 z"
         style="fill:#284282;fill-opacity:1;stroke:none" />
      <path
         inkscape:original-d="m 502.09464,690.59528 c 7.97149,74.16332 4.76799,91.89602 -14.46648,112.38748 -21.69443,23.11219 40.60359,140.69345 55.54092,124.80621 39.81451,-42.34638 61.70736,-70.30078 62.46909,-101.76539 1.23638,-51.07015 -39.60715,-189.87788 -54.2078,-198.4413 -30.63084,-17.96529 -46.51782,-1.98597 -89.51593,103.88698 -24.44367,60.18691 -2.65179,97.87238 47.87381,13.38672"
         inkscape:path-effect="#path-effect3889"
         style="fill:#071b42;fill-opacity:1;stroke:none"
         d="m 496.36773,799.7449 c 2.5645,-3.28046 4.85738,-6.78065 6.7381,-10.52705 3.4728,-7.04629 5.27034,-14.48485 6.08478,-21.74145 1.2061,-10.63711 0.74826,-20.98955 -0.15004,-31.04606 -1.36818,-15.46959 -3.89913,-30.55658 -6.94593,-45.83506 0.37653,15.5655 0.87028,30.79828 0.77366,46.09371 -0.0705,9.9662 -0.29985,19.90877 -1.88711,29.67259 -1.07833,6.56776 -2.80517,13.03219 -5.8327,18.83687 -1.5879,3.11084 -3.58654,6.09036 -5.86762,8.98913 -1.53946,1.95631 -3.20077,3.85665 -4.93373,5.71542 -1.95044,2.13236 -3.28097,4.55682 -4.08965,7.00067 -0.96078,2.8513 -1.4182,5.70889 -1.57505,8.44325 -0.41006,6.95644 0.56942,13.70049 1.97212,20.06959 0,0 0,10e-6 0,2e-5 1.70309,7.87836 4.10625,15.52326 6.85274,22.95827 2.96834,8.04799 6.36969,15.91714 10.10733,23.60338 3.60284,7.41303 7.53264,14.6906 11.86034,21.7495 3.65218,5.96775 7.62049,11.8635 12.20207,17.38856 1.79567,2.1681 3.7349,4.31141 5.89374,6.32817 10e-6,1e-5 10e-6,1e-5 2e-5,2e-5 1.64495,1.55912 3.55356,3.10786 5.82586,4.41249 10e-6,1e-5 3e-5,2e-5 4e-5,2e-5 1.58156,1.0041 3.76361,1.79325 6.4695,1.9024 1.17058,0.005 2.37882,-0.23751 3.57029,-0.74179 1.21557,-0.5535 2.22599,-1.28888 3.01107,-2.14612 16.38215,-17.39391 33.03125,-35.12709 46.37327,-55.59247 4.96511,-7.61203 9.39075,-15.7492 12.56685,-24.50767 10e-6,-10e-6 10e-6,-2e-5 10e-6,-3e-5 2.84313,-7.85841 4.53538,-16.18832 4.74916,-24.63877 0.18378,-7.96447 -0.49146,-15.80457 -1.40512,-23.47473 -1.14643,-9.69999 -2.74849,-19.3046 -4.56864,-28.82598 -4.13569,-21.64368 -9.39513,-43.03527 -15.35867,-64.18961 -5.3315,-18.92916 -11.17821,-37.80877 -18.37878,-56.25922 -2.47635,-6.36009 -5.13805,-12.78992 -8.45175,-19.02572 -10e-6,-10e-6 -2e-5,-2e-5 -2e-5,-3e-5 -1.10326,-2.08898 -2.34985,-4.24868 -3.88762,-6.35926 -0.83496,-1.30153 -2.20708,-2.88605 -4.37927,-4.29729 -3.60883,-2.1357 -7.52187,-4.09279 -11.81436,-5.45096 -3.65363,-1.16634 -7.64862,-1.74643 -11.75832,-1.38164 -1e-5,0 -3e-5,10e-6 -4e-5,10e-6 -4.16482,0.43007 -8.07084,1.84543 -11.47548,3.9211 -4.22217,2.58426 -7.7307,5.87581 -10.72797,9.32571 -9.51337,10.89346 -16.12426,23.57395 -22.22588,35.92573 -10.3762,20.86016 -19.26646,42.32158 -27.95977,63.7354 -2.88745,7.10277 -5.3639,14.41785 -7.23142,21.92972 -10e-6,10e-6 -10e-6,2e-5 -10e-6,4e-5 -1.52442,6.10804 -2.65508,12.41634 -3.02914,18.87276 -0.3071,4.79723 -0.15079,9.89733 1.16386,15.00612 0.49885,1.94433 1.26047,3.9502 2.39359,5.90275 0.94986,1.65792 2.28696,3.23601 4.03523,4.55666 2e-5,10e-6 4e-5,3e-5 5e-5,4e-5 1.6935,1.23268 3.63804,2.02986 5.68735,2.342 2.28572,0.30989 4.44254,0.11446 6.35649,-0.41266 5.41214,-1.51571 9.77753,-4.53722 13.33834,-7.66574 5.8649,-4.97952 10.81536,-10.71408 15.31786,-16.54288 3.84657,-4.96112 7.43478,-10.08495 10.83825,-15.30293 -0.0833,-5.36451 -0.33913,-10.65965 -0.68942,-15.91556 -5.33975,8.92067 -10.96919,17.60271 -17.25909,25.70086 -4.34347,5.57051 -8.86012,10.85281 -14.01642,15.18609 -3.31032,2.6775 -6.49226,5.08648 -9.78797,5.82814 -1.05197,0.24175 -2.00679,0.37501 -2.75048,0.22614 -0.61444,-0.0913 -1.23445,-0.34174 -1.71375,-0.70193 -1e-5,0 -1e-5,0 -2e-5,-10e-6 -0.56855,-0.37781 -1.09685,-1.06303 -1.60883,-1.87806 -0.6154,-1.00537 -1.05986,-2.2539 -1.44211,-3.63075 -1.02573,-3.71296 -1.08654,-7.87408 -0.87734,-12.18916 0.31613,-5.72489 1.36322,-11.48011 2.77843,-17.2135 1.74163,-7.02655 4.08598,-13.9356 6.83511,-20.71162 8.68391,-21.37358 17.48049,-42.62731 27.67869,-63.11232 6.13101,-12.23023 12.30895,-24.26621 20.92704,-33.99221 2.67752,-3.00358 5.483,-5.70752 8.61886,-7.56286 2.42989,-1.44469 5.07504,-2.44266 7.69285,-2.66892 2.609,-0.28536 5.42208,0.1727 8.21257,1.01555 3.35279,1.02552 6.64105,2.70635 9.94003,4.62215 0.32666,0.0544 0.79825,0.8265 1.67768,1.86016 1.14999,1.55045 2.16714,3.34531 3.19928,5.26473 3.04996,5.70956 5.56485,11.82003 8.01134,18.06761 0,0 0,10e-6 10e-6,2e-5 7.04945,18.04468 12.80318,36.64695 18.09983,55.42721 5.90636,20.96096 11.10659,42.10163 15.18104,63.43685 1.79134,9.38423 3.3608,18.77764 4.47085,28.19239 0.87595,7.48976 1.53138,14.90555 1.3457,22.20179 -0.16947,7.38048 -1.68444,14.76454 -4.2173,21.80123 -2.83663,7.90083 -6.95538,15.42089 -11.64618,22.65636 -12.7123,19.59725 -29.03212,36.91102 -45.38541,54.33425 -0.0847,0.0679 -0.11121,0.10946 -0.0592,0.0646 0.0685,-0.0134 0.0481,-0.0222 -0.007,-0.0117 -0.28858,0.123 -0.98513,-0.28044 -2.01303,-0.74527 -10e-6,0 -10e-6,-1e-5 -2e-5,-1e-5 -1.36328,-0.74192 -2.69897,-1.87181 -4.10711,-3.15598 -10e-6,-10e-6 -2e-5,-10e-6 -3e-5,-2e-5 -1.78249,-1.65372 -3.45872,-3.51871 -5.10475,-5.49323 -4.2013,-5.04652 -7.9197,-10.59346 -11.45238,-16.34213 -1e-5,-10e-6 -2e-5,-2e-5 -2e-5,-4e-5 -4.15631,-6.77605 -7.94548,-13.797 -11.43846,-20.97963 -3.6195,-7.44694 -6.90416,-15.04229 -9.75726,-22.782 -2.63767,-7.16677 -4.92293,-14.40589 -6.49902,-21.74094 0,-10e-6 -1e-5,-3e-5 -1e-5,-4e-5 -1.26435,-6.00439 -2.18254,-11.92568 -1.78825,-17.60131 0.15704,-2.19529 0.45732,-4.2675 1.10361,-6.0871 0.55081,-1.50751 1.2319,-2.85483 2.14132,-3.76922 1.89157,-2.00264 3.72782,-4.1037 5.45855,-6.31762 z"
         id="path3074"
         inkscape:connector-curvature="0"
         sodipodi:nodetypes="csssssc" />
      <path
         style="fill:#a5a8d9;fill-opacity:1;stroke:#8182d3;stroke-width:9;stroke-linecap:butt;stroke-linejoin:miter;stroke-miterlimit:10;stroke-opacity:1;stroke-dasharray:none"
         d="m 494.68274,789.98402 c -2.81775,4.40133 -6.17807,8.43444 -10.0699,12.6014 -23.56791,25.23409 44.13328,147.37985 61.19127,129.11592 14.5084,-15.53409 39.8544,-47.99765 57.46405,-75.60383 -19.17103,-6.59901 -34.38225,1.65277 -43.69158,14.37857 -3.92875,-12.49822 -9.6129,-22.09018 -17.309,-27.70585 3.40489,46.14755 -44.04491,23.84657 -47.58484,-52.78621 z"
         id="path3078"
         inkscape:connector-curvature="0"
         sodipodi:nodetypes="csscccc" />
      <use
         style="display:inline"
         height="1792"
         width="1792"
         transform="matrix(0.28925704,0.88966846,-0.88966846,0.28925704,960.81247,215.04575)"
         id="use3080"
         xlink:href="#path7019"
         y="0"
         x="0" />
      <use
         x="0"
         y="0"
         xlink:href="#path7019"
         id="use3082"
         transform="matrix(-0.86103127,-0.00706648,0.00706648,-0.86103127,997.82412,1448.9418)"
         width="1792"
         height="1792"
         style="display:inline" />
      <use
         style="display:inline"
         height="1792"
         width="1792"
         transform="matrix(0.45373122,0.7065059,-0.7065059,0.45373122,799.04205,240.07252)"
         id="use3084"
         xlink:href="#path7019"
         y="0"
         x="0" />
    </g>
    <g
       id="g6924"
       transform="translate(-133.86101,-219.90197)">
      <path
         sodipodi:nodetypes="ssccsscsss"
         inkscape:connector-curvature="0"
         id="path4651"
         d="M 838.06969,264.22503 C 778.33079,131.68447 644.80628,315.61006 602.04495,187.08498 553.59104,41.450056 265.56018,117.91407 221.85287,232.44508 c 57.63692,124.88 110.52802,295.43857 168.16494,420.31857 134.10591,-83.59416 162.32891,-46.43363 280.39884,9.73738 147.59864,70.2191 176.19776,-82.61249 336.08945,-22.63453 157.9557,59.25171 293.9236,-33.04791 248.4209,-169.73526 -41.3476,71.61708 -129.5093,80.54329 -192.8146,7.68849 C 969.415,371.13906 925.0042,491.26286 851.36232,428.18614 780.62453,367.59687 864.05094,321.86869 838.06969,264.22503 z"
         style="fill:#4641d1;fill-opacity:0.50196078;stroke:#885de4;stroke-width:9;stroke-miterlimit:4;stroke-opacity:1;stroke-dasharray:none" />
      <path
         sodipodi:nodetypes="sssccssss"
         inkscape:connector-curvature="0"
         id="path6661"
         d="M 906.76785,488.95228 C 677.71217,544.37456 896.19848,241.22027 672.24317,277.41948 585.6904,291.40951 532.02948,301.05327 532.02948,237.44389 c 0,-123.8177 -226.85332,-131.92695 -280.02686,-4.64645 L 428.90396,604.2751 c 215.38488,-140.85597 242.02077,75.1832 389.89095,5.65528 172.68428,-81.1954 227.57129,67.6323 337.23319,19.08419 63.7242,-28.21113 36.8219,-86.69998 -33.8053,-74.4854 -90.8027,15.70381 -83.867,-97.41588 -215.45495,-65.57689 z"
         style="fill:#1558ce;fill-opacity:1;stroke:none" />
      <g
         id="g6833">
        <path
           sodipodi:type="star"
           style="fill:#b6ecff;fill-opacity:1;stroke:none"
           id="path6665"
           sodipodi:sides="4"
           sodipodi:cx="701.99249"
           sodipodi:cy="434.7865"
           sodipodi:r1="7.3408241"
           sodipodi:r2="0.91760302"
           sodipodi:arg1="0.64350111"
           sodipodi:arg2="1.4288993"
           inkscape:flatsided="false"
           inkscape:rounded="0"
           inkscape:randomized="0"
           d="m 707.86515,439.19099 -5.74289,-3.49611 -4.53426,4.96428 3.49611,-5.74289 -4.96428,-4.53427 5.74289,3.49612 4.53427,-4.96428 -3.49612,5.74289 z"
           transform="matrix(0.14470258,0.9384013,-0.9384013,0.14470258,1009.565,-365.70791)" />
        <use
           x="0"
           y="0"
           xlink:href="#path6665"
           id="use6667"
           transform="matrix(0.62512595,-0.67531959,0.67531959,0.62512595,-1.2026898,616.54251)"
           width="1792"
           height="1792" />
        <use
           height="1792"
           width="1792"
           transform="matrix(0.31012837,0.90624221,-0.90624221,0.31012837,788.25392,-354.68896)"
           id="use6669"
           xlink:href="#path6665"
           y="0"
           x="0" />
        <use
           x="0"
           y="0"
           xlink:href="#path6665"
           id="use6671"
           transform="matrix(0.12596174,-0.83559807,0.83559807,0.12596174,218.3569,943.62555)"
           width="1792"
           height="1792" />
        <use
           height="1792"
           width="1792"
           transform="matrix(0.30963624,-0.23944293,0.23944293,0.30963624,283.99447,426.43132)"
           id="use6673"
           xlink:href="#path6665"
           y="0"
           x="0" />
        <use
           x="0"
           y="0"
           xlink:href="#path6665"
           id="use6675"
           transform="matrix(0.17402171,0.32949697,-0.32949697,0.17402171,572.65934,35.554591)"
           width="1792"
           height="1792" />
        <use
           x="0"
           y="0"
           xlink:href="#path6665"
           id="use6677"
           transform="matrix(0.19738739,-0.41327569,0.41327569,0.19738739,267.59917,622.31944)"
           width="1792"
           height="1792" />
        <use
           height="1792"
           width="1792"
           transform="matrix(0.3888479,-0.12986784,0.12986784,0.3888479,205.15329,298.04031)"
           id="use6679"
           xlink:href="#path6665"
           y="0"
           x="0" />
        <use
           x="0"
           y="0"
           xlink:href="#path6665"
           id="use6681"
           transform="matrix(0.2404294,0.27478435,-0.27478435,0.2404294,468.10648,35.788457)"
           width="1792"
           height="1792" />
        <use
           height="1792"
           width="1792"
           transform="matrix(0.36475094,-0.01641636,0.01641636,0.36475094,290.33246,185.58697)"
           id="use6683"
           xlink:href="#path6665"
           y="0"
           x="0" />
        <use
           x="0"
           y="0"
           xlink:href="#path6665"
           id="use6685"
           transform="matrix(0.06460337,0.43722099,-0.43722099,0.06460337,680.85415,-27.544125)"
           width="1792"
           height="1792" />
        <use
           height="1792"
           width="1792"
           transform="matrix(-0.28440002,0.23570279,-0.23570279,-0.28440002,924.96566,229.82691)"
           id="use6687"
           xlink:href="#path6665"
           y="0"
           x="0" />
        <use
           x="0"
           y="0"
           xlink:href="#path6665"
           id="use6689"
           transform="matrix(-0.37653588,-0.16949018,0.16949018,-0.37653588,806.26017,677.38277)"
           width="1792"
           height="1792" />
        <use
           x="0"
           y="0"
           xlink:href="#path6665"
           id="use6695"
           transform="matrix(0.06738328,0.40248938,-0.40248938,0.06738328,782.74109,166.8384)"
           width="1792"
           height="1792" />
        <use
           height="1792"
           width="1792"
           transform="matrix(-0.93829352,-0.0974231,0.0974231,-0.93829352,1271.2224,884.88071)"
           id="use6691"
           xlink:href="#path6665"
           y="0"
           x="0" />
        <use
           x="0"
           y="0"
           xlink:href="#path6665"
           id="use6693"
           transform="matrix(-0.47288914,-0.21227469,0.21227469,-0.47288914,902.61961,793.28805)"
           width="1792"
           height="1792" />
        <use
           height="1792"
           width="1792"
           transform="matrix(-0.06121421,0.47602945,-0.47602945,-0.06121421,843.63702,195.60799)"
           id="use6697"
           xlink:href="#path6665"
           y="0"
           x="0" />
        <use
           x="0"
           y="0"
           xlink:href="#path6665"
           id="use6699"
           transform="matrix(-0.02179533,0.42005607,-0.42005607,-0.02179533,732.40262,209.78538)"
           width="1792"
           height="1792" />
        <use
           height="1792"
           width="1792"
           transform="matrix(-0.40531363,-0.19221237,0.19221237,-0.40531363,780.01824,772.70246)"
           id="use6701"
           xlink:href="#path6665"
           y="0"
           x="0" />
        <use
           x="0"
           y="0"
           xlink:href="#path6665"
           id="use6703"
           transform="matrix(-0.23755234,-0.43619153,0.43619153,-0.23755234,528.05053,903.66987)"
           width="1792"
           height="1792" />
        <use
           height="1792"
           width="1792"
           transform="matrix(-0.36742398,0.01360625,-0.01360625,-0.36742398,784.88428,651.36903)"
           id="use6705"
           xlink:href="#path6665"
           y="0"
           x="0" />
        <use
           x="0"
           y="0"
           xlink:href="#path6665"
           id="use6707"
           transform="matrix(-0.33277103,0.25534649,-0.25534649,-0.33277103,895.56766,456.05662)"
           width="1792"
           height="1792" />
        <use
           height="1792"
           width="1792"
           transform="matrix(0.31775924,0.90843226,-0.90843226,0.31775924,708.78583,-205.36013)"
           id="use6709"
           xlink:href="#path6665"
           y="0"
           x="0" />
        <use
           x="0"
           y="0"
           xlink:href="#path6665"
           id="use6711"
           transform="matrix(0.46921157,0.58120805,-0.58120805,0.46921157,501.66725,-25.630984)"
           width="1792"
           height="1792" />
        <use
           height="1792"
           width="1792"
           transform="matrix(0.31744676,0.30215927,-0.30215927,0.31744676,564.19805,194.60147)"
           id="use6713"
           xlink:href="#path6665"
           y="0"
           x="0" />
        <use
           x="0"
           y="0"
           xlink:href="#path6665"
           id="use6715"
           transform="matrix(-0.59259727,0.81330353,-0.81330353,-0.59259727,1446.3294,183.61944)"
           width="1792"
           height="1792" />
        <use
           height="1792"
           width="1792"
           transform="matrix(-0.82037748,0.46433748,-0.46433748,-0.82037748,1539.4836,461.44253)"
           id="use6717"
           xlink:href="#path6665"
           y="0"
           x="0" />
        <use
           x="0"
           y="0"
           xlink:href="#path6665"
           id="use6719"
           transform="matrix(-0.31719845,0.76192982,-0.76192982,-0.31719845,1361.608,88.131506)"
           width="1792"
           height="1792" />
        <use
           height="1792"
           width="1792"
           transform="matrix(-0.37232362,0.29638285,-0.29638285,-0.37232362,1199.4442,420.88904)"
           id="use6721"
           xlink:href="#path6665"
           y="0"
           x="0" />
        <use
           x="0"
           y="0"
           xlink:href="#path6665"
           id="use6723"
           transform="matrix(-0.89523839,-0.14234164,0.14234164,-0.89523839,1250.9596,1005.3484)"
           width="1792"
           height="1792" />
        <use
           height="1792"
           width="1792"
           transform="matrix(0.26309756,0.593104,-0.593104,0.26309756,836.27377,47.859619)"
           id="use6805"
           xlink:href="#path6665"
           y="0"
           x="0" />
        <use
           x="0"
           y="0"
           xlink:href="#path6665"
           id="use6807"
           transform="matrix(-0.53340229,0.3819307,-0.3819307,-0.53340229,1372.1565,449.86437)"
           width="1792"
           height="1792" />
        <use
           height="1792"
           width="1792"
           transform="matrix(-0.33818776,-0.15100398,0.15100398,-0.33818776,1095.191,775.1044)"
           id="use6809"
           xlink:href="#path6665"
           y="0"
           x="0" />
        <use
           x="0"
           y="0"
           xlink:href="#path6665"
           id="use6811"
           transform="matrix(-0.36402222,-0.35450388,0.35450388,-0.36402222,927.91886,942.38945)"
           width="1792"
           height="1792" />
        <use
           height="1792"
           width="1792"
           transform="matrix(0.36733526,-0.939779,0.939779,0.36733526,361.33833,1062.5876)"
           id="use6813"
           xlink:href="#path6665"
           y="0"
           x="0" />
        <use
           x="0"
           y="0"
           xlink:href="#path6665"
           id="use6815"
           transform="matrix(-0.01705378,-0.72554144,0.72554144,-0.01705378,752.1361,1079.3554)"
           width="1792"
           height="1792" />
        <use
           height="1792"
           width="1792"
           transform="matrix(-0.01705378,-0.72554144,0.72554144,-0.01705378,723.1361,1102.3554)"
           id="use6817"
           xlink:href="#path6665"
           y="0"
           x="0" />
        <use
           height="1792"
           width="1792"
           transform="matrix(0.75959488,-0.49581054,0.49581054,0.75959488,307.81723,652.9487)"
           id="use6819"
           xlink:href="#path6665"
           y="0"
           x="0" />
        <use
           x="0"
           y="0"
           xlink:href="#path6665"
           id="use6821"
           transform="matrix(0.59849339,0.20058013,-0.20058013,0.59849339,722.97987,212.63329)"
           width="1792"
           height="1792" />
        <use
           height="1792"
           width="1792"
           transform="matrix(0.23074322,0.89449166,-0.89449166,0.23074322,1232.0687,-98.021239)"
           id="use6823"
           xlink:href="#path6665"
           y="0"
           x="0" />
        <use
           x="0"
           y="0"
           xlink:href="#path6665"
           id="use6825"
           transform="matrix(0.77661227,0.08226606,-0.08226606,0.77661227,640.85814,234.39195)"
           width="1792"
           height="1792" />
        <use
           height="1792"
           width="1792"
           transform="matrix(0.26198757,0.26163923,-0.26163923,0.26198757,1071.3251,343.06243)"
           id="use6827"
           xlink:href="#path6665"
           y="0"
           x="0" />
        <use
           x="0"
           y="0"
           xlink:href="#path6665"
           id="use6829"
           transform="matrix(0.6147062,0.22971725,-0.22971725,0.6147062,825.95151,224.95517)"
           width="1792"
           height="1792" />
        <use
           x="0"
           y="0"
           xlink:href="#path6665"
           id="use6831"
           transform="matrix(-0.79969825,0.55679826,-0.55679826,-0.79969825,1882.2486,451.21826)"
           width="1792"
           height="1792" />
      </g>
    </g>
    <path
       style="fill:#314b8f;fill-opacity:1;stroke:none"
       d="m 125.27012,721.50158 c 22.96422,-394.70927 -419.04256,-343.67282 -383.69698,-100.72815 13.5476,93.1182 120.34026,129.51863 239.524843,104.05764 C 91.24333,701.3011 152.59637,661.83711 230.32431,631.18118 430.10446,552.38781 400.7886,383.65615 275.39343,263.76174 c 34.29973,0.28268 60.85346,9.75742 64.74556,9.75742 5.34415,0 48.0554,-20.84315 51.32322,-67.14645 0.25975,-3.6805 -9.17003,-6.41712 -22.28643,-20.14197 C 419.15195,-22.84253 111.64718,-73.76525 85.89844,72.63529 c -15.045489,85.54468 130.01085,325.65018 70.76093,384.9001 -37.20491,37.20491 -15.91475,75.06079 -40.86478,116.25122 -35.823795,59.14211 -265.80362,138.87504 -294.34867,30.2167 C -203.61487,508.60798 49.315061,407.9763 49.315061,722.073 c 0,94.84341 -153.420231,138.28992 -142.07941,296.2481 12.456613,173.4992 231.184809,74.4016 181.84977,327.1382 -4.345559,22.2617 -19.123664,44.6236 -39.289238,66.222 -21.052114,22.5477 -47.9525321,44.278 -75.219458,63.8491 -35.528239,23.6427 -61.330867,61.5136 -68.294847,106.9883 -13.130918,85.7446 45.680288,165.8257 131.424924,178.9566 85.744638,13.1309 165.825758,-45.6802 178.956668,-131.4249 6.96398,-45.4747 -6.32285,-89.3317 -33.14754,-122.5231 -20.16045,-26.8341 -39.32503,-55.6188 -52.66468,-83.4333 -12.77787,-26.6433 -20.18742,-52.4027 -17.67176,-74.9447 C 143.95777,1073.3555 -30.91946,1148.9651 -37.971085,1015.6581 -44.78432,886.85769 116.10601,879.01445 125.27012,721.50158 z"
       id="path8309"
       inkscape:connector-curvature="0"
       sodipodi:nodetypes="sssscsscsssssssscssscssss" />
    <path
       style="fill:url(#linearGradient8116);stroke:none;stroke-width:8;stroke-miterlimit:4;stroke-dasharray:none;fill-opacity:1"
       d="m -39.227487,516.88648 c 47.431258,19.33237 88.542548,78.55442 88.542548,205.18652 0,33.04679 -18.626316,59.85363 -42.4190692,87.43888 l 69.7118072,30.5164 C 101.90026,810.59965 122.18471,774.53358 125.27012,721.50158 134.42712,564.11095 69.652714,477.59486 -9.3076807,445.85945 z"
       id="path5773"
       inkscape:connector-curvature="0"
       sodipodi:nodetypes="csccscc" />
    <path
       style="fill:#314b8f;stroke:none;stroke-width:8;stroke-miterlimit:4;stroke-dasharray:none;fill-opacity:1"
       d="m 115.79459,573.78661 c -35.823795,59.14211 -265.80362,138.87504 -294.34867,30.2167 l -79.87278,16.77012 c 13.5476,93.1182 120.34026,129.51863 239.524843,104.05764 C 91.24333,701.3011 152.59637,661.83711 230.32431,631.18118 z"
       id="path5781"
       inkscape:connector-curvature="0"
       sodipodi:nodetypes="cccscc" />
    <path
       style="fill:#071b42;fill-opacity:1;stroke:none"
       d="m 278.3666,260.29755 -6.22188,6.50294 c 29.23215,27.99373 54.88779,59.94267 73.13354,95.82264 8.18663,16.09121 14.842,32.94785 19.24054,50.35658 10e-6,10e-6 10e-6,10e-6 10e-6,10e-6 4.11317,16.2852 6.25903,33.0624 5.76549,49.74708 -0.47562,16.24187 -3.47297,32.41609 -9.07307,47.62214 0,10e-6 -10e-6,10e-6 -10e-6,2e-5 -5.87477,15.98679 -14.63768,30.91994 -25.42334,44.20084 -7.49361,9.23306 -15.95938,17.67914 -25.09835,25.39031 -6.58375,5.55516 -12.68837,10.13177 -18.3776,14.1735 -5.39676,3.83275 -10.42981,7.18043 -15.29973,10.30921 -4.86992,3.12878 -9.57854,6.03657 -14.38135,8.91185 -4.8028,2.87528 -9.70073,5.71741 -14.98427,8.65726 -5.28354,2.93985 -10.95372,5.97765 -17.32227,9.18925 6.37756,-1.82949 12.25449,-3.70581 17.86318,-5.69329 5.60868,-1.98747 10.94998,-4.08569 16.24573,-6.40146 5.29575,-2.31577 10.54704,-4.84823 15.95109,-7.7556 5.40405,-2.90737 10.96279,-6.18784 16.8268,-10.07047 6.09022,-4.03125 12.51482,-8.7212 19.28635,-14.44029 9.51838,-8.03901 18.37635,-16.88644 26.27496,-26.59434 11.37513,-13.98911 20.6253,-29.77825 26.88513,-46.76879 0,-10e-6 0,-10e-6 0,-10e-6 5.94501,-16.16929 9.12565,-33.2922 9.62294,-50.46821 0.50535,-17.62529 -1.73088,-35.22562 -6.0366,-52.21646 0,-1e-5 0,-1e-5 0,-2e-5 -4.59857,-18.15273 -11.48886,-35.63468 -19.94529,-52.23252 -18.84347,-36.96785 -45.0986,-69.7233 -74.932,-98.24217 z"
       id="path8261"
       inkscape:path-effect="#path-effect8295"
       inkscape:original-d="M 275.25566,263.54902 C 400.7886,383.65615 430.10446,552.38781 230.32431,631.18118"
       inkscape:connector-curvature="0" />
    <path
       style="fill:#071b42;fill-opacity:1;stroke:none"
       d="m 365.10447,185.45775 8.75688,2.07772 c 5.64327,-23.68362 7.40354,-48.58271 3.18528,-72.81611 -3.60415,-20.565703 -11.65974,-40.334602 -23.60672,-57.488828 0,-7e-6 -10e-6,-1.3e-5 -10e-6,-1.9e-5 -11.39051,-16.326051 -26.07276,-30.17877 -42.58281,-41.107992 -1e-5,-4e-6 -2e-5,-8e-6 -2e-5,-1.3e-5 -16.47099,-10.9076144 -34.70706,-19.0103104 -53.6763,-24.2936461 -18.58128,-5.1832249 -37.9356,-7.7046139 -57.26128,-7.1985949 -18.17966,0.464441 -36.44456,3.666343 -53.52029,10.4109009 -2e-5,5.6e-6 -3e-5,1.12e-5 -5e-5,1.68e-5 -15.92651,6.281102 -30.75525,15.9015953 -42.25948,28.8897873 -10e-6,6e-6 -2e-5,1.2e-5 -2e-5,1.8e-5 -5.737435,6.501379 -10.572326,13.79017 -14.324749,21.610653 -6e-6,1.5e-5 -1.3e-5,2.9e-5 -2e-5,4.3e-5 -4.003362,8.356468 -6.758519,17.251365 -8.348415,26.314114 -1.090781,6.268687 -1.320106,12.554896 -1.099196,18.702394 0.252215,7.25493 1.093863,14.419736 2.240163,21.466526 2.759084,16.97021 7.168822,33.52131 12.019148,49.79225 5e-6,2e-5 9e-6,3e-5 1.3e-5,4e-5 5.626456,18.8966 11.962446,37.52522 18.422566,56.05464 6.81864,19.56075 13.8133,39.0249 20.55285,58.543 6.54207,18.94891 12.87077,37.93211 18.41589,57.10459 0,10e-6 0,3e-5 1e-5,4e-5 4.93179,17.0679 9.30947,34.23437 12.01938,51.60437 1.16486,7.46623 2.01612,14.94116 2.30784,22.39762 0,2e-5 0,3e-5 10e-6,4e-5 0.25154,6.5352 0.10217,13.02621 -0.78886,19.35001 -0.78133,5.4907 -2.0714,10.83699 -4.21746,15.71799 -1.93438,4.40482 -4.55152,8.47635 -7.86143,11.7641 -7.02125,7.00806 -12.9667,15.17823 -17.25844,24.21455 -0.86369,1.81851 -1.63643,3.62712 -2.32497,5.42194 -2.09634,5.53973 -3.41394,10.78294 -4.36694,15.7169 -0.953,4.93396 -1.53264,9.56249 -1.95889,13.94352 -0.52907,5.29959 -0.87143,10.25728 -1.25612,15.06913 -0.38469,4.81186 -0.80123,9.47857 -1.46472,14.20342 -0.67317,4.80839 -1.62014,9.70552 -3.03444,14.81964 -1.4143,5.11413 -3.28953,10.45125 -6.01828,16.0441 3.58262,-4.81003 6.42779,-9.7245 8.76395,-14.68078 2.33617,-4.95628 4.16127,-9.96077 5.5853,-15.06524 1.30877,-4.69359 2.30331,-9.43471 3.16507,-14.30123 0.86177,-4.86653 1.58285,-9.86056 2.38492,-15.05692 0.67264,-4.28001 1.41274,-8.7189 2.41992,-13.30868 1.00717,-4.58979 2.27468,-9.33322 4.16595,-14.15768 0.61272,-1.58682 1.29774,-3.1858 2.06034,-4.79449 3.79999,-8.01606 9.15973,-15.34945 15.50131,-21.70422 4.1931,-4.21526 7.43869,-9.20864 9.7468,-14.52964 2.53196,-5.8433 4.04338,-11.97383 4.8815,-18.0707 0.97239,-7.0093 1.14831,-14.03396 0.86847,-20.95095 -0.31479,-7.89759 -1.19973,-15.71762 -2.40889,-23.43291 -2.80969,-17.92721 -7.2695,-35.46387 -12.26582,-52.71494 -5.61441,-19.40318 -11.98924,-38.5319 -18.55429,-57.54113 -6.76427,-19.58891 -13.76181,-39.06137 -20.5615,-58.5679 -6.44347,-18.48748 -12.73698,-36.98457 -18.29512,-55.66003 -4.788988,-16.11007 -9.112706,-32.2854 -11.761093,-48.66494 -1.097435,-6.79111 -1.902163,-13.578362 -2.129403,-20.333847 -0.185648,-5.732795 8.2e-5,-11.39674 0.96841,-16.835603 1.466134,-8.313027 3.971499,-16.429993 7.599042,-23.980322 6e-6,-1.2e-5 1.2e-5,-2.5e-5 1.8e-5,-3.8e-5 3.389786,-7.067603 7.769136,-13.66889 12.958106,-19.548142 10.35433,-11.779588 24.03831,-20.5959221 38.82521,-26.477309 10e-6,-5.2e-6 3e-5,-1.05e-5 4e-5,-1.58e-5 15.91406,-6.3193607 33.15344,-9.311565 50.44374,-9.7818099 18.38289,-0.487659 36.85255,1.9245766 54.60734,6.87113476 18.1155,5.05515884 35.50009,12.76885294 51.12186,23.12664194 1e-5,8e-6 2e-5,1.6e-5 3e-5,2.4e-5 15.63575,10.371336 29.51373,23.438389 40.17002,38.750995 1e-5,1.2e-5 2e-5,2.4e-5 3e-5,3.6e-5 11.18378,16.040018 18.74576,34.611654 22.1259,53.897045 4.01767,22.7594 2.2934,46.44804 -3.07728,69.18473 z"
       id="path8257"
       inkscape:path-effect="#path-effect8275"
       inkscape:original-d="M 369.48291,186.49661 C 419.15195,-22.84253 111.64718,-73.76525 85.89844,72.63529 c -15.04549,85.54468 130.01085,325.65018 70.76093,384.9001 -37.20491,37.20491 -15.91475,75.06079 -40.86478,116.25122"
       inkscape:connector-curvature="0" />
    <g
       id="g6771"
       transform="translate(-133.86101,-219.90197)">
      <path
         id="path6621-9"
         style="fill:#000000;fill-opacity:1;fill-rule:evenodd;stroke:none;display:inline"
         d="m 498.54922,334.63145 c 7.36218,4.22995 13.73541,4.32185 22.75565,1.2715 -7.19806,5.37811 -12.03206,6.94945 -21.7207,4.72318 z m -2.17944,-7.37631 c 9.18377,3.2518 16.35607,1.40196 24.85266,-4.65664 -6.33362,8.70271 -13.71934,11.06369 -23.00651,10.4715 z m -2.78421,-6.35729 c 10.80398,-0.11876 18.68312,-4.20238 26.89251,-13.73349 -4.99047,11.08321 -12.94897,16.62831 -25.81162,19.01024 z"
         inkscape:connector-curvature="0"
         sodipodi:nodetypes="cccccccccccc" />
      <path
         style="fill:#ffffff;fill-opacity:1;stroke:none"
         d="m 483,456.35983 c 5.70593,9.49863 11.22172,16.83634 16.28145,22.58261 13.73868,-29.959 4.14305,-74.59661 -7.43842,-109.64129 -12.73833,12.46752 -17.9424,31.43682 -8.84303,87.05868 z"
         id="path6704"
         inkscape:connector-curvature="0"
         transform="translate(0,-76.828873)"
         sodipodi:nodetypes="cccc" />
      <g
         clip-path="url(#clipPath6767)"
         id="g6736">
        <path
           transform="matrix(1.871313,-0.19698076,0.19698076,1.871313,-522.57973,-376.34751)"
           d="m 505.21153,452.75 c 0,13.6957 -3.73239,24.79826 -8.33653,24.79826 -4.60414,0 -8.33653,-11.10256 -8.33653,-24.79826 0,-13.6957 3.73239,-24.79826 8.33653,-24.79826 4.60414,0 8.33653,11.10256 8.33653,24.79826 z"
           sodipodi:ry="24.798262"
           sodipodi:rx="8.3365278"
           sodipodi:cy="452.75"
           sodipodi:cx="496.875"
           id="path6712"
           style="fill:url(#linearGradient6734);fill-opacity:1;stroke:none"
           sodipodi:type="arc" />
        <g
           id="g6718"
           clip-path="url(#clipPath6724)"
           transform="matrix(1.4421928,0,0,1.4421928,-219.50949,-164.08858)">
          <path
             style="fill:#9cfff3;fill-opacity:1;stroke:none"
             d="m 482.47906,474.02726 8.45602,10.94423 6.90211,-22.25918 z"
             id="path6716"
             inkscape:connector-curvature="0"
             transform="translate(0,-76.828873)"
             sodipodi:nodetypes="cccc" />
          <path
             sodipodi:nodetypes="cccc"
             transform="translate(0,-76.828873)"
             inkscape:connector-curvature="0"
             id="path6714"
             d="m 480.47906,470.15226 4.60247,8.60584 12.75566,-16.04579 z"
             style="fill:#66f4d4;fill-opacity:1;stroke:none" />
        </g>
        <path
           sodipodi:type="arc"
           style="fill:#000000;stroke:none"
           id="path6710"
           sodipodi:cx="496.875"
           sodipodi:cy="452.75"
           sodipodi:rx="7.6774311"
           sodipodi:ry="25.803356"
           d="m 504.55243,452.75 c 0,14.2508 -3.4373,25.80336 -7.67743,25.80336 -4.24013,0 -7.67743,-11.55256 -7.67743,-25.80336 0,-14.2508 3.4373,-25.80336 7.67743,-25.80336 4.24013,0 7.67743,11.55256 7.67743,25.80336 z"
           transform="matrix(1.5091651,-0.16764636,0.16764636,1.5091651,-328.86835,-227.50139)" />
        <path
           sodipodi:type="arc"
           style="fill:#ffffff;fill-opacity:1;stroke:none"
           id="path6706"
           sodipodi:cx="491.625"
           sodipodi:cy="443.25"
           sodipodi:rx="3.9914324"
           sodipodi:ry="17.333773"
           d="m 495.61643,443.25 c 0,9.57318 -1.78702,17.33377 -3.99143,17.33377 -2.20441,0 -3.99143,-7.76059 -3.99143,-17.33377 0,-9.57318 1.78702,-17.33377 3.99143,-17.33377 2.20441,0 3.99143,7.76059 3.99143,17.33377 z"
           transform="matrix(1.4401395,-0.0769289,0.0769289,1.4401395,-252.23827,-238.32353)" />
        <path
           transform="matrix(0.55136674,-0.06189183,0.06189183,0.55136674,202.00564,166.22206)"
           d="m 495.85756,443.25 c 0,9.75525 -1.89498,17.66343 -4.23256,17.66343 -2.33758,0 -4.23256,-7.90818 -4.23256,-17.66343 0,-9.75525 1.89498,-17.66343 4.23256,-17.66343 2.33758,0 4.23256,7.90818 4.23256,17.66343 z"
           sodipodi:ry="17.663435"
           sodipodi:rx="4.2325644"
           sodipodi:cy="443.25"
           sodipodi:cx="491.625"
           id="path6708"
           style="fill:#ffffff;fill-opacity:1;stroke:none"
           sodipodi:type="arc" />
      </g>
    </g>
    <path
       style="fill:#071b42;fill-opacity:1;stroke:none"
       d="m 395.56768,210.6829 c 0.16224,-1.33509 0.28624,-2.66702 0.37276,-3.99415 -0.0886,-2.45267 -0.79589,-4.18426 -1.78608,-5.11764 -1.17503,-1.35435 -2.31385,-2.26625 -3.23431,-2.90887 -3.25756,-2.42185 -6.44265,-4.46835 -9.29669,-6.60205 -6.13722,-4.56114 -11.7183,-9.62925 -17.05299,-15.06442 -5.33468,-5.43517 -10.42191,-11.24398 -15.43138,-17.36678 3.12797,7.25304 6.83495,14.21051 11.31698,20.74311 4.48203,6.5326 9.73617,12.64709 15.99047,18.11083 3.02821,2.6253 6.17722,4.89885 9.08939,7.21175 0.82909,0.6999 1.46101,1.16154 1.6928,1.53248 -0.0776,0.18555 -0.0511,-0.16704 -0.24266,-1.17035 -0.0914,1.17584 -0.20868,2.35617 -0.35259,3.54045 -1.047,8.61651 -3.68146,17.04755 -7.78178,24.67187 -3.93635,7.34323 -9.20963,14.00388 -15.34697,19.7547 -4.79613,4.4813 -10.06689,8.42757 -15.74119,11.58386 -1.9013,1.05317 -3.77756,2.00353 -5.66021,2.73546 0,0 -10e-6,0 -10e-6,0 -0.63417,0.24415 -1.20367,0.45222 -1.71621,0.58624 -0.42852,0.0717 -0.51142,0.13959 -0.24802,0.0898 0.11477,0.0308 -0.0655,-0.0324 -0.54246,-0.0971 -0.62005,-0.11558 -1.28842,-0.27214 -2.01019,-0.44223 -2.19967,-0.5217 -4.43475,-1.09804 -6.72253,-1.65798 -7.18705,-1.7602 -14.45831,-3.31331 -21.82147,-4.51056 0,0 0,0 -1e-5,0 -21.63412,-3.53107 -43.97732,-4.02826 -65.7335,0.0351 -4.78156,0.927 -9.70427,1.12119 -14.66005,0.75945 -6.49424,-0.47403 -13.16713,-1.83366 -19.75297,-3.69245 -8.03232,-2.29359 -15.90734,-5.46655 -23.56797,-9.20412 -7.66063,-3.73757 -15.10821,-8.03439 -22.29241,-12.54368 5.83515,6.15694 12.40319,12.01033 19.66475,17.09449 7.26155,5.08417 15.21905,9.39334 23.68324,12.50203 6.91508,2.56196 14.26303,4.31537 21.63532,4.81513 5.6192,0.38092 11.30537,0.14477 16.95041,-0.88533 20.50879,-3.86985 41.81761,-3.35997 62.63036,0.003 0,0 0,0 10e-6,0 7.06982,1.14688 14.10878,2.65277 21.12457,4.36892 2.21638,0.54252 4.472,1.12382 6.78414,1.67283 0,0 10e-6,0 10e-6,0 0.74912,0.17898 1.55389,0.36459 2.41936,0.52934 0,0 0,0 1e-5,0 0.4335,0.10713 1.17014,0.2224 2.21138,0.2532 1.22729,-0.0498 2.09229,-0.22143 2.59433,-0.40099 0.97272,-0.26706 1.85437,-0.57807 2.65266,-0.89507 10e-6,-10e-6 10e-6,-10e-6 10e-6,-10e-6 2.39914,-0.94542 4.64104,-2.06827 6.75712,-3.25292 6.37507,-3.55563 12.23568,-7.93217 17.51075,-12.87466 6.80736,-6.36173 12.67375,-13.79332 17.12632,-22.06754 4.63742,-8.64254 7.60713,-18.13131 8.7875,-27.84507 z"
       id="path6648"
       inkscape:connector-curvature="0"
       sodipodi:nodetypes="csssc"
       inkscape:path-effect="#path-effect6696"
       inkscape:original-d="m 349.13899,159.62899 c 22.87742,38.0839 42.69822,41.43016 42.32322,46.74372 -3.26776,46.3033 -45.97907,67.14645 -51.32322,67.14645 -5.02494,0 -47.82322,-15.79289 -96,-6.75 -19.85359,3.72656 -50.51688,-2.94671 -81.10356,-29.10356" />
    <path
       id="path6788"
       style="fill:#071b42;fill-opacity:1;fill-rule:evenodd;stroke:none"
       d="m 332.38899,237.14416 c 14.39169,9.78845 25.90977,12.73039 42.5,12.125 l -5.625,6.5 c -14.47963,-1.53293 -26.47075,-6.95082 -36.875,-18.625 z m 52.92441,-29.90884 c -1.72587,8.32972 -4.81699,9.81076 -10.26911,6.92067 5.33538,10.06772 10.94074,6.60156 10.26911,-6.92067 z m -36.97987,9.74907 c 4.78662,6.34024 9.02405,6.1522 13.82767,0.76517 -2.30806,9.87423 -10.53141,13.17493 -13.82767,-0.76517 z"
       inkscape:connector-curvature="0"
       sodipodi:nodetypes="cccccccccc" />
    <g
       id="g8290"
       transform="translate(-133.86101,-219.90197)">
      <path
         style="fill:#020016;fill-opacity:1;stroke:#7070ca;stroke-width:9;stroke-linecap:butt;stroke-linejoin:miter;stroke-miterlimit:4;stroke-opacity:1;stroke-dasharray:none"
         d="m 296.35355,648.61047 4.58579,-18.67157 c 52.53301,-37.6188 128.40633,55.95942 188.68198,-46.59619 45.76364,72.29693 17.22735,121.24072 -24.2957,134.64298 -56.9073,18.36778 -88.2211,-77.3117 -168.97207,-69.37522 z"
         id="path7004"
         inkscape:connector-curvature="0"
         sodipodi:nodetypes="cccsc" />
      <path
         sodipodi:nodetypes="cscc"
         inkscape:connector-curvature="0"
         style="fill:#ffffff;fill-opacity:1;stroke:none"
         d="m 459.19452,635.39855 c -34.66249,4.66266 -34.76008,47.72951 -8.79339,60.44109 34.70581,16.98972 60.74781,-24.07631 35.91343,-50.00777 -0.80155,36.72772 -45.61858,16.28589 -27.12004,-10.43332 z"
         id="path7017" />
      <path
         transform="matrix(0.80514425,0.31520311,-0.31520311,0.80514425,361.07171,-33.182474)"
         d="M 448,716.75 442.60225,708.53163 433.5,712.25 441.71837,706.85225 438,697.75 l 5.39775,8.21837 9.10225,-3.71837 -8.21837,5.39775 z"
         inkscape:randomized="0"
         inkscape:rounded="0"
         inkscape:flatsided="false"
         sodipodi:arg2="1.8717166"
         sodipodi:arg1="1.0863184"
         sodipodi:r2="1.3419319"
         sodipodi:r1="10.735455"
         sodipodi:cy="707.25"
         sodipodi:cx="443"
         sodipodi:sides="4"
         id="path7019"
         style="fill:#ffffff;fill-opacity:1;fill-rule:evenodd;stroke:none"
         sodipodi:type="star" />
      <use
         height="1792"
         width="1792"
         transform="matrix(-0.3447482,0.56142547,-0.56142547,-0.3447482,946.87493,602.74303)"
         id="use8280"
         xlink:href="#path7019"
         y="0"
         x="0" />
      <use
         x="0"
         y="0"
         xlink:href="#path7019"
         id="use8282"
         transform="matrix(0.36729914,0.47617804,-0.47617804,0.36729914,554.27296,184.65924)"
         width="1792"
         height="1792" />
      <use
         height="1792"
         width="1792"
         transform="matrix(0.45454725,0.93201548,-0.93201548,0.45454725,848.19684,-138.36993)"
         id="use8286"
         xlink:href="#path7019"
         y="0"
         x="0" />
      <use
         x="0"
         y="0"
         xlink:href="#path7019"
         id="use8288"
         transform="matrix(-0.14144847,0.97285056,-0.97285056,-0.14144847,1170.4593,330.00198)"
         width="1792"
         height="1792" />
    </g>
    <path
       style="fill:#020016;fill-opacity:1;stroke:#7070ca;stroke-width:9;stroke-linecap:butt;stroke-linejoin:miter;stroke-miterlimit:4;stroke-opacity:1;stroke-dasharray:none"
       d="m 168.74085,10.85964 134.33988,-21.09189 c -56.21499,-164.75588 -20.38478,-7.45406 -61.04342,-90.89266 -33.11637,-67.96054 -45.94091,-63.02563 -36.20889,6.57107 16.38477,117.17262 -31.07717,-13.73401 -37.08757,105.41348 z"
       id="path6975"
       inkscape:connector-curvature="0"
       sodipodi:nodetypes="ccssc" />
    <g
       id="g6990"
       transform="translate(-133.86101,-219.90197)">
      <path
         sodipodi:nodetypes="ccc"
         transform="translate(0,-76.828873)"
         inkscape:connector-curvature="0"
         id="path6973"
         d="M 388,314 C 518.69801,-5.3355547 514.58811,-6.1240514 458,351 z"
         style="fill:#314b8f;fill-opacity:1;stroke:#071b42;stroke-width:9;stroke-linecap:butt;stroke-linejoin:miter;stroke-miterlimit:4;stroke-opacity:1;stroke-dasharray:none" />
      <path
         sodipodi:nodetypes="cccccccccccc"
         inkscape:connector-curvature="0"
         d="m 403.72693,198.57445 c 14.41331,25.66946 30.83614,39.59999 60.27774,39.15603 M 477.30044,22.115504 c 2.60522,9.376027 7.78103,16.901013 15.97843,23.192257 m -31.21566,10.348605 c 5.04516,14.729532 13.13484,24.208236 25.88986,29.625253 m -39.529,2.241733 c 6.29191,20.060418 16.29968,31.548208 33.21791,36.515658 m -46.54521,-2.93589 c 7.27804,26.12217 18.87103,39.64849 40.24428,43.85546 m -56.37931,-6.18659 c 10.75783,24.16898 24.79098,38.54775 50.94625,42.0804"
         style="fill:none;stroke:#071b42;stroke-width:5.5;stroke-linecap:butt;stroke-linejoin:miter;stroke-miterlimit:4;stroke-opacity:1;stroke-dasharray:none"
         id="path6987" />
    </g>
    <path
       id="path4636"
       style="fill:#1558ce;fill-opacity:1;stroke:#885de4;stroke-width:9;stroke-linecap:butt;stroke-linejoin:miter;stroke-miterlimit:10;stroke-opacity:1;stroke-dasharray:none"
       d="M 76.32822,48.99606 C 22.93768,140.94642 106.12506,269.98167 147.05781,323.96544 139.93906,154.89541 85.04018,165.84485 88.00632,96.43715 z m 239.30187,96.61965 c 35.53842,-23.925 21.80178,-57.76753 -4.54393,-72.25531 -42.18139,-23.196 -124.66667,-13.60682 -200.58957,-78.07269 245.36236,-110.02228 364.77153,123.10903 205.1335,150.328 z"
       inkscape:connector-curvature="0" />
    <g
       id="g6679"
       transform="translate(-133.86101,-219.90197)">
      <path
         style="fill:#314b8f;fill-opacity:1;stroke:none"
         d="m 235.47696,413.79863 c -56.56855,-61.16474 -28.47666,-140.19952 -7.97055,-155.75588 2.6447,-2.00633 37.53731,22.25304 51.3259,77.76092 z"
         id="path6677"
         inkscape:connector-curvature="0"
         transform="translate(0,-76.828873)"
         sodipodi:nodetypes="cscc" />
      <path
         inkscape:original-d="m 235.47696,413.79863 c -56.56855,-61.16474 -28.47666,-140.19952 -7.97055,-155.75588 2.6447,-2.00633 37.53731,22.25304 51.3259,77.76092"
         inkscape:path-effect="#path-effect6669"
         sodipodi:nodetypes="csc"
         transform="translate(0,-76.828873)"
         inkscape:connector-curvature="0"
         id="path6650"
         d="m 203.21302,367.2692 c 2.87291,9.28311 7.28632,18.34291 12.86305,26.33666 5.57674,7.99376 12.29997,14.90818 19.40089,20.19277 -4.8067,-7.40642 -9.46018,-15.38502 -13.5162,-23.68492 -4.05602,-8.29991 -7.50634,-16.91412 -10.14819,-25.49871 -0.01,-0.0309 -0.019,-0.0619 -0.0285,-0.0928 -4.49039,-14.5744 -6.01456,-30.07637 -4.71181,-45.3204 0,0 0,0 0,-1e-5 1.10479,-12.78299 4.07139,-25.40639 9.19392,-37.05152 2.00929,-4.55838 4.30608,-8.92539 7.07003,-12.88875 2.12619,-2.99633 4.31619,-5.73057 6.88995,-7.63365 -2.11948,0.8362 -2.9854,1.16529 -2.7434,0.75995 -0.0603,-0.0451 0.1047,0.0578 0.50951,0.21649 1e-5,0 1e-5,0 1e-5,0 1.27283,0.57555 2.58475,1.503 4.0312,2.55179 0,10e-6 1e-5,10e-6 1e-5,10e-6 4.95449,3.65225 9.37083,8.20697 13.52992,13.10393 2.51286,2.96513 4.8774,6.05271 7.09697,9.24602 5.14608,7.40368 9.72231,15.23369 13.99907,23.32349 4.27677,8.0898 8.25968,16.43976 12.18287,24.97413 -0.97989,-9.12967 -2.87153,-18.49073 -5.9492,-27.58406 -3.07768,-9.09333 -7.34866,-17.91531 -12.8551,-25.84052 -2.37499,-3.41824 -4.90741,-6.73328 -7.6006,-9.92836 -4.41106,-5.24388 -9.33253,-10.27244 -15.0453,-14.52547 0,0 0,-10e-6 -1e-5,-10e-6 -1.59126,-1.20239 -3.41385,-2.43488 -5.56319,-3.46692 -0.58439,-0.30599 -1.43537,-0.63506 -2.56732,-0.89498 -0.33762,-0.52152 -1.87448,-0.2992 -4.46492,0.89429 -3.66027,2.82618 -6.50044,6.23818 -8.84046,9.66695 -3.17003,4.57329 -5.75037,9.44653 -7.9207,14.40746 -5.54973,12.66152 -8.75848,26.23483 -9.92039,39.90126 0,0 0,10e-6 0,10e-6 -1.40534,16.35604 0.24053,32.99639 5.07689,48.73552 0.0103,0.0335 0.0207,0.0669 0.031,0.10036 z"
         style="fill:#071b42;fill-opacity:1;stroke:none" />
      <path
         transform="translate(0,-76.828873)"
         sodipodi:nodetypes="ccc"
         inkscape:connector-curvature="0"
         id="path6652"
         d="m 229.35355,295.87868 c -8.5,25.68718 -4.61395,57.21446 11.35356,81.16421 C 230.37868,351.25 226.2071,321.67247 229.35355,295.87868 z"
         style="fill:#071b42;fill-opacity:1;stroke:none" />
    </g>
    <g
       id="g6634"
       transform="translate(-133.86101,-219.90197)">
      <path
         sodipodi:nodetypes="cccccccccccc"
         inkscape:connector-curvature="0"
         d="m 285.92482,362.99642 c -10.37958,10.60767 -22.22774,15.45234 -41.5471,18.44449 17.77756,1.18978 28.08023,-0.49067 44.41842,-10.39124 z m -1.83839,-10.58211 c -14.57152,10.77188 -29.47146,13.85031 -50.22388,12.79805 18.82674,5.87176 34.53581,3.25564 51.43359,-4.36091 z m 0.10983,-9.79289 c -20.30527,7.87911 -38.31872,8.7682 -61.31854,3.28288 18.22318,9.76193 37.55725,10.58991 63.52825,3.93198 z"
         style="fill:#000000;fill-opacity:1;fill-rule:evenodd;stroke:none"
         id="path6621" />
      <path
         sodipodi:nodetypes="cccc"
         inkscape:connector-curvature="0"
         id="path6608"
         d="m 383.03345,333.98056 c 19.63472,21.63425 34.14879,54.90856 33.76867,100.85168 -100.67929,7.11873 -139.51033,-37.98358 -134.76451,-100.35728 23.07897,-9.12222 65.06852,-9.1907 100.99584,-0.4944 z"
         style="fill:#ffffff;fill-opacity:1;stroke:none" />
      <path
         sodipodi:nodetypes="ccc"
         inkscape:connector-curvature="0"
         id="path6626"
         d="m 282.03761,334.47496 c 3.08367,-40.52831 62.0915,-43.36061 100.99584,-0.4944 -37.71529,-8.18321 -74.21759,-9.58976 -100.99584,0.4944 z"
         style="fill:#779ae1;fill-opacity:1;stroke:none" />
      <path
         sodipodi:nodetypes="cccccccccscsc"
         inkscape:connector-curvature="0"
         d="m 290.31023,407.52781 c -11.25,-8.625 -18.57196,-17.71472 -26.19696,-32.33972 3.5,15.375 7.38326,24.93071 15.88326,34.05571 z m -18.73381,2.93011 11.34619,-1.53053 c -16.8315,-5.9065 -27.63722,-12.41765 -42.74761,-24.97955 9.07303,13.35705 18.16328,21.18164 31.40142,26.51008 z m 125.3316,4.26575 c -38.05895,-14.9593 -75.80194,-17.51992 -114.4178,-9.63102 -16.33152,3.3364 -32.94159,1.57285 -52.02584,-5.57024 16.10301,12.3578 38.4607,15.11076 51.53758,12.68766 39.76366,-7.36808 75.6823,-6.01469 114.90606,2.5136 z"
         style="fill:#000000;stroke:none"
         transform="translate(0,-76.828873)"
         id="path6614" />
      <g
         clip-path="url(#clipPath6630)"
         id="g4423">
        <path
           transform="matrix(1.6972149,-0.44857005,0.44857005,1.6972149,-506.48385,-257.26332)"
           d="m 418.39692,490.96591 c 0,18.23684 -10.54871,33.02071 -23.5612,33.02071 -13.01248,0 -23.56119,-14.78387 -23.56119,-33.02071 0,-18.23683 10.54871,-33.02071 23.56119,-33.02071 13.01249,0 23.5612,14.78388 23.5612,33.02071 z"
           sodipodi:ry="33.02071"
           sodipodi:rx="23.561193"
           sodipodi:cy="490.96591"
           sodipodi:cx="394.83572"
           id="path4356"
           style="fill:url(#linearGradient4434);fill-opacity:1;stroke:none"
           sodipodi:type="arc" />
        <g
           id="g4364"
           clip-path="url(#clipPath4411)"
           transform="matrix(1.35135,0,0,1.35135,-144.49233,-153.7814)">
          <path
             style="fill:#9cfff3;fill-opacity:1;stroke:none"
             d="m 369.61797,522.06742 17.01873,-37.15356 -25.28839,16.29963 z"
             id="path4362"
             inkscape:connector-curvature="0"
             transform="translate(0,-76.828873)"
             sodipodi:nodetypes="cccc" />
          <path
             sodipodi:nodetypes="cccc"
             transform="translate(0,-76.828873)"
             inkscape:connector-curvature="0"
             id="path4360"
             d="M 355.71535,495.70038 386.6367,484.91386 361.82771,509.3633 z"
             style="fill:#66f4d4;fill-opacity:1;stroke:none" />
        </g>
        <path
           sodipodi:type="arc"
           style="fill:#000000;fill-opacity:1;stroke:none"
           id="path4354"
           sodipodi:cx="394.83572"
           sodipodi:cy="490.96591"
           sodipodi:rx="23.029409"
           sodipodi:ry="30.63982"
           d="m 417.86513,490.96591 c 0,16.92191 -10.31061,30.63982 -23.02941,30.63982 -12.71879,0 -23.02941,-13.71791 -23.02941,-30.63982 0,-16.9219 10.31062,-30.63982 23.02941,-30.63982 12.7188,0 23.02941,13.71792 23.02941,30.63982 z"
           transform="matrix(1.2684065,-0.46614549,0.46614549,1.2684065,-343.07846,-39.587515)" />
        <path
           sodipodi:type="arc"
           style="fill:#ffffff;fill-opacity:1;stroke:none"
           id="path4350"
           sodipodi:cx="402.46292"
           sodipodi:cy="472.99957"
           sodipodi:rx="11.98095"
           sodipodi:ry="20.290791"
           d="m 414.44387,472.99957 c 0,11.2063 -5.36405,20.29079 -11.98095,20.29079 -6.6169,0 -11.98095,-9.08449 -11.98095,-20.29079 0,-11.20629 5.36405,-20.29079 11.98095,-20.29079 6.6169,0 11.98095,9.0845 11.98095,20.29079 z"
           transform="matrix(1.1767423,-0.66439712,0.66439712,1.1767423,-390.64006,89.471516)" />
        <path
           transform="matrix(0.46376662,-0.16559866,0.16559866,0.46376662,116.10236,254.01493)"
           d="m 415.79159,472.99957 c 0,11.78262 -5.96745,21.33432 -13.32867,21.33432 -7.36122,0 -13.32866,-9.5517 -13.32866,-21.33432 0,-11.78262 5.96744,-21.33432 13.32866,-21.33432 7.36122,0 13.32867,9.5517 13.32867,21.33432 z"
           sodipodi:ry="21.334318"
           sodipodi:rx="13.328665"
           sodipodi:cy="472.99957"
           sodipodi:cx="402.46292"
           id="path4352"
           style="fill:#ffffff;fill-opacity:1;stroke:none"
           sodipodi:type="arc" />
      </g>
    </g>
    <g
       id="g8368"
       transform="translate(-133.86101,-219.90197)">
      <path
         sodipodi:nodetypes="ccsssscc"
         inkscape:connector-curvature="0"
         id="path8335"
         d="m 316.30896,717.56478 c -29.03104,93.65969 15.63517,114.19181 68.08569,35.48593 -1.35275,26.99936 -7.49597,38.90732 -20.39465,51.74174 -22.47042,22.35848 35.77927,141.99698 51.25,126.62868 41.23625,-40.96319 64.0702,-68.1543 65.90511,-99.5746 2.97825,-50.99822 -33.10516,-191.11877 -47.40511,-200.1754 -30,-19 -48,-3.75 -92,101 z"
         style="fill:#314b8f;fill-opacity:1;stroke:none" />
      <path
         inkscape:original-d="m 382.29289,692.96402 c 5.43629,74.39214 1.62958,92.00521 -18.29289,111.82843 -22.47042,22.35848 35.77927,141.99698 51.25,126.62868 41.23625,-40.96319 64.0702,-68.1543 65.90511,-99.5746 2.97825,-50.99822 -33.10516,-191.11877 -47.40511,-200.1754 -30,-19 -48,-3.75 -92,101"
         inkscape:path-effect="#path-effect8327"
         sodipodi:nodetypes="cssssc"
         inkscape:connector-curvature="0"
         id="path8301"
         d="m 386.06217,775.24748 c 0.40313,-1.72308 0.73921,-3.44247 1.01717,-5.1507 0,0 0,0 0,0 1.76584,-10.76191 1.74497,-21.13379 1.21881,-31.09224 -0.81204,-15.68022 -3.00916,-30.72536 -6.00526,-46.04052 -0.5942,15.57752 -0.83861,30.69397 -1.45405,46.09835 -0.20047,4.90492 -0.41951,9.82475 -0.80021,14.74789 -0.3807,4.92313 -0.92186,9.84969 -1.80369,14.77651 0,0 0,0 0,0 -0.2782,1.54024 -0.59161,3.07887 -0.94896,4.6094 -1.16159,4.97513 -2.81568,9.74899 -5.20354,14.05679 -2.82869,5.2118 -6.82915,9.91442 -11.25646,14.34957 -2.02207,2.06457 -3.43454,4.44222 -4.32615,6.85705 0,1e-5 0,1e-5 -10e-6,2e-5 -1.05749,2.81683 -1.61215,5.65714 -1.86221,8.38454 0,10e-6 0,2e-5 0,3e-5 -0.64719,6.9384 0.1016,13.71194 1.28616,20.12519 1.43327,7.9319 3.57418,15.65435 6.06538,23.17875 0,10e-6 0,10e-6 0,2e-5 2.69201,8.14457 5.82287,16.1252 9.29606,23.93449 3.3478,7.53165 7.02699,14.93907 11.11131,22.14153 3.44643,6.0889 7.21125,12.11662 11.60164,17.79479 1.72065,2.22811 3.58562,4.43635 5.6744,6.52561 1.5908,1.61434 3.44545,3.2273 5.6719,4.60871 1.54639,1.05749 3.70025,1.92065 6.40086,2.12207 2e-5,0 4e-5,0 6e-5,0 1.16971,0.0448 2.3855,-0.15621 3.59347,-0.61954 1.23374,-0.5117 2.26867,-1.21218 3.08254,-2.04213 16.96612,-16.8248 34.21061,-33.97956 48.24317,-53.97777 5.22196,-7.43819 9.92267,-15.4196 13.39578,-24.0646 3.10961,-7.75683 5.08511,-16.02417 5.58712,-24.46241 0.45542,-7.95357 0.0481,-15.81214 -0.60332,-23.509 -0.81478,-9.73345 -2.08818,-19.38713 -3.58238,-28.96506 0,-10e-6 -1e-5,-2e-5 -1e-5,-3e-5 -3.39477,-21.77219 -7.92123,-43.33079 -13.15948,-64.67629 -4.6825,-19.10006 -9.8816,-38.16818 -16.44842,-56.85358 -2.25789,-6.44088 -4.69865,-12.95779 -7.79764,-19.30302 -1e-5,-1e-5 -1e-5,-2e-5 -2e-5,-3e-5 -1.03133,-2.1254 -2.20351,-4.32639 -3.66837,-6.48822 -0.79006,-1.32926 -2.10732,-2.95967 -4.23009,-4.44421 -3.55887,-2.27295 -7.43014,-4.36229 -11.69435,-5.86129 -3.65984,-1.29569 -7.67293,-2.01157 -11.8259,-1.79383 -4.21113,0.27653 -8.2119,1.54258 -11.74384,3.49961 -4.34922,2.42213 -8.01411,5.59186 -11.16227,8.95805 -5.30623,5.64885 -9.76901,11.85987 -13.74876,18.28621 -3.4137,5.51232 -6.47001,11.2794 -9.35675,17.04713 -5.23773,10.38886 -9.93874,21.15475 -14.08269,32.02101 -4.14395,10.86626 -7.73465,21.82925 -10.79317,32.6448 5.24588,-9.96504 10.57255,-20.1786 15.98058,-30.3735 5.40803,-10.19489 10.90006,-20.36685 16.48201,-30.30185 3.1451,-5.56321 6.22653,-11.07551 9.44084,-16.30403 3.74362,-6.08953 7.82855,-11.81647 12.6152,-16.83397 2.7948,-2.91443 5.7239,-5.51608 8.95491,-7.25386 2.52699,-1.36801 5.26363,-2.26941 7.95148,-2.40567 10e-6,0 2e-5,0 3e-5,0 2.68025,-0.19111 5.53075,0.36437 8.33813,1.31262 3.33923,1.13917 6.58875,2.92873 9.82909,4.96195 0.32461,0.0655 0.76958,0.85326 1.61323,1.91632 1.09641,1.58878 2.05172,3.41729 3.01777,5.37081 0,0 10e-6,10e-6 10e-6,2e-5 2.85336,5.81031 5.1583,12.00303 7.39018,18.33046 6.42964,18.27472 11.54528,37.06249 16.19803,56.01254 0,10e-6 0,2e-5 1e-5,3e-5 5.1877,21.15027 9.66354,42.45607 13.00763,63.91788 0,10e-6 0,10e-6 0,2e-5 1.47009,9.43988 2.71812,18.88137 3.50628,28.3285 0.61988,7.51529 1.02188,14.94912 0.58735,22.23478 -0.4212,7.3704 -2.18724,14.69847 -4.95873,21.64463 -3.10457,7.79944 -7.47751,15.17459 -12.41247,22.2458 -13.37359,19.15207 -30.27467,35.89891 -47.21295,52.75399 -0.087,0.065 -0.11488,0.1056 -0.0613,0.0625 0,0 0,0 0,0 0.069,-0.011 0.0488,-0.0205 -0.006,-0.0119 0,0 0,0 0,0 -0.29261,0.11308 -0.97499,-0.31389 -1.98643,-0.81352 -1e-5,0 -1e-5,-1e-5 -2e-5,-1e-5 -1.33716,-0.788 -2.63352,-1.96282 -3.99703,-3.29428 -1.72504,-1.71359 -3.33667,-3.6347 -4.91437,-5.66424 -4.02665,-5.18694 -7.55363,-10.85752 -10.8881,-16.72339 -3.92268,-6.91394 -7.47009,-14.0601 -10.71595,-21.35775 -3.36329,-7.5661 -6.38687,-15.2691 -8.97421,-23.10164 -10e-6,-10e-6 -10e-6,-2e-5 -10e-6,-2e-5 -2.3916,-7.25261 -4.42852,-14.56551 -5.75341,-21.95008 0,-1e-5 -10e-6,-2e-5 -10e-6,-3e-5 -1.05873,-6.04403 -1.77434,-11.99319 -1.18662,-17.65206 0,-10e-6 0,-10e-6 0,-2e-5 0.23186,-2.18864 0.60266,-4.24937 1.31066,-6.04585 0,-10e-6 0,-10e-6 1e-5,-2e-5 0.60193,-1.48784 1.32859,-2.81113 2.26868,-3.69396 4.83031,-4.77635 9.34482,-10.1624 12.79861,-16.39987 2.82967,-5.20069 4.77909,-10.73396 6.08954,-16.33502 z"
         style="fill:#071b42;fill-opacity:1;stroke:none" />
      <path
         inkscape:original-d="m 316.30896,717.56478 c -29.69848,95.81297 17.72792,115.09724 71.8216,29.89087"
         inkscape:path-effect="#path-effect8319"
         sodipodi:nodetypes="cc"
         inkscape:connector-curvature="0"
         id="path8299"
         d="m 313.54613,784.11411 c -0.89448,-3.12976 -1.39099,-6.46417 -1.75277,-9.82721 0,0 0,0 0,0 -0.79661,-7.98369 -0.41327,-15.95798 0.24595,-23.92208 0.91134,-10.88159 2.48639,-21.66061 4.26965,-32.80004 -4.7125,10.23147 -8.51529,20.68906 -10.95458,31.79015 -1.78951,8.10299 -2.88155,16.65365 -2.34309,25.63395 0,0 0,0 0,0 0.19929,3.76518 0.74324,7.70595 1.90906,11.64082 0.70972,2.39544 1.63177,4.76603 2.82137,7.06832 2.32333,4.55508 6.16725,8.59581 11.34043,10.8546 2.49063,1.01353 5.09674,1.52113 7.66641,1.57603 2.8813,0.0571 5.65738,-0.35842 8.24756,-1.08419 6.67549,-1.89033 12.51025,-5.35849 17.61228,-9.23694 0,0 0,0 0,0 7.16283,-5.38047 13.41565,-11.69821 19.09509,-18.30414 5.34518,-6.20369 10.2542,-12.72912 14.83742,-19.44085 -0.63158,-4.39647 -1.37872,-8.73227 -2.20942,-13.01874 -5.92607,9.32623 -12.30578,18.31159 -19.44384,26.58214 -5.43438,6.2823 -11.21331,12.15773 -17.67341,16.97722 0,0 -1e-5,0 -1e-5,0 -4.67274,3.44026 -9.50455,6.41715 -14.60342,7.76316 -1.92804,0.51612 -3.8339,0.82534 -5.63693,0.76517 0,0 0,0 0,0 -1.57806,-0.049 -3.11558,-0.33094 -4.46063,-0.89917 -2.78094,-1.0213 -5.11659,-3.69109 -6.81559,-6.74179 -0.90823,-1.66448 -1.607,-3.4711 -2.15153,-5.37641 z"
         style="fill:#071b42;fill-opacity:1;stroke:none" />
      <path
         sodipodi:nodetypes="csscccc"
         inkscape:connector-curvature="0"
         id="path8344"
         d="m 371.49401,792.04199 c -2.96629,4.30262 -6.46227,8.21872 -10.49401,12.25046 -24.41522,24.41522 39.07875,148.79993 56.75,131.12868 15.03,-15.03 41.46895,-46.60981 60.01031,-73.59905 -18.9347,-7.24931 -34.41862,0.47864 -44.15676,12.87938 -3.5,-12.625 -8.85355,-22.40533 -16.35355,-28.28033 1.82828,46.23686 -44.83295,22.32981 -45.75599,-54.37914 z"
         style="fill:#c2bff3;fill-opacity:1;stroke:#9b93f0;stroke-width:9;stroke-linecap:butt;stroke-linejoin:miter;stroke-miterlimit:10;stroke-opacity:1;stroke-dasharray:none" />
      <use
         x="0"
         y="0"
         xlink:href="#path7019"
         id="use8286-0"
         transform="matrix(0.38910138,0.1636462,-0.1636462,0.38910138,338.61349,541.27827)"
         width="1792"
         height="1792"
         style="display:inline" />
      <use
         style="display:inline"
         height="1792"
         width="1792"
         transform="matrix(-1.0897105,1.082693,-1.082693,-1.0897105,1669.8928,1099.3209)"
         id="use8364"
         xlink:href="#path7019"
         y="0"
         x="0" />
      <use
         x="0"
         y="0"
         xlink:href="#path7019"
         id="use8366"
         transform="matrix(0.47643714,0.30521152,-0.30521152,0.47643714,347.43403,407.49199)"
         width="1792"
         height="1792"
         style="display:inline" />
    </g>
    <g
       id="g4471"
       transform="translate(-133.86101,-219.90197)">
      <path
         style="fill:#314b8f;fill-opacity:1;stroke:none"
         d="m 279.5955,729.04753 c -71.9033,16.09169 -89.70991,0.86457 -90.7846,-35.60246 -31.73307,11.11804 -50.54295,8.7299 -49.09665,-24.55974 -46.22443,42.11549 -76.95924,15.77533 -69.82159,-33.16295 -72.12489,68.58935 -129.28963,83.72109 -99.59114,-4.66727 -84.49927,59.75052 -142.83558,39.24443 -85.55992,-20.50609 -126.63709,41.87005 -168.13099,-16.84672 -32.81981,-77.40307 -59.03658,-12.55635 -140.85869,-77.24317 -109.77312,-104.11017 25.08678,-21.6823 48.7823,32.44369 111.00731,21.11833 -102.7945,-38.50075 -110.79546,-161.80654 -77.48592,-167.06392 36.28992,-5.72779 18.75249,88.96441 105.87284,105.8204 78.73019,15.23266 138.89569,-15.00326 220.27022,-6.46677 89.74287,9.41436 93.17865,177.08597 143.28785,247.2685 35.49823,49.71851 68.31677,9.2148 85.44585,53.54869 z"
         id="path4430"
         inkscape:connector-curvature="0"
         sodipodi:nodetypes="cccccccscsssscc"
         clip-path="none" />
      <path
         clip-path="url(#clipPath4467)"
         sodipodi:nodetypes="ccccccsc"
         inkscape:connector-curvature="0"
         id="path4111"
         d="m 213.31402,683.68431 c -46.12095,19.94544 -75.38531,26.299 -73.59977,-14.79898 -46.224434,42.11549 -76.959245,15.77533 -69.821592,-33.16295 -72.1248906,68.58935 -129.289628,83.72109 -99.591143,-4.66727 -84.499265,59.75052 -142.835575,39.24443 -85.559915,-20.50609 -126.63709,41.87005 -168.13099,-16.84672 -32.81981,-77.40307 -59.03658,-12.55635 -140.85869,-77.24317 -109.77312,-104.11017 29.52278,-25.5163 57.11879,53.95584 148.24978,8.14035"
         style="fill:none;stroke:#071b42;stroke-width:9;stroke-linecap:butt;stroke-linejoin:miter;stroke-miterlimit:10;stroke-opacity:1;stroke-dasharray:none" />
      <path
         clip-path="url(#clipPath4463)"
         inkscape:original-d="m 279.5955,805.8764 c -90.77713,20.31559 -95.33071,-9.28722 -88.9925,-68.59925 7.62084,-71.31475 -219.400012,-180.21765 -318.43518,-204.34466 -120.7119,-29.40791 -131.78296,-167.44422 -96.49776,-173.01343 36.28992,-5.72779 18.75249,88.96441 105.87284,105.8204 78.730193,15.23266 138.895691,-15.00326 220.27022,-6.46677 89.74287,9.41436 93.17865,177.08597 143.28785,247.2685 35.49823,49.71851 68.31677,9.2148 85.44585,53.54869"
         inkscape:path-effect="#path-effect4319"
         sodipodi:nodetypes="cssssssc"
         transform="translate(0,-76.828873)"
         inkscape:connector-curvature="0"
         id="path3912"
         d="m 210.21382,813.63951 c 5.39639,1.80871 10.8246,2.55185 16.01008,2.74601 9.60681,0.37164 18.75592,-0.6983 27.58518,-2.61277 8.82926,-1.91447 17.33592,-4.69197 25.78642,-7.89635 -8.98871,0.79946 -17.82249,1.65474 -26.57533,2.13757 -8.75284,0.48284 -17.42708,0.61091 -26.24076,-0.2348 -4.69003,-0.45843 -9.33794,-1.17689 -13.69498,-2.65584 -0.53253,-0.18077 -1.05886,-0.37356 -1.57842,-0.57921 -3.65671,-1.44458 -7.02456,-3.50149 -9.56673,-6.21079 -2.49071,-2.5754 -4.349,-5.89207 -5.66983,-9.46642 -1.52788,-4.144 -2.28561,-8.69573 -2.7183,-13.38799 -1.11506,-12.27912 0.18122,-24.91785 1.52637,-37.72361 0.54269,-5.26867 -0.0218,-10.50679 -1.36088,-15.42779 0,-2e-5 0,-3e-5 -1e-5,-4e-5 -1.51017,-5.56447 -3.86502,-10.75754 -6.64667,-15.5618 -6.94179,-11.98659 -16.23251,-22.17859 -25.98562,-31.37711 -12.231,-11.5795 -25.53162,-21.85877 -39.19082,-31.42965 -10e-6,0 -2e-5,-1e-5 -3e-5,-2e-5 C 106.28383,633.01506 90.097924,622.96709 73.622438,613.50714 39.084003,593.67354 3.205965,576.24732 -33.484146,560.86147 c -16.600798,-6.96281 -33.403363,-13.4969 -50.446374,-19.39877 -1.1e-5,-1e-5 -2.2e-5,-1e-5 -3.4e-5,-1e-5 -14.040963,-4.86466 -28.286716,-9.35481 -42.836486,-12.90233 -25.76536,-6.29268 -50.09106,-18.99115 -68.87578,-37.49378 -1e-5,-10e-6 -1e-5,-2e-5 -2e-5,-3e-5 -15.59151,-15.3192 -27.53266,-34.37349 -34.68426,-55.05104 -3.054,-8.84176 -5.2505,-17.96181 -6.33589,-27.18799 -0.90057,-7.74584 -1.08898,-15.51292 0.004,-23.02109 0.89166,-5.75513 2.27,-11.28829 5.16612,-15.6072 1.10364,-1.655 2.33614,-3.11018 3.74568,-4.09828 1.24689,-0.89543 2.68567,-1.52523 4.11879,-1.73692 1.63261,-0.23974 3.21566,-0.2818 4.61521,0.0243 1.25331,0.24688 2.49379,0.77674 3.61117,1.50519 2.6643,1.61801 4.73695,4.66797 6.77766,8.02589 2e-5,2e-5 3e-5,4e-5 4e-5,6e-5 2.53816,4.36008 4.54395,9.21367 6.60454,14.22357 10e-6,2e-5 2e-5,5e-5 3e-5,7e-5 2.42694,5.93626 4.79028,11.99718 7.4467,18.0314 2.92296,6.64567 6.19241,13.22459 10.06941,19.52579 4.14407,6.73587 9.00638,13.10367 14.67349,18.77228 2e-5,1e-5 3e-5,3e-5 5e-5,5e-5 6.23927,6.22873 13.40664,11.50582 21.19618,15.62376 9.2442,4.87273 19.20879,8.11494 29.32199,10.06109 18.85355,3.64187 38.081768,4.89349 57.182804,4.29516 2.4e-5,0 4.8e-5,0 7.2e-5,0 17.986809,-0.56564 35.776757,-2.66254 53.3993761,-4.9736 17.8161177,-2.32958 35.5126619,-4.82296 53.2091649,-6.16823 18.983902,-1.44255 38.04456,-1.54277 56.864113,0.43727 9.88666,1.03394 19.54947,4.40289 27.91039,9.76332 8.54989,5.44241 15.86727,12.91916 22.17296,21.21442 7.03814,9.28182 12.78483,19.62361 17.88302,30.34491 5.60927,11.81537 10.3598,24.09383 14.7671,36.54828 9.22965,26.09265 16.81525,52.92309 25.85599,79.45371 4.2301,12.42096 8.78622,24.81531 14.19743,36.91753 4.80065,10.75776 10.33033,21.37021 17.30813,31.16573 6.4574,9.1516 14.65609,17.59334 24.90254,23.15904 0.90712,0.49274 1.8331,0.96272 2.77797,1.40783 4.21892,1.94487 8.68002,3.31657 13.20409,4.17704 4.03906,0.76613 8.04205,1.14923 11.94849,1.42915 3.59516,0.26595 7.06421,0.43892 10.39343,0.89417 3.14484,0.43838 6.18874,1.09467 8.96358,2.29258 3.04587,1.28386 5.88356,3.28628 8.35329,5.73763 3.38976,3.35874 6.13588,7.52584 8.56478,11.83641 -1.29581,-4.7601 -3.09348,-9.54509 -6.00749,-13.8981 -2.16118,-3.21749 -4.99822,-6.10815 -8.45564,-8.28946 -3.15018,-1.96403 -6.63923,-3.29601 -10.13614,-4.19919 -3.65939,-0.9554 -7.31547,-1.53974 -10.82301,-2.10547 -3.81072,-0.62315 -7.51861,-1.23437 -11.03009,-2.1051 -3.91955,-0.96997 -7.68618,-2.24951 -11.17763,-3.91404 -0.7867,-0.36549 -1.56123,-0.75237 -2.32432,-1.15896 -8.61756,-4.59157 -15.79181,-12.1447 -21.82921,-20.49321 -6.50731,-9.09162 -11.74014,-19.18608 -16.41759,-29.61176 -5.24895,-11.72313 -9.70384,-23.86 -13.89376,-36.14511 -8.94029,-26.22938 -16.53712,-53.09217 -25.88969,-79.55079 -4.46046,-12.6239 -9.32892,-25.18809 -15.12087,-37.40547 -5.24714,-11.08575 -11.31193,-21.95183 -18.83733,-31.91778 -6.74288,-8.95024 -14.83478,-17.14323 -24.49651,-23.36313 -9.56896,-6.12147 -20.53661,-9.94767 -31.82493,-11.13506 -19.475573,-2.03726 -39.077267,-1.94474 -58.487222,-0.46035 -18.077175,1.38194 -35.9349884,3.89202 -53.6929721,6.21829 -17.5493209,2.29214 -35.0431879,4.36512 -52.5111339,4.90185 -18.52408,0.57151 -37.089224,-0.62693 -55.193582,-4.13565 -9.38215,-1.8258 -18.51465,-4.7749 -26.82569,-9.18173 -6.99726,-3.69826 -13.44678,-8.44593 -19.04266,-14.03548 -1e-5,-10e-6 -3e-5,-3e-5 -5e-5,-4e-5 -5.10236,-5.08553 -9.53048,-10.90437 -13.3709,-17.12539 -3.59675,-5.82687 -6.67482,-12.0414 -9.49525,-18.43262 -2.55479,-5.79474 -4.88674,-11.78175 -7.35255,-17.80969 0,-1e-5 -1e-5,-2e-5 -1e-5,-3e-5 -2.05426,-5.05213 -4.23983,-10.27203 -7.14389,-15.3225 -1e-5,-10e-6 -2e-5,-2e-5 -2e-5,-4e-5 -2.19607,-3.96819 -5.22096,-8.02522 -9.63437,-11.0471 -2.03064,-1.33529 -4.31891,-2.29622 -6.7545,-2.79839 -2.68114,-0.52247 -5.32889,-0.50373 -7.80932,-0.0943 -2.93247,0.47735 -5.66358,1.64102 -7.99579,3.33851 -2.49694,1.842 -4.48439,4.09116 -6.01054,6.48021 -3.83295,6.02893 -5.6658,12.77089 -6.52964,19.23362 -1.20677,8.49767 -1.02818,17.04305 -0.0335,25.35597 1.17592,9.93391 3.51649,19.68284 6.76811,29.07461 7.6032,21.98796 20.27662,42.20126 36.88107,58.52806 1e-5,2e-5 3e-5,4e-5 5e-5,5e-5 20.1114,19.72906 45.82998,33.20277 73.0544,39.8195 14.16293,3.44748 28.13719,7.85775 42.022001,12.66267 16.830289,5.82709 33.454191,12.29285 49.910383,19.19382 36.38414851,15.26077 71.928433,32.52196 106.105324,52.15059 16.295996,9.36024 32.253532,19.26298 47.585942,30.01609 2e-5,10e-6 4e-5,3e-5 6e-5,4e-5 13.42561,9.42132 26.38529,19.42207 38.168,30.59409 9.39881,8.94676 18.15303,18.45797 24.37614,29.33473 2.47427,4.32366 4.53166,8.79811 5.7543,13.40592 1e-5,2e-5 1e-5,4e-5 2e-5,6e-5 1.06802,4.03894 1.54675,8.17991 1.10363,12.13636 -1.3953,12.83892 -2.69693,26.06042 -1.54241,39.47194 0,2e-5 0,5e-5 1e-5,7e-5 0.43976,5.18348 1.36625,10.4958 3.22457,15.66979 1e-5,3e-5 2e-5,5e-5 3e-5,8e-5 1.63268,4.55299 4.13837,8.91422 7.61203,12.60006 3.65326,3.7945 8.10544,6.57801 12.81971,8.39062 0.65452,0.25118 1.31183,0.4869 1.9714,0.70796 z"
         style="fill:#071b42;fill-opacity:1;stroke:none" />
      <path
         clip-path="url(#clipPath4424)"
         inkscape:original-d="M 236.50209,693.10894 C 135.9838,635.96933 238.94928,574.91568 144.83557,461.43527 54.065802,351.98693 -9.3890873,498.46218 103.7419,498.82615 c 30.85433,0.0993 49.85043,37.58286 38.8792,68.11753 -12.78423,35.58055 -6.05635,41.09798 22.97057,40.93376"
         inkscape:path-effect="#path-effect4395"
         sodipodi:nodetypes="csssc"
         inkscape:connector-curvature="0"
         id="path4363"
         d="m 187.74975,641.02318 c 0.72314,2.98922 1.62477,5.89565 2.72481,8.71005 1.75351,4.4497 3.99064,8.5912 6.61329,12.43917 2.62265,3.84796 5.63276,7.40311 8.97209,10.65885 8.38437,8.16506 18.56864,14.62127 30.44215,20.27769 -5.46715,-3.65434 -10.49795,-7.34689 -15.07033,-11.16711 -4.57239,-3.82022 -8.69177,-7.76631 -12.36434,-11.96635 -2.91219,-3.32789 -5.52076,-6.83255 -7.79328,-10.5219 -2.27252,-3.68936 -4.21066,-7.5642 -5.73313,-11.66213 -0.97237,-2.59288 -1.78145,-5.27814 -2.45005,-8.05701 -1.19603,-4.97098 -1.87104,-10.11456 -2.20616,-15.29081 -0.54618,-8.53819 -0.2031,-17.20001 0.13027,-25.93766 0.37296,-9.61609 0.7418,-19.30636 0.42762,-29.05387 -0.35287,-10.929 -1.5912,-21.87189 -4.03433,-32.59041 0,-10e-6 0,-2e-5 0,-3e-5 -2.89264,-12.66333 -7.43693,-24.91197 -13.28145,-36.47424 0,0 0,-1e-5 0,-1e-5 -7.39995,-14.6321 -16.76333,-28.16182 -27.17458,-40.70765 -9.51751,-11.50297 -20.31738,-22.26352 -33.11081,-30.39886 -8.77081,-5.59891 -18.721422,-9.88899 -29.362322,-10.96501 -8.031032,-0.80023 -16.365764,0.51945 -23.645816,4.32348 -8e-6,1e-5 -1.7e-5,1e-5 -2.5e-5,1e-5 -6.433373,3.39449 -11.809813,8.644 -15.397955,14.95239 -4e-6,0 -9e-6,1e-5 -1.4e-5,2e-5 -3.522156,6.19653 -5.309897,13.33771 -5.089031,20.47186 0.24415,7.50467 2.757053,14.85263 7.079859,20.96377 5.233372,7.33341 12.71279,12.68765 20.792838,16.12556 11.273855,4.80551 23.539122,6.41114 35.513996,6.42316 6.74014,0.0127 13.49589,2.14269 19.10731,5.92244 5.66665,3.79525 10.26507,9.21166 13.61415,15.29475 3.51463,6.40553 5.64464,13.58738 6.32071,20.89165 0.69176,7.54254 -0.19015,15.24368 -2.74213,22.32882 -2.35108,6.49754 -4.64799,13.23065 -5.78173,20.33628 -0.0887,0.5558 -0.1691,1.11276 -0.24081,1.67087 -0.33392,2.54612 -0.43081,5.22044 -0.0275,7.91247 0.31216,2.14258 1.05817,4.30471 2.34035,6.2265 1.25511,1.81446 2.90809,3.20951 4.71938,4.16629 2.12656,1.11563 4.34363,1.71975 6.49141,2.05387 6.16846,0.97009 12.16764,0.35676 18.0575,-0.50264 -5.93012,-0.7449 -11.81211,-1.37284 -17.21833,-3.10374 -1.85034,-0.59875 -3.6001,-1.30748 -5.03975,-2.31173 -1.1776,-0.81951 -2.18554,-1.83131 -2.82032,-2.98084 -0.70875,-1.20059 -1.07921,-2.68542 -1.27016,-4.26402 0,0 0,0 0,-1e-5 -0.2352,-2.02814 -0.076,-4.20447 0.216,-6.49166 0.0659,-0.50441 0.13872,-1.01012 0.21814,-1.51736 1.01399,-6.47634 3.22761,-12.87554 5.53186,-19.33452 2.83066,-7.8956 3.81281,-16.38501 3.04287,-24.69361 -0.73829,-8.03355 -3.08617,-15.92817 -6.97432,-23.02997 -3.69404,-6.76803 -8.87623,-12.82406 -15.36547,-17.21362 0,0 -10e-6,-10e-6 -2e-5,-2e-5 -6.51218,-4.38332 -14.28598,-6.82587 -22.16142,-6.86018 -11.508477,-0.0635 -23.056547,-1.52055 -33.362409,-5.9773 -7.320266,-3.17208 -14.026156,-7.9005 -18.472253,-14.24808 -2e-6,0 -4e-6,0 -6e-6,-10e-6 -3.701964,-5.23109 -5.879065,-11.57789 -6.072453,-17.96033 -0.195917,-6.09424 1.353109,-12.27149 4.372886,-17.58004 4e-6,-1e-5 8e-6,-2e-5 1.2e-5,-2e-5 3.065554,-5.39323 7.702546,-9.9268 13.179608,-12.80456 6.159786,-3.27361 13.46223,-4.39077 20.548953,-3.71592 9.491796,0.88837 18.638652,4.90207 26.951062,10.13587 12.13012,7.66903 22.50061,18.05163 31.82266,29.26501 10.19959,12.3063 19.33785,25.49253 26.49922,39.67714 5.65437,11.19391 10.04759,23.02366 12.82821,35.21756 10e-6,1e-5 10e-6,2e-5 10e-6,2e-5 2.35764,10.31591 3.55098,20.91044 3.89935,31.54536 0,10e-6 0,2e-5 0,3e-5 0.31135,9.48786 -0.0571,19.04782 -0.42644,28.66295 -0.34109,8.73567 -0.68188,17.58402 -0.12338,26.49724 0.3361,5.42751 1.06038,10.88485 2.35397,16.2321 z"
         style="fill:#071b42;fill-opacity:1;stroke:none" />
      <path
         clip-path="url(#clipPath4420)"
         sodipodi:nodetypes="ccc"
         transform="translate(0,-76.828873)"
         inkscape:connector-curvature="0"
         id="path4365"
         d="M 160,646 C 118.80943,671.63734 96.957107,667.04289 104.20711,632.29289 54.957107,640.04289 50.5,583.25 114.75,565.5"
         style="fill:none;stroke:#071b42;stroke-width:5.5;stroke-linecap:butt;stroke-linejoin:miter;stroke-miterlimit:4;stroke-opacity:1;stroke-dasharray:none" />
    </g>
    <g
       id="g5766">
      <g
         transform="matrix(0.98847641,0.15137498,-0.15137498,0.98847641,240.65137,11.169798)"
         inkscape:transform-center-y="-89.999267"
         style="opacity:0.65"
         id="g5705">
        <path
           sodipodi:nodetypes="ssscsccscs"
           inkscape:connector-curvature="0"
           style="fill:#233d81;fill-opacity:1;stroke:none"
           d="m 224.33967,1603.8656 c 0,88.3656 -71.63444,160 -159.999997,160 -88.36556,0 -160,-71.6344 -160,-160 0,-46.8644 20.1429,-89.0185 52.25,-118.2812 47.7500003,-46.7202 92.75,-101.7202 92.75,-146.7202 0,-35 0,-40 -5,-75 l 40,0 c -5,35 -5,40 -5,75 0,45 44.999997,100 92.749997,146.7202 32.1071,29.2627 52.25,71.4168 52.25,118.2812 z"
           id="path4936" />
        <path
           sodipodi:nodetypes="ccssc"
           inkscape:connector-curvature="0"
           style="fill:#446acd;fill-opacity:1;fill-rule:nonzero;stroke:none"
           d="m 182.62092,1711.6156 c -147.706117,46.3154 -272.346587,-78.3251 -226.031247,-226.0312 -32.1071,29.2627 -52.25,71.4168 -52.25,118.2812 0,88.3656 71.63444,160 160,160 46.864457,0 89.018597,-20.1429 118.281247,-52.25 z"
           id="path4859" />
      </g>
      <path
         sodipodi:nodetypes="ccc"
         transform="translate(-403.03812,-222.58502)"
         inkscape:connector-curvature="0"
         id="path5764"
         d="m 512.65242,1542.9445 c -19.74783,130.473 73.95327,181.9789 97.16652,278.1858 -41.89087,-103.4238 -129.48633,-165.6848 -97.16652,-278.1858 z"
         style="opacity:0.25;fill:#ffffff;fill-opacity:1;fill-rule:nonzero;stroke:none" />
      <path
         sodipodi:nodetypes="cccscc"
         inkscape:connector-curvature="0"
         id="path4919"
         d="m 136.99596,1747.3552 c -45.531252,8.936 -105.531252,8.936 -151.062502,0 -9.64189,19.4579 -14.46875,33.9374 -14.46875,33.9374 0,5.5228 40.29437,10 90,10 49.705632,0 90.000002,-4.4772 90.000002,-10 0,0 -4.82686,-14.4795 -14.46875,-33.9374 z"
         style="fill:#233d81;fill-opacity:1;fill-rule:nonzero;stroke:none" />
    </g>
  </g>
</svg>
