<svg xmlns="http://www.w3.org/2000/svg" xmlns:inkscape="http://www.inkscape.org/namespaces/inkscape" xmlns:xlink="http://www.w3.org/1999/xlink" height="841" viewBox="0 0 692.00001 841.00004" width="692">
  <defs>
    <linearGradient id="linearGradient30427">
      <stop offset="0" stop-color="#11a2f9" stop-opacity="0" />
      <stop offset="0.3126637" stop-color="#11a2f9" />
      <stop offset="0.66187024" stop-color="#11a2f9" />
      <stop offset="1" stop-color="#11a2f9" stop-opacity="0" />
    </linearGradient>
    <inkscape:path-effect effect="powerstroke" end_linecap_type="zerowidth" id="path-effect4437" interpolator_type="CubicBezierSmooth" offset_points="0.26,3 | 2.72,3" start_linecap_type="zerowidth" />
    <inkscape:path-effect effect="powerstroke" id="path-effect6722" interpolator_type="CubicBezierSmooth" offset_points="0.21,3 | 1,3" start_linecap_type="zerowidth" />
    <inkscape:path-effect effect="powerstroke" end_linecap_type="zerowidth" id="path-effect6720" interpolator_type="CubicBezierSmooth" offset_points="0.16,3 | 3.7,3" start_linecap_type="zerowidth" />
    <inkscape:path-effect effect="join_type" id="path-effect6664" line_width="6" />
    <inkscape:path-effect effect="powerstroke" end_linecap_type="zerowidth" id="path-effect5096" interpolator_type="CubicBezierSmooth" offset_points="0.32,3 | 2.75,3" start_linecap_type="zerowidth" />
    <inkscape:path-effect effect="powerstroke" end_linecap_type="zerowidth" id="path-effect5090" interpolator_type="CubicBezierSmooth" offset_points="0.2,3 | 1.65,3" start_linecap_type="zerowidth" />
    <linearGradient id="linearGradient5060">
      <stop offset="0" stop-color="#230f38" />
      <stop offset="1" stop-color="#5c2594" />
    </linearGradient>
    <clipPath id="clipPath5074">
      <use xlink:href="#ellipse2823" />
    </clipPath>
    <clipPath id="clipPath5632">
      <use xlink:href="#path2821" />
    </clipPath>
    <clipPath id="clipPath6675">
      <path d="m 626.74824,137.99882 c 53.67065,-86.96829 21.578,-96.660943 -31.02773,-19.015 -4.83698,7.84477 -10.41533,14.49989 -17.26371,19.2486 l -17.16348,14.4256 35.86221,48.55856 18.17624,-39.92641 c 2.65775,-8.39541 6.10969,-16.01273 11.41647,-23.29135 z" />
    </clipPath>
    <linearGradient gradientUnits="userSpaceOnUse" id="linearGradient30429" x1="140.70633" x2="192.10464" y1="367.32162" y2="419.43088" xlink:href="#linearGradient30427" />
    <linearGradient gradientUnits="userSpaceOnUse" id="linearGradient30539" x1="288.25104" x2="279.74902" y1="480.39331" y2="541.74579" xlink:href="#linearGradient5060" />
  </defs>
  <g inkscape:groupmode="layer" inkscape:label="Drawing">
    <path d="m 121.05141,481.10693 v 204.58346 c 70.30069,55.27605 51.26675,106.9811 -7.37502,106.9811 -58.641776,0 -77.675718,-51.70505 -7.37502,-106.9811 v -204.58346 z" fill="#a176db" id="path4672" opacity=".1" />
    <g>
      <path d="m 470.36753,498.94543 c 49.2877,-41.12158 100.55542,-5.77091 64.58481,38.74577 -27.28307,33.76503 -95.39095,70.9875 -108.95807,58.06911 -7.57263,-7.21047 9.82649,-43.95839 34.33461,-79.0354 z" style="fill:#11a2f9;stroke-miterlimit:20;stroke-width:6;stroke:#1c92cd" />
      <path d="m 453.90688,525.80434 c 3.96255,3.32773 7.7616,1.75982 13.40244,-5.28972 -1.73621,20.82899 11.90985,15.22631 25.29057,-2.70247 -4.52034,25.63613 11.52497,17.12557 23.24483,4.03427 -1.90708,7.89694 2.17527,22.76821 22.22224,11.84563" style="fill:none;stroke-miterlimit:20;stroke-width:4;stroke:#1c92cd" />
      <path d="m 518.85619,536.13971 -76.11644,61.25965 m 50.00691,-66.41089 -67.85613,64.42435 m 42.46317,-67.37793 -42.79629,56.3223" style="fill:none;stroke-miterlimit:20;stroke-width:3;stroke:#1c92cd" />
    </g>
    <path d="m 534.73315,480.17167 c 2.4912,60.45564 16.28244,95.4334 8.91256,161.05647 -6.64102,59.13274 86.78023,61.66476 86.92618,33.20029 0.46257,-90.21269 -34.5307,-139.11734 -55.26176,-216.00218 z" style="stroke-width:6;fill:#11a2f9;stroke-miterlimit:20;stroke:#1c92cd" />
    <path d="m 549.24867,661.9743 c -126.30949,176.61776 -371.08301,156.32033 -308.99313,-137.03574 34.93064,-165.03682 -168.14545,-62.79345 -179.34374,-190.28204 -11.063354,-125.95239 171.45273,-108.24703 158.01743,2.25721 -9.15344,75.28629 -100.28044,65.87012 -101.4546,154.27321 -1.00341,75.5471 0.65761,128.82723 -0.23186,195.9497 -0.12134,9.15674 43.57414,26.04398 43.41501,65.11723 -0.19585,48.08981 -73.635479,42.10272 -89.413872,18.47128 -23.829354,-35.68944 38.485812,-79.82502 38.495812,-82.5605 0.26054,-73.33582 -0.0978,-132.86381 -0.25496,-196.56473 -0.22451,-91.00001 61.68673,-92.35225 66.27374,-157.15841 4.68828,-66.23686 -93.335392,-72.73618 -87.61411,-2.54804 9.788232,120.0811 267.26443,-54.64435 191.65661,199.26746 -47.09599,158.16123 69.00493,192.343 138.28135,89.42008 97.14547,-144.32755 -8.54386,-234.17698 -11.05184,-353.61003 -3.17908,-151.39144 244.72875,-146.34429 198.67442,36.20751 -1.93204,7.65831 19.06821,8.16008 17.50064,16.41729 -5.35338,28.19907 -36.89376,57.62944 -88.01748,56.68838 65.64562,68.852 89.86867,179.68817 14.06058,285.69014 z" fill="#6dc6fb" />
    <path d="m 576.73489,327.6835 c 7.48437,13.51619 16.55506,19.04393 30.86826,21.0199 l -4.78934,4.3823 c -12.45566,-2.72003 -22.93029,-9.56511 -26.07892,-25.4022 z m 27.31646,-9.32643 c 0.23193,4.27533 3.64979,5.714 7.30891,3.53786 -4.02237,6.08925 -9.84003,3.05057 -7.30891,-3.53786 z" fill="#1c92cd" />
    <g transform="translate(26.312919 19.677051)scale(.95444608)">
      <g clip-path="url(#clipPath5632)">
        <ellipse cx="286.23889" cy="505.45352" fill="#fff" id="path2821" rx="45.545319" ry="55.698097" transform="rotate(326.6465)" />
        <g clip-path="url(#clipPath5074)" transform="translate(0 1.4142136)">
          <ellipse cx="298.13574" cy="513.07587" fill="url(#linearGradient30539)" id="ellipse2823" rx="34.87986" ry="42.655094" transform="rotate(326.6465)" />
          <path d="m 542.91556,265.37809 -25.05215,50.73218 -28.04447,-20.09405 z" fill="#8f4dd3" />
          <path d="m 542.91556,265.37809 -57.4532,18.68824 12.26099,19.67642 z" fill="#62289e" />
          <ellipse cx="302.26273" cy="517.18628" rx="27.970537" ry="34.205536" transform="rotate(326.6465)" />
          <ellipse cx="572.01746" cy="-20.063486" fill="#fff" rx="12.579355" ry="17.347515" transform="rotate(27.870882)" />
          <ellipse cx="593.86896" cy="-39.932175" fill="#fff" rx="4.5447488" ry="6.2674189" transform="rotate(31.328739)" />
        </g>
      </g>
      <path d="m 471.06633,234.85871 c -28.36254,-14.31676 -30.26528,-9.62938 -1.72409,4.44718 z m 8.86322,-12.18065 c -22.44755,-22.48354 -25.72332,-18.62852 -3.03083,3.68291 z m -11.77141,32.01683 c 3.92098,-42.07543 44.11726,-50.91887 71.30875,-28.99378 23.16794,18.68081 29.13912,47.71902 21.49163,70.44491 13.08028,-21.32794 5.61682,-54.08184 -18.70683,-73.69456 -32.50118,-26.20644 -72.60124,-10.64091 -78.07101,26.56088 -26.96294,-5.59805 -28.08321,-0.81708 3.97746,5.68255 z" />
    </g>
    <path fill="#1c92cd" inkscape:original-d="m 418.08235,620.58101 c 97.14547,-144.32755 -8.54386,-234.17698 -11.05184,-353.61003 -3.17908,-151.39144 244.72875,-146.34429 198.67442,36.20751 -1.93204,7.65831 19.06821,8.16008 17.50064,16.41729 -7.03901,37.07818 -59.35248,76.28516 -141.81518,45.86507" inkscape:path-effect="#path-effect6720" />
    <path fill="#1c92cd" inkscape:original-d="m 549.24867,661.9743 c 75.84988,-106.06041 51.5583,-216.96035 -14.28418,-285.83273" inkscape:path-effect="#path-effect6722" />
    <g>
      <path d="m 466.50469,182.15756 c 20.67207,11.25001 24.55016,33.25612 10.23033,49.69247 28.35119,-6.19178 37.6217,-23.78724 39.74824,-46.68799 17.84252,11.2799 24.09115,27.31043 15.12827,47.03209 24.69486,-8.27112 35.1546,-24.585 33.38416,-45.39072 17.43326,9.78446 25.71897,26.51152 19.48268,47.92984 21.14875,-8.27414 30.18022,-24.1589 28.4951,-46.40026 16.50477,10.76673 21.20171,26.37964 16.34716,46.59336 60.31659,-47.35162 4.9183,-163.689381 -93.63285,-114.89325 -30.86213,15.28092 -52.38745,21.94946 -84.22492,23.94396 z" fill="#f3a4d9" />
      <path d="m 564.99569,186.80341 c 1.77044,20.80572 -8.6893,37.1196 -33.38416,45.39072 8.96288,-19.72166 2.71425,-35.75219 -15.12827,-47.03209 -2.12654,22.90075 -11.39705,40.49621 -39.74824,46.68799 14.31983,-16.43635 10.44174,-38.44246 -10.23033,-49.69247 l -8.61833,-21.87578 c 31.11519,0.58477 55.3418,-4.62612 80.84957,-13.25157 54.46512,-18.4174 78.00018,53.57145 45.74244,87.70304 6.23629,-21.41832 -2.04942,-38.14538 -19.48268,-47.92984 z" fill="#961370" />
      <path d="m 466.50469,182.15756 c 20.67207,11.25001 24.55016,33.25612 10.23033,49.69247 28.35119,-6.19178 37.6217,-23.78724 39.74824,-46.68799 17.84252,11.2799 24.09115,27.31043 15.12827,47.03209 24.69486,-8.27112 35.1546,-24.585 33.38416,-45.39072 17.43326,9.78446 25.71897,26.51152 19.48268,47.92984 21.14875,-8.27414 30.18022,-24.1589 28.4951,-46.40026 16.50477,10.76673 21.20171,26.37964 16.34716,46.59336 60.31659,-47.35162 4.9183,-163.689381 -93.63285,-114.89325 -30.86213,15.28092 -52.38745,21.94946 -84.22492,23.94396 z" fill="none" stroke="#d91e9b" stroke-width="6" />
      <g clip-path="url(#clipPath6675)">
        <path d="m 556.77148,167.43016 c 108.83188,-124.580468 114.91499,-122.936432 36.10312,31.72522 z" fill="#6dc6fb" stroke="#1c92cd" stroke-width="6" />
        <path d="m 611.85423,105.33714 c 9.53761,0.0576 18.82916,-1.15391 28.11836,-3.73236 m -50.49775,28.92437 c 12.00718,2.96955 23.91952,3.83545 36.278,2.49006 m -58.07205,21.93881 c 14.12189,6.01007 28.26715,8.93 43.42101,8.66557" style="stroke-width:3;fill:none;stroke-miterlimit:20;stroke:#1c92cd" />
      </g>
      <path d="m 613.64466,157.94312 c -13.67831,-2.69083 -23.91257,-9.61203 -31.35051,-19.5136 4.63994,-5.21992 9.01958,-10.10943 13.14125,-14.66503 6.24644,8.05536 15.37921,14.18036 26.86425,16.5468 -2.66602,5.50209 -5.55177,11.37824 -8.65499,17.63183 z" fill="#ebebeb" />
      <path d="m 601.09092,129.12267 -13.11762,17.59927 8.74684,5.46726 7.02154,-21.80909 z" fill="#fff" />
      <path fill="#d7d7d7" inkscape:original-d="m 613.64466,157.94312 c -13.67831,-2.69083 -23.91257,-9.61203 -31.35051,-19.5136 4.63994,-5.21992 9.01958,-10.10943 13.14125,-14.66503 6.24644,8.05536 15.37921,14.18036 26.86425,16.5468 -2.66602,5.50209 -5.55177,11.37824 -8.65499,17.63183 z" inkscape:path-effect="#path-effect6664" />
      <path d="m 538.73593,147.03021 c 42.09078,-14.23301 65.70939,25.52673 59.3808,60.081 z" fill="#961370" />
    </g>
    <g>
      <path d="m 418.24917,211.76902 c -11.97291,82.95732 15.22236,141.08413 60.29704,171.13074 -16.33587,1.36881 -30.87285,-0.27415 -42.90789,-7.34876 6.62748,27.88266 1.58714,57.38981 -20.13159,76.77323 4.43149,-22.24449 0.17578,-44.55388 -11.28758,-58.6864 0.58407,34.91246 -14.68973,67.66998 -55.2349,81.11316 57.53027,-96.71556 -3.49417,-202.56891 65.21,-309.46447 z" fill="#f3a4d9" />
      <path d="m 415.72409,182.3046 c 1.63744,-3.65229 2.52508,29.46442 2.52508,29.46442 -11.97291,82.95732 15.22236,141.08413 60.29704,171.13074 -16.33587,1.36881 -30.87285,-0.27415 -42.90789,-7.34876 6.62748,27.88266 1.58714,57.38981 -20.13159,76.77323 41.49025,-73.12408 -60.08019,-135.56347 0.21736,-270.01963 z" fill="#961370" />
      <path d="m 418.24917,211.76902 c -11.97291,82.95732 15.22236,141.08413 60.29704,171.13074 -16.33587,1.36881 -30.87285,-0.27415 -42.90789,-7.34876 6.62748,27.88266 1.58714,57.38981 -20.13159,76.77323 4.43149,-22.24449 0.17578,-44.55388 -11.28758,-58.6864 0.58407,34.91246 -14.68973,67.66998 -55.2349,81.11316 57.53027,-96.71556 -3.49417,-202.56891 65.21,-309.46447 z" style="fill:none;stroke-width:6;stroke:#d91e9b;stroke-miterlimit:20" />
    </g>
    <g>
      <path d="m 422.74013,269.3455 c -56.68944,-76.38042 1.76751,-142.99478 15.25666,-143.45165 8.4327,-0.28609 37.39158,36.47015 33.95028,74.64427 z" fill="#6dc6fb" />
      <path d="m 432.71259,165.26147 c -8.71387,19.29639 -11.56169,41.11442 -5.14385,62.78168 -11.10246,-18.00792 -8.3886,-46.86508 5.14385,-62.78168 z" fill="#1c92cd" />
      <path fill="#1c92cd" inkscape:original-d="m 422.74013,269.3455 c -56.68944,-76.38042 1.76751,-142.99478 15.25666,-143.45165 8.4327,-0.28609 37.39158,36.47015 33.95028,74.64427" inkscape:path-effect="#path-effect5090" />
    </g>
    <g>
      <path d="m 531.76454,470.27979 c -12.05069,60.39458 -0.0202,97.75923 -24.12346,159.23879 -21.71941,55.39901 67.09564,81.80242 75.37137,54.56716 25.95157,-85.40607 -6.30002,-144.67768 -6.42543,-224.30832 z" fill="#6dc6fb" />
      <path fill="#1c92cd" inkscape:original-d="m 531.76454,470.27979 c -12.05069,60.39458 -0.0202,97.75923 -24.12346,159.23879 -21.71941,55.39901 67.09564,81.80242 75.37137,54.56716 25.95157,-85.40607 -6.30002,-144.67768 -6.42543,-224.30832" inkscape:path-effect="#path-effect5096" />
    </g>
    <g>
      <path d="m 471.46612,502.31077 c 44.15791,-46.58692 99.19708,-17.45381 68.66126,30.95262 -23.16089,36.71534 -86.4652,81.6237 -101.44578,70.37498 -8.36156,-6.27853 4.63505,-44.8042 24.88696,-82.49909 z" fill="#6dc6fb" />
      <path fill="#1c92cd" inkscape:original-d="m 471.46612,502.31077 c 44.15791,-46.58692 99.19708,-17.45381 68.66126,30.95262 -23.16089,36.71534 -86.4652,81.6237 -101.44578,70.37498 -8.36156,-6.27853 4.63505,-44.8042 24.88696,-82.49909" inkscape:path-effect="#path-effect4437" />
      <path d="m 458.24878,530.90545 c 4.32347,2.84311 7.91384,0.84302 12.69441,-6.81604 0.70377,20.88937 13.60366,13.7341 24.8031,-5.63229 -1.50099,25.9883 13.44281,15.66528 23.55664,1.29699 -0.97349,8.06542 4.81464,22.3594 23.45163,9.17431" style="fill:none;stroke-miterlimit:20;stroke-width:4;stroke:#1c92cd" />
      <path d="m 523.96011,533.59889 -68.45613,69.71525 m 41.92411,-71.78765 -59.88321,71.89543 m 34.31907,-71.86869 -35.93873,60.92727" style="fill:none;stroke-miterlimit:20;stroke-width:3;stroke:#1c92cd" />
    </g>
    <use xlink:href="#path4672" />
    <g transform="translate(113.67639 742.9576)scale(1.6820139)">
      <g fill="#54a2e1">
        <path d="m 20.3,-9 c -5.5,14 -14.5,14.6 -19.9,14.3 l -0.5,1.9 c 6.6,1.8 15.7,1.2 21.7,-7.6 z" />
        <path d="m -2.3557714,22.080316 c -9.3743556,-11.76314 -5.3939709,-19.8573687 -2.4341632,-24.3839058 l -1.3954483,-1.3830127 c -4.8588461,4.8157676 -8.8892301,12.9965988 -4.2682071,22.5927515 z" />
        <path d="m -17.944229,-13.080316 c 14.874356,-2.23686 19.8939713,5.2573687 22.3341636,10.0839058 l 1.8954483,-0.5169873 c -1.7411543,-6.6157675 -6.81076951,-14.1965985 -17.4317929,-14.9927515 z" />
      </g>
      <g fill="#5a318e" transform="rotate(180)">
        <path d="m 20.3,-9 c -5.5,14 -14.5,14.6 -19.9,14.3 l -0.5,1.9 c 6.6,1.8 15.7,1.2 21.7,-7.6 z" />
        <path d="m -2.3557714,22.080316 c -9.3743556,-11.76314 -5.3939709,-19.8573687 -2.4341632,-24.3839058 l -1.3954483,-1.3830127 c -4.8588461,4.8157676 -8.8892301,12.9965988 -4.2682071,22.5927515 z" />
        <path d="m -17.944229,-13.080316 c 14.874356,-2.23686 19.8939713,5.2573687 22.3341636,10.0839058 l 1.8954483,-0.5169873 c -1.7411543,-6.6157675 -6.81076951,-14.1965985 -17.4317929,-14.9927515 z" />
      </g>
      <path d="m -10.18,4.52 1.18,-11.07 10.17,-4.52 9.01,6.55 -1.18,11.07 -10.17,4.52 z" fill="none" stroke="#576ab7" />
    </g>
    <path d="m 89.556785,389.31819 c 30.871485,22.28915 79.847705,22.2351 114.417555,37.42565 l 35.87193,-42.67579 c -41.44526,-8.01471 -96.75688,3.47209 -127.94438,-12.86281 z" fill="url(#linearGradient30429)" />
    <path d="m 152.18787,419.40895 c 18.14944,-15.38163 39.3809,-27.12915 53.11039,-46.4788 l -41.04708,-0.76145 c -8.78346,15.06753 -21.06189,26.87392 -31.76728,41.91438 z" fill="#6dc6fb" />
  </g>
</svg>