<?xml version="1.0" encoding="UTF-8" standalone="no"?>
<!-- Created with Inkscape (http://www.inkscape.org/) -->

<svg
   xmlns:dc="http://purl.org/dc/elements/1.1/"
   xmlns:cc="http://creativecommons.org/ns#"
   xmlns:rdf="http://www.w3.org/1999/02/22-rdf-syntax-ns#"
   xmlns:svg="http://www.w3.org/2000/svg"
   xmlns="http://www.w3.org/2000/svg"
   xmlns:xlink="http://www.w3.org/1999/xlink"
   xmlns:sodipodi="http://sodipodi.sourceforge.net/DTD/sodipodi-0.dtd"
   xmlns:inkscape="http://www.inkscape.org/namespaces/inkscape"
   id="svg2"
   version="1.1"
   inkscape:version="0.48.3.1 r9886"
   width="1280"
   height="720"
   sodipodi:docname="Collab Luna.svg"
   inkscape:export-filename="/home/parclytaxel/Pictures/Collab Luna.png"
   inkscape:export-xdpi="1151.2159"
   inkscape:export-ydpi="1151.2159">
  <metadata
     id="metadata8">
    <rdf:RDF>
      <cc:Work
         rdf:about="">
        <dc:format>image/svg+xml</dc:format>
        <dc:type
           rdf:resource="http://purl.org/dc/dcmitype/StillImage" />
        <dc:title></dc:title>
      </cc:Work>
    </rdf:RDF>
  </metadata>
  <defs
     id="defs6">
    <inkscape:path-effect
       effect="skeletal"
       id="path-effect6577"
       is_visible="true"
       pattern="m 538.50166,236.17366 c -3.69625,0 -7.26784,0.39012 -11,1.4 3.64434,1.00987 7.30375,1.4 11,1.4 l 18.2231,0 0,-2.8 z"
       copytype="single_stretched"
       prop_scale="1"
       scale_y_rel="false"
       spacing="0"
       normal_offset="0"
       tang_offset="0"
       prop_units="false"
       vertical_pattern="false"
       fuse_tolerance="0"
       pattern-nodetypes="scsccs" />
    <inkscape:path-effect
       effect="skeletal"
       id="path-effect6465"
       is_visible="true"
       pattern="m 722.875,366 c 2.31217,0 4.95949,0.36386 7.125,0.85 -2.16551,0.61872 -4.81283,0.85 -7.125,0.85 l -67.875,0 c -5.00802,0 -9.65251,-0.14289 -15,-0.85 5.34749,-0.66291 9.99198,-0.85 15,-0.85 z"
       copytype="single_stretched"
       prop_scale="1"
       scale_y_rel="false"
       spacing="0"
       normal_offset="0"
       tang_offset="0"
       prop_units="false"
       vertical_pattern="false"
       fuse_tolerance="0"
       pattern-nodetypes="scsscss" />
    <inkscape:path-effect
       effect="skeletal"
       id="path-effect6354"
       is_visible="true"
       pattern="m 571.53169,360.97697 c 2.31217,0 4.95949,0.36386 7.125,0.85 -2.16551,0.61872 -4.81283,0.85 -7.125,0.85 l -67.875,0 c -5.00802,0 -9.65251,-0.14289 -15,-0.85 5.34749,-0.66291 9.99198,-0.85 15,-0.85 z"
       copytype="single_stretched"
       prop_scale="1"
       scale_y_rel="false"
       spacing="0"
       normal_offset="0"
       tang_offset="0"
       prop_units="false"
       vertical_pattern="false"
       fuse_tolerance="0"
       pattern-nodetypes="scsscss" />
    <inkscape:path-effect
       effect="skeletal"
       id="path-effect4095"
       is_visible="true"
       pattern="m 563.74775,223.81665 c -3.69625,0 -7.26784,0.39012 -11,1.4 3.64434,1.00987 7.30375,1.4 11,1.4 l 28.4731,0 c 3.69625,0 7.92646,-0.47794 11,-1.4 -3.02964,-0.92207 -7.30375,-1.4 -11,-1.4 z"
       copytype="single_stretched"
       prop_scale="1"
       scale_y_rel="false"
       spacing="0"
       normal_offset="0"
       tang_offset="0"
       prop_units="false"
       vertical_pattern="false"
       fuse_tolerance="0"
       pattern-nodetypes="scsscss" />
    <clipPath
       clipPathUnits="userSpaceOnUse"
       id="clipPath6375">
      <path
         style="font-size:medium;font-style:normal;font-variant:normal;font-weight:normal;font-stretch:normal;text-indent:0;text-align:start;text-decoration:none;line-height:normal;letter-spacing:normal;word-spacing:normal;text-transform:none;direction:ltr;block-progression:tb;writing-mode:lr-tb;text-anchor:start;baseline-shift:baseline;color:#000000;fill:none;stroke:#000000;stroke-width:0.2;stroke-miterlimit:4;stroke-dasharray:none;marker:none;visibility:visible;display:inline;overflow:visible;enable-background:accumulate;font-family:Sans;-inkscape-font-specification:Sans"
         d="m 493.125,367 c -2.81795,-3.13003 -3.69189,-10.52264 1.34375,-19.59375 6.85406,-12.43526 28.48206,-4.49529 25.3125,6.59375 -1.25474,8.20795 -4.38689,11.82144 -7.03125,12.65625 l 2.73084,12.51828 54.97756,-9.54594 -5.3033,-45.43161 -106.94991,6.18718 8.48529,44.19418 z"
         clip-path="none"
         id="path6377"
         inkscape:connector-curvature="0"
         sodipodi:nodetypes="cccc" />
    </clipPath>
    <clipPath
       clipPathUnits="userSpaceOnUse"
       id="clipPath6379">
      <path
         style="fill:none;stroke:#000000;stroke-width:0.2;stroke-miterlimit:4;stroke-dasharray:none"
         clip-path="none"
         d="m 485.20761,358.08127 c 3.58267,-2.18348 6.60702,-5.2538 9.31035,-8.56937 l 23.45996,3.86352 c 0.27385,2.04854 0.72169,4.06332 1.53285,5.89873 0.0367,0.0831 0.0742,0.16617 0.1124,0.24908 0.6435,1.34492 1.40845,2.70041 2.60633,3.45034 l -26.07578,26.55911 z"
         id="path6381"
         inkscape:connector-curvature="0"
         sodipodi:nodetypes="cccccccc" />
    </clipPath>
    <clipPath
       clipPathUnits="userSpaceOnUse"
       id="clipPath6491">
      <path
         id="path6493"
         style="font-size:medium;font-style:normal;font-variant:normal;font-weight:normal;font-stretch:normal;text-indent:0;text-align:start;text-decoration:none;line-height:normal;letter-spacing:normal;word-spacing:normal;text-transform:none;direction:ltr;block-progression:tb;writing-mode:lr-tb;text-anchor:start;baseline-shift:baseline;color:#000000;fill:none;stroke:#ff00ff;stroke-width:0.2;stroke-miterlimit:4;stroke-dasharray:none;marker:none;visibility:visible;display:inline;overflow:visible;enable-background:accumulate;font-family:Sans;-inkscape-font-specification:Sans"
         d="m 721.96875,370.5 c 2.82545,-3.12326 3.73263,-10.51058 -1.28125,-19.59375 -3.19811,-10.91064 -28.90221,-6.95222 -25.34375,6.5625 1.23504,8.21093 4.35765,11.8151 7,12.65625 l -53.57328,5.33722 0.17678,-43.84062 109.42477,1.41421 -2.82842,42.42641 z"
         inkscape:connector-curvature="0"
         sodipodi:nodetypes="cccc" />
    </clipPath>
    <clipPath
       clipPathUnits="userSpaceOnUse"
       id="clipPath6495">
      <path
         style="fill:none;stroke:#ff00ff;stroke-width:0.2;stroke-miterlimit:4;stroke-dasharray:none"
         clip-path="none"
         d="m 692.87138,366.40009 c 1.19904,-0.73 1.98046,-2.07713 2.62841,-3.42052 0.0441,-0.0949 0.0872,-0.19004 0.12926,-0.2853 0.80536,-1.82361 1.25388,-3.82416 1.53079,-5.85843 l 23.46526,-3.81202 c 2.7553,3.34656 5.83622,6.44093 9.46995,8.65611 l -14.98877,28.63933 z"
         id="path6497"
         inkscape:connector-curvature="0"
         sodipodi:nodetypes="cccccccc" />
    </clipPath>
  </defs>
  <sodipodi:namedview
     pagecolor="#ffffff"
     bordercolor="#666666"
     borderopacity="1"
     objecttolerance="10"
     gridtolerance="10"
     guidetolerance="10"
     inkscape:pageopacity="0"
     inkscape:pageshadow="2"
     inkscape:window-width="1364"
     inkscape:window-height="698"
     id="namedview4"
     showgrid="true"
     inkscape:zoom="0.74166667"
     inkscape:cx="640"
     inkscape:cy="360"
     inkscape:window-x="0"
     inkscape:window-y="0"
     inkscape:window-maximized="1"
     inkscape:current-layer="svg2"
     showguides="true"
     inkscape:guide-bbox="true">
    <inkscape:grid
       type="xygrid"
       id="grid4080"
       empspacing="5"
       visible="true"
       enabled="false"
       snapvisiblegridlinesonly="true"
       spacingx="2.8px"
       spacingy="2.8px" />
  </sodipodi:namedview>
  <g
     id="g4130">
    <path
       sodipodi:nodetypes="scssscsss"
       inkscape:connector-curvature="0"
       id="path4053"
       d="m 605.11371,480.89831 c 9.68518,-9.09753 -5.2708,-19.07115 19.19356,-56.64052 58.36014,17.2319 70.12083,58.55609 79.22586,79.09403 20.1175,45.37849 -42.61144,14.23368 -26.83545,54.49036 16.96358,43.28716 -48.05982,8.92318 -42.71195,48.56575 6.01009,44.55152 -60.00975,-0.328 -32.39216,43.24508 -8.44665,0.27769 -14.36595,-5.23643 -14.36595,-14.33416 0,-42.76233 33.33547,-47.49554 -3.58086,-90.53097 -15.57328,-18.15464 -4.7108,-39.30015 21.46695,-63.88957 z"
       style="opacity:1;fill:#4641d1;stroke:#885de4;stroke-width:2.79999995000000013;stroke-linecap:butt;stroke-linejoin:miter;stroke-miterlimit:4;stroke-opacity:1;stroke-dasharray:none;stroke-dashoffset:3.89999999999999991;fill-opacity:0.50196081" />
    <path
       sodipodi:nodetypes="csssssc"
       inkscape:connector-curvature="0"
       id="path4057"
       d="m 626.67679,429.42678 c 44.13915,23.09688 83.01877,88.66516 57.85859,91.4212 -45.18517,4.94956 5.8998,45.22389 -33.63461,49.59315 -32.42137,3.58314 -15.19189,35.1597 -28.8968,37.93067 -13.09487,2.64762 -7.81742,20.85977 -20.26022,15.27449 -16.46244,-7.38961 17.01841,-33.8363 -2.19778,-73.15953 -29.05875,-59.46465 32.71265,-36.07728 27.13082,-121.05998 z"
       style="fill:#1558ce;stroke:none;stroke-width:0.20000000000000001;stroke-linecap:butt;stroke-linejoin:miter;stroke-miterlimit:4;stroke-opacity:1;stroke-dasharray:none;stroke-dashoffset:3.89999999999999991;fill-opacity:1" />
    <use
       height="720"
       width="1280"
       transform="matrix(0.03855108,-0.68334084,0.68334084,0.03855108,489.8369,973.06407)"
       id="use3866-8"
       xlink:href="#path3057"
       y="0"
       x="0" />
    <use
       x="0"
       y="0"
       xlink:href="#path3057"
       id="use4061"
       transform="matrix(0.26772879,-0.44228878,0.44228878,0.26772879,371.55734,768.28224)"
       width="1280"
       height="720" />
    <use
       height="720"
       width="1280"
       transform="matrix(0.52860267,-0.22313429,0.22313429,0.52860267,270.63667,593.1767)"
       id="use4063"
       xlink:href="#path3057"
       y="0"
       x="0" />
    <use
       x="0"
       y="0"
       xlink:href="#path3057"
       id="use4065"
       transform="matrix(0.30580239,0.12426279,-0.12426279,0.30580239,475.31693,393.53044)"
       width="1280"
       height="720" />
    <use
       height="720"
       width="1280"
       transform="matrix(0.05701347,0.68001274,-0.68001274,0.05701347,723.71408,66.775127)"
       id="use4067"
       xlink:href="#path3057"
       y="0"
       x="0" />
    <use
       x="0"
       y="0"
       xlink:href="#path3057"
       id="use4069"
       transform="matrix(-0.65944902,0.51002524,-0.51002524,-0.65944902,1158.2128,260.89505)"
       width="1280"
       height="720" />
    <use
       height="720"
       width="1280"
       transform="matrix(-0.05328609,0.40168716,-0.40168716,-0.05328609,736.08596,245.51883)"
       id="use4071"
       xlink:href="#path3057"
       y="0"
       x="0" />
    <use
       x="0"
       y="0"
       xlink:href="#path3057"
       id="use4073"
       transform="matrix(-0.59898146,0.05114609,-0.05114609,-0.59898146,1058.2926,550.58711)"
       width="1280"
       height="720" />
    <use
       height="720"
       width="1280"
       transform="matrix(-0.26991936,0.267863,-0.267863,-0.26991936,874.89864,343.58449)"
       id="use4075"
       xlink:href="#path3057"
       y="0"
       x="0" />
    <use
       x="0"
       y="0"
       xlink:href="#path3057"
       id="use4077"
       transform="matrix(-0.45212966,0.17866288,-0.17866288,-0.45212966,993.56531,433.87759)"
       width="1280"
       height="720" />
    <use
       height="720"
       width="1280"
       transform="matrix(0.08618736,-0.42096055,0.42096055,0.08618736,562.44371,757.78336)"
       id="use4079"
       xlink:href="#path3057"
       y="0"
       x="0" />
    <use
       x="0"
       y="0"
       xlink:href="#path3057"
       id="use4081"
       transform="matrix(-0.66100855,-0.13533475,0.13533475,-0.66100855,1102.4497,698.77836)"
       width="1280"
       height="720" />
    <use
       height="720"
       width="1280"
       transform="matrix(-0.10929217,-0.50966394,0.50966394,-0.10929217,605.40458,940.96006)"
       id="use4083"
       xlink:href="#path3057"
       y="0"
       x="0" />
    <use
       x="0"
       y="0"
       xlink:href="#path3057"
       id="use4085"
       transform="matrix(-0.41699751,-0.26973489,0.26973489,-0.41699751,847.80993,822.35425)"
       width="1280"
       height="720" />
    <use
       height="720"
       width="1280"
       transform="matrix(0.33662198,-0.694144,0.694144,0.33662198,291.65482,963.17556)"
       id="use4087"
       xlink:href="#path3057"
       y="0"
       x="0" />
    <use
       x="0"
       y="0"
       xlink:href="#path3057"
       id="use4089"
       transform="matrix(0.36564181,-0.02639646,0.02639646,0.36564181,361.83905,542.39017)"
       width="1280"
       height="720" />
    <use
       height="720"
       width="1280"
       transform="matrix(0.47153567,-0.56731112,0.56731112,0.47153567,257.64872,862.40621)"
       id="use4091"
       xlink:href="#path3057"
       y="0"
       x="0" />
    <use
       x="0"
       y="0"
       xlink:href="#path3057"
       id="use4093"
       transform="matrix(0.68865919,0.1631899,-0.1631899,0.68865919,180.02052,403.62155)"
       width="1280"
       height="720" />
    <use
       height="720"
       width="1280"
       transform="matrix(0.21374299,0.58263326,-0.58263326,0.21374299,607.24202,47.77102)"
       id="use4095"
       xlink:href="#path3057"
       y="0"
       x="0" />
    <use
       x="0"
       y="0"
       xlink:href="#path3057"
       id="use4097"
       transform="matrix(0.33277974,-0.02258263,0.02258263,0.33277974,437.75186,427.93895)"
       width="1280"
       height="720" />
    <use
       height="720"
       width="1280"
       transform="matrix(-0.29041855,0.69019263,-0.69019263,-0.29041855,950.96568,43.791822)"
       id="use4099"
       xlink:href="#path3057"
       y="0"
       x="0" />
    <use
       x="0"
       y="0"
       xlink:href="#path3057"
       id="use4101"
       transform="matrix(0.89392682,0.1373594,-0.1373594,0.89392682,89.295665,317.04068)"
       width="1280"
       height="720" />
    <use
       x="0"
       y="0"
       xlink:href="#path3057"
       id="use4103"
       transform="matrix(0.27660153,0.2323012,-0.2323012,0.27660153,447.26734,323.74332)"
       width="1280"
       height="720" />
  </g>
  <g
     id="g3972">
    <path
       sodipodi:nodetypes="ssssscsssss"
       inkscape:connector-curvature="0"
       id="path6668"
       d="m 584.33062,307.25704 c -44.82649,-6.38635 -72.42517,-72.50905 -31.27661,-117.22507 20.20315,-21.9547 73.04922,-13.49882 77.57689,-59.82359 2.25907,-23.11364 -20.85241,-64.192948 59.53805,-37.480064 42.67508,14.180474 74.20661,-31.916596 103.18662,11.970214 13.49192,20.43193 -4.77642,39.57872 8.38616,48.20263 -36.15836,9.70158 9.56625,-45.79589 -34.15655,-33.73737 -43.44395,11.98161 34.41242,55.89095 -14.94254,73.57725 -29.59294,10.6046 -65.20007,1.53323 -37.40956,42.12138 27.07232,39.53922 -13.1775,54.24492 -49.34159,46.64002 -38.82381,-8.1642 -43.32708,31.2017 -81.56087,25.7546 z"
       style="fill:#4641d1;stroke:#885de4;stroke-width:2.79999995000000013;stroke-miterlimit:4;stroke-dasharray:none;fill-opacity:0.50196081;stroke-opacity:1;opacity:1" />
    <path
       style="fill:#1558ce;stroke:none;stroke-width:0.20000000000000001;stroke-miterlimit:4;stroke-dasharray:none;fill-opacity:1"
       d="m 595.33062,298.25704 c -62.67838,5.9166 -75.72565,-95.19327 -14.06685,-113.57623 42.95198,-12.80571 59.58066,-21.99287 62.71324,-51.81144 6.97388,-66.383368 57.96132,-9.18846 99.62856,-37.42084 14.46771,-9.802853 25.43901,7.80569 14.71185,15.39203 -30.18813,21.34929 3.99545,69.17883 -40.32123,71.90048 -58.22026,3.57551 10.36305,90.91278 -62.06043,74.47863 -26.19064,-5.94311 -34.49698,38.57286 -60.60514,41.03737 z"
       id="path6672"
       inkscape:connector-curvature="0"
       sodipodi:nodetypes="ssssssss" />
    <use
       height="720"
       width="1280"
       transform="matrix(0.47851661,0.34480931,-0.34480931,0.47851661,412.76969,-157.81703)"
       id="use3831"
       xlink:href="#path3057"
       y="0"
       x="0" />
    <path
       transform="matrix(0.98265231,0.38381972,-0.38381972,0.98265231,49.816438,-259.4109)"
       d="m 680.50186,148.8345 -1.07919,-2.74203 -2.89828,0.53232 2.74203,-1.0792 -0.53232,-2.89828 1.07919,2.74203 2.89828,-0.53232 -2.74203,1.0792 z"
       inkscape:randomized="0"
       inkscape:rounded="0"
       inkscape:flatsided="false"
       sodipodi:arg2="2.0778948"
       sodipodi:arg1="1.2924967"
       sodipodi:r2="0.40217307"
       sodipodi:r1="3.2173846"
       sodipodi:cy="145.74091"
       sodipodi:cx="679.61798"
       sodipodi:sides="4"
       id="path3057"
       style="fill:#b6ecff;fill-opacity:1;stroke:none"
       sodipodi:type="star" />
    <use
       height="720"
       width="1280"
       transform="matrix(0.66758133,-0.38542825,0.38542825,0.66758133,165.76843,296.03713)"
       id="use3827"
       xlink:href="#path3057"
       y="0"
       x="0" />
    <use
       x="0"
       y="0"
       xlink:href="#path3057"
       id="use3829"
       transform="matrix(0.79826062,0.21389329,-0.21389329,0.79826062,181.9021,-111.52925)"
       width="1280"
       height="720" />
    <use
       x="0"
       y="0"
       xlink:href="#path3057"
       id="use3834"
       transform="matrix(-0.06401386,0.43972596,-0.43972596,-0.06401386,786.76065,-122.14559)"
       width="1280"
       height="720" />
    <use
       height="720"
       width="1280"
       transform="matrix(0.42492831,0.33538046,-0.33538046,0.42492831,442.13065,-124.29589)"
       id="use3836"
       xlink:href="#path3057"
       y="0"
       x="0" />
    <use
       x="0"
       y="0"
       xlink:href="#path3057"
       id="use3838"
       transform="matrix(0.13131398,0.46826107,-0.46826107,0.13131398,664.46187,-176.39823)"
       width="1280"
       height="720" />
    <use
       height="720"
       width="1280"
       transform="matrix(-0.16657436,0.65183517,-0.65183517,-0.16657436,907.04255,-258.69169)"
       id="use3840"
       xlink:href="#path3057"
       y="0"
       x="0" />
    <use
       x="0"
       y="0"
       xlink:href="#path3057"
       id="use3842"
       transform="matrix(-0.78185104,0.37479935,-0.37479935,-0.78185104,1271.6313,-0.19721427)"
       width="1280"
       height="720" />
    <use
       height="720"
       width="1280"
       transform="matrix(0.32681419,0.68175148,-0.68175148,0.32681419,589.7754,-354.94579)"
       id="use3844"
       xlink:href="#path3057"
       y="0"
       x="0" />
    <use
       x="0"
       y="0"
       xlink:href="#path3057"
       id="use3846"
       transform="matrix(-0.39385648,1.1191561,-1.1191561,-0.39385648,1132.0445,-566.0074)"
       width="1280"
       height="720" />
    <use
       height="720"
       width="1280"
       transform="matrix(0.76501979,0.62868672,-0.62868672,0.76501979,315.51105,-412.59509)"
       id="use3848"
       xlink:href="#path3057"
       y="0"
       x="0" />
    <use
       x="0"
       y="0"
       xlink:href="#path3057"
       id="use3850"
       transform="matrix(0.03709686,0.37935617,-0.37935617,0.03709686,744.61604,-129.31558)"
       width="1280"
       height="720" />
    <use
       height="720"
       width="1280"
       transform="matrix(-0.18403319,0.37758823,-0.37758823,-0.18403319,911.80847,-82.533681)"
       id="use3852"
       xlink:href="#path3057"
       y="0"
       x="0" />
    <use
       x="0"
       y="0"
       xlink:href="#path3057"
       id="use3854"
       transform="matrix(-0.58577826,-0.08957443,0.08957443,-0.58577826,1098.0695,255.32927)"
       width="1280"
       height="720" />
    <use
       height="720"
       width="1280"
       transform="matrix(0.7877802,-0.1842189,0.1842189,0.7877802,146.48671,118.26742)"
       id="use3856"
       xlink:href="#path3057"
       y="0"
       x="0" />
    <use
       x="0"
       y="0"
       xlink:href="#path3057"
       id="use3858"
       transform="matrix(0.74491307,0.84245036,-0.84245036,0.74491307,273.36246,-489.88532)"
       width="1280"
       height="720" />
    <use
       height="720"
       width="1280"
       transform="matrix(0.21032804,0.52500821,-0.52500821,0.21032804,574.182,-202.75278)"
       id="use3860"
       xlink:href="#path3057"
       y="0"
       x="0" />
    <use
       x="0"
       y="0"
       xlink:href="#path3057"
       id="use3862"
       transform="matrix(-0.28432917,0.6644128,-0.6644128,-0.28432917,956.29005,-179.19429)"
       width="1280"
       height="720" />
    <use
       height="720"
       width="1280"
       transform="matrix(-0.64768233,0.41338101,-0.41338101,-0.64768233,1173.6608,48.47501)"
       id="use3864"
       xlink:href="#path3057"
       y="0"
       x="0" />
    <use
       x="0"
       y="0"
       xlink:href="#path3057"
       id="use3866"
       transform="matrix(-0.20410137,-0.97945036,0.97945036,-0.20410137,678.66387,852.95526)"
       width="1280"
       height="720" />
    <use
       height="720"
       width="1280"
       transform="matrix(0.29012804,-0.66358834,0.66358834,0.29012804,409.06935,567.20584)"
       id="use3868"
       xlink:href="#path3057"
       y="0"
       x="0" />
    <use
       x="0"
       y="0"
       xlink:href="#path3057"
       id="use3870"
       transform="matrix(0.57355637,0.79976942,-0.79976942,0.57355637,440.70142,-437.10596)"
       width="1280"
       height="720" />
    <use
       height="720"
       width="1280"
       transform="matrix(0.03436056,-0.63190023,0.63190023,0.03436056,607.39609,592.23504)"
       id="use3872"
       xlink:href="#path3057"
       y="0"
       x="0" />
    <use
       height="720"
       width="1280"
       transform="matrix(0.33974935,0.33237352,-0.33237352,0.33974935,487.80297,-66.006361)"
       id="use3874"
       xlink:href="#path3057"
       y="0"
       x="0" />
    <use
       x="0"
       y="0"
       xlink:href="#path3057"
       id="use3876"
       transform="matrix(-0.13120579,0.96800521,-0.96800521,-0.13120579,906.02916,-428.30628)"
       width="1280"
       height="720" />
    <use
       height="720"
       width="1280"
       transform="matrix(0.11145189,0.60572514,-0.60572514,0.11145189,772.15992,-309.61103)"
       id="use3878"
       xlink:href="#path3057"
       y="0"
       x="0" />
    <use
       height="720"
       width="1280"
       transform="matrix(0.41241852,0.11050722,-0.11050722,0.41241852,370.13624,39.695005)"
       id="use3908"
       xlink:href="#path3057"
       y="0"
       x="0" />
    <use
       x="0"
       y="0"
       xlink:href="#path3057"
       id="use3910"
       transform="matrix(-0.17152038,0.64012272,-0.64012272,-0.17152038,870.51754,-251.66173)"
       width="1280"
       height="720" />
  </g>
  <g
     id="g6504">
    <path
       style="fill:#314b8f;fill-opacity:1;stroke:#071b42;stroke-width:2.79999995;stroke-linecap:butt;stroke-linejoin:miter;stroke-miterlimit:9;stroke-opacity:1;stroke-dasharray:none;stroke-dashoffset:3.9"
       d="m 632.51353,370.36697 c 14.55604,13.34915 24.8936,16.95295 27.49931,3.67795 8.81707,20.81375 17.2208,21.73663 19.88875,7.75174 7.7174,24.56917 21.09674,30.00139 25.00188,11.1946 8.26523,29.84662 26.10138,39.26681 26.12244,20.15271 9.9946,27.81927 23.20856,30.26085 24.538,1.06298 14.29688,29.05726 45.64165,40.74783 23.38731,-7.37988 20.86444,23.78848 44.88019,28.46601 47.0561,20.4512 2.45106,-9.02826 -11.90709,-16.90041 -23.72376,-30.39636 77.72919,33.7107 56.65209,-1.73073 30.55482,-17.28398 -19.86604,-11.83961 -40.87038,-10.63404 -71.05695,-39.41277 -54.98636,-52.42189 -70.87205,19.29774 -130.22071,13.0232 z"
       id="path6390"
       inkscape:connector-curvature="0"
       sodipodi:nodetypes="cccccccscsscc" />
    <path
       inkscape:original-d="m 651.50837,363.21334 c 32.76266,7.93266 25.18753,-24.27081 68.95948,-24.2074 46.13833,0.0668 26.56112,47.5223 -0.49974,14.55719 -7.05016,-8.58839 -20.71271,-5.97258 -21.96579,3.38551 -1.32256,9.87703 -6.86293,15.15071 -13.36468,5.84438"
       inkscape:path-effect="#path-effect6465"
       clip-path="url(#clipPath6491)"
       sodipodi:nodetypes="csssc"
       inkscape:connector-curvature="0"
       id="path5881-9"
       d="m 697.18413,363.37796 c -0.0463,0.10584 -0.0941,0.21159 -0.1432,0.3172 -0.67766,1.50752 -1.75471,3.08211 -3.40239,4.00939 -1.47084,0.77442 -3.21464,0.68629 -4.57428,-0.028 -2.14074,-1.15119 -3.4402,-3.11594 -4.42662,-4.88352 1.36591,1.50245 2.93779,3.1576 4.88697,3.86902 1.12451,0.4183 2.43592,0.35229 3.34677,-0.26196 1.19904,-0.73 1.98046,-2.07713 2.62841,-3.42052 0.0441,-0.0949 0.0872,-0.19004 0.12926,-0.2853 0.80536,-1.82361 1.25388,-3.82416 1.53079,-5.85843 0.31903,-2.36517 1.47448,-4.58807 3.23958,-6.20036 1.75657,-1.58887 3.97951,-2.56759 6.2707,-2.94771 5.18144,-0.85554 10.63213,1.29612 13.95498,5.33605 2.7553,3.34656 5.83622,6.44093 9.46995,8.65611 2.44222,1.47998 5.13751,2.5869 7.88771,2.6758 0,0 0,0 0,0 2.02994,0.0703 4.09964,-0.43601 5.71003,-1.58833 1.48252,-1.04288 2.60174,-2.61757 3.16621,-4.3577 1.37697,-4.05227 -0.56489,-8.81072 -3.77879,-11.84354 -5.73846,-5.42938 -14.4507,-6.65337 -22.61358,-6.71021 -10e-6,0 -10e-6,0 -10e-6,0 -8.36169,-0.002 -16.83015,1.17149 -24.26212,4.78613 -5.08838,2.45442 -9.52548,6.15254 -13.76972,10.0444 -0.0761,0.07 -0.15218,0.13998 -0.22831,0.21005 -1.79479,1.65184 -3.58413,3.29561 -5.51604,4.77771 0,0 0,0 0,0 -1.97429,1.51636 -4.11714,2.84165 -6.46129,3.76744 0,1e-5 0,1e-5 0,1e-5 -2.57364,1.01091 -5.33588,1.50065 -8.1261,1.51428 0,0 0,0 0,0 -3.52209,0.0157 -7.06295,-0.6615 -10.59467,-1.74262 3.63187,0.66749 7.16625,1.00812 10.55459,0.74649 0,0 0,0 0,0 2.67518,-0.20571 5.25536,-0.81046 7.61268,-1.85088 0,0 0,0 0,0 2.15386,-0.94553 4.13378,-2.25268 6.00459,-3.73268 0,0 0,0 10e-6,0 1.83581,-1.45395 3.5766,-3.07762 5.37523,-4.73109 0.0763,-0.0701 0.15262,-0.14028 0.229,-0.21043 4.27779,-3.9397 8.85126,-7.73055 14.17881,-10.32257 7.76477,-3.74807 16.48111,-4.97848 25.0058,-4.95624 0,0 0,0 0,0 8.33982,-0.0329 17.43763,1.34322 23.77032,7.16672 3.6599,3.37501 5.75449,8.7225 4.23695,13.61065 -0.67305,2.08226 -2.00419,3.94506 -3.80196,5.22205 -1.97686,1.38465 -4.39513,1.99458 -6.75576,1.89915 0,0 0,0 0,0 -3.14842,-0.13376 -6.1181,-1.32358 -8.71088,-2.92452 -3.85688,-2.36832 -7.08002,-5.58649 -9.89663,-9.02754 -2.91963,-3.56456 -7.8382,-5.51697 -12.35862,-4.7383 -10e-6,0 -10e-6,0 -10e-6,0 -2.0068,0.34385 -3.94236,1.18277 -5.40853,2.52832 -1.46339,1.32735 -2.4387,3.20647 -2.69916,5.16898 -0.28164,2.13708 -0.77346,4.29032 -1.66067,6.31651 z"
       style="fill:#071b42;stroke:none;fill-opacity:1" />
    <path
       clip-path="url(#clipPath6495)"
       sodipodi:nodetypes="ccc"
       inkscape:connector-curvature="0"
       id="path5883-3"
       d="m 721.4181,350.4972 c 10.25451,18.57713 -2.9374,31.03715 -12.386,15.81381 -1.64788,7.23397 -12.00239,8.03931 -14.52397,-8.72497"
       style="fill:none;stroke:#071b42;stroke-width:1.70000005000000010;stroke-linecap:butt;stroke-linejoin:miter;stroke-miterlimit:4;stroke-opacity:1;stroke-dasharray:none" />
  </g>
  <g
     id="g6383">
    <path
       sodipodi:nodetypes="cccccccscsscc"
       inkscape:connector-curvature="0"
       id="path5568"
       d="m 582.03727,364.5298 c -14.05375,13.87697 -24.25134,17.85964 -27.34494,4.68978 -8.04333,21.12482 -16.4073,22.35704 -19.58928,8.48008 -6.8059,24.83712 -19.97576,30.75914 -24.57195,12.1092 -6.03293,27.08237 -23.55267,39.70889 -26.12114,21.88846 -7.6533,24.11972 -23.02104,30.34931 -24.17184,0.81694 -13.59924,29.39024 -44.65603,41.82564 -23.55679,-6.81954 -20.29069,24.27971 -44.18795,29.52914 -46.55455,21.56855 -2.66585,-8.96718 11.5003,-17.1798 22.99147,-30.95396 -76.9024,35.55642 -56.67726,-0.37801 -30.95866,-16.54974 19.57778,-12.31042 40.60491,-11.60655 70.09596,-41.0976 54.07941,-54.07941 71.31247,17.60059 130.49445,9.91125 z"
       style="fill:#314b8f;stroke:#071b42;stroke-width:2.79999995000000013;stroke-linecap:butt;stroke-linejoin:miter;stroke-miterlimit:9;stroke-opacity:1;stroke-dasharray:none;stroke-dashoffset:3.89999999999999991;fill-opacity:1" />
    <path
       inkscape:original-d="m 563.61396,359.86251 c -34.03459,9.10104 -24.00721,-23.18975 -69.7768,-24.12486 -44.37925,-0.90671 -25.29916,47.08673 1.34041,14.31044 7.00822,-8.62265 20.72697,-5.92287 21.9576,3.4382 1.29887,9.88018 6.82657,15.16713 13.35063,5.87643"
       inkscape:path-effect="#path-effect6354"
       style="fill:#071b42;stroke:none;stroke-width:1.69999999999999996;stroke-miterlimit:4;stroke-dasharray:none;fill-opacity:1"
       d="m 519.51077,359.27419 c 0.0367,0.0831 0.0742,0.16613 0.1124,0.24904 0.6435,1.34492 1.40845,2.70041 2.60633,3.45034 0.9128,0.63039 2.23989,0.71466 3.38273,0.29671 1.96956,-0.70824 3.54922,-2.37696 4.87357,-3.90756 -0.94452,1.79732 -2.25211,3.77699 -4.41477,4.92511 -1.37925,0.7138 -3.13995,0.78247 -4.61283,-0.01 -1.64653,-0.94898 -2.70611,-2.53322 -3.37806,-4.0427 -0.0425,-0.0923 -0.084,-0.1846 -0.12444,-0.27698 -0.8936,-2.04017 -1.38491,-4.2091 -1.66328,-6.36115 -0.25574,-1.9657 -1.23196,-3.84864 -2.69544,-5.18255 -1.4683,-1.35332 -3.40656,-2.20174 -5.41814,-2.55354 -4.51548,-0.79359 -9.44417,1.14807 -12.34166,4.72321 -2.76341,3.41049 -5.93174,6.60677 -9.74227,8.94721 -2.55012,1.57544 -5.48212,2.7353 -8.58442,2.83039 0,0 0,0 -1e-5,0 -2.34614,0.0649 -4.731,-0.5898 -6.66648,-1.99043 -1.78288,-1.30716 -3.09628,-3.18147 -3.77641,-5.26267 -1.52075,-4.80089 0.34901,-10.12897 3.92283,-13.52269 2.49296,-2.37098 5.60292,-3.95303 8.81374,-4.95989 4.55404,-1.43379 9.34454,-1.83968 14.05036,-1.73829 0,0 0,0 0,0 8.81376,0.16975 17.80741,1.55401 25.78858,5.53353 5.30286,2.66465 9.83476,6.52 14.06664,10.52424 0.11509,0.10857 0.23006,0.21712 0.34496,0.3256 1.69747,1.6026 3.34846,3.16671 5.10135,4.55172 0,0 0,10e-6 0,10e-6 1.82649,1.44161 3.77794,2.69037 5.89885,3.55364 0,0 0,0 0,0 2.38007,0.97602 4.98603,1.46921 7.6688,1.57856 0,0 0,0 0,0 3.50767,0.14321 7.14429,-0.32692 10.89026,-1.09262 -3.63186,1.19242 -7.2606,2.00646 -10.89486,2.11722 0,0 0,0 0,0 -2.79019,0.0845 -5.57846,-0.29246 -8.19028,-1.24135 0,0 0,0 0,0 -2.32194,-0.84981 -4.44699,-2.12481 -6.38663,-3.61437 0,0 0,0 -10e-6,0 -1.85375,-1.42205 -3.55782,-3.01218 -5.25519,-4.6168 -0.11488,-0.10861 -0.22966,-0.21714 -0.34436,-0.32554 -4.19826,-3.95553 -8.59473,-7.71615 -13.6603,-10.24004 -7.64962,-3.84242 -16.40126,-5.16688 -25.06253,-5.35416 -10e-6,0 -10e-6,0 -10e-6,0 -4.58689,-0.0885 -9.19497,0.29117 -13.50311,1.65955 -3.02703,0.9655 -5.91617,2.41678 -8.15128,4.56758 -3.12608,3.01387 -4.84902,7.75592 -3.48237,11.76463 0.57686,1.75395 1.68581,3.347 3.16308,4.4189 1.58006,1.16479 3.61638,1.71073 5.62087,1.66422 0,0 0,0 0,0 2.69414,-0.0533 5.34488,-1.13005 7.74063,-2.581 3.58267,-2.18348 6.60702,-5.2538 9.31035,-8.56937 0,0 0,0 10e-6,-10e-6 3.30636,-4.05783 8.77086,-6.20055 13.94912,-5.32637 2.2958,0.38927 4.52042,1.37801 6.27724,2.97449 1.76369,1.61776 2.91929,3.84498 3.23359,6.21541 0.27385,2.04854 0.72169,4.06332 1.53285,5.89869 z"
       id="path5881"
       inkscape:connector-curvature="0"
       sodipodi:nodetypes="csssc"
       clip-path="url(#clipPath6375)" />
    <path
       style="fill:none;stroke:#071b42;stroke-width:1.70000005;stroke-linecap:butt;stroke-linejoin:miter;stroke-miterlimit:4;stroke-opacity:1;stroke-dasharray:none"
       d="m 493.73493,346.97869 c -10.29903,18.55248 2.86296,31.04411 12.34803,15.84348 1.63052,7.2379 11.95181,8.05245 14.51361,-8.70574"
       id="path5883"
       inkscape:connector-curvature="0"
       sodipodi:nodetypes="ccc"
       clip-path="url(#clipPath6379)" />
  </g>
  <path
     sodipodi:nodetypes="csssssssssssssssssscsssccc"
     inkscape:connector-curvature="0"
     id="path6509"
     d="m 614.68485,445.9683 c 4.02401,18.27723 13.13381,27.10854 12.55596,30.33221 -1.67657,9.353 -9.43972,11.91938 -9.2714,13.69962 3.89875,41.2359 1.4632,80.55171 -4.83837,106.19724 -1.41938,5.77647 24.48473,32.13585 27.69581,26.1272 30.37397,-56.83651 -5.48103,-80.88296 -6.09179,-126.91776 -0.031,-2.33987 33.1044,-21.06179 -6.08531,-72.4628 -1.01951,-1.33719 1.72392,-38.40935 12.63381,-56.0368 1.07255,-1.73295 82.39227,26.01205 116.76748,26.4457 2.83719,0.0358 21.12322,-34.2275 21.12322,-37.56449 0,-2.69848 -36.36365,18.78404 -145.95133,-10.66417 -4.01343,-1.07848 -4.81187,-31.11851 -7.68931,-49.63792 -1.61615,-10.40167 -35.08467,-9.96613 -35.29103,-0.84094 -0.55937,24.73552 -8.23756,41.35729 -13.65971,45.92802 -7.58986,6.39805 -101.74273,17.2108 -140.17742,-0.663 -4.99811,-2.32434 13.07615,38.14104 18.32108,38.79075 29.12176,3.6074 117.84569,-17.22513 118.27589,-15.3055 4.35546,19.43496 15.2205,41.0522 15.83827,60.92984 0.0805,2.59085 -31.48184,20.84437 -22.76232,46.70197 1.60467,4.75861 9.69411,7.25422 15.07308,3.1545 -7.64788,36.55535 -38.58089,54.99908 -14.48748,101.43957 3.69927,7.13042 30.77656,-16.24301 29.56092,-21.17368 -4.00044,-16.22588 -2.15425,-73.53986 4.78813,-92.807 0.49838,-1.38314 -1.6315,-5.38465 -4.53499,-7.81663 2.35302,-2.43642 3.85562,-5.30904 4.96048,-8.40264 4.41544,1.26862 8.91927,1.48262 13.24633,0.54671 z"
     style="fill:#314b8f;stroke:none;stroke-width:0.20000000000000001;stroke-miterlimit:4;stroke-opacity:1;stroke-dasharray:none;fill-opacity:1" />
  <path
     style="fill:none;stroke:#071b42;stroke-width:2.79999995000000013;stroke-miterlimit:4;stroke-dasharray:none;stroke-opacity:1"
     d="m 614.68485,445.9683 c 4.02401,18.27723 13.13381,27.10854 12.55596,30.33221 -1.67657,9.353 -9.43972,11.91938 -9.2714,13.69962 3.89875,41.2359 1.4632,80.55171 -4.83837,106.19724 -1.41938,5.77647 24.48473,32.13585 27.69581,26.1272 30.37397,-56.83651 -5.48103,-80.88296 -6.09179,-126.91776 -0.031,-2.33987 33.1044,-21.06179 -6.08531,-72.4628 -1.01951,-1.33719 1.72392,-38.40935 12.63381,-56.0368 1.07255,-1.73295 82.39227,26.01205 116.76748,26.4457 2.83719,0.0358 21.12322,-34.2275 21.12322,-37.56449 0,-2.69848 -36.36365,18.78404 -145.95133,-10.66417 -4.01343,-1.07848 -4.81187,-31.11851 -7.68931,-49.63792 -1.61615,-10.40167 -35.08467,-9.96613 -35.29103,-0.84094 -0.55937,24.73552 -8.23756,41.35729 -13.65971,45.92802 -7.58986,6.39805 -101.74273,17.2108 -140.17742,-0.663 -4.99811,-2.32434 13.07615,38.14104 18.32108,38.79075 29.12176,3.6074 117.84569,-17.22513 118.27589,-15.3055 4.35546,19.43496 15.2205,41.0522 15.83827,60.92984 0.0805,2.59085 -31.48184,20.84437 -22.76232,46.70197 1.60467,4.75861 9.69411,7.25422 15.07308,3.1545 -7.64788,36.55535 -38.58089,54.99908 -14.48748,101.43957 3.69927,7.13042 30.77656,-16.24301 29.56092,-21.17368 -4.00044,-16.22588 -2.15425,-73.53986 4.78813,-92.807 0.49838,-1.38314 -1.6315,-5.38465 -4.53499,-7.81663"
     id="path3771"
     inkscape:connector-curvature="0"
     sodipodi:nodetypes="csssssssssssssssssscsssc" />
  <g
     id="g5560">
    <path
       sodipodi:nodetypes="ccccsc"
       inkscape:connector-curvature="0"
       id="path3870"
       d="m 580.23473,334.61792 c 0.73008,-6.34588 2.33547,-10.50933 4.95679,-15.19652 0.18198,43.21473 43.99075,41.75807 45.0943,-0.24587 2.13464,5.07735 3.66574,13.38693 4.34252,20.33668 -9.48008,14.48896 5.12222,48.32438 -29.28796,48.32438 -33.05572,0 -17.4059,-37.30922 -25.10565,-53.21867 z"
       style="fill:#020016;stroke:#7070ca;stroke-width:2.79999995000000013;stroke-miterlimit:9;stroke-opacity:1;stroke-dasharray:none;fill-opacity:1" />
    <path
       id="path7017"
       d="m 608.41818,359.40687 c -12.27351,-3.45148 -18.03763,9.81643 -10.99881,17.3998 9.40746,10.13587 23.62672,1.14445 18.728,-10.35638 -5.21918,11.08902 -18.31584,-1.41249 -7.72919,-7.04342 z"
       style="fill:#ffffff;fill-opacity:1;stroke:none;display:inline"
       inkscape:connector-curvature="0"
       sodipodi:nodetypes="cscc" />
    <use
       x="0"
       y="0"
       xlink:href="#path3792"
       id="use3794-8"
       transform="matrix(-0.19670445,1.5055507,-1.5055507,-0.19670445,1570.7192,-387.65473)"
       width="1280"
       height="720" />
    <use
       height="720"
       width="1280"
       transform="matrix(0.69308128,-0.53290291,0.53290291,0.69308128,-108.41772,265.40528)"
       id="use5552"
       xlink:href="#path3792"
       y="0"
       x="0" />
    <use
       x="0"
       y="0"
       xlink:href="#path3792"
       id="use5554"
       transform="matrix(-0.23816578,-0.88595147,0.88595147,-0.23816578,240.90958,995.83461)"
       width="1280"
       height="720" />
    <use
       height="720"
       width="1280"
       transform="matrix(0.74633779,-0.09619589,0.09619589,0.74633779,130.15285,-6.0937381)"
       id="use5556"
       xlink:href="#path3792"
       y="0"
       x="0" />
  </g>
  <path
     id="path3779"
     style="fill:#071b42;stroke:none;fill-opacity:1"
     d="m 591.02903,458.76831 c 4.33763,-4.34781 7.4715,-8.6797 9.19508,-13.71783 l 2.46784,0.72227 c -2.16553,5.70105 -5.41239,10.17287 -11.66292,12.99556 z m 4.41184,-15.76863 c 9.57315,3.33025 20.13949,3.41699 28.60737,-0.61993 -6.75627,6.89067 -21.09957,7.14202 -28.60737,0.61993 z" />
  <g
     id="g3800">
    <path
       style="fill:#c2bff3;fill-opacity:1;stroke:#9b93f0;stroke-width:2.79999995;stroke-linecap:butt;stroke-linejoin:miter;stroke-miterlimit:4;stroke-opacity:1;stroke-dasharray:none;stroke-dashoffset:3.9"
       d="m 596.76458,548.33212 c 0.0366,2.63886 -0.25395,5.77776 -0.21653,7.89461 0.0597,3.37578 -26.26706,27.44927 -30.47097,20.16789 -3.29658,-5.70985 -8.18435,-20.12185 -8.62814,-31.13702 4.54289,1.02589 8.45006,4.9558 11.29603,10.23613 1.18566,-2.97595 3.09912,-5.61244 5.39461,-6.66161 -1.75,10.0625 6.625,13.3125 22.625,-0.5 z"
       id="path3788"
       inkscape:connector-curvature="0"
       sodipodi:nodetypes="csscccc" />
    <path
       transform="matrix(0.85861903,-0.02145627,0.02145627,0.85861903,68.348676,93.482754)"
       d="m 569,576.1875 0.007,-2.30113 -2.25693,-0.44887 2.30113,0.007 0.44887,-2.25693 -0.007,2.30113 2.25693,0.44887 -2.30113,-0.007 z"
       inkscape:randomized="0"
       inkscape:rounded="0"
       inkscape:flatsided="false"
       sodipodi:arg2="2.4558631"
       sodipodi:arg1="1.670465"
       sodipodi:r2="0.3140586"
       sodipodi:r1="2.5124688"
       sodipodi:cy="573.6875"
       sodipodi:cx="569.25"
       sodipodi:sides="4"
       id="path3792"
       style="fill:#ffffff;fill-opacity:1;fill-rule:nonzero;stroke:none"
       sodipodi:type="star" />
    <use
       height="720"
       width="1280"
       transform="matrix(0.65592522,-0.06232988,0.06232988,0.65592522,173.38166,222.40218)"
       id="use3794"
       xlink:href="#path3792"
       y="0"
       x="0" />
  </g>
  <g
     id="g3809">
    <path
       sodipodi:nodetypes="csscccc"
       inkscape:connector-curvature="0"
       id="path3786"
       d="m 613.3125,588.1875 c -0.125,3.03661 -0.36167,6.70581 -0.65847,9.70711 -0.34511,3.48983 23.39025,29.78964 27.34597,25.66789 5.86872,-6.11504 11.34911,-26.83838 13.52589,-36.35355 -5.25,0.9375 -9.91161,6.25314 -12.71339,11.66605 -0.65533,-3.15273 -2.21523,-5.86114 -4.6875,-7.75 0.5625,9.3125 -7.3125,16.5 -22.8125,-2.9375 z"
       style="fill:#c2bff3;fill-opacity:1;stroke:#9b93f0;stroke-width:2.79999995;stroke-linecap:butt;stroke-linejoin:miter;stroke-miterlimit:4;stroke-opacity:1;stroke-dasharray:none;stroke-dashoffset:3.9" />
    <use
       x="0"
       y="0"
       xlink:href="#path3792"
       id="use3798"
       transform="matrix(0.94768746,0.63974928,-0.63974928,0.94768746,458.19337,-303.05764)"
       width="1280"
       height="720" />
    <use
       height="720"
       width="1280"
       transform="matrix(0.72999127,-0.23593169,0.23593169,0.72999127,88.522837,311.81554)"
       id="use3805"
       xlink:href="#path3792"
       y="0"
       x="0" />
    <use
       x="0"
       y="0"
       xlink:href="#path3792"
       id="use3807"
       transform="matrix(0.19242969,-0.89842514,0.89842514,0.19242969,17.204395,996.53557)"
       width="1280"
       height="720" />
  </g>
  <g
     id="g3837">
    <path
       style="fill:#c2bff3;fill-opacity:1;stroke:#9b93f0;stroke-width:2.79999995;stroke-linecap:butt;stroke-linejoin:miter;stroke-miterlimit:4;stroke-opacity:1;stroke-dasharray:none;stroke-dashoffset:3.9"
       d="m 741.06192,359.57027 c 13.1936,-1.1651 24.76592,-2.61979 38.15822,-5.48201 5.08281,-1.0863 -15.03583,38.86381 -20.55719,39.42029 -2.52328,0.25431 -7.48657,0.32791 -10.33403,0.26676 14.35885,-17.49368 8.95444,-20.69329 -5.30176,-19.39388 2.42761,-3.32076 5.38575,-6.19897 9.25671,-8.71936 -5.90242,-0.005 -9.75166,-2.5973 -11.22195,-6.0918 z"
       id="path3784"
       inkscape:connector-curvature="0"
       sodipodi:nodetypes="csscccc" />
    <use
       x="0"
       y="0"
       xlink:href="#path3792"
       id="use3805-5"
       transform="matrix(0.86351745,0.89548855,-0.89548855,0.86351745,790.03914,-642.94272)"
       width="1280"
       height="720" />
    <use
       height="720"
       width="1280"
       transform="matrix(0.87683793,0.01593713,-0.01593713,0.87683793,257.60041,-148.87161)"
       id="use3833"
       xlink:href="#path3792"
       y="0"
       x="0" />
    <use
       x="0"
       y="0"
       xlink:href="#path3792"
       id="use3835"
       transform="matrix(0.64545787,1.3607829,-1.3607829,0.64545787,1186.7163,-776.88587)"
       width="1280"
       height="720" />
  </g>
  <g
     id="g3865">
    <path
       sodipodi:nodetypes="csscccc"
       inkscape:connector-curvature="0"
       id="path3782"
       d="m 472.9375,347.35669 c -12.69746,-2.04289 -24.91209,-5.10128 -38.03845,-9.00574 -4.63279,-1.37803 13.44188,39.6777 18.89384,40.66422 2.49552,0.45156 7.04918,1.07192 10.26647,1.26386 -12.94163,-18.56663 -7.40479,-21.16291 6.19064,-18.96653 -1.92992,-3.23223 -4.61336,-5.98483 -8.14017,-8.91605 6.25445,0.26516 9.68122,-1.89071 10.82767,-5.03976 z"
       style="fill:#c2bff3;fill-opacity:1;stroke:#9b93f0;stroke-width:2.79999995;stroke-linecap:butt;stroke-linejoin:miter;stroke-miterlimit:4;stroke-opacity:1;stroke-dasharray:none;stroke-dashoffset:3.9" />
    <use
       height="720"
       width="1280"
       transform="matrix(1.1799387,-0.14894416,0.14894416,1.1799387,-288.48512,-243.66754)"
       id="use3835-6"
       xlink:href="#path3792"
       y="0"
       x="0" />
    <use
       x="0"
       y="0"
       xlink:href="#path3792"
       id="use3861"
       transform="matrix(1.8562652,0.33431779,-0.33431779,1.8562652,-424.53488,-897.08349)"
       width="1280"
       height="720" />
  </g>
  <g
     id="g6631">
    <path
       sodipodi:nodetypes="cccc"
       inkscape:connector-curvature="0"
       id="path6521"
       d="m 646.64916,359.30967 c -48.43682,-25.63262 6.0104,-59.3311 0.53032,-89.73669 -8.56634,-34.58651 -3.55696,-55.89998 6.19239,-54.6188 30.93593,49.67425 -16.44542,80.82679 -6.72271,144.35549 z"
       style="fill:#1558ce;fill-opacity:1;stroke:#885de4;stroke-width:2.79999995;stroke-linecap:butt;stroke-linejoin:miter;stroke-miterlimit:4;stroke-opacity:1;stroke-dasharray:none;stroke-dashoffset:3.9" />
    <path
       sodipodi:nodetypes="csccsc"
       inkscape:connector-curvature="0"
       id="path6519"
       d="m 663.57322,354.57322 c -1.625,29 -25.76776,29.82429 -23.14644,-18.39645 C 642.98151,289.18103 676.82322,266.51777 652.5,216 l 2.51832,-2.9401 c 28.48743,43.69454 -4.71751,71.3475 -4.71751,120.15269 0,26.71281 6.48327,31.31136 13.27241,21.36063 z"
       style="fill:#1558ce;fill-opacity:1;stroke:#885de4;stroke-width:2.79999995;stroke-linecap:butt;stroke-linejoin:miter;stroke-miterlimit:4;stroke-opacity:1;stroke-dasharray:none;stroke-dashoffset:3.9" />
    <path
       transform="matrix(-1.0347074,0.02367558,-0.02367558,-1.0347074,1244.8006,493.3698)"
       d="m 657.70979,250.93439 a 46.819229,55.372578 0 1 1 -93.63846,0 46.819229,55.372578 0 1 1 93.63846,0 z"
       sodipodi:ry="55.372578"
       sodipodi:rx="46.819229"
       sodipodi:cy="250.93439"
       sodipodi:cx="610.89056"
       id="path2999"
       style="fill:#314b8f;fill-opacity:1;stroke:#071b42;stroke-width:2.7053709;stroke-linecap:butt;stroke-linejoin:miter;stroke-miterlimit:4;stroke-opacity:1;stroke-dasharray:none;stroke-dashoffset:3.9"
       sodipodi:type="arc" />
    <g
       id="g4070">
      <path
         sodipodi:nodetypes="cscc"
         inkscape:connector-curvature="0"
         id="path4051"
         d="m 589.33452,267.39267 c 4.96982,-35.15799 -18.89372,-63.16632 -25.26612,-38.14533 -5.43039,21.3222 5.1686,40.0293 19.89547,43.05816 z"
         style="fill:#779ae1;fill-opacity:1;stroke:none" />
      <path
         sodipodi:nodetypes="ccccccccccccccc"
         inkscape:connector-curvature="0"
         d="m 567.92974,259.86245 c -2.74373,1.01744 -6.7109,0.5911 -9.68318,-2.00578 2.39291,4.40845 6.76062,5.20032 11.00334,3.7799 z m -2.11864,-4.44531 c -3.38832,0.44763 -6.39696,-0.49383 -9.08785,-3.38547 1.6693,4.39721 5.3572,5.8728 9.90858,5.45392 z m -2.05605,-5.43908 c -3.73986,0.53126 -6.23804,-0.47481 -8.65469,-3.71939 1.33627,4.60965 4.40288,6.15997 9.23791,5.74865 z M 589.971,260.111 c -2.47601,19.34459 -20.12304,8.55998 -26.641,-11.936 2.86546,25.83781 29.24595,34.8863 26.641,11.936 z"
         style="fill:#000000;fill-opacity:1;fill-rule:nonzero;stroke:none"
         id="path4066" />
    </g>
    <path
       d="m 594.51153,278.55104 c 1.58069,11.37212 19.49506,13.88475 23.27113,2.20527 -0.21955,13.56751 -24.76399,12.10868 -23.27113,-2.20527 z m 17.6376,-2.5693 c 4.17469,1.28203 6.33294,-1.89435 3.17769,-5.28096 0.5278,2.78395 -0.44119,4.55272 -3.17769,5.28096 z m -10.74982,0.0757 c -4.44269,1.03902 -5.98066,-2.38961 -2.85474,-5.46228 -0.59585,2.57718 -0.0291,4.53721 2.85474,5.46228 z m -10e-4,-9.31331 c 3.69496,-2.28687 8.17904,-2.15757 11.40087,0.29537 -3.56969,-0.7717 -7.80813,-0.89201 -11.40087,-0.29537 z"
       style="fill:#071b42;fill-opacity:1;fill-rule:nonzero;stroke:none"
       id="path4121"
       inkscape:connector-curvature="0" />
    <g
       id="g6657">
      <path
         style="fill:#1558ce;fill-opacity:1;stroke:none"
         d="m 619,204.75 c 1.31066,13.78553 -6.65284,25.10575 -21.19299,27.70508 C 577.39768,236.10363 564.5915,247.04432 556.859,263.839 533.41387,198.36567 615.44959,167.4068 619,204.75 z"
         id="path6606"
         inkscape:connector-curvature="0"
         sodipodi:nodetypes="sscs" />
      <path
         style="fill:#885de4;fill-opacity:1;stroke:none"
         d="m 579.16889,237.27833 c -2.63069,1.40131 -5.11371,3.0311 -7.40881,4.89863 -6.92574,5.66692 -11.87424,13.27376 -14.90093,21.66226 4.32433,-7.57495 9.74407,-14.4433 16.53974,-19.58093 2.22905,-1.69536 4.59863,-3.194 7.08215,-4.51421 5.44031,-2.892 11.44995,-4.8089 17.57234,-5.91085 0,0 0,0 0,0 6.74058,-1.18693 13.21942,-4.63385 17.41573,-10.19793 0,0 0,0 0,-1e-5 4.02999,-5.43859 5.56996,-12.38808 4.92461,-19.0178 l -2.78744,0.26502 c 0.55803,6.02749 -0.80049,12.33002 -4.38027,17.07693 -3.63324,4.91558 -9.52862,8.00235 -15.66537,9.11749 0,0 0,0 0,0 -6.37197,1.13165 -12.65475,3.1454 -18.39175,6.2014 z"
         id="path6551"
         inkscape:connector-curvature="0"
         sodipodi:nodetypes="csc"
         inkscape:path-effect="#path-effect6577"
         inkscape:original-d="m 556.85915,263.83922 c 7.7325,-16.79468 20.53853,-27.73559 40.94786,-31.38414 C 612.34716,229.85575 620.31066,218.53553 619,204.75" />
      <path
         style="fill:#020016;fill-opacity:1;stroke:#7070ca;stroke-width:2.79999995;stroke-miterlimit:4;stroke-opacity:1;stroke-dasharray:none"
         d="m 575.8867,202.9156 c 11.70127,-44.3627 9.69976,9.83791 18.79899,-25.29683 7.23237,-27.92625 11.63228,-27.10837 16.13325,-0.1072 5.61224,33.66762 7.14581,-15.62436 15.8278,24.56003 -15.84063,5.52234 -31.95522,5.81828 -50.76004,0.84404 z"
         id="path6511"
         inkscape:connector-curvature="0"
         sodipodi:nodetypes="cssccc" />
      <g
         id="g4143">
        <path
           sodipodi:nodetypes="ccc"
           inkscape:connector-curvature="0"
           id="path4124"
           d="m 592.98463,215.93853 20.90011,-12.29418 C 611.02869,99.47131 607.84221,99.348846 592.98463,215.93853 z"
           style="fill:#314b8f;fill-opacity:1;stroke:#071b42;stroke-width:2.79999995;stroke-miterlimit:4;stroke-opacity:1;stroke-dasharray:none" />
        <path
           sodipodi:nodetypes="cccccccccccc"
           inkscape:connector-curvature="0"
           d="m 603.90791,140.08284 c 2.65133,0.66248 5.04848,0.49547 7.28923,-0.53331 m -9.09558,10.58807 c 3.53895,1.1064 6.68046,0.69351 9.66596,-1.30662 m -11.33346,11.09067 c 4.14879,1.7555 7.95044,1.19563 11.85498,-1.75644 m -13.33773,12.75773 c 4.68335,2.41916 9.04089,1.75842 13.76237,-2.06514 m -15.41806,13.86203 c 5.53855,3.58729 10.53545,3.02018 16.07599,-1.83177 m -17.66599,13.18976 c 6.16035,4.66252 11.55707,4.39413 17.59944,-0.97751"
           style="fill:none;stroke:#071b42;stroke-width:1.60000002;stroke-linecap:butt;stroke-linejoin:miter;stroke-miterlimit:4;stroke-opacity:1;stroke-dasharray:none;stroke-dashoffset:3.9"
           id="path4140" />
      </g>
      <path
         style="fill:#1558ce;fill-opacity:1;stroke:#885de4;stroke-width:2.79999995;stroke-linecap:butt;stroke-linejoin:miter;stroke-miterlimit:4;stroke-opacity:1;stroke-dasharray:none;stroke-dashoffset:3.9"
         d="m 636.625,201 c -10.49556,0.60041 1.36293,20.81682 -22.125,29.80178 -14.26634,5.45738 -16.90793,18.75628 0,20.19822 -15.89277,15.15733 -50.04872,6.96079 -26.5,-31.5 13.18171,-21.52893 31.98439,-27.12195 50.56066,-23.85355 z"
         id="path6515"
         inkscape:connector-curvature="0"
         sodipodi:nodetypes="cscscc" />
    </g>
    <g
       id="g4107">
      <path
         sodipodi:nodetypes="cscc"
         inkscape:connector-curvature="0"
         id="path4105"
         d="m 633.49316,205.60504 c 3.35313,-16.50844 13.77921,-26.44107 14.93713,-25.54906 2.57938,1.98704 18.12098,25.30937 2.14006,52.99152 z"
         style="fill:#314b8f;fill-opacity:1;stroke:none" />
      <path
         style="fill:#071b42;fill-opacity:1;stroke:none"
         d="m 639.36262,187.38035 c -3.55224,5.50134 -5.58012,11.72673 -5.86946,18.22469 2.23858,-5.94775 4.87029,-11.52042 8.22059,-16.70614 0.38934,-0.60264 0.79274,-1.19603 1.21011,-1.77942 1.24558,-1.73323 2.56326,-3.37241 4.08738,-4.72444 0.45413,-0.39358 0.85489,-0.74036 1.25022,-0.94406 0.1282,-0.0543 0.16579,-0.0881 0.11811,-0.0629 0,0 0,0 0,0 -0.0296,0.10309 -0.28058,0.01 -0.80365,-0.22301 0,0 -10e-6,0 -10e-6,0 0.3866,0.26755 0.7359,0.80836 1.20964,1.42576 0,0 0,0 0,0 0.76472,1.05079 1.44606,2.18298 2.08362,3.35739 1.91484,3.53237 3.31474,7.35105 4.22739,11.28388 1.20917,5.21895 1.50732,10.65241 0.85451,15.96596 -0.0788,0.64622 -0.17191,1.29059 -0.27888,1.93275 -0.50691,3.04289 -1.26643,6.27368 -2.18625,9.36248 -0.91981,3.08879 -1.99205,6.03235 -2.91559,8.55423 1.7032,-2.02815 3.45375,-4.7349 4.86175,-7.78609 1.408,-3.0512 2.45936,-6.44099 2.99964,-9.66986 0.11402,-0.68141 0.21366,-1.36566 0.29847,-2.0524 0.69222,-5.64467 0.37694,-11.4025 -0.90591,-16.93908 -0.96254,-4.16048 -2.45103,-8.21304 -4.49314,-11.9855 -0.67657,-1.25158 -1.42342,-2.48773 -2.28016,-3.66927 0,0 0,0 0,0 -0.41715,-0.60913 -0.95201,-1.34081 -1.76633,-1.99839 -10e-6,0 -10e-6,-1e-5 -2e-5,-1e-5 -0.69957,-0.36894 -1.19888,-0.4521 -1.4471,-0.30588 0,0 -10e-6,0 -10e-6,0 -0.41177,0.0971 -0.71396,0.22638 -0.91192,0.34916 -0.71371,0.39834 -1.29041,0.86884 -1.77806,1.31519 -1.74448,1.56309 -3.20022,3.35607 -4.50157,5.18583 -0.44274,0.61987 -0.87056,1.24984 -1.28337,1.88915 z"
         id="path4078"
         inkscape:connector-curvature="0"
         sodipodi:nodetypes="csc"
         inkscape:path-effect="#path-effect4095"
         inkscape:original-d="m 633.49316,205.60504 c 3.35313,-16.50844 13.77921,-26.44107 14.93713,-25.54906 2.57938,1.98704 18.12098,25.30937 2.14006,52.99152" />
      <path
         style="fill:#071b42;fill-opacity:1;fill-rule:nonzero;stroke:none"
         d="m 648.51811,194.94436 c 2.36844,8.23077 1.74383,17.63277 -0.96597,26.03368 4.55668,-8.27016 4.94783,-17.84984 0.96597,-26.03368 z"
         id="path4103"
         inkscape:connector-curvature="0"
         sodipodi:nodetypes="ccc" />
    </g>
    <g
       id="g4074">
      <path
         style="fill:#779ae1;fill-opacity:1;stroke:none"
         d="m 622.58664,268.31808 c -4.62949,-35.31672 19.67086,-63.79164 26.31327,-39.00183 5.78978,21.60773 -6.73543,43.17758 -21.64349,44.51158 z"
         id="path3281"
         inkscape:connector-curvature="0"
         sodipodi:nodetypes="cscc" />
      <path
         id="path4061"
         style="fill:#000000;fill-opacity:1;fill-rule:nonzero;stroke:none"
         d="m 644.59395,260.59551 c 2.8049,1.02395 6.8856,0.59489 9.97305,-2.01861 -2.51628,4.43666 -7.01325,5.2336 -11.35256,3.80409 z m 2.23503,-4.47375 c 3.47455,0.45049 6.57747,-0.49699 9.37977,-3.40713 -1.77284,4.42534 -5.58053,5.91038 -10.25016,5.48881 z m 2.18389,-5.47388 c 3.83455,0.53466 6.41398,-0.47785 8.93924,-3.74319 -1.43356,4.63915 -4.60407,6.19939 -9.56515,5.78543 z m -26.99367,10.16579 c 1.56744,20.47529 20.26492,9.29452 27.45661,-12.0002 -3.28502,26.00313 -30.79206,36.85746 -27.45661,12.0002 z"
         inkscape:connector-curvature="0"
         sodipodi:nodetypes="ccccccccccccccc" />
    </g>
  </g>
</svg>
