<?xml version="1.0" encoding="UTF-8" standalone="no"?>
<!-- Created with Inkscape (http://www.inkscape.org/) -->

<svg
   xmlns:dc="http://purl.org/dc/elements/1.1/"
   xmlns:cc="http://creativecommons.org/ns#"
   xmlns:rdf="http://www.w3.org/1999/02/22-rdf-syntax-ns#"
   xmlns:svg="http://www.w3.org/2000/svg"
   xmlns="http://www.w3.org/2000/svg"
   xmlns:xlink="http://www.w3.org/1999/xlink"
   xmlns:sodipodi="http://sodipodi.sourceforge.net/DTD/sodipodi-0.dtd"
   xmlns:inkscape="http://www.inkscape.org/namespaces/inkscape"
   width="744.09448819"
   height="1052.3622047"
   id="svg2"
   version="1.1"
   inkscape:version="0.48.3.1 r9886"
   sodipodi:docname="Drenthe Pony.svg"
   inkscape:export-filename="/home/parclytaxel/Pictures/Drenthe Pony.png"
   inkscape:export-xdpi="959.81744"
   inkscape:export-ydpi="959.81744">
  <defs
     id="defs4">
    <inkscape:path-effect
       effect="envelope"
       id="path-effect4199"
       is_visible="true"
       yy="true"
       xx="true"
       bendpath1="M -22.094086,7.5355458 162.12623,-3.5444549"
       bendpath2="M 170.11018,-2.8165965 C 220.74675,73.526322 216.05727,148.70149 165.56525,239.35287"
       bendpath3="M -5.8497217,222.63858 171.96792,243.53144"
       bendpath4="M -1.5815885e-7,5.4827563e-4 C 44.07915,68.92632 43.297119,143.91951 -1.5815885e-7,224.00001"
       bendpath1-nodetypes="cc"
       bendpath3-nodetypes="cc"
       bendpath2-nodetypes="cc"
       bendpath4-nodetypes="cc" />
    <inkscape:path-effect
       effect="skeletal"
       id="path-effect3976"
       is_visible="true"
       pattern="m 486.28014,519.09702 0,8 142,0 c 14.06335,0 28.33403,-0.79704 42,-4 -13.66597,-2.7759 -27.93665,-4 -42,-4 z"
       copytype="single_stretched"
       prop_scale="1"
       scale_y_rel="false"
       spacing="0"
       normal_offset="0"
       tang_offset="0"
       prop_units="false"
       vertical_pattern="false"
       fuse_tolerance="0"
       pattern-nodetypes="ccscsc" />
    <inkscape:path-effect
       effect="skeletal"
       id="path-effect3942"
       is_visible="true"
       pattern="m 419.24013,544.66526 0,8 165,0 c 14.06335,0 28.33403,-0.79704 42,-4 -13.66597,-2.7759 -27.93665,-4 -42,-4 z"
       copytype="single_stretched"
       prop_scale="1"
       scale_y_rel="false"
       spacing="0"
       normal_offset="0"
       tang_offset="0"
       prop_units="false"
       vertical_pattern="false"
       fuse_tolerance="0"
       pattern-nodetypes="ccscsc" />
    <inkscape:path-effect
       effect="skeletal"
       id="path-effect3904"
       is_visible="true"
       pattern="m 258.56951,737.89921 c -14.06335,0 -28.54757,1.01057 -42,4 13.45243,2.7759 27.93665,4 42,4 l 222,0 c 14.06335,0 28.33403,-0.79704 42,-4 -13.66597,-2.7759 -27.93665,-4 -42,-4 z"
       copytype="single_stretched"
       prop_scale="1"
       scale_y_rel="false"
       spacing="0"
       normal_offset="0"
       tang_offset="0"
       prop_units="false"
       vertical_pattern="false"
       fuse_tolerance="0"
       pattern-nodetypes="scsscss" />
    <inkscape:path-effect
       effect="skeletal"
       id="path-effect3855"
       is_visible="true"
       pattern="m 177.07686,342.71567 c -14.06335,0 -28.54757,1.01057 -42,4 13.45243,2.7759 27.93665,4 42,4 l 367,0 c 14.06335,0 28.33403,-0.79704 42,-4 -13.66597,-2.7759 -27.93665,-4 -42,-4 z"
       copytype="single_stretched"
       prop_scale="1"
       scale_y_rel="false"
       spacing="0"
       normal_offset="0"
       tang_offset="0"
       prop_units="false"
       vertical_pattern="false"
       fuse_tolerance="0"
       pattern-nodetypes="scsscss" />
    <inkscape:path-effect
       effect="skeletal"
       id="path-effect3906"
       is_visible="true"
       pattern="m 380.35112,275.18403 c -14.06335,0 -28.54757,1.01057 -42,4 13.45243,2.7759 27.93665,4 42,4 l 109,0 c 14.06335,0 28.33403,-0.79704 42,-4 -13.66597,-2.7759 -27.93665,-4 -42,-4 z"
       copytype="single_stretched"
       prop_scale="1"
       scale_y_rel="false"
       spacing="0"
       normal_offset="0"
       tang_offset="0"
       prop_units="false"
       vertical_pattern="false"
       fuse_tolerance="0"
       pattern-nodetypes="scsscss" />
    <linearGradient
       inkscape:collect="always"
       id="linearGradient3781">
      <stop
         style="stop-color:#9d595f;stop-opacity:1;"
         offset="0"
         id="stop3783" />
      <stop
         style="stop-color:#dcc1c3;stop-opacity:1"
         offset="1"
         id="stop3785" />
    </linearGradient>
    <clipPath
       clipPathUnits="userSpaceOnUse"
       id="clipPath3814">
      <use
         x="0"
         y="0"
         xlink:href="#path3773"
         id="use3816"
         width="744.09448"
         height="1052.3622" />
    </clipPath>
    <clipPath
       clipPathUnits="userSpaceOnUse"
       id="clipPath3866">
      <use
         x="0"
         y="0"
         xlink:href="#path4546"
         id="use3868"
         width="744.09448"
         height="1052.3622" />
    </clipPath>
    <clipPath
       clipPathUnits="userSpaceOnUse"
       id="clipPath3872">
      <path
         style="font-size:medium;font-style:normal;font-variant:normal;font-weight:normal;font-stretch:normal;text-indent:0;text-align:start;text-decoration:none;line-height:normal;letter-spacing:normal;word-spacing:normal;text-transform:none;direction:ltr;block-progression:tb;writing-mode:lr-tb;text-anchor:start;baseline-shift:baseline;color:#000000;fill:none;stroke:#ffff00;stroke-width:0.30000001;stroke-miterlimit:4;stroke-dasharray:none;marker:none;visibility:visible;display:inline;overflow:visible;enable-background:accumulate;font-family:Sans;-inkscape-font-specification:Sans"
         d="M 219.40625,352.21875 251.875,458.5625 484.67315,494.27763 482.30504,181.68713 218.65548,234.57492 z"
         id="path3874"
         inkscape:connector-curvature="0"
         sodipodi:nodetypes="cc" />
    </clipPath>
    <clipPath
       clipPathUnits="userSpaceOnUse"
       id="clipPath3876">
      <path
         style="fill:none;stroke:#ffff00;stroke-width:0.30000001;stroke-miterlimit:4;stroke-dasharray:none"
         d="m 249.78908,349.73325 c -9.02503,10.61298 -21.59481,18.13816 -35.11272,22.25238 l 17.74851,72.43362 c 15.06574,-2.90097 30.61193,-3.41241 46.11381,-2.5824 z"
         id="path3878"
         inkscape:connector-curvature="0"
         sodipodi:nodetypes="ccccc" />
    </clipPath>
    <linearGradient
       inkscape:collect="always"
       xlink:href="#linearGradient3781"
       id="linearGradient4054"
       gradientUnits="userSpaceOnUse"
       x1="343.01694"
       y1="311.19824"
       x2="344.05701"
       y2="372.67239" />
  </defs>
  <sodipodi:namedview
     id="base"
     pagecolor="#ffffff"
     bordercolor="#666666"
     borderopacity="1.0"
     inkscape:pageopacity="0.0"
     inkscape:pageshadow="2"
     inkscape:zoom="0.50742986"
     inkscape:cx="372.04724"
     inkscape:cy="526.18109"
     inkscape:document-units="px"
     inkscape:current-layer="layer1"
     showgrid="true"
     inkscape:window-width="1364"
     inkscape:window-height="698"
     inkscape:window-x="0"
     inkscape:window-y="0"
     inkscape:window-maximized="1"
     showguides="true"
     inkscape:guide-bbox="true">
    <inkscape:grid
       type="xygrid"
       id="grid3891"
       empspacing="5"
       visible="true"
       enabled="false"
       snapvisiblegridlinesonly="true"
       spacingx="8px"
       spacingy="8px" />
  </sodipodi:namedview>
  <metadata
     id="metadata7">
    <rdf:RDF>
      <cc:Work
         rdf:about="">
        <dc:format>image/svg+xml</dc:format>
        <dc:type
           rdf:resource="http://purl.org/dc/dcmitype/StillImage" />
        <dc:title></dc:title>
      </cc:Work>
    </rdf:RDF>
  </metadata>
  <g
     inkscape:label="Layer 1"
     inkscape:groupmode="layer"
     id="layer1">
    <g
       id="g3995">
      <path
         sodipodi:nodetypes="cscscc"
         inkscape:connector-curvature="0"
         id="path3986"
         d="m 573.0056,456.39368 c 55.94061,-120.21281 196.56512,-120.0038 219.68479,-3.9053 22.51389,113.05648 -66.14565,134.64295 -77.55491,236.71358 -67.29547,-71.60501 -44.17951,-137.01975 -44.86206,-188.10121 -0.78972,-59.10202 -49.04873,-60.30087 -78.95548,-25.66346 z"
         style="fill:#f1f6a1;stroke:none;stroke-width:8;stroke-linecap:butt;stroke-linejoin:miter;stroke-miterlimit:4;stroke-opacity:1;stroke-dasharray:none;fill-opacity:1" />
      <path
         sodipodi:nodetypes="csccsc"
         inkscape:connector-curvature="0"
         d="m 578.61212,462.09897 c 79.51755,-98.17463 198.15895,-65.30211 169.58516,58.36143 -15.45395,66.88263 -40.00014,110.98938 -32.23559,157.21626 0.41209,10.56148 -4.43612,11.32372 -10.76131,0.10679 -7.68467,-44.89528 12.26376,-87.85471 29.28453,-153.36147 33.04833,-127.19103 -83.53492,-137.86775 -149.72848,-55.55825"
         style="fill:#ffffff;stroke:none;stroke-width:2;stroke-linecap:butt;stroke-linejoin:miter;stroke-miterlimit:4;stroke-opacity:1;stroke-dasharray:none"
         id="path3990" />
      <path
         style="fill:none;stroke:#e3e977;stroke-width:8;stroke-linecap:butt;stroke-linejoin:miter;stroke-miterlimit:4;stroke-opacity:1;stroke-dasharray:none;fill-opacity:1"
         d="m 573.0056,456.39368 c 55.94061,-120.21281 196.56512,-120.0038 219.68479,-3.9053 22.51389,113.05648 -66.14565,134.64295 -77.55491,236.71358 -67.29547,-71.60501 -44.17951,-137.01975 -44.86206,-188.10121 -0.78972,-59.10202 -49.04873,-60.30087 -78.95548,-25.66346 z"
         id="path3993"
         inkscape:connector-curvature="0"
         sodipodi:nodetypes="cscscc" />
    </g>
    <path
       sodipodi:nodetypes="csscc"
       inkscape:connector-curvature="0"
       id="path3014"
       d="m 490.42376,571.50386 c 17.3128,74.36121 14.31873,145.92604 -6.20988,214.03365 -6.54938,21.72883 108.65167,25.55454 107.59396,0.77821 C 588.39626,706.4013 578.57945,644.6361 555.70608,576.78621 z"
       style="fill:#303f24;stroke:#222e16;stroke-width:8;stroke-linecap:butt;stroke-linejoin:miter;stroke-miterlimit:4;stroke-opacity:1;stroke-dasharray:none;fill-opacity:1" />
    <path
       sodipodi:nodetypes="csscc"
       inkscape:connector-curvature="0"
       id="path3010"
       d="m 395.53271,573.93646 c -9.84588,80.80576 -26.50724,148.69731 -56.01788,221.05612 -9.53308,23.3747 110.06074,27.63124 111.48528,2.58579 4.58048,-80.53126 -0.44782,-145.26513 -17.05319,-226.64191 z"
       style="fill:#303f24;stroke:#222e16;stroke-width:8;stroke-linecap:butt;stroke-linejoin:miter;stroke-miterlimit:4;stroke-opacity:1;stroke-dasharray:none;fill-opacity:1" />
    <path
       style="fill:#38492a;stroke:none;stroke-width:1;stroke-linecap:butt;stroke-linejoin:miter;stroke-miterlimit:4;stroke-opacity:1;stroke-dasharray:none;fill-opacity:1"
       d="M 448.40336,334.59341 C 446.2596,212.99185 293.73471,207.5097 269.38204,318.44247 c -5.2033,23.70239 -19.1815,41.6762 -40.25986,51.93602 l 20.66823,67.69648 c 36.88703,-3.44907 67.69218,5.59385 100.41244,5.49075 -11.48375,119.43583 26.98609,192.89342 178.36731,167.39026 6.71963,-1.13205 12.24333,-3.73801 16.39229,-8.22852 16.4849,72.27825 11.21368,138.78829 -12.17773,212.04893 -6.90279,21.61916 107.96027,25.5744 107.59396,0.77821 C 639.25734,739.6481 630,670.34139 611.70711,609.36221 c -2.16662,-7.22241 -10.14468,-9.30266 -17.07879,-7.82792 3.3913,-30.15677 21.27887,-43.57353 17.60483,-94.7154 -4.79493,-66.74436 -72.45055,-83.53134 -156.50421,-46.84778 -11.11202,-42.15597 -6.8595,-98.94014 -7.32558,-125.3777 z"
       id="path4221"
       inkscape:connector-curvature="0"
       sodipodi:nodetypes="sscccscssscscs" />
    <path
       style="fill:none;stroke:#243118;stroke-width:7.99999856999999981;stroke-linecap:butt;stroke-linejoin:miter;stroke-miterlimit:4;stroke-opacity:1;stroke-dasharray:none"
       d="M 255.69069,457.40067 223.22179,351.05259"
       id="path3886"
       inkscape:connector-curvature="0"
       clip-path="url(#clipPath3876)" />
    <path
       id="path3882"
       style="fill:#243118;stroke:none;stroke-width:8;stroke-linecap:butt;stroke-linejoin:miter;stroke-miterlimit:4;stroke-opacity:1;stroke-dasharray:none;fill-opacity:1"
       d="m 341.28397,447.2178 c 8.54388,0.31265 17.24009,0.0661 25.85943,-1.09921 8.30889,-1.1321 16.45408,-3.16832 24.14222,-6.0217 7.68815,-2.85338 14.91701,-6.52315 21.42375,-10.83349 -14.69357,5.2185 -30.44175,8.65767 -46.30802,9.72897 -8.25356,0.56714 -16.55168,0.53721 -24.82128,0.22737 -6.06817,-0.22735 -12.16025,-0.68316 -18.25592,-1.24573 -14.63169,-1.36437 -29.37097,-3.30899 -44.35267,-4.12544 -2e-5,0 -3e-5,0 -4e-5,0 -15.97087,-0.87503 -32.16342,-0.3198 -48.05285,2.71376 0,0 -1e-5,0 -1e-5,0 -4.66128,0.87733 -9.40705,1.0746 -13.88431,0.22503 -3.79393,-0.70887 -7.45083,-2.14219 -10.59101,-4.26755 -5.81186,-3.86813 -9.99678,-10.29653 -11.60951,-17.21382 -1.61291,-6.97349 -0.68211,-14.63423 2.74661,-20.83034 1.82528,-3.33942 4.38129,-6.31482 7.39338,-8.70828 3.46805,-2.77261 7.62533,-4.7806 12.0202,-6.1248 14.8305,-4.46615 28.65469,-12.81082 38.87594,-24.71087 8.71001,-10.21478 14.576,-22.62792 17.41913,-35.63155 2.72081,-12.35059 7.33099,-24.28779 14.06456,-34.85455 5.93299,-9.32387 13.5151,-17.608 22.35756,-24.1681 16.28755,-12.10295 37.02053,-18.30213 57.24948,-16.96842 1e-5,0 2e-5,0 3e-5,0 9.87463,0.64635 19.64372,3.03793 28.62169,7.12687 9.17542,4.17409 17.54707,10.14809 24.45951,17.47811 7.5415,7.97924 13.35673,17.61396 17.31624,27.95073 1e-5,10e-6 1e-5,2e-5 1e-5,2e-5 4.69967,12.24674 6.79711,25.50605 7.04589,38.79911 0,10e-6 0,2e-5 0,3e-5 0.16617,9.31718 -0.13529,18.72423 -0.27781,28.2186 -0.186,12.2588 -0.24432,24.55787 0.14679,36.88202 0.0276,0.87284 0.0573,1.74591 0.0893,2.61917 0.45058,12.28165 1.5652,24.70033 3.9355,36.83562 1.20088,6.17078 2.72826,12.2967 4.709,18.21416 1.98074,5.91745 4.4157,11.62646 7.38922,16.93176 -3.14394,-11.72256 -4.74464,-23.82154 -5.88978,-36.05608 -1.11555,-12.01461 -1.70138,-24.13318 -2.14839,-36.21997 -0.0318,-0.85941 -0.0614,-1.71909 -0.0889,-2.57901 -0.38674,-12.12893 -0.32738,-24.30292 -0.14365,-36.50677 0.14312,-9.40489 0.44448,-18.89925 0.27748,-28.48055 -0.23328,-14.0513 -2.50611,-28.21582 -7.57205,-41.51472 -4.29053,-11.24432 -10.65687,-21.75671 -18.96956,-30.58374 -7.63614,-8.09225 -16.84315,-14.66359 -26.96559,-19.27016 -9.89644,-4.49905 -20.59632,-7.12442 -31.41405,-7.82823 -22.19674,-1.43452 -44.69313,5.28472 -62.53974,18.5286 -9.66119,7.18006 -17.90368,16.17411 -24.33869,26.29786 -7.28345,11.47379 -12.2481,24.27023 -15.12799,37.43228 -2.60303,11.80504 -7.89131,23.05715 -15.68599,32.14846 -9.02503,10.61298 -21.59481,18.13816 -35.11272,22.25238 -5.22637,1.56792 -10.26865,4.03927 -14.67517,7.51487 -3.82575,3.03214 -7.06227,6.81403 -9.43492,11.12775 -4.39409,8.06547 -5.58471,17.61059 -3.52606,26.48349 2.03794,8.83891 7.33112,16.87723 14.93428,22.04359 4.12388,2.76671 8.78419,4.61016 13.60126,5.49795 5.65535,1.02925 11.38939,0.82898 16.84912,-0.23403 15.06574,-2.90097 30.61193,-3.41241 46.11381,-2.5824 10e-6,0 2e-5,0 3e-5,0 14.57072,0.78456 29.20688,2.72159 44.04332,4.10266 6.19174,0.58221 12.43249,1.04887 18.70194,1.27829 z"
       inkscape:connector-curvature="0"
       sodipodi:nodetypes="cssssc"
       inkscape:path-effect="#path-effect3855"
       inkscape:original-d="m 412.70937,429.2634 c -63.78087,31.49662 -115.22332,-1.39012 -181.03764,11.22739 -45.09233,8.64483 -58.25481,-51.83773 -15.83658,-64.67669 32.45899,-9.82454 48.34359,-33.66924 53.54689,-57.37163 24.35267,-110.93277 176.87758,-105.45062 179.02132,16.15094 0.52189,29.60343 -4.87257,97.25657 11.99265,139.77187"
       clip-path="url(#clipPath3872)" />
    <path
       style="fill:#243118;fill-opacity:1;stroke:none"
       d="m 353.91267,443.9883 -7.96496,-0.74796 c -2.5469,26.86799 -3.10115,54.33683 1.94677,81.21617 2.11524,11.24389 5.31837,22.38107 10.07042,32.93968 4.37825,9.72566 10.14016,18.90048 17.34238,26.90137 7.24782,8.03191 15.88127,14.74636 25.34262,19.90798 10.60034,5.77223 22.08284,9.6396 33.74903,12.0667 10e-6,0 10e-6,0 2e-5,0 31.40181,6.50598 63.75318,3.91221 94.83572,-1.37184 7.06802,-1.15753 13.95726,-4.27109 19.30429,-9.45146 1.31924,-1.32306 2.51668,-2.73018 3.60191,-4.20192 3.53357,-4.79206 5.85863,-10.30089 7.27835,-15.82207 2.56637,-9.76727 2.98803,-19.77602 2.53303,-29.43231 -0.60801,-13.36087 -2.89618,-26.38284 -6.08845,-38.86004 0.4098,12.85069 0.74708,25.89699 0.0835,38.85723 -0.49438,9.39179 -1.4041,18.70559 -4.00933,27.35034 -1.481,4.80711 -3.44062,9.41849 -6.20781,13.19025 -0.84986,1.15839 -1.78035,2.23655 -2.80109,3.21506 -3.87441,3.88971 -9.33671,6.27482 -15.02345,7.26608 -30.64019,5.11436 -62.00308,7.72746 -91.87026,1.42984 -1e-5,0 -1e-5,0 -2e-5,0 -11.04084,-2.31808 -21.79119,-5.91585 -31.55256,-11.25788 -8.69778,-4.7504 -16.62834,-10.90986 -23.23396,-18.24299 0,0 -1e-5,0 -1e-5,-10e-6 -6.59049,-7.29677 -11.90199,-15.78216 -15.99119,-24.83306 -4.45017,-9.84731 -7.46386,-20.38305 -9.50209,-31.13533 -4.89481,-25.77598 -4.30594,-52.50071 -1.84289,-78.98383 z"
       id="path4423"
       inkscape:connector-curvature="0"
       sodipodi:nodetypes="csc"
       inkscape:path-effect="#path-effect3942"
       inkscape:original-d="m 349.93019,443.61432 c -11.21109,119.38723 27.25875,192.84481 178.63997,167.34166 27.93931,-4.70693 35.20362,-34.89454 27.29364,-93.82338" />
    <path
       style="fill:#243118;fill-opacity:1;stroke:none"
       d="m 454.14208,456.33676 3.2027,7.33094 c 18.69172,-8.15123 38.18711,-14.48624 58.18308,-17.26373 15.85474,-2.17648 32.06537,-2.24886 47.08508,2.05752 0,0 0,0 10e-6,10e-6 12.39803,3.55358 23.99155,10.34651 31.84347,20.22419 8.56069,10.55286 12.72928,24.45484 13.78701,38.41982 0.84109,11.84564 0.67499,23.72395 -1.29457,35.25449 -0.31624,1.87629 -0.68721,3.74684 -1.10517,5.61223 -1.4202,6.33843 -3.32766,12.65986 -5.38372,18.98584 0,0 0,0 0,0 -2.39046,7.30895 -4.90241,14.8408 -6.25138,22.67416 -1.58439,9.28874 -1.30995,18.67238 0.51847,27.44507 0.48265,-8.92676 1.95188,-17.78896 4.61637,-26.21854 2.24453,-7.14792 5.3281,-14.12164 8.15173,-21.41141 0,0 0,0 0,0 2.48,-6.37502 4.63391,-12.96212 6.14927,-19.72758 0.44597,-1.99107 0.84573,-3.99773 1.19155,-6.02058 2.08411,-12.3434 2.28099,-24.85918 1.38689,-37.16692 -1.03811,-15.20873 -5.78628,-30.58807 -15.52573,-42.85193 0,0 -10e-6,-10e-6 -10e-6,-10e-6 -9.17391,-11.35024 -22.1197,-19.0401 -35.90032,-22.91499 0,0 -1e-5,0 -1e-5,0 -16.48687,-4.63394 -33.79424,-4.63721 -50.37529,-2.2845 -20.91956,2.93576 -41.11373,9.46816 -60.27943,17.85592 z"
       id="path4425"
       inkscape:connector-curvature="0"
       sodipodi:nodetypes="csc"
       inkscape:path-effect="#path-effect3976"
       inkscape:original-d="m 455.74343,460.00223 c 84.03917,-36.71468 151.69479,-19.9277 156.48972,46.81666 4.24852,59.13846 -20.33452,67.83201 -17.50609,110.25841" />
    <g
       id="g3870"
       transform="matrix(0.99121216,0,0,0.99121216,3.083772,2.968003)">
      <g
         clip-path="url(#clipPath3866)"
         id="g3848">
        <path
           sodipodi:type="arc"
           style="fill:#ffffff;stroke:none"
           id="path4546"
           sodipodi:cx="387.75"
           sodipodi:cy="349.86218"
           sodipodi:rx="37.75"
           sodipodi:ry="50.5"
           d="m 425.5,349.86218 c 0,27.89038 -16.90125,50.5 -37.75,50.5 -20.84875,0 -37.75,-22.60962 -37.75,-50.5 0,-27.89038 16.90125,-50.5 37.75,-50.5 20.84875,0 37.75,22.60962 37.75,50.5 z"
           transform="matrix(1.0435138,0.3819744,-0.3819744,1.0435138,78.506848,-174.04134)" />
        <g
           id="g3806"
           clip-path="url(#clipPath3814)">
          <path
             transform="matrix(1.1301913,0.2063771,-0.2063771,1.1301913,30.544359,-109.8206)"
             d="m 360.60791,341.86218 c 0,22.36753 -13.03206,40.5 -29.10791,40.5 -16.07585,0 -29.10791,-18.13247 -29.10791,-40.5 0,-22.36753 13.03206,-40.5 29.10791,-40.5 16.07585,0 29.10791,18.13247 29.10791,40.5 z"
             sodipodi:ry="40.5"
             sodipodi:rx="29.10791"
             sodipodi:cy="341.86218"
             sodipodi:cx="331.5"
             id="path3773"
             style="fill:url(#linearGradient4054);fill-opacity:1;stroke:none"
             sodipodi:type="arc" />
          <g
             id="g3789">
            <path
               style="fill:#efd6d8;fill-opacity:1;fill-rule:nonzero;stroke:none"
               d="m 343.56678,359.91455 -3.23707,9.28506 27.70691,28.32089 9.03196,-27.43989 z"
               id="path3795"
               inkscape:connector-curvature="0"
               sodipodi:nodetypes="ccccc" />
            <path
               style="fill:#e5bbbf;fill-opacity:1;fill-rule:nonzero;stroke:none"
               d="m 342.25631,358.66238 44.30271,2.33159 -6.96643,19.36717 -38.44138,-16.19682 z"
               id="path3793"
               inkscape:connector-curvature="0"
               sodipodi:nodetypes="ccccc" />
          </g>
          <path
             sodipodi:type="arc"
             style="fill:#000000;stroke:none"
             id="path3775"
             sodipodi:cx="331.5"
             sodipodi:cy="341.86218"
             sodipodi:rx="28.240101"
             sodipodi:ry="41.15712"
             d="m 359.7401,341.86218 c 0,22.73045 -12.64352,41.15712 -28.2401,41.15712 -15.59658,0 -28.2401,-18.42667 -28.2401,-41.15712 0,-22.73045 12.64352,-41.15712 28.2401,-41.15712 15.59658,0 28.2401,18.42667 28.2401,41.15712 z"
             transform="matrix(0.91221067,0.14323297,-0.14323297,0.91221067,76.893735,-13.966345)" />
          <path
             transform="matrix(0.97047606,0.24119744,-0.24119744,0.97047606,86.532149,-83.663064)"
             d="m 368.28881,339.35138 c 0,11.10152 -6.41348,20.10108 -14.32491,20.10108 -7.91143,0 -14.32491,-8.99956 -14.32491,-20.10108 0,-11.10152 6.41348,-20.10108 14.32491,-20.10108 7.91143,0 14.32491,8.99956 14.32491,20.10108 z"
             sodipodi:ry="20.101082"
             sodipodi:rx="14.324909"
             sodipodi:cy="339.35138"
             sodipodi:cx="353.9639"
             id="path3008"
             style="fill:#ffffff;stroke:none"
             sodipodi:type="arc" />
        </g>
      </g>
      <path
         sodipodi:nodetypes="ccc"
         inkscape:connector-curvature="0"
         id="path3011"
         d="m 420.72719,374.45934 c 28.43498,-64.29284 -45.18963,-111.28771 -66.71959,-47.26529 28.30029,-50.33794 81.19632,-15.77039 66.71959,47.26529 z"
         style="fill:#000000;stroke:none"
         transform="matrix(1.0435138,0.3819744,-0.3819744,1.0435138,78.506848,-174.04134)" />
    </g>
    <path
       style="fill:none;stroke:#243118;stroke-width:8;stroke-linecap:butt;stroke-linejoin:miter;stroke-miterlimit:4;stroke-opacity:1;stroke-dasharray:none"
       d="m 544.70711,602.36218 c 16.74024,72.64353 11.46902,139.15357 -11.92239,212.41421 -6.90279,21.61916 107.96027,25.5744 107.59396,0.77821 C 639.25734,739.6481 630,670.34139 611.70711,609.36221 c -2.16662,-7.22241 -10.14468,-9.30266 -17.39468,-7.80266"
       id="path3937"
       inkscape:connector-curvature="0"
       sodipodi:nodetypes="csssc" />
    <g
       id="g3914">
      <path
         style="fill:#38492a;stroke:none;fill-opacity:1"
         d="m 442.58579,582.36218 c -7.55564,85.38623 -24.56823,162.97344 -47.78072,240.48528 -7.24203,24.18283 111.48528,27.67172 111.48528,2.58579 0,-89.69221 -6.9673,-163.54918 -25.29035,-246.07107 z"
         id="path3912"
         inkscape:connector-curvature="0"
         sodipodi:nodetypes="csscc" />
      <path
         inkscape:original-d="m 442.58579,582.36218 c -7.55564,85.38623 -24.56823,162.97344 -47.78072,240.48528 -7.24203,24.18283 111.48528,27.67172 111.48528,2.58579 0,-89.69221 -6.9673,-163.54918 -25.29035,-246.07107"
         inkscape:path-effect="#path-effect3904"
         sodipodi:nodetypes="cssc"
         inkscape:connector-curvature="0"
         id="path3933"
         d="m 435.62662,667.3372 c 2.37915,-14.08649 4.27772,-28.47272 5.4949,-42.76971 1.21717,-14.29698 1.75243,-28.50404 1.46427,-42.20531 -2.58328,13.44718 -5.09819,27.36381 -7.57282,41.41561 -2.47463,14.0518 -4.90865,28.23909 -7.27187,42.22739 -8.88114,52.56916 -21.45808,104.5614 -36.76789,155.69475 -0.6549,2.15004 -0.64076,4.49623 0.11503,6.75885 0.86786,2.28997 2.21467,4.09302 3.71246,5.40884 1.83695,1.66915 3.82354,2.92377 5.77416,3.90531 10e-6,10e-6 2e-5,10e-6 3e-5,2e-5 2.41909,1.23775 4.89181,2.20452 7.34143,3.00703 6.07565,1.99476 12.27844,3.2181 18.4146,4.08703 7.1096,1.01546 14.26035,1.56079 21.39552,1.74774 7.23022,0.19177 14.48878,0.0158 21.72713,-0.61435 10e-6,0 10e-6,0 2e-5,0 6.45006,-0.55586 12.96307,-1.47243 19.39154,-3.1125 4.86504,-1.1925 9.99769,-2.91717 14.64862,-6.09243 1.74511,-1.17693 3.44642,-2.75676 4.82725,-4.82467 1.23256,-1.8887 1.93998,-4.13863 1.96935,-6.53755 0,-1e-5 0,-2e-5 0,-2e-5 0.002,-42.06957 -1.56872,-84.199 -5.79421,-126.12566 -1.2402,-12.29803 -2.71415,-24.5705 -4.4121,-36.81111 -1.96437,-14.16133 -4.44385,-28.35905 -7.58307,-42.31182 -3.13921,-13.95278 -6.93788,-27.65983 -11.50097,-40.82246 3.28948,27.62123 7.26247,56.13464 11.16034,84.23343 1.6846,12.14386 3.14657,24.31746 4.37616,36.51451 4.19535,41.59033 5.75223,83.45224 5.75385,125.32312 0,0 0,1e-5 0,1e-5 0.0294,0.69039 -0.25287,1.49575 -0.69384,2.2038 -0.53831,0.90995 -1.52534,1.74833 -2.6844,2.60033 -10e-6,0 -10e-6,0 -10e-6,0 -3.27921,2.36494 -7.54649,3.69241 -12.0525,4.90083 -5.84553,1.50463 -11.9283,2.34784 -18.10081,2.89242 -10e-6,0 -10e-6,0 -2e-5,0 -6.90394,0.60277 -13.86055,0.76959 -20.82131,0.5869 -6.87055,-0.18262 -13.71413,-0.70202 -20.47403,-1.66995 0,0 -1e-5,0 -2e-5,-10e-6 -5.86177,-0.84682 -11.60665,-1.96278 -17.0409,-3.76489 -2.18213,-0.7254 -4.27064,-1.53117 -6.18882,-2.52403 -1e-5,0 -1e-5,0 -2e-5,-10e-6 -1.55148,-0.81954 -2.94735,-1.66074 -4.00198,-2.66506 -0.79064,-0.80001 -1.43084,-1.52603 -1.59263,-2.17774 -0.20541,-0.48351 -0.18191,-1.1837 -0.002,-1.82085 15.3978,-51.40639 28.04867,-103.71965 36.98969,-156.65779 z"
         style="fill:#243118;stroke:none;fill-opacity:1" />
    </g>
    <g
       transform="matrix(0.16292177,-0.00590048,0.03184133,0.41320793,561.46671,472.92902)"
       id="g4105"
       inkscape:path-effect="#path-effect4199">
      <path
         inkscape:connector-curvature="0"
         id="use4091"
         style="fill:#f1f6a1"
         d="m 89.744063,159.52905 c 0.518917,-0.39478 0.830534,-1.18258 0.90284,-2.30381 0.07231,-1.12124 -0.0951,-2.57499 -0.496878,-4.24996 -0.803559,-3.34995 -2.581543,-7.59073 -4.817451,-11.51222 -2.235908,-3.92149 -4.888957,-7.47511 -7.125726,-9.66948 -1.118384,-1.09719 -2.132168,-1.86292 -2.963614,-2.24137 -0.831446,-0.37845 -1.480097,-0.36938 -1.906288,0.026 -0.426422,0.39562 -0.630557,1.17773 -0.610848,2.28812 0.01971,1.11039 0.262491,2.54825 0.701318,4.20657 0.877656,3.31665 2.55182,7.52393 4.600221,11.44249 2.048402,3.91857 4.465419,7.50103 6.629781,9.7298 1.082181,1.11439 2.098304,1.89768 2.969851,2.28889 0.871548,0.39121 1.597595,0.38993 2.116794,-0.005 z m 18.267347,-3.78042 c 0.43267,0.40118 1.20049,0.40726 2.25075,0.0159 1.05026,-0.39137 2.38225,-1.18006 3.89348,-2.31052 1.51123,-1.13045 3.20035,-2.602 4.9304,-4.3071 1.73005,-1.70511 3.49909,-3.64254 5.16053,-5.66701 1.66144,-2.02446 3.21321,-4.1343 4.52966,-6.16821 1.31645,-2.03392 2.39622,-3.99013 3.16098,-5.71749 0.76476,-1.72737 1.21441,-3.22434 1.32899,-4.37535 0.11457,-1.15102 -0.10504,-1.95509 -0.62692,-2.35141 -0.52216,-0.39652 -1.34582,-0.38463 -2.40261,0.0326 -1.0568,0.41721 -2.34598,1.23925 -3.77695,2.40094 -2.86193,2.32337 -6.29719,6.03424 -9.43904,10.07237 -3.14185,4.03814 -5.96265,8.35408 -7.65479,11.74685 -0.84608,1.69638 -1.41374,3.16476 -1.64922,4.29762 -0.23549,1.13286 -0.13815,1.92945 0.29474,2.33084 z m 7.96088,-42.67624 c 0.80888,0.77355 2.54079,0.47884 4.85715,-0.83502 0.56073,-0.31897 1.15366,-0.69567 1.77048,-1.12527 2.19947,-1.52177 4.7097,-3.72818 7.08844,-6.27624 2.37875,-2.54807 4.61173,-5.428575 6.31061,-8.177379 1.69888,-2.748805 2.85639,-5.354415 3.30932,-7.391724 0.45292,-2.03731 0.20477,-3.498088 -0.65745,-4.149354 -1.03864,-0.784515 -2.96311,-0.377404 -5.32105,1.113159 -2.35795,1.490564 -5.13676,4.050691 -7.77636,7.093268 -2.63959,3.042578 -5.13128,6.544579 -6.96034,9.7273 -1.82905,3.18272 -2.98168,6.02433 -3.14961,7.90007 -0.0376,0.43956 -0.0234,0.82797 0.0437,1.16005 0.0817,0.40793 0.24387,0.73047 0.48508,0.96114 z m -20.563965,1.80667 c 0.634595,-0.42224 0.867291,-1.58346 0.626058,-3.3307 -0.05041,-0.36028 -0.120681,-0.74469 -0.210883,-1.15095 -0.528718,-2.40964 -1.786423,-5.61673 -3.592869,-9.00448 -1.806445,-3.387749 -4.153009,-6.936803 -6.553428,-9.982029 -2.400418,-3.045226 -4.831483,-5.572616 -6.755991,-7.126984 -1.924508,-1.554368 -3.325641,-2.130321 -3.93533,-1.626996 -0.532374,0.439498 -0.468179,1.69533 0.131556,3.595174 0.599734,1.899845 1.727156,4.439346 3.171841,7.260347 1.444684,2.821001 3.199985,5.915293 5.022602,8.834178 1.822618,2.91888 3.711327,5.65294 5.448571,7.79877 0.335486,0.41429 0.665296,0.80734 0.988024,1.17682 1.269596,1.45461 2.429882,2.53564 3.39882,3.14709 0.968938,0.61144 1.745895,0.75252 2.261029,0.40976 0,0 0,0 0,0 z m 0.392108,-39.775081 c 0.516556,-0.137386 0.832865,-0.700015 0.915052,-1.647614 0.08219,-0.947599 -0.07079,-2.279398 -0.469005,-3.898795 -0.398212,-1.619396 -1.04246,-3.525045 -1.904302,-5.580101 -0.861842,-2.055056 -1.941109,-4.257931 -3.165578,-6.453924 -0.03953,-0.07141 -0.07922,-0.142821 -0.119055,-0.21422 -1.338231,-2.389341 -2.844347,-4.763767 -4.380826,-6.932819 -1.536479,-2.169052 -3.100708,-4.130994 -4.546322,-5.732078 -1.445614,-1.601083 -2.770663,-2.840108 -3.854858,-3.622157 -1.084195,-0.782048 -1.92641,-1.106605 -2.45525,-0.950606 -0.488198,0.14401 -0.709576,0.696594 -0.654149,1.620003 0.05543,0.92341 0.387451,2.217091 0.960232,3.795254 1.145562,3.156327 3.269041,7.472108 5.710611,11.857909 0.03936,0.07099 0.0788,0.14198 0.118315,0.212977 2.653308,4.733125 5.625585,9.47371 8.140581,12.76606 1.257498,1.646175 2.406451,2.9352 3.378174,3.756173 0.971722,0.820972 1.766428,1.172866 2.32638,1.023938 z m 15.382277,-3.349032 c 0.66123,0.347911 1.4797,0.2394 2.39127,-0.319573 0.91156,-0.558973 1.91505,-1.568023 2.91479,-2.944921 0.99974,-1.376897 1.99363,-3.120342 2.87996,-5.084508 0.88633,-1.964166 1.66317,-4.147021 2.2544,-6.364456 0.0198,-0.07414 0.0395,-0.148326 0.0589,-0.222543 1.03747,-3.977773 1.44282,-8.027541 1.16443,-11.118171 -0.13919,-1.545314 -0.4414,-2.854169 -0.87633,-3.838946 -0.43492,-0.984777 -1.00206,-1.644858 -1.6573,-1.93701 -0.79736,-0.355519 -1.72468,-0.162992 -2.68975,0.55516 -0.96507,0.718152 -1.96665,1.960647 -2.91582,3.602313 -0.94916,1.641666 -1.84518,3.68008 -2.61808,5.915877 -0.77289,2.235797 -1.42296,4.666174 -1.90221,7.057336 -0.0148,0.07333 -0.0294,0.146609 -0.0438,0.219846 -0.69278,3.531118 -1.00131,6.947855 -0.83699,9.548979 0.16432,2.601124 0.81057,4.369733 1.87658,4.930617 z M 97.936579,36.032269 c 0.676378,0.157162 1.307833,-0.141053 1.846895,-0.874597 0.539066,-0.733545 0.984906,-1.901885 1.300736,-3.419356 0.63166,-3.034943 0.71234,-7.494883 0.24586,-12.139228 C 100.86359,14.954742 99.875723,10.177832 98.655642,6.6334754 98.045602,4.861297 97.378435,3.3943831 96.692742,2.3502841 96.007048,1.3061851 95.302345,0.68623639 94.623483,0.54053195 93.944422,0.39478489 93.291493,0.72371899 92.718264,1.4981962 92.145036,2.2726734 91.652796,3.4915338 91.291626,5.054219 c -0.722342,3.1253704 -0.879431,7.642372 -0.407519,12.261932 0.471912,4.61956 1.54563,9.295458 2.855896,12.750888 0.655132,1.727715 1.366341,3.15481 2.082542,4.17512 0.716201,1.02031 1.437458,1.632902 2.114034,1.79011 z M 94.219691,12.386502 c 0.814985,8.105901 1.987961,15.796108 3.180903,23.228056 1.192942,7.431948 2.407448,14.602467 3.437626,21.590768 0.0105,0.07227 0.0211,0.144526 0.0316,0.216755 0.9616,6.503662 1.77443,12.856784 2.37373,19.081542 0.59929,6.224759 0.98677,12.319814 1.1473,18.289516 C 102.2997,87.959535 99.875007,81.89926 97.225118,76.362418 94.57523,70.825576 91.696865,65.81097 88.573216,61.071641 c -0.331639,0.136544 -0.662466,0.272827 -0.992472,0.40885 3.363078,5.12605 6.417676,10.469112 9.219608,16.467771 2.801933,5.998659 5.359108,12.655083 7.493158,20.419223 0.0405,8.11e-4 0.0811,0.0016 0.1216,0.0024 0.0525,4.148626 -0.0163,8.251896 -0.18712,12.288256 -0.0148,0.38327 -0.0306,0.76614 -0.0473,1.1486 -0.28554,6.21407 -0.81511,12.28125 -1.45565,18.12988 -2.54526,-7.40651 -5.24303,-13.06393 -8.41176,-18.44775 -0.2302,-0.39038 -0.463128,-0.77915 -0.698999,-1.16687 -2.442721,-4.02199 -5.185293,-7.95398 -8.543187,-12.395505 -0.265316,0.24794 -0.530513,0.49573 -0.795593,0.743375 3.135683,4.19328 5.709856,7.88129 8.005147,11.60513 0.239629,0.38816 0.47607,0.77693 0.709572,1.16693 1.805153,3.02056 3.44048,6.10618 4.993229,9.5519 1.552748,3.44572 3.023691,7.25176 4.440741,11.7195 -1.48632,12.51026 -3.616859,24.21222 -5.823891,35.29517 -0.118539,0.5926 -0.237544,1.18338 -0.356942,1.77237 -0.139464,0.68803 -0.279252,1.37363 -0.419272,2.05688 -0.281794,-0.72978 -0.560459,-1.44296 -0.836692,-2.14083 0,0 0,0 -10e-7,0 -0.247357,-0.6264 -0.492929,-1.24049 -0.737196,-1.84317 -10e-7,0 -10e-7,0 -10e-7,0 -4.101543,-10.06432 -7.794041,-16.92957 -13.269022,-24.77315 -0.300576,0.30162 -0.601464,0.60308 -0.902664,0.90439 5.294351,7.66222 8.859425,14.11033 12.824855,23.77938 10e-7,1e-5 10e-7,1e-5 10e-7,1e-5 0.24527,0.60133 0.491907,1.21505 0.740426,1.84225 1e-6,0 1e-6,0 1e-6,0 0.55847,1.4061 1.12725,2.88004 1.712547,4.43418 -1.624409,7.85229 -3.265204,15.38942 -4.782636,22.67545 -1.517432,7.28604 -2.912104,14.32151 -4.109738,21.17087 0.39959,0.0411 0.799357,0.0822 1.199295,0.12319 1.202617,-6.89688 2.598064,-13.97745 4.115504,-21.30411 1.51744,-7.32667 3.15736,-14.89997 4.784578,-22.78199 0.844219,-1.36056 1.675645,-2.6775 2.497561,-3.95659 10e-7,0 10e-7,0 10e-7,-1e-5 0.374319,-0.58316 0.746506,-1.15848 1.116886,-1.72649 0,0 0,0 1e-5,0 3.53828,-5.42479 6.92824,-10.17076 10.45622,-14.73656 3.52798,-4.56581 7.19804,-8.95204 11.24709,-13.68409 -0.30865,-0.28243 -0.61745,-0.56469 -0.92637,-0.8468 -4.08553,4.80827 -7.79895,9.30766 -11.37969,14.00681 -3.58074,4.69916 -7.03295,9.59871 -10.642794,15.18004 -0.367308,0.56805 -0.736421,1.14303 -1.107637,1.72541 -10e-7,0 -10e-7,0 -2e-6,1e-5 -0.212953,0.33372 -0.426545,0.66989 -0.640831,1.00858 0.0703,-0.34513 0.140526,-0.69083 0.210672,-1.0371 0.119435,-0.58953 0.238478,-1.18074 0.357059,-1.77369 2.212685,-11.11377 4.351383,-22.81468 5.844173,-35.35322 4.60015,-8.03423 8.86357,-14.48553 13.82394,-20.57253 0.30931,-0.38118 0.62119,-0.76082 0.93584,-1.13923 3.03382,-3.61815 6.33278,-7.14101 10.05991,-10.84415 -0.31894,-0.324242 -0.63849,-0.648223 -0.95863,-0.971946 -3.98478,3.991876 -7.48512,7.814096 -10.7017,11.779336 -0.30387,0.3778 -0.60529,0.75709 -0.90446,1.13812 -4.24749,5.38657 -8.01868,11.0991 -11.95577,17.8648 0.64307,-5.8502 1.18388,-11.92275 1.48137,-18.14322 0.0175,-0.38275 0.034,-0.76593 0.0495,-1.1495 0.187,-4.22978 0.26225,-8.53328 0.20162,-12.884791 1.51675,-7.700269 2.61087,-14.030227 4.17237,-19.85003 1.56151,-5.819804 3.57389,-11.130276 6.63836,-16.823582 -0.41661,-0.27212 -0.83321,-0.543996 -1.24978,-0.81563 -2.67896,5.026569 -4.53574,9.825442 -5.98756,14.925185 -1.45182,5.099743 -2.49187,10.500406 -3.66501,16.710702 -0.40842,-11.082724 -1.62833,-22.566716 -3.38676,-34.549616 -0.0104,-0.07231 -0.0209,-0.144642 -0.0314,-0.216999 C 101.102,50.246175 99.90521,43.124571 98.728211,35.742971 97.551212,28.361372 96.392318,20.722879 95.581126,12.671945 95.126838,12.576754 94.673027,12.481607 94.219691,12.386502 z"
         inkscape:original-d="M 83.174995,154.01599 A 17.998485,4.7337197 49.64934 0 0 59.86826,126.58284 17.998485,4.7337197 49.64934 1 0 83.174995,154.01599 z m 18.230365,-4.5422 a 4.7337197,17.998485 34.64934 0 0 20.46616,-29.6128 4.7337197,17.998485 34.64934 1 0 -20.46616,29.6128 z m 4.25907,-40.21686 a 4.7337198,17.998485 42.380955 0 0 24.264,-26.590217 4.7337198,17.998485 42.380955 1 0 -24.264,26.590217 z m -21.259927,2.30689 A 17.998485,4.7337199 58.456251 0 0 65.572709,80.885728 17.998485,4.7337199 58.456251 1 0 84.404503,111.56382 z M 90.569616,73.03891 A 17.998485,4.7337198 76.552942 0 0 82.198637,38.02879 17.998485,4.7337198 76.552942 1 0 90.569616,73.03891 z M 106.96679,69.771251 A 4.733736,17.998485 31.552942 1 0 125.80351,39.096182 4.733736,17.998485 31.552942 0 0 106.96679,69.771251 z M 106.1513,34.558633 A 4.7337198,17.998485 16.552942 0 0 116.40688,0.05349049 4.7337198,17.998485 16.552942 1 0 106.1513,34.558633 z M 111.8125,11.34375 C 103.05999,41.802486 98.262282,68.213807 95.46875,92.0625 93.088352,78.98206 90.582982,68.635556 87.3125,59.1875 L 86.125,59.59375 C 89.662504,69.813202 92.345743,80.6698 94.90625,95.5 l 0.125,0 c -1.149778,10.48846 -2.012831,20.59583 -2.4375,30.0625 -5.809289,-12.55543 -10.600613,-19.79295 -18.34375,-30 l -1,0.75 c 8.187012,10.79217 12.974132,17.90633 19.25,31.875 -0.520388,13.19545 -0.460367,25.403 -0.21875,37 C 84.496585,153.94425 78.871277,147.02534 70.5,139 l -0.875,0.90625 c 8.722055,8.36162 14.310757,15.14663 22.6875,27.375 0.341918,14.92679 0.920842,28.82584 1.0625,42 l 1.25,0 c -0.142485,-13.25111 -0.752329,-27.2173 -1.09375,-42.1875 5.606708,-13.51089 11.33273,-22.43315 19.25,-33.03125 l -1,-0.75 c -7.4474,9.96912 -12.993519,18.66535 -18.3125,30.90625 -0.225486,-11.33517 -0.258316,-23.21647 0.25,-36.0625 6.78044,-12.86355 14.04307,-21.50942 24.75,-31.28125 l -0.8125,-0.90625 c -10.16568,9.27785 -17.31465,17.76379 -23.84375,29.59375 0.432777,-9.63046 1.342852,-19.93539 2.53125,-30.625 4.97013,-14.834177 9.42129,-24.466958 18.6875,-35.40625 l -0.9375,-0.8125 C 105.90136,68.390332 101.40079,77.320893 97.0625,89.3125 99.911214,66.261624 104.61515,40.866786 113,11.6875 l -1.1875,-0.34375 z" />
      <path
         style="fill:#919b9b"
         inkscape:connector-curvature="0"
         id="path4093"
         d="m 160.52574,210.55016 c -4.46451,-3.05436 -9.2619,-5.43952 -14.21042,-7.29089 -4.94852,-1.85137 -10.0477,-3.16987 -15.1586,-4.10278 -10.2218,-1.86581 -20.46515,-2.19717 -30.05074,-2.15331 -9.585588,0.0439 -18.540456,0.46236 -26.408674,0.20729 -7.868217,-0.25506 -14.662079,-1.17637 -19.838522,-3.7566 -5.176445,-2.58022 -12.234623,-3.13931 -19.37044,-2.25949 -7.135817,0.87983 -14.388961,3.20162 -20.307683,6.29348 -2.95936,1.54593 -5.5862982,3.28186 -7.6588369,5.1258 -2.0725388,1.84395 -3.5919454,3.79453 -4.2709339,5.79426 -0.6789886,1.99973 -0.5169155,4.0483 0.8443503,6.12661 1.3612659,2.07831 3.9253273,4.18813 8.0904945,6.33824 4.165168,2.15011 8.376345,3.69511 12.476413,4.73849 4.100067,1.04337 8.093129,1.58594 11.940917,1.7632 7.695577,0.35453 14.799103,-0.76154 21.59957,-2.05216 6.800467,-1.29062 13.322185,-2.74908 19.955876,-2.95649 6.633691,-0.2074 13.371283,0.83309 20.631168,4.63952 7.259881,3.80644 17.680251,6.79691 28.194301,8.4854 5.25703,0.84425 10.54136,1.36214 15.53557,1.51435 4.99422,0.1522 9.69984,-0.061 13.85511,-0.65066 4.15526,-0.58965 7.76497,-1.55372 10.57507,-2.89237 2.81009,-1.33864 4.82684,-3.04999 5.71771,-5.1551 0.89088,-2.10511 0.65839,-4.60524 -1.1818,-7.54905 -1.8402,-2.9438 -5.2994,-6.33521 -10.95989,-10.20777 0,1e-5 -10e-6,2e-5 -10e-6,3e-5 z"
         inkscape:original-d="m 166.07388,196.56586 c -43.08463,-19.72473 -85.84899,0.46269 -112.0674,-7.71863 -26.21842,-8.18132 -80.90966,17.05285 -38.2746,31.16706 42.63506,14.11416 59.77954,-14.72749 91.79116,-3.37625 32.01163,11.35128 113.1772,4.93643 58.55084,-20.07221 z" />
      <path
         style="fill:#747f7f"
         inkscape:connector-curvature="0"
         id="path4095"
         d="m 97.39931,217.86129 c 7.42387,0.79491 14.06221,3.02103 24.7773,5.69011 5.35755,1.33454 11.73514,2.77757 19.62579,4.15173 7.89066,1.37416 17.31078,2.67866 28.48005,3.66803 -2.73937,2.30384 -7.21205,3.9018 -12.73567,4.80383 -5.52362,0.90203 -12.12179,1.09862 -19.11742,0.62462 -6.99564,-0.474 -14.39167,-1.61766 -21.31265,-3.30244 -6.92097,-1.68478 -13.35468,-3.90394 -18.310874,-6.50251 -7.25973,-3.80633 -13.998909,-4.84566 -20.634943,-4.63662 -6.636034,0.20904 -13.160845,1.6696 -19.964368,2.96226 -6.803523,1.29267 -13.910083,2.41071 -21.608014,2.05763 -3.848965,-0.17655 -7.843035,-0.71852 -11.943841,-1.76148 -4.100806,-1.04296 -8.312451,-2.58773 -12.477688,-4.73783 -3.0581507,-1.57863 -5.2407341,-3.12606 -6.7307165,-4.66494 5.6183695,1.39455 11.7080175,2.18259 18.1395895,2.5577 6.431571,0.37511 13.210104,0.33861 20.357006,0.12347 14.293805,-0.43027 30.066706,-1.59037 48.189194,-1.35581 1.83902,0.0238 3.574162,0.14096 5.267255,0.32225 0,0 0,0 0,0 z"
         inkscape:original-d="m 104.52399,208.21923 c 15.4023,0.11503 28.45166,5.90165 78.4254,6.56718 -8.82567,9.0745 -53.55729,9.58953 -75.41149,1.84007 -32.0116,-11.35123 -49.17849,17.50878 -91.81355,3.39464 -3.91288,-1.29535 -6.9884399,-2.67608 -9.3590199,-4.12432 28.0677099,3.74025 55.6828999,-4.50059 92.7336039,-7.4872 1.879896,-0.15156 3.668726,-0.20349 5.425056,-0.19037 z" />
      <path
         style="fill:#aeb5b5"
         inkscape:connector-curvature="0"
         id="path4097"
         d="m 45.890981,191.01471 c 3.303424,0.35226 6.392246,1.1375 8.98049,2.42761 4.636374,2.31099 10.57146,3.29251 17.409901,3.65709 6.838442,0.36457 14.585901,0.10758 22.916932,-0.0297 8.331036,-0.13725 17.260176,-0.15573 26.371786,0.7577 9.1116,0.91344 18.42132,2.7656 27.18607,6.40421 -16.10521,-0.49023 -29.68108,-0.75834 -41.56098,-1.06818 -11.8799,-0.30985 -22.095096,-0.65071 -31.559716,-1.22685 -9.464619,-0.57615 -18.191964,-1.39152 -26.884755,-2.62383 -4.346396,-0.61615 -8.679905,-1.33591 -13.048833,-2.17016 -4.368928,-0.83426 -8.774494,-1.78384 -13.220676,-2.84129 3.758775,-1.34451 7.756807,-2.36555 11.745886,-2.94945 3.989079,-0.58389 7.971764,-0.73091 11.663895,-0.33718 0,0 0,0 0,0 z"
         inkscape:original-d="m 43.07171,187.2487 c 3.92137,0.0654 7.668,0.5636 10.9453,1.58626 23.48278,7.32767 60.23173,-8.08076 98.60281,2.79184 -63.501606,2.58877 -88.2659,6.56991 -136.07062,0.7297 8.01181,-3.23072 17.75692,-5.25403 26.52251,-5.1078 z" />
    </g>
    <g
       id="g3807">
      <path
         sodipodi:nodetypes="cscscc"
         inkscape:connector-curvature="0"
         id="path4805"
         d="m 434.07725,205.11027 c -38.32142,-30.65714 -84.82296,-32.51157 -123.32532,-5.57402 -37.47135,26.21623 -69.46947,18.11558 -85.4948,-27.87014 -38.83226,57.9432 -21.08971,108.37001 29.66688,112.87785 68.4791,6.08183 102.1325,-44.8206 169.0052,-29.96421 z"
         style="fill:#f1f6a1;stroke:none;stroke-width:8;stroke-linecap:butt;stroke-linejoin:miter;stroke-miterlimit:4;stroke-opacity:1;stroke-dasharray:none;fill-opacity:1" />
      <path
         sodipodi:nodetypes="csccscc"
         inkscape:connector-curvature="0"
         d="m 230.53446,182.46881 c -1.54688,54.45926 20.63816,65.84678 54.89218,60.06752 43.24488,-7.29618 70.63348,-51.15859 144.88055,-20.29066 l -1.64771,9.46207 c -68.3498,-29.26185 -91.61122,10.24218 -143.23284,20.8458 -41.95894,8.6188 -67.03295,-10.59394 -64.51303,-73.03317 1.7996,-6.19092 7.42042,-5.70091 9.62085,2.94844 z"
         style="fill:#ffffff;stroke:none;stroke-width:2;stroke-linecap:butt;stroke-linejoin:miter;stroke-miterlimit:4;stroke-opacity:1;stroke-dasharray:none"
         id="path3870" />
      <path
         style="fill:none;stroke:#e3e977;stroke-width:8;stroke-linecap:butt;stroke-linejoin:miter;stroke-miterlimit:4;stroke-opacity:1;stroke-dasharray:none;fill-opacity:1"
         d="m 434.07725,205.11027 c -38.32142,-30.65714 -84.82296,-32.51157 -123.32532,-5.57402 -37.47135,26.21623 -69.46947,18.11558 -85.4948,-27.87014 -38.83226,57.9432 -21.08971,108.37001 29.66688,112.87785 68.4791,6.08183 102.1325,-44.8206 169.0052,-29.96421 z"
         id="path3805"
         inkscape:connector-curvature="0"
         sodipodi:nodetypes="cscscc" />
    </g>
    <g
       id="g3814">
      <path
         sodipodi:nodetypes="csccc"
         inkscape:connector-curvature="0"
         id="path4799"
         d="m 442.64237,288.31251 c 14.95543,84.32764 -38.93365,105.65289 -33.64823,164.8419 3.01495,33.76302 29.75228,55.23613 72.89545,52.07598 -50.86298,-66.19156 21.00389,-162.28183 -31.94935,-271.67207 z"
         style="fill:#f1f6a1;stroke:none;stroke-width:8;stroke-linecap:butt;stroke-linejoin:miter;stroke-miterlimit:4;stroke-opacity:1;stroke-dasharray:none;fill-opacity:1" />
      <path
         sodipodi:nodetypes="ccccc"
         inkscape:connector-curvature="0"
         d="m 476.54027,496.48086 c -69.92343,-40.78076 -24.71458,-77.8866 -6.23797,-168.24101 1.14647,-13.96984 -0.0497,-27.69553 -2.89462,-41.52126 -12.18896,125.78509 -83.4951,163.88018 3.16032,218.08715 6.89949,3.58567 11.60703,-4.86408 5.97227,-8.32488 z"
         style="fill:#ffffff;stroke:none;stroke-width:2;stroke-linecap:butt;stroke-linejoin:miter;stroke-miterlimit:4;stroke-opacity:1;stroke-dasharray:none"
         id="path4092" />
      <path
         style="fill:none;stroke:#e3e977;stroke-width:8;stroke-linecap:butt;stroke-linejoin:miter;stroke-miterlimit:4;stroke-opacity:1;stroke-dasharray:none;fill-opacity:1"
         d="m 442.64237,288.31251 c 14.95543,84.32764 -38.93365,105.65289 -33.64823,164.8419 3.01495,33.76302 29.75228,55.23613 72.89545,52.07598 -50.86298,-66.19156 21.00389,-162.28183 -31.94935,-271.67207 z"
         id="path3812"
         inkscape:connector-curvature="0"
         sodipodi:nodetypes="csccc" />
    </g>
    <g
       id="g4085">
      <path
         style="fill:#38492a;stroke:none;fill-opacity:1"
         d="m 392.66812,262.7168 c 4.35219,-41.42159 31.01183,-79.68128 37.13564,-79.86457 6.03616,-0.18071 57.28203,73.69175 7.41315,152.91801 z"
         id="path3914"
         inkscape:connector-curvature="0"
         sodipodi:nodetypes="cscc" />
      <path
         sodipodi:nodetypes="ccc"
         inkscape:connector-curvature="0"
         id="path3018"
         d="m 429.28473,300.18884 c 11.7793,-28.11014 12.49077,-51.29886 0.10006,-80.06995 7.27858,29.05395 6.07687,51.71656 -0.10006,80.06995 z"
         style="fill:#243118;stroke:none;fill-opacity:1" />
      <path
         inkscape:original-d="m 392.66812,262.7168 c 4.35219,-41.42159 31.01183,-79.68128 37.13564,-79.86457 6.03616,-0.18071 57.28203,73.69175 7.41315,152.91801"
         inkscape:path-effect="#path-effect3906"
         sodipodi:nodetypes="csc"
         inkscape:connector-curvature="0"
         id="path4525"
         d="m 405.54458,208.26371 c -4.3711,8.42743 -7.92443,17.49858 -10.19246,26.76018 -2.26804,9.26161 -3.243,18.709 -2.684,27.69291 2.30789,-8.68269 5.18148,-17.32807 8.5604,-25.83452 3.37893,-8.50645 7.25752,-16.87289 11.42527,-24.9378 0.47133,-0.91206 0.95053,-1.81996 1.43731,-2.72354 3.29003,-6.07204 6.84588,-11.91479 11.05486,-17.12948 1.36559,-1.67632 2.67952,-3.21943 4.09894,-4.42832 0.47656,-0.3943 0.84695,-0.70366 1.14523,-0.85466 0.29574,-0.0523 0.14228,-0.0976 -0.46669,0.042 -1e-5,0 -1e-5,0 -2e-5,0 -0.89301,-0.10147 -1.29733,-0.14663 -1.22155,-0.22605 -0.0357,-0.0358 0.0402,0.0373 0.24362,0.18014 0,0 0,0 10e-6,0 0.60489,0.45992 1.22476,1.14609 1.94065,1.94612 2.29636,2.61647 4.28219,5.64513 6.20361,8.83281 6.09642,10.16483 10.50855,21.37202 13.5124,32.95179 0,1e-5 0,1e-5 10e-6,1e-5 3.99238,15.44687 5.22545,31.62186 3.37082,47.42757 -0.22569,1.94221 -0.49943,3.87845 -0.81972,5.80718 -1.47087,8.85738 -3.73928,17.64355 -6.49504,26.30754 -2.75576,8.66399 -5.99315,17.20829 -9.44132,25.69269 5.97813,-6.89192 11.18502,-14.82213 15.25314,-23.41371 4.06811,-8.59157 6.99414,-17.8404 8.56781,-27.27413 0.34268,-2.05424 0.63681,-4.11795 0.8809,-6.1896 1.96583,-16.83675 0.66587,-33.98948 -3.57147,-50.36081 0,0 0,0 0,0 -3.15252,-12.22229 -7.8586,-24.13188 -14.39428,-35.05898 -2.0236,-3.39932 -4.28745,-6.81057 -7.03769,-9.9806 -0.81154,-0.95136 -1.78505,-1.97488 -3.00157,-2.95816 0,0 0,-10e-6 -10e-6,-10e-6 -0.38222,-0.3212 -0.91699,-0.68706 -1.62034,-1.05834 -0.3582,-0.29746 -1.23082,-0.53494 -2.60928,-0.62188 -2e-5,0 -3e-5,0 -4e-5,0 -1.58878,0.16889 -2.66538,0.55686 -3.2235,0.98605 0,1e-5 0,1e-5 -10e-6,1e-5 -0.99625,0.579 -1.80113,1.19414 -2.44868,1.77198 -1.9903,1.73985 -3.63729,3.628 -5.09813,5.46345 -4.6288,5.76603 -8.4536,12.01357 -11.8617,18.34386 -0.51056,0.94312 -1.01316,1.89128 -1.50748,2.84434 z"
         style="fill:#243118;stroke:none;stroke-width:8;stroke-linecap:butt;stroke-linejoin:miter;stroke-miterlimit:4;stroke-opacity:1;stroke-dasharray:none;fill-opacity:1" />
    </g>
    <path
       id="path4550"
       style="fill:#243118;fill-opacity:1;fill-rule:nonzero;stroke:none"
       d="m 242.45859,374.5428 c 4.41128,3.00908 7.52358,1.6761 9.21381,-3.30768 1.75,9.37871 -5.52358,11.5414 -9.21381,3.30768 z m 2.25785,47.4259 c 28.29971,-5.7863 39.86536,-12.21676 47.599,-31.39971 -11.96691,15.1774 -22.19084,20.17802 -49.75805,25.49349 z" />
  </g>
</svg>
