<svg xmlns="http://www.w3.org/2000/svg" xmlns:inkscape="http://www.inkscape.org/namespaces/inkscape" xmlns:xlink="http://www.w3.org/1999/xlink" height="1200" viewBox="0 0 700 1200" width="700">
  <defs>
    <inkscape:path-effect effect="powerstroke" id="path-effect967" interpolator_type="CubicBezierSmooth" offset_points="0.24,4.5" start_linecap_type="zerowidth" />
    <inkscape:path-effect effect="powerstroke" end_linecap_type="zerowidth" id="path-effect7771" interpolator_type="CubicBezierSmooth" offset_points="0.25,4.5 | 2.76,4.5" start_linecap_type="zerowidth" />
    <inkscape:path-effect effect="powerstroke" id="path-effect7724" interpolator_type="CubicBezierSmooth" offset_points="0.26,4.5" start_linecap_type="zerowidth" />
    <linearGradient id="linearGradient78">
      <stop offset="0" stop-color="#01b591" />
      <stop offset="1" stop-color="#33fed5" />
    </linearGradient>
    <inkscape:path-effect effect="powerstroke" end_linecap_type="zerowidth" id="path-effect1599" interpolator_type="CubicBezierSmooth" offset_points="0.47,4.5 | 2.54,4.5" start_linecap_type="zerowidth" />
    <inkscape:path-effect effect="powerstroke" id="path-effect1652" interpolator_type="CubicBezierSmooth" offset_points="0.23,4.5" start_linecap_type="zerowidth" />
    <inkscape:path-effect effect="powerstroke" end_linecap_type="zerowidth" id="path-effect1249" interpolator_type="CubicBezierSmooth" offset_points="0.6,2.6 | 1.26,2.6" start_linecap_type="zerowidth" />
    <inkscape:path-effect effect="powerstroke" end_linecap_type="zerowidth" id="path-effect1329" interpolator_type="CubicBezierSmooth" offset_points="0.6,2.6 | 1.26,2.6" start_linecap_type="zerowidth" />
    <linearGradient id="linearGradient1308">
      <stop offset="0" stop-color="#9d5201" />
      <stop offset="1" stop-color="#feac54" />
    </linearGradient>
    <inkscape:path-effect effect="powerstroke" end_linecap_type="zerowidth" id="path-effect1270" interpolator_type="CubicBezierSmooth" offset_points="0.21,4.5 | 1.58,4.5" start_linecap_type="zerowidth" />
    <linearGradient gradientTransform="matrix(1.0511456,0,0,1.0511456,4.4099953,-20.973781)" gradientUnits="userSpaceOnUse" id="linearGradient1367" x1="151.43723" x2="149.91788" y1="318.40942" y2="393.43002" xlink:href="#linearGradient78" />
    <linearGradient gradientUnits="userSpaceOnUse" id="linearGradient1085" x1="-247.47476" x2="-326.5379" y1="395.16656" y2="392.8855" xlink:href="#linearGradient1308" />
    <clipPath id="clipPath1202">
      <use xlink:href="#path1087" />
    </clipPath>
    <linearGradient gradientTransform="matrix(1.0511456,0,0,1.0511456,-553.72757,-88.261479)" gradientUnits="userSpaceOnUse" id="linearGradient1233" x1="151.47795" x2="149.92435" y1="321.8092" y2="387.77274" xlink:href="#linearGradient1308" />
    <clipPath id="clipPath1629">
      <use xlink:href="#path1502" />
    </clipPath>
    <clipPath id="clipPath3494">
      <path d="m 304.88269,1002.2858 c 19.67932,58.591 102.36072,52.595 122.89186,11.3988 L 388.20162,673.559 281.4285,731.89531 Z" />
    </clipPath>
    <clipPath id="clipPath7700">
      <path d="m 428.82412,1018.6035 21.6029,40.1519 -163.51844,6.7175 18.2861,-54.557 4.04469,0.487 c 10.70441,9.4952 22.35194,4.3734 30.22899,-12.21144 10.83257,25.39534 27.69794,25.41234 38.07429,2.99074 6.48221,28.4854 21.26024,17.8151 28.05176,-5.37602 5.1551,12.80382 11.32163,20.28472 19.04179,20.01842 z" />
    </clipPath>
    <clipPath id="clipPath7713">
      <path clip-path="none" d="m 304.47945,991.13026 c 0.52679,14.57194 1.06648,29.50094 1.61596,44.70034 l 126.5079,-0.034 c -3.82134,-16.9798 -7.39236,-34.0651 -10.72687,-50.94667 z" />
    </clipPath>
    <clipPath id="clipPath7785">
      <path d="m -44.006825,549.07493 c 1.765266,-8.67371 10.962027,-14.9449 25.875096,-14.74061 -14.983486,-11.41113 -1.246522,-17.87464 13.650026,-16.0178 -12.620793,-15.05645 -19.065669,-38.38581 3.4314501,-35.79465 -13.6874951,-15.1853 -19.7069731,-30.74492 -7.4111062,-37.39743 L -6.187598,441.41547 -62.57895,400.43901 -106.75,557 l 60.038866,-2.74446 z" />
    </clipPath>
    <clipPath id="clipPath7796">
      <path d="m 11.893026,449.71115 c -9.825329,-4.5594 -19.9193038,-9.15923 -30.277181,-13.78581 -46.987198,11.89534 -58.915035,78.94546 -36.377521,115.71339 7.548252,2.43665 14.938276,4.86954 22.171245,7.2948 63.489226,-29.21736 64.766535,-69.46095 44.483457,-109.22238 z" />
    </clipPath>
    <clipPath id="clipPath7804">
      <path d="M -41.331319,556.02447 C -68.894312,526.19826 -62.439558,436.18669 1.2297035,444.79585 L 280.5,566 231,686 Z" />
    </clipPath>
    <clipPath id="clipPath917">
      <path d="m 344.82982,986.92384 c 10.8946,17.08246 22.49259,14.61656 31.27375,4.45504 18.81669,23.44982 42.10837,9.27832 45.29039,-6.63159 11.50099,16.68811 23.67859,22.09191 33.56571,8.15201 l 3.79089,-1.25278 8.59489,51.69898 -136.14545,3.3454 9.75265,-61.37515 z" />
    </clipPath>
    <clipPath id="clipPath928">
      <path d="m 339.78293,960.99714 c 0.91175,18.95539 1.81384,37.70986 2.70633,56.26486 l 117.18068,-1.4329 c -0.35849,-18.62631 -1.55679,-37.29527 -3.37169,-55.67 z" />
    </clipPath>
    <clipPath id="clipPath932">
      <path d="m 340.95265,985.31575 c 27.65914,45.92525 92.22189,47.62725 117.79791,6.33077 l 6.48409,-11.88069 -18.39829,-474.45674 -144.29091,-8.14545 z" />
    </clipPath>
    <clipPath id="clipPath987">
      <path d="m 171.81738,990.85787 c 12.23912,15.70153 21.0109,8.91261 24.61718,-0.5568 11.71776,12.68763 21.54465,14.29143 30.5931,-9.81174 10.07238,26.77227 23.17878,29.59337 29.19989,7.72713 6.74949,11.15618 14.6044,14.79614 20.88695,11.69302 l 4.42983,-0.0313 9.94658,35.61272 -134.10909,9.3091 10.27958,-55.38942 z" />
    </clipPath>
    <clipPath id="clipPath998">
      <path clip-path="none" d="m 168.94466,964.18545 c -1.05297,16.40503 -1.71945,33.55822 -1.93134,51.44935 L 284.22581,1014.8 c -3.21966,-16.63286 -5.7716,-33.8991 -7.61716,-51.48027 z" />
    </clipPath>
    <clipPath id="clipPath1002">
      <path d="m 168.03473,980.58928 c 12.038,57.66532 99.75969,55.36352 112.48066,12.87801 L 312.25835,714.53905 200.35549,700.9626 150.98658,916.54018 Z" />
    </clipPath>
  </defs>
  <path d="m 308.10757,538.3685 c 64.29757,-69.30182 163.93912,-60.94449 199.35095,25.28774 -16.45883,-12.84646 -30.01872,-19.40784 -47.38603,-21.85553 95.20999,81.74936 8.72814,154.25986 51.83172,233.14588 -23.66057,-16.98528 -32.6676,-37.11923 -39.7232,-62.66198 -10.09854,92.39931 -3.40643,165.86134 83.57163,229.40473 -68.06896,-3.09087 -107.81028,-19.95211 -141.97852,-63.05641 -0.15366,26.11915 7.46917,49.284 27.38857,78.67859 -64.17406,-31.63883 -102.35744,-98.62968 -86.17189,-198.2968 24.89093,-153.27255 0.40554,-203.53581 -40.40583,-194.59083 z" style="fill:#1a2c2e;stroke:#091011;stroke-width:9;stroke-miterlimit:20" />
  <g>
    <path d="M 200.70651,634.64075 C 200.11827,573.47113 239.17546,509.0608 306.42934,519.29401 l -10.70149,215.18697 c -28.47873,62.18966 -35.84553,178.23854 -15.92004,281.17412 4.36844,22.5675 -108.58333,24.3948 -108.29481,0.033 1.03331,-87.2473 13.36909,-170.6251 36.68214,-235.23691 2.47675,-6.86429 6.99432,-10.32685 17.53374,-10.95687 -2.23023,-38.77771 -24.43193,-73.45516 -25.02237,-134.85357 z" fill="#587c6e" />
    <path clip-path="url(#clipPath1002)" fill="#325648" inkscape:original-d="m 225.4637,786.96249 c 5.04302,-46.61143 -24.0798,-81.8811 -24.75719,-152.32174 -0.58823,-61.16962 38.46895,-125.57995 105.72283,-115.34674 l -10.70149,215.18697 c -28.47873,62.18966 -35.84553,178.23854 -15.92004,281.17412 4.36844,22.5675 -108.58333,24.3948 -108.29481,0.033 1.03331,-87.2473 13.36909,-170.6251 36.68214,-235.23691 2.47675,-6.86429 6.99432,-10.32685 17.41337,-10.93727" inkscape:path-effect="#path-effect967" />
    <path d="m 271.3734,956.12614 c 1.85777,20.01009 4.65519,40.00539 8.43441,59.52896 4.36845,22.5675 -108.58334,24.3948 -108.29481,0.033 0.24802,-20.94185 1.14723,-41.66077 2.69311,-61.95075" style="clip-path:url(#clipPath987);fill:#292929;stroke:#141414;stroke-width:9" />
    <path d="m 162.88479,976.2963 c 16.88372,33.2316 29.11772,25.6425 33.54977,14.00477 11.71776,12.68763 21.54465,14.29143 30.5931,-9.81174 10.07238,26.77227 23.17878,29.59337 29.19989,7.72713 10.65378,17.60954 24.06172,16.49214 29.69282,-0.31115" style="clip-path:url(#clipPath998);fill:none;stroke:#325648;stroke-width:5" />
  </g>
  <g>
    <path d="m 421.42387,634.28639 c 0,-61.16962 -31.2827,-126.40277 -98.43815,-116.16956 l 24.00175,498.99987 c 0.34076,25.9788 108.61494,21.2265 108.1833,-1.201 -1.50002,-77.93815 -18.30701,-164.90668 -39.44658,-236.50031 -2.07162,-7.01599 -7.09364,-10.32685 -17.59247,-10.84581 2.34137,-38.26875 23.29215,-73.75873 23.29215,-134.28319 z" fill="#587c6e" />
    <path clip-path="url(#clipPath932)" fill="#325648" inkscape:original-d="m 398.53692,785.51508 c -5.49126,-46.61143 22.88695,-80.78805 22.88695,-151.22869 0,-61.16962 -31.2827,-126.40277 -98.43815,-116.16956 l 24.00175,498.99987 c 0.34076,25.9788 108.61494,21.2265 108.1833,-1.201 -1.50002,-77.93815 -18.30701,-164.90668 -39.44658,-236.50031 -2.07162,-7.01599 -7.09364,-10.32685 -17.51855,-10.93727" inkscape:path-effect="#path-effect7724" />
    <path d="m 344.30103,961.26516 2.68644,55.85154 c 0.34076,25.9788 108.61495,21.2265 108.1833,-1.201 -0.37487,-19.47751 -1.70574,-39.51901 -3.82131,-59.74358" style="clip-path:url(#clipPath917);fill:#292929;stroke:#141414;stroke-width:9" />
    <path d="m 334.95542,964.89779 c 13.26637,39.89811 29.63034,39.80951 41.14815,26.48109 18.81669,23.44982 42.10837,9.27832 45.29039,-6.63159 15.09486,21.90281 31.35526,24.36721 42.07288,-10.82831" style="clip-path:url(#clipPath928);fill:none;stroke:#325648;stroke-width:5" />
  </g>
  <g>
    <path d="m 202.27732,680.557 c -43.97095,3.39477 -58.46216,-24.23853 -56.10273,-46.55853 -17.93509,-23.35349 -6.83559,-63.58097 18.54631,-65.14887 5.18345,-19.49771 29.82891,-25.0451 56.40135,-6.35392 z m 163.75387,1.71811 c 43.92712,3.92137 58.74838,-23.53632 56.65654,-45.88299 18.21361,-23.13693 7.59689,-63.49451 -17.7644,-65.36641 -4.94946,-19.55841 -29.52669,-25.40069 -56.32117,-7.02923 z" fill="#648b7c" stroke="#396251" stroke-width="9" />
    <path d="m 166.94525,644.40761 -22.54171,-13.55564 m 47.14878,-57.60687 -24.00741,-10.74465 m -4.33117,36.07815 -21.47039,-12.79004 m 57.93747,-33.55817 c -9.33458,8.66758 -9.63904,19.36224 -5.87419,32.25002 -28.53784,-3.9049 -44.75016,23.39016 -23.69628,55.38597 -9.19592,12.09421 -8.18171,24.94752 5.041,38.41628 m 226.6425,-31.73101 22.7025,-13.28458 m -46.45518,-58.16765 24.13443,-10.45624 m 3.89859,36.12746 21.62209,-12.53188 m -57.53124,-34.24993 c 9.23006,8.77879 9.40636,19.47634 5.48737,32.31808 28.58258,-3.56269 44.4667,23.92466 23.03097,55.66591 9.05036,12.20353 7.88222,25.04376 -5.50092,38.35313" fill="none" stroke="#396251" stroke-width="4.5" />
  </g>
  <path d="m 178.5,639.5 c -1.91048,81.38174 52.56557,117.87546 109.72447,116.50633 55.60057,-1.33181 103.88755,-36.0236 103.62908,-115.65278 C 391.35355,486.31404 182.32462,476.5809 178.5,639.5 Z" style="fill:#648b7c;stroke:#396251;stroke-width:9;stroke-miterlimit:20" />
  <path cx="-285.52402" cy="383.21466" fill="url(#linearGradient1085)" rx="52.15601" ry="31.930841" transform="rotate(-83.091688)" />
  <path cx="-286.72687" cy="373.2872" fill="#fff" rx="52.156013" ry="31.930843" transform="rotate(-83.0917)" />
  <g transform="translate(3.8041592 49.71665)">
    <path d="M 211.52373,655.23868 C 117.33804,608.00284 24.571082,571.67338 -71.261363,541.67133 c -26.241983,-8.21552 0.300272,-123.98076 38.198745,-107.32731 95.534826,41.98018 189.895368,91.0918 281.441068,148.20965" fill="#648b7c" />
    <path clip-path="url(#clipPath7804)" fill="#396251" inkscape:original-d="M 211.52373,655.23868 C 117.33804,608.00284 24.571082,571.67338 -71.261363,541.67133 c -26.241983,-8.21552 0.300272,-123.98076 38.198745,-107.32731 95.534826,41.98018 189.895368,91.0918 281.441068,148.20965" inkscape:path-effect="#path-effect7771" />
    <path d="M 211.52373,655.23868 C 117.33804,608.00284 24.571082,571.67338 -71.261363,541.67133 c -26.241983,-8.21552 0.300272,-123.98076 38.198745,-107.32731 95.534826,41.98018 189.895368,91.0918 281.441068,148.20965" style="clip-path:url(#clipPath7785);fill:#2e2e2e;stroke:#141414;stroke-width:9;stroke-miterlimit:20" />
    <path d="m 8.324117,441.78481 c -32.05204,0.4142 -27.259147,20.89518 -9.3743699,40.73706 -22.4971191,-2.59116 -16.0522431,20.7382 -3.4314501,35.79465 -14.896548,-1.85684 -28.633512,4.60667 -13.650026,16.0178 -25.809398,-0.35356 -34.497474,18.68807 -17.173359,36.01219" style="clip-path:url(#clipPath7796);fill:none;stroke:#396251;stroke-width:5" />
    <path d="m -42.30046,448.33145 c 0.528422,25.77867 -7.958094,57.53502 -22.989646,77.94856 18.63451,-14.41656 28.845707,-54.58329 22.989646,-77.94856 z" fill="#141414" />
  </g>
  <g>
    <g>
      <path d="m 216.02366,567.37701 3.6372,-122.69585 120.13189,-0.19054 4.49642,121.57416 z" fill="#648b7c" />
      <path fill="#396251" inkscape:original-d="m 216.02366,567.37701 3.6372,-122.69585 120.13189,-0.19054 4.49642,121.57416" inkscape:path-effect="#path-effect1599" />
    </g>
    <path d="m 353.71952,382.06412 c -3.39046,47.70244 -12.29522,81.86442 -31.20513,110.80083 17.28414,-6.01332 27.19389,-12.48319 35.72762,-28.0394 2.64325,29.95957 8.04218,51.2502 28.54218,73.5002 -5.86299,-30.34186 -4.21553,-51.76696 2.50198,-73.68727 8.48528,12.37437 17.61333,20.77573 30.37069,26.4473 -22.32843,-53.97487 -29.64645,-112.15685 -25.20711,-172.79289 z" fill="#1a2c2e" />
    <path d="m 368.04686,359.63184 -14.32734,22.43228 c -3.39046,47.70244 -12.29522,81.86442 -31.20513,110.80083 17.28414,-6.01332 27.19389,-12.48319 35.72762,-28.0394 1.58147,17.92492 4.14937,32.74664 10.34778,46.52729 -3.36914,-76.08882 11.12211,-94.4171 -0.54293,-151.721 z" fill="#2dd08a" />
    <path d="m 353.71952,382.06412 c -3.39046,47.70244 -12.29522,81.86442 -31.20513,110.80083 17.28414,-6.01332 27.19389,-12.48319 35.72762,-28.0394 2.64325,29.95957 8.04218,51.2502 28.54218,73.5002 -5.86299,-30.34186 -4.21553,-51.76696 2.50198,-73.68727 8.48528,12.37437 17.61333,20.77573 30.37069,26.4473 -22.32843,-53.97487 -29.64645,-112.15685 -25.20711,-172.79289 z" style="fill:none;stroke:#091011;stroke-width:9;stroke-miterlimit:20" />
    <path d="m 410.26825,318.02106 c 0,79.58141 -55.50484,155.26233 -128.90778,155.26233 -73.40294,-10e-6 -134.46919,-73.16865 -134.40777,-152.76233 0.16023,-207.64775 263.31555,-199.42571 263.31555,-2.5 z" style="fill:#648b7c;stroke:#396251;stroke-width:9;stroke-miterlimit:20" />
    <g id="g1279">
      <path d="m 157.35249,298.15785 c -63.707983,-105.61679 -2.45768,-191.37784 22.02055,-189.18828 23.85555,2.13387 32.28677,53.24783 23.55288,103.27517 -28.08334,18.13266 -43.89159,50.48501 -45.57343,85.91311 z" fill="#648b7c" />
      <path d="m 167.74563,154.70031 c -16.50336,27.31336 -18.58542,62.48601 -6.42223,89.84671 -5.63317,-30.4951 -2.59534,-60.42045 6.42223,-89.84671 z" fill="#396251" />
      <path fill="#396251" inkscape:original-d="m 157.35249,298.15785 c -63.707983,-105.61679 -2.45768,-191.37784 22.02055,-189.18828 23.85555,2.13387 32.28677,53.24783 23.55288,103.27517" inkscape:path-effect="#path-effect1270" />
    </g>
    <g>
      <path d="m 247.2933,404.67836 c 19.75306,16.29691 45.6642,17.96237 66.8671,-0.53189 -9.94659,61.62412 -55.67974,62.13738 -66.8671,0.53189 z" fill="#bb1c76" />
      <path d="m 296.7399,444.14931 c -10.23882,9.75487 -23.97646,8.38919 -33.52045,-1.50126 11.11191,-7.59449 25.63576,-7.07708 33.52045,1.50126 z" fill="#ef6f2f" />
      <path d="m 247.2933,404.67836 c 19.75306,16.29691 45.6642,17.96237 66.8671,-0.53189 -9.94659,61.62412 -55.67974,62.13738 -66.8671,0.53189 z" fill="none" stroke="#396251" stroke-width="5" />
      <g clip-path="url(#clipPath1202)">
        <ellipse cx="349.72757" cy="-157.83389" fill="#fff" id="path1087" rx="74.655609" ry="38.369495" transform="rotate(82.424335)" />
        <ellipse cx="174.92291" cy="352.81192" fill="url(#linearGradient1367)" rx="31.930841" ry="52.15601" transform="rotate(-6.908303)" />
        <ellipse cx="183.446" cy="351.70294" rx="25.619127" ry="42.600334" transform="rotate(-6.2324766)" />
        <ellipse cx="-203.17392" cy="308.01505" fill="#fff" rx="21.387842" ry="11.289764" transform="rotate(-67.178777)" />
        <ellipse cx="-189.86903" cy="347.64404" fill="#fff" rx="6.9538078" ry="3.8864307" transform="rotate(-61.682246)" />
      </g>
      <path d="m 308.72408,374.86193 c 5.86646,6.96545 0.36143,14.2284 -8.0149,10.18753 5.92081,-1.29516 8.36352,-4.40156 8.0149,-10.18753 z m -54.88645,-0.41756 c -5.7468,6.26903 -1.05036,14.32318 7.47837,10.61475 -5.99514,-1.40695 -7.9292,-4.84696 -7.47837,-10.61475 z m 3.17281,-10.91769 c 15.22906,-2.90635 32.66077,-2.47502 48.80754,-0.24735 -14.51622,-7.24303 -34.67084,-7.68708 -48.80754,0.24735 z" fill="#396251" />
      <g clip-path="url(#clipPath1629)">
        <ellipse cx="-275.62567" cy="399.33789" fill="#fff" id="path1502" rx="74.655716" ry="38.369511" transform="rotate(-82.424328)" />
        <ellipse cx="-383.21463" cy="285.52402" fill="url(#linearGradient1233)" rx="31.930841" ry="52.15601" transform="rotate(6.9083029)scale(-1 1)" />
        <ellipse cx="-291.0032" cy="375.44629" rx="42.600334" ry="25.619127" transform="rotate(-83.767527)" />
        <ellipse cx="-148.40424" cy="442.66354" fill="#fff" rx="21.11261" ry="11.144481" transform="rotate(-67.178777)" />
        <ellipse cx="-122.39192" cy="475.85571" fill="#fff" rx="6.8643217" ry="3.8364177" transform="rotate(-61.682246)" />
      </g>
      <path inkscape:original-d="m 168.62922,350.82841 c -12.3766,-39.87664 -3.2206,-96.23695 24.46864,-99.01194 21.9567,-2.20049 38.88423,28.91408 45.29289,56.57534" inkscape:path-effect="#path-effect1329" />
      <path inkscape:original-d="m 393.44092,350.85535 c 12.3766,-39.87664 3.22823,-96.26389 -24.46101,-99.03888 -21.9567,-2.20049 -38.89609,28.96705 -45.30475,56.62831" inkscape:path-effect="#path-effect1249" />
    </g>
    <path d="m 117.65116,289.58139 c 0.61241,-92.26249 35.96215,-138.00368 98.21254,-160.74012 -16.94394,-4.91282 -35.30472,-8.43064 -56.79393,-7.44592 49.97545,-27.200554 98.95292,-32.909028 157.97434,-11.35508 -4.03166,-10.850557 -9.5036,-20.740933 -18.79854,-32.74645 29.68031,9.343801 59.7874,27.54633 79.34276,59.08972 l -8.911,40.12775 c -26.4524,20.33051 -28.38838,45.52281 -12.51952,74.0544 -23.32097,-0.54321 -36.71973,-14.5815 -43.01823,-35.76831 -15.55716,30.66375 -33.90407,39.87941 -71.64718,43.7311 18.42359,-18.05141 23.58715,-32.09165 24.58322,-55.07632 -48.90545,11.36412 -100.09648,35.37123 -148.42446,86.12923 z" fill="#1a2c2e" />
    <path d="m 372.20782,160.61291 -3.53049,15.89838 c -26.4524,20.33051 -28.38838,45.52281 -12.51952,74.0544 -23.32097,-0.54321 -36.71973,-14.5815 -43.01823,-35.76831 -15.55716,30.66375 -33.90407,39.87941 -71.64718,43.7311 18.42359,-18.05141 23.58715,-32.09165 24.58322,-55.07632 -15.16343,3.52351 -30.54659,8.26246 -45.996,14.63735 34.33747,-45.71543 88.1567,-64.90418 152.1282,-57.4766 z" fill="#2dd08a" />
    <path d="m 117.65116,289.58139 c 0.61241,-92.26249 35.96215,-138.00368 98.21254,-160.74012 -16.94394,-4.91282 -35.30472,-8.43064 -56.79393,-7.44592 49.97545,-27.200554 98.95292,-32.909028 157.97434,-11.35508 -4.03166,-10.850557 -9.5036,-20.740933 -18.79854,-32.74645 29.68031,9.343801 59.7874,27.54633 79.34276,59.08972 l -8.911,40.12775 c -26.4524,20.33051 -28.38838,45.52281 -12.51952,74.0544 -23.32097,-0.54321 -36.71973,-14.5815 -43.01823,-35.76831 -15.55716,30.66375 -33.90407,39.87941 -71.64718,43.7311 18.42359,-18.05141 23.58715,-32.09165 24.58322,-55.07632 -48.90545,11.36412 -100.09648,35.37123 -148.42446,86.12923 z" style="fill:none;stroke:#091011;stroke-width:9;stroke-miterlimit:20" />
    <use fill="#2dd08a" transform="rotate(-1.082043 84.187376-29278.764)scale(-1 1)" xlink:href="#g1279" />
  </g>
  <g>
    <path d="m 369.62009,692.52766 c 18,113.5 33.84122,234.27482 58.59298,344.25704 4.62178,20.5365 -116.73378,23.4154 -117.62064,-1.1167 L 299.68145,733.85102 Z" fill="#648b7c" />
    <path clip-path="url(#clipPath3494)" fill="#396251" inkscape:original-d="m 369.62009,692.52766 c 18,113.5 33.84122,234.27482 58.59298,344.25704 4.62178,20.5365 -116.73378,23.4154 -117.62064,-1.1167 L 299.68145,733.85102" inkscape:path-effect="#path-effect1652" />
    <path d="m 414.0945,968.33954 c 4.39848,23.16144 9.07342,46.02746 14.11857,68.44516 4.62179,20.5365 -116.73378,23.4154 -117.62064,-1.1167 l -2.22658,-61.59105" style="clip-path:url(#clipPath7700);fill:#2e2e2e;stroke:#141414;stroke-width:9;stroke-miterlimit:20" />
    <path d="m 298.4868,995.79459 c 12.78547,27.28941 30.33044,25.82241 40.98156,3.39687 10.83257,25.39534 27.69794,25.41234 38.07429,2.99074 6.48221,28.4854 21.26024,17.8151 28.05176,-5.37602 7.23853,17.97852 16.47122,25.46202 29.19914,15.73932" style="clip-path:url(#clipPath7713);fill:none;stroke:#396251;stroke-width:5" />
    <path d="m 268.34884,725.81854 c 15.3044,9.14352 30.68085,9.20894 45.90699,-0.66279 -10.47177,19.85016 -34.2158,20.3334 -45.90699,0.66279 z" fill="#396251" />
  </g>
</svg>