<svg xmlns="http://www.w3.org/2000/svg" xmlns:inkscape="http://www.inkscape.org/namespaces/inkscape" height="110" viewBox="0 0 90 110" width="90">
  <defs>
    <inkscape:path-effect effect="powerstroke" id="path-effect971" interpolator_type="CubicBezierSmooth" offset_points="0.38,0.5 | 3,0.5" start_linecap_type="zerowidth" />
    <inkscape:path-effect effect="powerstroke" id="path-effect969" interpolator_type="CubicBezierSmooth" offset_points="0.33,0.5 | 2,0.5" start_linecap_type="zerowidth" />
    <inkscape:path-effect effect="powerstroke" id="path-effect954" interpolator_type="CubicBezierSmooth" miter_limit="20" offset_points="0.25,0.5 | 6,0.5" start_linecap_type="zerowidth" />
    <inkscape:path-effect effect="powerstroke" id="path-effect952" interpolator_type="CubicBezierSmooth" miter_limit="20" offset_points="0.54,0.5 | 6,0.5" start_linecap_type="zerowidth" />
  </defs>
  <path d="M 17,17 C 17,17 16.235642,16.524642 14.679469,16.926085 14.128903,17.068114 13.488065,17.365076 12.953959,17.942219 12.69344,18.22373 12.461408,18.569934 12.291478,18.982889 12.209903,19.181127 12.137834,19.402425 12.08386,19.646554 11.96129,20.200944 11.932902,20.87363 12.099466,21.621232 12.361519,22.797422 13.126437,24.19002 14.706306,25.273307 16.077182,26.213291 18.047263,26.9 20.7,26.9 22.091306,26.9 23.597755,26.63226 25.194933,26.166745 26.784087,25.70357 28.462298,25.044749 30.198593,24.262079 33.706369,22.680879 37.604832,20.515845 41.245215,18.539416 45.486341,16.236833 49.130051,14.327457 52.707054,12.856161 57.412836,10.920576 60.735571,10.3 63.3,10.3 V 9.3 C 60.568799,9.3 57.114044,9.9621867 52.326656,11.931339 48.695289,13.424995 45.010134,15.357499 40.768082,17.660585 37.109376,19.646961 33.252652,21.7885 29.787644,23.350421 28.076877,24.121583 26.444576,24.760915 24.915119,25.206691 23.375996,25.655285 21.967608,25.9 20.700001,25.9 18.223455,25.9 16.456201,25.260676 15.271818,24.448567 13.905931,23.512004 13.283927,22.339111 13.075534,21.403767 12.94236,20.806034 12.96764,20.281448 13.060281,19.86243 13.101208,19.677312 13.155506,19.511027 13.216243,19.363429 13.342172,19.057403 13.503278,18.795516 13.680417,18.573405 14.043024,18.118742 14.489148,17.809283 14.921703,17.594618 16.148259,16.985913 17,17 17,17 Z" inkscape:original-d="M 17,17 C 10.2,16.5 10.8,26.4 20.7,26.4 31.4,26.4 49.951064,9.8 63.3,9.8" inkscape:path-effect="#path-effect969" />
  <path d="M 16.1,24.1 C 23,24.1 28.8,28 31.1,32.4 28.9,14.4 35.1,2.6 45.1,2.6 54.6,2.6 60.3,13 60.5,22.5 74.2,8.4 87.6,13.7 87.6,29.7 87.6,37.1 85.8,47.2 78.5,49.3 82.8,50.4 84,53.8 79.1,56.2 74.2,58.6 30.7,60.2 24.8,56 22.1,68.2 6.4,63 13.6,50.3 -2.7,52.8 -1.5,24.1 16.1,24.1 Z" fill="#fff" />
  <path d="M 23.6,52 C 23.6,52 24.633423,50.954785 24.734872,48.699749 24.769103,47.938862 24.618353,47.03825 23.987262,46.323699 23.495736,45.76717 22.803081,45.400714 21.953172,45.25789 21.196452,45.130726 20.318649,45.182055 19.373719,45.42871 17.713253,45.86214 15.738045,46.94001 14.114744,48.755816 12.672379,50.369231 11.464616,52.632241 11.30083,55.471202 11.224379,56.796358 11.350642,57.980828 11.66259,59.013003 11.964167,60.010861 12.436926,60.857519 13.052546,61.538445 13.64966,62.198903 14.371665,62.69253 15.17405,63.013136 15.954286,63.324893 16.804084,63.470336 17.674262,63.449862 19.352355,63.410377 21.121559,62.750444 22.55364,61.469558 23.788692,60.364897 24.77146,58.795464 25.176524,56.795155 25.47242,56.938743 25.804896,57.071205 26.167659,57.194253 26.836302,57.421055 27.629823,57.623125 28.527905,57.803139 30.309147,58.160177 32.527494,58.435463 35.044068,58.638998 40.010874,59.040702 46.152071,59.163416 52.332132,59.074949 58.420593,58.987793 64.519531,58.695563 69.421371,58.270001 71.853278,58.058871 73.991704,57.814758 75.680384,57.546545 76.522686,57.412761 77.258242,57.272179 77.865069,57.125388 78.464726,56.980331 78.963826,56.823451 79.319934,56.649031 80.58866,56.027614 81.505189,55.321539 82.0769,54.565688 82.364397,54.185593 82.566632,53.790162 82.678988,53.3861 82.791977,52.979765 82.811767,52.572584 82.742536,52.176429 82.673176,51.779537 82.516411,51.404379 82.289203,51.058996 82.061227,50.712445 81.76265,50.396133 81.408641,50.113788 81.007419,49.793789 80.530802,49.513906 79.992326,49.279419 81.325064,48.668581 82.443011,47.783373 83.376859,46.72257 84.641352,45.286172 85.57297,43.523282 86.256886,41.659769 87.699725,37.728366 88.1,33.194445 88.1,29.7 88.1,25.496697 87.192706,22.11392 85.724338,19.590699 84.124877,16.842211 81.868628,15.116733 79.33495,14.334736 76.493046,13.457607 73.379266,13.777583 70.333071,14.96047 66.700267,16.371147 63.237873,18.964685 60.141397,22.15157 L 60.858603,22.84843 C 63.892615,19.725834 67.238765,17.234788 70.695054,15.892655 73.589857,14.768556 76.466865,14.496073 79.040036,15.29026 81.323173,15.99493 83.381084,17.552265 84.860036,20.093673 86.22303,22.435821 87.1,25.637423 87.1,29.7 87.1,33.138144 86.703696,37.539838 85.318112,41.315236 84.663026,43.100193 83.786178,44.744206 82.626266,46.061805 81.500418,47.340709 80.102588,48.318702 78.361777,48.819485 L 76.593091,49.328287 78.376083,49.784401 C 79.391905,50.044263 80.207158,50.434636 80.785109,50.895587 81.069758,51.122611 81.292268,51.363086 81.453764,51.60858 81.613914,51.852027 81.714062,52.100214 81.757464,52.348574 81.800542,52.595073 81.789577,52.851951 81.715543,53.118194 81.641372,53.384934 81.501719,53.668445 81.27935,53.962437 80.832311,54.553461 80.06134,55.172386 78.880066,55.750969 78.623428,55.876669 78.208214,56.013539 77.629951,56.153421 77.057697,56.291849 76.350171,56.427627 75.523534,56.558922 73.866897,56.822047 71.75397,57.063731 69.334879,57.273749 64.461125,57.696872 58.386561,57.988178 52.317843,58.075051 46.155787,58.16326 40.048596,58.040487 35.124682,57.642252 32.628279,57.440349 30.452493,57.169018 28.724439,56.822642 27.853368,56.648042 27.104263,56.455985 26.488891,56.247253 25.865313,56.035737 25.401709,55.814586 25.089968,55.592669 24.796214,55.383557 24.551905,55.112556 24.374262,54.79877 24.374611,55.179605 24.351098,55.560088 24.303861,55.937983 24.040095,58.048111 23.09159,59.646763 21.88698,60.724196 20.630512,61.848011 19.088788,62.416302 17.650739,62.450138 16.906903,62.46764 16.192178,62.343075 15.545094,62.084521 14.881204,61.819253 14.286911,61.412641 13.794329,60.867805 13.286418,60.306014 12.882518,59.59289 12.61983,58.723709 12.347466,57.822508 12.228256,56.757981 12.29917,55.528798 12.447796,52.952615 13.541888,50.897022 14.86026,49.422304 16.35173,47.753963 18.155139,46.780301 19.626285,46.396289 20.462027,46.178136 21.195304,46.144555 21.78745,46.244063 22.444729,46.354516 22.919041,46.624833 23.237739,46.985677 23.649167,47.451516 23.843779,48.060993 23.912003,48.718611 24.114731,50.672743 23.6,52 23.6,52 Z" fill="#44a1c0" inkscape:original-d="M 23.6,52 C 27.8,41.5 12.4,45.1 11.8,55.5 11.2,65.9 23.7,64.8 24.8,56 30.7,60.2 74.2,58.6 79.1,56.2 84,53.8 82.8,50.4 78.5,49.3 85.8,47.2 87.6,37.1 87.6,29.7 87.6,13.7 74.2,8.4 60.5,22.5" inkscape:path-effect="#path-effect954" />
  <path d="M 62.224046,9.8346061 C 62.586214,9.8117436 62.944947,9.8 63.3,9.8 80.8,9.8 78.6,39.9 42,52.1 41.82293,52.159023 41.647263,52.218365 41.472991,52.278016" fill="none" stroke="#000" />
  <path d="M 45.5,30.4 C 45.5,30.4 45.932997,30.615392 46.822886,30.189291 47.154297,30.030603 47.540129,29.761418 47.901739,29.319312 48.374094,28.741809 48.839376,27.805399 48.897893,26.621038 48.905463,26.467822 48.905936,26.310718 48.898021,26.151059 48.862233,25.429236 48.660243,24.583182 48.117975,23.879244 47.833194,23.50956 47.452375,23.178324 46.957315,22.944986 46.497317,22.728175 45.947093,22.6 45.3,22.6 44.391675,22.6 43.571692,22.842538 42.871523,23.312072 42.208476,23.756714 41.67717,24.388881 41.286088,25.153587 40.912025,25.885012 40.666132,26.738088 40.556612,27.660584 40.451029,28.549918 40.471813,29.508933 40.631622,30.481104 40.935339,32.328717 41.753813,34.275674 43.197002,35.766516 43.893549,36.486061 44.737595,37.099991 45.735964,37.531604 46.7144,37.954599 47.835598,38.2 49.1,38.2 51.356447,38.2 53.3079,37.637587 54.943428,36.61585 56.551338,35.611367 57.828114,34.178957 58.783954,32.458446 59.726006,30.762753 60.355657,28.788522 60.685826,26.671182 61.012229,24.577976 61.046479,22.340617 60.796942,20.094784 60.30561,15.672794 58.706757,11.179444 56.047075,7.7764731 54.72974,6.0909894 53.148051,4.6690043 51.310495,3.6690291 49.479433,2.6725905 47.402617,2.1 45.1,2.1 42.500768,2.1 40.136188,2.8671871 38.094806,4.3173855 36.057984,5.7643436 34.365282,7.8748399 33.075222,10.531598 30.670057,15.484809 29.671064,22.311081 30.381256,30.350932 29.146619,28.729807 27.48732,27.288623 25.577965,26.168713 22.768758,24.521005 19.49092,23.6 16.1,23.6 13.796164,23.6 11.784542,24.076956 10.060919,24.874549 8.2771733,25.699963 6.8014547,26.868509 5.6167879,28.215047 3.0916952,31.085165 1.8633377,34.769727 1.6386317,38.103879 1.3831214,41.895099 2.3850011,45.284678 4.2513486,47.576656 5.3078474,48.874094 6.6241983,49.809869 8.1340436,50.361616 9.8228775,50.978771 11.698631,51.097468 13.675801,50.794221 L 13.524199,49.805779 C 11.678084,50.088926 9.9773898,49.970556 8.4772767,49.422366 7.1395996,48.933534 5.9716069,48.105523 5.0267806,46.945225 3.350441,44.886588 2.394367,41.761897 2.6363683,38.171121 2.849007,35.016023 4.0125203,31.552437 6.3675806,28.875585 7.4691749,27.623471 8.8349777,26.543719 10.480878,25.782092 12.069817,25.046823 13.937785,24.6 16.1,24.6 19.31031,24.6 22.413876,25.472175 25.072033,27.031286 27.537033,28.477103 29.525705,30.467629 30.656885,32.631623 L 31.929615,35.066408 31.596307,32.33934 C 30.515886,23.499535 31.473526,16.119496 33.974778,10.968402 35.206588,8.431605 36.799674,6.4640963 38.673944,5.1326145 40.545638,3.8029636 42.707623,3.1 45.1,3.1 47.230588,3.1 49.143605,3.6283184 50.832488,4.5473849 52.53145,5.4719393 54.012139,6.7967377 55.259175,8.3922769 57.783632,11.622232 59.328056,15.930192 59.803058,20.205216 60.043652,22.370557 60.0094,24.51862 59.697769,26.517091 59.382343,28.53989 58.784835,30.397734 57.909796,31.972803 57.023429,33.568264 55.857114,34.865962 54.413603,35.767743 52.949023,36.682687 51.183878,37.2 49.1,37.2 47.967914,37.2 46.982165,36.98091 46.132787,36.613709 45.26505,36.23857 44.528244,35.703962 43.915499,35.070985 42.640111,33.753485 41.895745,32.006207 41.618379,30.318898 41.473136,29.435337 41.455587,28.570674 41.549638,27.778478 41.647331,26.955602 41.864005,26.219782 42.176412,25.608913 42.502151,24.971978 42.927176,24.478789 43.428481,24.142613 43.953146,23.790772 44.57658,23.6 45.3,23.6 45.81232,23.6 46.215299,23.700761 46.530967,23.849546 46.870411,24.009536 47.129394,24.234576 47.325774,24.489505 47.706305,24.983486 47.870027,25.611297 47.899247,26.200577 47.905578,26.328255 47.90626,26.45473 47.902107,26.578962 47.870013,27.539079 47.560027,28.339279 47.254511,28.861938 47.020956,29.26149 46.766037,29.548513 46.538833,29.753678 45.930333,30.303153 45.5,30.4 45.5,30.4 Z" fill="#44a1c0" inkscape:original-d="M 45.5,30.4 C 49,30 49.8,23.1 45.3,23.1 38.6,23.1 39.6,37.7 49.1,37.7 66.6,37.7 62.8,2.6 45.1,2.6 35.1,2.6 28.9,14.4 31.1,32.4 28.8,28 23,24.1 16.1,24.1 -1.5,24.1 -2.7,52.8 13.6,50.3" inkscape:path-effect="#path-effect952" />
  <path d="M 43,47.8 C 41.5,47.6 39.4,57.4 40.8,57.7 42.2,58 44.5,48 43,47.8 Z M 31.2,107.6 C 33.5,87.9 36.5,67.3 38.7,53.9 40.9,40.5 47.7,42.3 44.8,54.3 41.9,66.3 37.4,87.6 31.2,107.6 Z" fill="#a5a5a5" stroke="#7d7d7d" stroke-miterlimit="20" />
  <path d="M 27.7,83.5 C 27.7,83.5 27.331016,82.341979 26.966807,79.167936 26.893004,78.524753 26.830388,77.790147 26.806612,77.010502 26.789256,76.441371 26.799365,75.81328 26.860259,75.172287 26.961115,74.110645 27.201266,73.039181 27.641227,72.274302 27.82958,71.946848 28.043247,71.69686 28.275977,71.533295 28.489616,71.383148 28.726685,71.3 29,71.3 29.243407,71.3 29.45548,71.361133 29.637951,71.470004 29.815839,71.576142 29.975169,71.733669 30.104126,71.94 30.356018,72.343027 30.478546,72.915789 30.381335,73.520661 30.287205,74.106355 29.990175,74.693734 29.444291,75.136771 28.895309,75.582322 28.071727,75.9 26.9,75.9 26.168562,75.9 25.470551,75.682365 24.850754,75.290178 24.214008,74.887266 23.660105,74.30037 23.236531,73.574548 22.331462,72.02365 22.059347,69.920744 22.670436,67.642009 23.369664,65.034611 25.158827,62.38878 28.025699,59.947892 31.74653,56.779933 36.775919,54.368407 42.158114,52.574342 L 41.841886,51.625658 C 36.396834,53.440676 31.234035,55.902922 27.377426,59.186483 24.402255,61.719578 22.470041,64.528551 21.704565,67.382987 21.035485,69.877967 21.313039,72.26253 22.372844,74.078577 22.868608,74.928102 23.530235,75.637979 24.316043,76.135213 25.083307,76.620712 25.964965,76.9 26.9,76.9 28.256338,76.9 29.315286,76.52937 30.074459,75.913229 30.826321,75.303023 31.238671,74.488193 31.368665,73.679339 31.500436,72.859431 31.344398,72.037638 30.952124,71.410001 30.747967,71.083349 30.47846,70.807025 30.15033,70.611245 29.808836,70.407492 29.418956,70.3 29,70.3 28.504589,70.3 28.069076,70.456438 27.700975,70.715143 27.315558,70.986018 27.012116,71.36242 26.774397,71.775699 26.229956,72.722219 25.970925,73.959993 25.864741,75.077713 25.799148,75.768165 25.788715,76.438889 25.807076,77.040983 25.832344,77.869547 25.928477,78.637501 26.055068,79.307064 26.685145,82.639674 27.7,83.5 27.7,83.5 Z" inkscape:original-d="M 27.7,83.5 C 25.4,78.1 26,70.8 29,70.8 31.7,70.8 32,76.4 26.9,76.4 20.3,76.4 15.9,60.8 42,52.1" inkscape:path-effect="#path-effect971" />
</svg>