<svg xmlns="http://www.w3.org/2000/svg" viewBox="0 0 20 33">
  <path d="M10.7 7.9c6.1 5.9-3.7 10.9-.2 16.1-2.1-5.4 8.6-11.7.2-16.1zM8.1.6C1.5 7 11.6 11.4 8.8 18 13.7 11.5 3.1 7.7 8.1.6z" fill="#fff"/>
  <path d="M1.8 31.9h16.4L15 25.3H5z" fill="none" stroke="#61aadb"/>
</svg>
