<svg xmlns="http://www.w3.org/2000/svg" xmlns:inkscape="http://www.inkscape.org/namespaces/inkscape" xmlns:xlink="http://www.w3.org/1999/xlink" height="782" viewBox="0 0 602 782" width="602">
  <defs>
    <inkscape:path-effect effect="powerstroke" id="path-effect1026" interpolator_type="CubicBezierSmooth" offset_points="0.35,2.5 | 5,2.5" start_linecap_type="zerowidth" />
    <inkscape:path-effect effect="powerstroke" end_linecap_type="zerowidth" id="path-effect1157" interpolator_type="CubicBezierSmooth" offset_points="0.21,2.5 | 5.75,2.5" start_linecap_type="zerowidth" />
    <inkscape:path-effect effect="powerstroke" id="path-effect937" interpolator_type="CubicBezierSmooth" offset_points="0.31,2.5 | 1,2.5" start_linecap_type="zerowidth" />
    <inkscape:path-effect effect="powerstroke" end_linecap_type="zerowidth" id="path-effect919" interpolator_type="CubicBezierSmooth" offset_points="0.28,2.5 | 3.32,2.5" start_linecap_type="zerowidth" />
    <inkscape:path-effect effect="powerstroke" id="path-effect895" interpolator_type="CubicBezierSmooth" offset_points="0.59,2.5 | 9,2.5" start_linecap_type="zerowidth" />
    <inkscape:path-effect effect="powerstroke" end_linecap_type="zerowidth" id="path-effect864" interpolator_type="CubicBezierSmooth" offset_points="0.3,1.75 | 0.68,1.75" start_linecap_type="zerowidth" />
    <inkscape:path-effect effect="powerstroke" end_linecap_type="zerowidth" id="path-effect862" interpolator_type="CubicBezierSmooth" offset_points="0.35,1.75 | 0.74,1.75" start_linecap_type="zerowidth" />
    <inkscape:path-effect effect="powerstroke" end_linecap_type="zerowidth" id="path-effect939" interpolator_type="CubicBezierSmooth" offset_points="0.36,2.5 | 1.8,2.5" start_linecap_type="zerowidth" />
    <clipPath id="clipPath915">
      <use xlink:href="#path885" />
    </clipPath>
    <clipPath id="clipPath882">
      <path clip-rule="nonzero" d="m 488.99609,287.01367 c -1.11645,2.17008 -2.12359,4.38985 -0.69921,7.71485 1.32747,-0.96868 2.65495,-1.02427 3.98242,0.36132 l 3.47942,41.18779 -103.39795,-12.88181 9.45879,-83.54684 103.20146,12.38072 -12.0425,35.1453 c -1.37878,0.90565 -2.7211,1.08209 -3.98243,-0.36133 z" />
    </clipPath>
    <clipPath id="clipPath948">
      <path d="m 430.68869,411.47604 c 30.75915,32.70369 66.53188,51.21525 106.12148,46.19938 l -0.17678,8.53034 c -41.8877,5.72298 -78.65522,-14.37958 -110.65181,-47.26004 z" />
    </clipPath>
    <clipPath id="clipPath958">
      <path d="m 430.3333,423.30886 c 3.39281,-1.23743 4.71856,-4.72179 3.90881,-8.14099 l -31.5448,-75.28638 84.85282,-33.23402 54.09366,133.99673 -10.686,17.60437 c -2.2218,2.82916 -1.70541,5.73746 1.30157,8.46324 l 10.26832,18.83367 -76.01398,2.2981 -51.6188,-60.45763 z" />
    </clipPath>
    <clipPath id="clipPath1139">
      <use xlink:href="#path1128" />
    </clipPath>
    <clipPath id="clipPath935">
      <path d="m 428.5776,573.78148 c 41.04017,-6.83321 78.21432,-33.97461 102.89277,-74.9234 l -5.19629,-6.35705 c -24.35696,39.34136 -57.49557,63.41168 -98.53574,70.24489 z" />
    </clipPath>
    <clipPath id="clipPath947">
      <path d="m 430.41962,562.27288 c 3.44923,2.78003 4.20836,6.81089 1.09487,10.98375 l -9.40217,26.94252 101.58987,-18.4855 33.91687,-71.85232 -28.18975,-7.69302 c -3.62767,-0.22922 -5.64379,-2.33734 -5.38816,-6.14142 L 471.9279,354.85524 378.49709,409.86803 Z" />
    </clipPath>
    <clipPath id="clipPath977">
      <use xlink:href="#path932" />
    </clipPath>
    <inkscape:path-effect effect="powerstroke" id="path-effect1026-6" interpolator_type="CubicBezierSmooth" offset_points="0.35,2.5 | 5,2.5" start_linecap_type="zerowidth" />
  </defs>
  <g inkscape:groupmode="layer" inkscape:label="Drawing">
    <g>
      <path d="M 364.88282,303.29664 C 324.80011,235.53907 335.9709,191.44751 303.36253,137.40997 c -14.08067,-23.33405 -31.05946,-34.23094 -36.23164,-25.14346 -5.35047,9.40074 13.21635,53.15168 52.92195,120.45603 -74.32718,-116.86265 -147.99352,-99.96136 -29.20456,14.78448 -65.49038,-30.03651 -69.89924,24.75223 20.71026,49.89912 -45.83583,15.60813 -3.30077,61.44222 48.58889,26.9413 z" style="fill:#8cc7e7;stroke:#5c96c9;stroke-width:5;stroke-miterlimit:20" />
      <path d="m 332.24609,222.28181 c -17.95551,-52.00305 -35.7701,-28.40368 -7.84568,38.81161 -44.33016,-44.13952 -36.11483,34.2678 9.93548,41.03433 l 1.42399,-34.56554 -9.54767,-43.87384 z" fill="#8cc7e7" />
      <path d="m 335.41613,232.28177 c -18.86436,-64.63576 -40.58758,-42.3691 -11.01572,28.81165 -44.33016,-44.13952 -36.11483,34.2678 9.93548,41.03433 -15.6389,13.23375 -9.81079,29.33085 0.17923,33.47437" style="fill:none;stroke:#5c96c9;stroke-width:5;stroke-miterlimit:20" />
    </g>
    <g>
      <path d="m 257,642 c 34.84838,-25.16295 86.34578,-34.23646 134.53033,-36.07322 14.54289,-62.9519 -3.98744,-121.15381 -57.45711,-148.14645 C 274.08441,497.78131 257.55882,557.81046 257,642 Z" fill="#7b1d59" stroke="#5d1742" stroke-width="5" />
      <path d="m 357.94041,424.11268 -56.96715,-1.39735 -9.2132,139.8135 c 5.65685,18.03122 43.84994,33.61585 57.69507,19.32411 10.96016,-11.31371 4.30514,-44.72939 -21.85004,-90.57314 18.20968,-10.60655 28.58087,-39.13657 30.33532,-67.16712 z" fill="#8cc7e7" />
      <path fill="#5c96c9" inkscape:original-d="m 309.93037,495.79517 c 29.18593,1.37501 45.74963,-35.56828 48.01004,-71.68249 l -56.96715,-1.39735 -9.2132,139.8135 c 5.65685,18.03122 43.84994,33.61585 57.69507,19.32411 10.96016,-11.31371 4.30514,-44.72939 -21.85782,-90.69133" inkscape:path-effect="#path-effect1026-6" />
      <path d="m 328.09755,430.9371 -48.96715,-8.14735 -20.68287,154.32606 c 5.65685,18.03122 46.14283,34.49974 59.98796,20.208 10.96016,-11.31371 5.24264,-54.15617 -20.27216,-99.80597 18.13762,-12.36782 26.31805,-41.3002 29.93422,-66.58074 z" fill="#9bdbf5" />
      <path fill="#6babda" inkscape:original-d="m 288.39601,502.08926 c 25.12007,-7.42093 35.49659,-41.75546 39.70154,-71.15216 l -48.96715,-8.14735 -20.68287,154.32606 c 5.65685,18.03122 46.14283,34.49974 59.98796,20.208 10.96016,-11.31371 5.24264,-54.15617 -20.21321,-99.76456" inkscape:path-effect="#path-effect1026" />
      <path d="M 19.092445,766.8509 C 122.61419,758.96489 209.24538,722.48661 228.53203,700.512 325.15462,590.42327 261.85159,492.01285 305.73406,405.50675 L 269.26183,356.13829 C 213.88042,406.44479 146.52448,571.08228 121.2219,653.77025 103.71175,710.99283 69.919428,738.26215 19.092445,766.8509 Z" fill="#ad2677" id="path932" />
      <path d="m 274.00388,362.24634 c -9.43871,41.82716 -6.5132,88.14076 14.6118,113.89076 1.18198,-25.0515 6.2217,-48.75816 17.11838,-70.63035 z m -93.10954,137.03594 c 27.05928,11.38007 64.86798,7.86466 103.40548,-6.5104 -34.45277,0.56695 -64.92437,-8.71394 -87.54736,-27.43072 z M 217.125,426.625 c 12.87352,28.43425 36.73051,48.95248 68,61.32322 C 253.71559,458.33826 241.34914,425.35654 245.75,382.75 235.82279,397.375 226.11567,412 217.125,426.625 Z m -80.85287,182.25278 c 54.0764,-7.74276 103.84186,-46.67605 148.3169,-112.49714 -37.01398,25.30496 -78.91783,39.85013 -120.05248,40.24544 -9.89977,23.84475 -19.30742,47.93556 -28.26442,72.2517 z M 96.376092,704.7977 C 227.58314,693.22984 262.74726,617.67692 282.86048,506.14257 248.82646,570.20649 205.45367,631.61809 122.29006,650.3111 c -5.78268,19.18195 -13.55578,37.65304 -25.913968,54.4866 z" fill="#faf5ab" />
      <path d="m 274.00388,362.24634 c -9.43871,41.82716 -6.5132,88.14076 14.6118,113.89076 m -107.72134,23.14518 c 27.05928,11.38007 64.86798,7.86466 103.40548,-6.5104 -34.45277,0.56695 -64.92437,-8.71394 -87.54736,-27.43072 M 217.125,426.625 c 12.87352,28.43425 36.73051,48.95248 68,61.32322 C 253.71559,458.33826 241.34914,425.35654 245.75,382.75 M 136.27213,608.87778 c 54.0764,-7.74276 103.84186,-46.67605 148.3169,-112.49714 -37.01398,25.30496 -78.91783,39.85013 -120.05248,40.24544 M 96.376092,704.7977 C 227.58314,693.22984 262.74726,617.67692 282.86048,506.14257 248.82646,570.20649 205.45367,631.61809 122.29006,650.3111" style="clip-path:url(#clipPath977);fill:none;stroke:#6b1a4c;stroke-width:4.4000001;stroke-miterlimit:20" />
      <path d="M 19.092445,766.8509 C 122.61419,758.96489 209.24538,722.48661 228.53203,700.512 325.15462,590.42327 261.85159,492.01285 305.73406,405.50675 L 269.26183,356.13829 C 213.88042,406.44479 146.52448,571.08228 121.2219,653.77025 103.71175,710.99283 69.919428,738.26215 19.092445,766.8509 Z" style="fill:none;stroke:#6b1a4c;stroke-width:5;stroke-miterlimit:20" />
      <path d="m 230.73547,375.08721 76.24709,6.59244 c 11.53452,92.24389 -0.12828,173.39726 -25.9232,181.49651 -31.42664,9.86753 -62.34079,-32.36727 -68.83143,-23.77156 -5.88406,7.79242 6.16579,18.58799 0.32149,25.7268 -11.67261,14.25809 -49.02137,-38.51896 -60.28374,-31.47998 -7.017,4.38562 5.46527,18.95928 0.0425,23.97823 -9.02614,8.35399 -40.40603,-15.7866 -48.51107,-48.09026 50.01161,-18.6407 96.02208,-70.34637 126.93836,-134.45218 z" style="fill:#f4f9dd;fill-opacity:.42;stroke:#f4f9dd;stroke-width:3" />
      <path d="m 194.11655,486.70979 c -12.01587,10.47223 -23.15663,24.85942 -32.0015,38.39892 9.70844,-11.80958 20.54869,-24.18237 32.0015,-38.39892 z m -17.7119,11.81521 c 21.31454,-20.11227 26.44055,-43.94675 42.05523,-64.4468 -13.16933,21.81181 -19.12716,45.54364 -42.05523,64.4468 z m 41.37326,21.14128 c 13.27544,-13.50827 20.49072,-28.35793 21.93692,-48.19302 -4.65929,18.73099 -11.74624,34.3494 -21.93692,48.19302 z" fill="#f4f9dd" opacity=".4" />
      <path d="m 146.24499,536.71517 c 0.70834,-2.03999 6.37086,-7.95045 10.04068,-7.99475 12.58292,-0.1518 39.78485,36.05518 54.99681,33.9818 0.67428,3.65402 0.83187,6.64646 -1.19078,8.08087 -13.61494,7.77816 -52.75021,-42.43178 -63.84671,-34.06792 z m 3.56792,25.22703 c -9.28376,5.42475 -45.63972,-15.26867 -50.151965,-51.92013 l 8.519405,-2.5719 c 4.92123,22.42765 17.68782,40.10608 41.28403,47.14435 0.97261,2.99706 1.44369,5.54617 0.34853,7.34768 z m 134.82373,4.5719 C 312.29639,551.43471 316.17088,465.40543 312.8,398.77849 l -3.64297,0.64297 c 3.37088,66.62694 -0.20877,145.52138 -28.72475,158.91125 -25.69373,12.06467 -50.51256,-24.36602 -64.61239,-24.36602 -3.94768,0 -6.81719,5.67508 -7.95102,9.88497 9.00497,-15.18453 44.71599,40.13624 76.76777,22.66244 z" fill="#e4ce30" />
      <path d="m 103.92065,526.4179 9.80535,-2.89338 c 2.51102,6.06413 5.92817,11.32281 10.36795,15.67248 l -7.87643,6.18863 c -5.26767,-5.92034 -9.23421,-12.28849 -12.29687,-18.96773 z m 121.60242,11.0913 -4.01858,7.47457 15.43137,10.44832 4.01859,-6.91197 z m -64.45812,3.6971 7.07271,-7.31383 12.2165,10.60907 -6.34936,6.59048 z" fill="#f3ea6e" />
      <path d="m 210.0917,570.78309 c 4.49078,-2.56557 6.94881,-10.08026 6.8316,-13.53799 -0.16074,-4.74194 -2.72072,-9.57102 -1.60031,-15.5201 -3.25945,-1.07046 -5.80476,-0.65456 -7.45412,2.12666 -2.12428,7.88748 7.67325,23.06614 2.22283,26.93143 m -52.92764,-18.99352 c -0.11838,2.80343 -3.29353,7.78166 -7.35115,10.15263 3.14126,-5.16729 -6.60327,-16.48529 -3.56792,-25.22703 1.82858,-1.37827 4.41855,-1.16595 7.54298,0.1206 -0.38914,4.18458 3.52654,11.39095 3.37609,14.9538 z" fill="#ceba2f" />
      <path d="m 211.47713,562.64785 c -15.32624,2.12775 -42.60854,-34.07923 -55.19146,-33.92743 -3.66982,0.0443 -9.33234,5.95476 -10.04068,7.99475 -3.03535,8.74174 6.70918,20.05974 3.56792,25.22703 m -3.56792,-25.22703 c 11.0965,-8.36386 50.23177,41.84608 63.84671,34.06792 4.49078,-2.56557 6.94881,-10.08026 6.8316,-13.53799 -0.16074,-4.74194 -2.72072,-9.57102 -1.59551,-15.51852 m -7.45892,2.12508 c 9.00497,-15.18453 44.71599,40.13624 76.76777,22.66244 C 312.29639,551.43471 316.17088,465.40543 312.8,398.77849 l -3.64297,0.64297 c 3.37088,66.62694 -0.20877,145.52138 -28.72475,158.91125 -25.69373,12.06467 -50.51256,-24.36602 -64.61239,-24.36602 -3.94768,0 -6.81719,5.67508 -7.95102,9.88497 -2.12428,7.88748 7.67325,23.06614 2.22283,26.93143 m -56.29101,-33.94207 c -0.40186,4.17933 3.51382,11.3857 3.36337,14.94855 -0.11838,2.80343 -3.29353,7.78166 -7.35115,10.15263 -9.28376,5.42475 -45.63972,-15.26867 -50.151965,-51.92013 l 8.519405,-2.5719 c 4.92123,22.42765 17.68782,40.10608 41.26113,47.07419" style="fill:none;stroke:#c2a629;stroke-width:3;stroke-miterlimit:20" />
    </g>
    <g>
      <path d="m 402.82093,413.73255 c 15.22372,56.45951 27.98419,113.14468 32.0529,170.03954 48.66132,-3.48102 78.43782,-32.24229 101.84187,-69.78896 -37.05407,-40.46395 -64.56047,-77.74534 -92.52151,-130.03022 z" style="clip-path:url(#clipPath947);fill:#ad2677;stroke:#6b1a4c;stroke-width:5" />
      <path d="m 431.37071,549.12718 c 1.49154,11.53956 2.67665,23.08791 3.50312,34.64491 48.66132,-3.48102 78.43782,-32.24229 101.84187,-69.78896 -7.06944,-7.72 -13.79135,-15.32416 -20.23518,-22.93876" style="clip-path:url(#clipPath935);fill:#e4ce30;stroke:#c2a629;stroke-width:5" />
    </g>
    <g>
      <path d="m 474.42849,309.43487 c 49.55697,-26.36976 76.10814,-73.51569 84.29186,-132.39301 -53.07953,33.01601 -79.90462,79.61105 -84.29186,132.39301 z" fill="#1b98d1" />
      <path d="m 534.67474,251.12644 c 13.04555,-20.79782 20.47365,-48.38635 24.04561,-74.08458 -14.4094,8.96279 -26.88398,18.92629 -37.50009,29.74261 7.62724,13.53421 12.20194,27.64227 13.45448,44.34197 z" fill="#5fbb4e" />
      <path d="m 474.42849,309.43487 c 49.55697,-26.36976 76.10814,-73.51569 84.29186,-132.39301 -53.07953,33.01601 -79.90462,79.61105 -84.29186,132.39301 z" style="fill:none;stroke:#1b98d1;stroke-width:5;stroke-miterlimit:20" />
      <path d="m 403.1446,231.45365 c -19.17717,17.30649 -34.15682,32.07572 -42.88297,57.67136 7.19849,-5.38353 13.03027,-8.6368 20.67279,-11.89501 -2.71627,8.32342 -3.96212,15.51022 -5.40216,24.85661 l 47.066,-46.79998 z" style="fill:#632e86;stroke:#1b98d1;stroke-width:5;stroke-miterlimit:20" />
      <path d="m 374.53226,447.6536 c 15.80417,18.14449 -6.71922,35.35266 -21.34334,11.53799 -11.51878,16.89657 -25.93843,14.62009 -23.66482,-10.89501 -11.93374,15.9541 -23.8686,10.37054 -19.48551,-12.89502 -12.33723,11.93905 -31.68747,7.61624 -17.19954,-17.4855 -22.86482,8.85792 -28.6989,-14.5909 -11.53799,-24.59375 l 15.5774,-8.81565 z" fill="#e4ce30" />
      <path d="m 324.50727,406.91279 -33.50857,33.39307 c 4.49844,3.07407 12.69624,1.23461 19.03989,-4.9043 -1.64821,8.74876 -0.98898,14.99718 1.10995,18.54026 l 27.68024,-35.2081 z" fill="#f3ea6e" />
      <path d="m 374.53226,447.6536 c 15.80417,18.14449 -6.71922,35.35266 -21.34334,11.53799 -11.51878,16.89657 -25.93843,14.62009 -23.66482,-10.89501 -11.93374,15.9541 -23.8686,10.37054 -19.48551,-12.89502 -12.33723,11.93905 -31.68747,7.61624 -17.19954,-17.4855 -22.86482,8.85792 -28.6989,-14.5909 -11.53799,-24.59375 l 15.5774,-8.81565 z" style="fill:none;stroke:#c2a629;stroke-width:5;stroke-miterlimit:20" />
      <path d="m 485.92748,290.12501 6.269,-30.38052 -71.60192,-6.35865 -5.3942,23.39746 17.68178,68.15523 15.90258,4.0525 z" fill="#9bdbf5" stroke="#6babda" stroke-width="5" />
      <path d="m 371.411,452.66731 c 62.84426,-41.10664 96.53277,-95.68671 115.66972,-156.06258 l -35.95934,43.25022 -10.33708,-3.86774 c 0.87226,-25.47927 -6.62377,-46.00111 -20.19297,-65.1207 l -28.00005,15.2457 c -39.27216,2.75549 -36.72027,46.273 -110.13028,79.19621 14.48094,40.03399 37.1348,76.83874 88.95,87.35889 z" fill="#ad2677" stroke="#6b1a4c" stroke-width="5" />
      <g>
        <path d="m 489.7432,300.92121 2.23731,-24.68647 c -19.31673,16.91708 -31.19734,37.60779 -38.09243,66.96065 12.36538,-15.31382 22.64497,-29.39884 35.85512,-42.27418 z m -45.36804,35.79138 c 5.98042,-37.39897 -7.49263,-66.26355 -31.7256,-89.29929 l -9.82643,24.38723 c 21.1982,19.89552 29.90512,39.42056 41.55203,64.91206 z" fill="#e4ce30" />
        <path d="m 484.54492,287.00994 -0.85561,18.79075 -5.89479,3.64853 -1.38423,-12.43349 z" fill="#f3ea6e" />
        <path d="m 491.98051,276.23474 c -19.31673,16.91708 -31.19734,37.60779 -38.09243,66.96065 12.36538,-15.31382 22.64497,-29.39884 35.85512,-42.27418 l 0.51358,-4.29251 c -11.78717,6.57747 -20.20802,18.75307 -31.58528,37.95156 9.41031,-24.24169 18.21704,-38.98418 32.55021,-49.64738 z M 412.64956,247.4133 c 24.23297,23.03574 37.70602,51.90032 31.7256,89.29929 -11.64691,-25.4915 -20.35383,-45.01654 -41.55203,-64.91206 l 2.15317,-5.42671 c 18.80961,14.96643 29.56916,37.07331 39.14057,61.94243 -4.28384,-27.73559 -16.15151,-52.58453 -34.351,-73.31428 z" fill="#fdf5ae" />
        <path d="m 489.7432,300.92121 2.23731,-24.68647 c -19.31673,16.91708 -31.19734,37.60779 -38.09243,66.96065 12.36538,-15.31382 22.64497,-29.39884 35.85512,-42.27418 z m -45.36804,35.79138 c 5.98042,-37.39897 -7.49263,-66.26355 -31.7256,-89.29929 l -9.82643,24.38723 c 21.1982,19.89552 29.90512,39.42056 41.55203,64.91206 z" style="clip-path:url(#clipPath882);fill:none;stroke:#efcf4e;stroke-width:4" />
        <path d="m 469.10325,341.26905 c 17.33266,-6.77853 15.74468,-17.30288 -2.375,-10.28567 5.87248,-8.16744 0.84365,-11.93313 -9.35905,-3.23291 -3.50889,-14.1465 -14.52353,-14.41589 -19.35063,-2.32325 -9.94513,-11.84855 -17.15941,-11.85588 -13.59028,0.0383 -18.69199,-15.29404 -23.29638,-5.16476 -6.16179,7.6622 -13.8074,-3.69514 -21.21969,2.83465 3.93379,11.78677 -14.20816,4.20952 -15.70718,12.45607 -1.03895,9.94779 -11.03418,10.50092 -6.87725,14.52409 7.51271,7.31888 4.35159,14.65756 14.38845,18.14823 23.69732,4.51899 9.23201,9.31537 14.96819,6.14317 8.72733,-4.41985 10.29394,4.86262 12.99387,-3.04212 3.34253,-10.51616 19.88511,-0.88875 18.24052,-7.95309 4.66202,-10.49509 z" fill="#e4ce30" />
        <path d="m 439.82842,321.87108 c -0.66663,1.03282 -1.27606,2.21891 -1.80985,3.55614 -8.57876,-10.22068 -15.12552,-11.63035 -14.47161,-4.19032 l 28.82441,45.46325 c 9.23201,9.31537 14.96819,6.14317 8.72733,-4.41985 3.28054,1.54965 5.78982,1.80263 7.37387,1.18612 z" fill="#f3ea6e" />
        <ellipse cx="-266.88306" cy="497.54846" fill="#d92d94" rx="17.889896" ry="14.597131" transform="rotate(-80.272753)" />
        <path d="m 469.10325,341.26905 c 17.33266,-6.77853 15.74468,-17.30288 -2.375,-10.28567 5.87248,-8.16744 0.84365,-11.93313 -9.35905,-3.23291 -3.50889,-14.1465 -14.52353,-14.41589 -19.35063,-2.32325 -9.94513,-11.84855 -17.15941,-11.85588 -13.59028,0.0383 -18.69199,-15.29404 -23.29638,-5.16476 -6.16179,7.6622 -13.8074,-3.69514 -21.21969,2.83465 3.93379,11.78677 -14.20816,4.20952 -15.70718,12.45607 -1.03895,9.94779 -11.03418,10.50092 -6.87725,14.52409 7.51271,7.31888 4.35159,14.65756 14.38845,18.14823 23.69732,4.51899 9.23201,9.31537 14.96819,6.14317 8.72733,-4.41985 10.29394,4.86262 12.99387,-3.04212 3.34253,-10.51616 19.88511,-0.88875 18.24052,-7.95309 4.66202,-10.49509 z" style="fill:none;stroke:#c2a629;stroke-width:1.79999995;stroke-miterlimit:20" />
        <path d="m 444.47924,350.17011 -10.03077,9.81522 c 6.25076,7.29095 14.78167,5.72226 19.818,0.46663 z" fill="#a12572" />
        <path d="m 434.88464,335.43739 13.29769,11.27602 11.0775,-6.33481 c -2.74569,-10.76486 -14.92253,-16.23845 -24.37519,-4.94121 z" fill="#f247aa" />
        <path d="m 453.30163,343.78583 5.95818,-3.4073 m -5.51525,9.46506 5.95688,-0.33059 m -9.43302,6.73877 3.99813,4.20012 m -10.11616,4.46247 0.3936,-6.78841 m -4.98065,-3.14565 -5.11494,5.00495 m 3.18981,-11.54655 -7.03601,4.2e-4 m 10.21335,-7.97239 -5.93101,-5.02922 m 12.79589,2.81081 0.83422,-8.7361" fill="none" stroke="#9f006d" stroke-width="1.5" />
        <ellipse cx="-296.13153" cy="481.89923" fill="#fca1d8" rx="10.075371" ry="8.1244431" stroke="#9f006d" stroke-width="1.5" transform="rotate(-83.583892)" />
        <ellipse cx="-266.88306" cy="497.54846" fill="none" rx="17.889896" ry="14.597131" stroke="#9f006d" stroke-width="1.5" transform="rotate(-80.272753)" />
        <path d="m 490.2881,294.9088 0.69917,-7.71464" fill="none" stroke="#c2a629" stroke-width="4" />
      </g>
      <g>
        <path d="M 381.13056,161.58487 C 411.96203,38.624665 589.36142,80.697015 545.9471,206.02598 521.1806,277.5222 464.42844,282.80066 429.19175,268.13312 392.4687,252.84687 367.04957,217.74184 381.13056,161.58487 Z" fill="#9bdbf5" stroke="#6babda" stroke-width="5" />
        <path d="m 389.125,226.625 c -11,18.5 -9.125,27 16.5,19.75 l 88.75,7.25 c 21.5,12.875 28.25,7 20.375,-13.875 z" fill="#9bdbf5" />
        <path fill="#6babda" inkscape:original-d="m 389.125,226.625 c -11,18.5 -9.125,27 16.5,19.75" inkscape:path-effect="#path-effect862" />
        <path fill="#6babda" inkscape:original-d="m 514.75,239.75 c 7.875,20.875 1.125,26.75 -20.375,13.875" inkscape:path-effect="#path-effect864" />
        <path d="m 407,216.5 c -6.24194,-0.195 -21.28243,19.28999 -15.125,24.25 7.99739,6.44215 31.40161,0.32261 61.5,1.375 35.75,1.25 52.96894,11.13392 55.5,6.75 2.06912,-3.58382 -4.5,-20.875 -21.25,-23.875 -16.75,-3 -32.64461,7.72512 -51.5,6.5 -15.66381,-1.01775 -23.34426,-14.81941 -29.125,-15 z" fill="#fff" />
        <path d="m 506.59023,238.53666 -21.24981,1.28921 22.7158,1.85616 z m -113.17369,-9.84772 23.59969,6.01041 -25.1023,-3.10876 z" fill="#b0d8e7" />
        <path d="m 407,216.5 c -6.24194,-0.195 -21.28243,19.28999 -15.125,24.25 7.99739,6.44215 31.40161,0.32261 61.5,1.375 35.75,1.25 52.96894,11.13392 55.5,6.75 2.06912,-3.58382 -4.5,-20.875 -21.25,-23.875 -16.75,-3 -32.64461,7.72512 -51.5,6.5 -15.66381,-1.01775 -23.34426,-14.81941 -29.125,-15 z" fill="none" stroke="#6babda" stroke-width="3" />
        <path d="m 403.75,198.5 c 3.03471,-2.18073 8.27743,-1.87053 11.375,0.1875 -4.14027,-0.66807 -7.7925,-0.68576 -11.375,-0.1875 z m 63,6.9375 c 8,-0.3125 15.4375,2.6875 20.6875,7.9375 -6.71318,-3.63129 -13.37095,-6.24131 -20.6875,-7.9375 z m -26.4375,15.875 c 3.30986,-0.93717 5.00376,-3.14932 5.875,-5.875 1.7012,4.1378 -0.65654,8.31869 -5.875,5.875 z m -18.96525,-10.12445 c -0.7787,2.91071 -0.49882,5.21297 1.93383,7.09251 -4.78954,0.94993 -6.49505,-4.16896 -1.93383,-7.09251 z m 0.7955,-4.41942 c 8.15413,0.0561 15.67516,1.54286 22.80419,3.71231 -6.11967,-5.37864 -15.15351,-6.87007 -22.80419,-3.71231 z M 379.375,194 c 14.38696,-3.42131 26.51694,-0.13069 35.125,12.375 C 404.14268,197.81841 392.81562,193.92409 379.375,194 Z m 75.75,19.75 c 19.28339,-4.60751 41.70884,-2.59207 56.875,7.75 -18.01728,-5.76929 -36.98296,-8.10509 -56.875,-7.75 z" fill="#6babda" />
        <use transform="rotate(35.644708-2.3848207 1625.6051)scale(-1 1)" xlink:href="#g948" />
        <path d="m 449.70711,136.39645 c 32.99026,13.131 67.82781,3.83845 101.32322,-10.46967 L 564.75,102 C 516.13678,34.517141 454.71215,-0.77353492 385,15.25 c 20.98815,2.189325 33.96128,4.035173 57.42678,11.573223 C 392.8551,26.0277 361.65896,37.977463 342.25,75.5 c 9.91464,-4.672751 20.195,-8.071555 31.25,-9.5 -36.98942,17.858311 -60.29177,41.10453 -59,80.5 53.03301,-29.87527 78.44238,-32.77392 164.73058,-16.14967 -9.44031,2.71894 -19.14444,4.63026 -29.52347,6.04612 z" fill="#ef7135" />
        <path d="M 519.3315,51.781088 C 479.93631,18.587864 434.27312,3.9244338 385,15.25 c 20.98815,2.189325 33.96128,4.035173 57.42678,11.573223 -34.45293,-0.869572 -57.99234,5.391214 -76.48222,19.101273 48.89638,-1.243156 101.77534,0.374413 153.38694,5.856592 z" fill="#ec4141" />
        <path d="m 378.231,121.74887 c 25.15111,-3.70629 54.07248,-0.4395 100.99958,8.60146 -9.44031,2.71894 -19.14444,4.63026 -29.52347,6.04612 32.99026,13.131 67.82781,3.83845 101.32322,-10.46967 L 564.75,102 C 555.58095,89.271904 546.66325,78.396139 536.61303,68.086796 494.81974,94.374777 429.86375,105.24699 378.231,121.74887 Z" fill="#faf5ab" />
        <path fill="#1b98d1" inkscape:original-d="m 503.84467,120.92678 c -17.29455,8.34243 -34.50916,12.79205 -54.13756,15.46967 32.99026,13.131 67.82781,3.83845 101.32322,-10.46967 L 564.75,102 C 516.13678,34.517141 454.71215,-0.77353492 385,15.25 c 20.98815,2.189325 33.96128,4.035173 57.42678,11.573223 C 392.8551,26.0277 361.65896,37.977463 342.25,75.5 c 9.91464,-4.672751 20.195,-8.071555 31.25,-9.5 -36.98942,17.858311 -60.29177,41.10453 -59,80.5 53.03301,-29.87527 78.44238,-32.77392 164.77297,-16.14828" inkscape:path-effect="#path-effect895" />
        <g id="g948">
          <path d="m 541.11347,136.23473 c 7.42462,-28.99138 26.66063,-47.23922 32.22881,-46.49227 14.49569,1.944544 31.05724,91.57033 -31.52171,112.25321 z" fill="#9bdbf5" />
          <path fill="#6babda" inkscape:original-d="m 541.11347,136.23473 c 7.42462,-28.99138 26.66063,-47.23922 32.22881,-46.49227 14.49569,1.944544 31.05724,91.57033 -31.52171,112.25321" inkscape:path-effect="#path-effect939" />
          <path d="m 569.2074,119.46616 c 4.61654,21.46772 -0.39627,42.62126 -16.15551,55.21674 12.25322,-15.28817 17.17816,-32.79269 16.15551,-55.21674 z" fill="#6babda" />
        </g>
        <path d="m 429.3906,156.12211 5.39168,-15.64474 -2.2097,-0.7955 -4.41943,10.96016 -32.61529,-15.02602 1.41421,3.62393 z m 42.60318,-6.89429 3.62392,0.26516 -6.09879,11.04854 66.02609,-5.48008 -9.01561,4.24265 -64.16994,6.45235 z m -76.10085,23.02276 c 0.35532,-19.6568 3.01164,-19.98378 3.51263,2.66605 m -12.54293,-7.54444 c -8.35321,-16.31942 -4.61533,-15.62271 5.31397,2.62548 m 31.75538,10.61028 -5.69801,18.85359 c -6.10274,-13.94482 -12.31502,-19.61141 -33.07677,-30.5403 -17.8179,-9.37925 -17.14515,-12.12005 3.36203,-2.17632 12.41702,6.02089 24.51485,14.89958 29.20627,24.1554 z m 82.61254,10.37571 c 13.35004,-17.76492 9.3479,-18.30703 -5.53105,0.10867 m 18.63479,1.02721 c 20.04053,-11.28285 15.64845,-13.14307 -7.37641,-0.93484 M 469.2,183.08779 l -5.91046,20.70959 c 16.02645,-10.00232 29.50848,-10.52253 58.14941,-10.13895 25.25765,0.33827 26.61028,-2.59647 -3.19244,-3.86396 -25.20158,-1.0718 -38.68571,1.37702 -49.95609,7.06854 z" />
      </g>
      <g>
        <path d="m 364.65999,308.3849 36.01955,28.91816 c 0,0 27.73536,-64.0683 41.60304,-96.10245 0.75603,-1.74641 -18.53448,-2.74191 -19.84886,-1.18644 z" fill="#ad2677" />
        <path d="m 359.1875,325.5625 c 4.93556,-3.66772 7.93203,-7.22268 11.25,-12 -4.22393,3.61894 -8.02236,7.55081 -11.25,12 z m 25.21342,21.74361 c 2.28169,-7.83623 4.68314,-14.79747 8.86473,-22.2587 -2.51639,8.01998 -5.20444,14.82129 -8.86473,22.2587 z M 364.65999,308.3849 c 0,0 55.88549,-71.44811 58.36036,-73.39266 1.76571,-1.38734 23.41758,-0.37653 23.57304,1.82843 0.22427,3.18082 -45.91385,100.48239 -45.91385,100.48239 l 36.97804,-91.60245 c 0.71236,-1.76467 -13.98145,-2.44551 -15.34886,-0.93644 z" fill="#6b1a4c" />
      </g>
      <g>
        <path d="m 389.98456,368.48269 c 13.61137,42.78939 28.85129,55.9004 55.92552,26.00867 -4.81229,12.03016 -10.11178,23.75502 -16.34271,35.8998 24.96188,34.50155 59.483,52.44375 101.11627,47.38871 -1.90901,-53.16637 -48.65012,-149.36385 -64.82679,-151.51019 -23.73218,-3.14881 -35.75915,33.64823 -53.61359,22.33452 -11.70384,1.21592 -19.50673,8.9836 -22.2587,19.87849 z" fill="#ad2677" />
        <path fill="#6b1a4c" inkscape:original-d="m 389.98456,368.48269 c 14.20647,44.66016 30.187,56.99011 59.48751,21.98618" inkscape:path-effect="#path-effect937" />
        <path d="m 442.4375,402.75 6.1875,-15.1875 4.5,4.875 z" fill="#ad2677" />
        <path clip-path="url(#clipPath958)" fill="#6b1a4c" inkscape:original-d="m 412.24326,348.6042 c 17.85444,11.31371 29.88141,-25.48333 53.61359,-22.33452 16.17667,2.14634 62.91778,98.34382 64.82679,151.51019 -41.63327,5.05504 -76.15439,-12.88716 -101.11627,-47.38871 9.6293,-18.76859 17.03408,-36.53429 24.04163,-56.44723" inkscape:path-effect="#path-effect919" />
        <path d="m 526.41644,448.5669 c 2.41698,10.49854 3.95224,20.4414 4.2672,29.21297 -41.63327,5.05504 -76.15439,-12.88716 -101.11627,-47.38871 3.46091,-6.74571 6.63446,-13.36186 9.60549,-19.99472 25.1144,22.88839 53.53035,36.18962 87.24358,38.17046 z" style="clip-path:url(#clipPath948);fill:#e4ce30;stroke:#c2a629;stroke-width:5" />
        <g clip-path="url(#clipPath915)">
          <path d="m 462.35568,425.38165 c 3.08201,-7.67003 -3.31189,-17.41259 -12.32269,-15.61401 -12.6881,2.53259 -9.19853,14.65734 1.38523,10.78085 6.44356,-2.36007 9.83222,-1.69845 10.93746,4.83316 z m 2.20997,-8.84602 c 1.75555,-9.08594 -1.10128,-17.39899 -8.22026,-20.64613 -8.85556,-4.03923 -11.48286,7.30837 -4.18674,9.26336 6.1514,1.64826 10.4149,5.14304 12.407,11.38277 z m 2.88141,-10.94479 c 1.67944,-4.75197 1.96563,-9.83359 1.13659,-13.91767 -1.428,-7.03474 -9.72422,-3.19071 -6.11658,2.15129 2.43609,3.60723 4.21599,7.94566 4.97999,11.76638 z m 8.96614,5.8852 c 3.03701,-4.80355 5.77855,-8.49347 9.84771,-11.03782 7.09513,-4.43642 10.35214,6.05176 3.05698,6.9113 -4.97823,0.58655 -9.09403,1.87836 -12.90469,4.12652 z m -4.94975,7.95495 c 5.03814,-7.33623 12.93157,-9.99246 19.73833,-6.62912 8.94009,4.41745 1.55289,13.51232 -4.59619,9.28078 -5.37489,-3.69878 -9.75045,-4.33104 -15.14214,-2.65166 z m -5.12652,8.04334 c 3.44715,-7.51301 14.00201,-9.07091 19.208,-0.79549 6.88951,10.95153 -5.32712,17.18337 -8.24785,6.42462 -1.82388,-6.71844 -6.27557,-8.54595 -10.96015,-5.62913 z m -5.12653,6.27558 c 4.03376,-15.05637 8.23174,-30.08708 12.99309,-44.90128 3.03908,-9.45563 18.51321,-3.60451 11.10921,6.56846 -8.46153,11.626 -16.09473,24.102 -24.1023,38.33282 z" fill="#e4ce30" id="path885" />
          <path d="m 470.70402,429.92951 -23.06753,-42.22993 -5.64645,1.17678 23.53332,43.78833 z m 23.98381,-3.81545 -22.76044,-42.09831 -11.31986,-0.078 18.16425,36.17629 z" fill="#f3ea6e" />
        </g>
      </g>
      <g clip-path="url(#clipPath1139)">
        <ellipse cx="-176.47229" cy="465.30261" fill="#e4ce30" id="path1128" rx="27.330509" ry="26.095657" transform="rotate(-61.031023)" />
        <path d="M 350.74223,387.45518 317.38796,378.05169 338.36498,410.12 Z" fill="#f3ea6e" />
        <ellipse cx="-176.65033" cy="466.15439" fill="#9bdbf5" rx="21.287977" ry="20.326143" transform="rotate(-61.031023)" />
      </g>
    </g>
    <g transform="translate(0 11.292894)">
      <path d="m 319.12611,355.21572 c -89.39573,-24.75564 -103.05762,-65.54265 -175.08316,-84.84183 -31.10147,-8.33362 -57.365596,-5.36639 -57.39318,5.24605 -0.02854,10.97827 46.41278,29.88647 136.11336,55.78405 -159.118271,-36.52059 -233.120728,24.91155 -23.73048,31.63843 -93.99739,22.01827 -64.76496,67.10098 55.79933,24.32037 -42.14662,43.77413 35.89378,49.85839 72.74418,-12.73023 z" fill="#9bdbf5" />
      <path fill="#6babda" inkscape:original-d="m 319.12611,355.21572 c -89.39573,-24.75564 -103.05762,-65.54265 -175.08316,-84.84183 -31.10147,-8.33362 -57.365596,-5.36639 -57.39318,5.24605 -0.02854,10.97827 46.41278,29.88647 136.11336,55.78405 -159.118271,-36.52059 -233.120728,24.91155 -23.73048,31.63843 -93.99739,22.01827 -64.76496,67.10098 55.79933,24.32037 -42.14662,43.77413 35.89378,49.85839 72.74418,-12.73023" inkscape:path-effect="#path-effect1157" />
      <path d="m 231.43632,315.90978 c -52.36075,-26.10153 -58.76763,2.91913 17.93984,35.76289 -82.7465,-5.22848 -22.05058,51.05756 34.78082,24.46047 -4.87901,11.07648 -2.57156,18.42236 2.75757,22.35965 l 17.21208,-29.60348 -72.33456,-38.41769 z" fill="#9bdbf5" />
      <path d="m 239.98179,320.44138 c -60.01395,-33.64419 -71.30621,-3.32219 9.39437,31.23129 -82.7465,-5.22848 -22.05058,51.05756 34.78082,24.46047 -9.27619,21.05912 7.42475,28.63307 21.48041,24.93497" style="fill:none;stroke:#6babda;stroke-width:5;stroke-miterlimit:20" />
    </g>
  </g>
</svg>