<svg xmlns="http://www.w3.org/2000/svg" viewBox="-24 -15 48 45">
  <path d="M3.6-9.5a3.6 3.6 0 0 1-7.2 0 3.6 3.6 0 0 1 7.2 0zM17.5 7.6a2.5 2.5 0 0 0 5 0 2.5 2.5 0 0 0-5 0zm-6-9a2.8 2.8 0 0 0 5.6 0 2.8 2.8 0 0 0-5.6 0zm-29 9a2.5 2.5 0 0 1-5 0 2.5 2.5 0 0 1 5 0zm6-9a2.8 2.8 0 0 1-5.6 0 2.8 2.8 0 0 1 5.6 0zm.3 29.6C-21.8 25.6-21.4 18 0 18s21.8 7.6 11.2 10.2c10-4.2 6.5-9-11.2-9s-21.2 4.8-11.2 9z" fill="#718abf"/>
  <path d="M-15.3 21c-2.4-1.8-3.7-3.7-4.8-6.6 4.3.6 7.7 1.8 11.1 4.8-3.5-6.5-4.9-13-5.4-19.9C-5.9 4-.9 7.9 0 18.6.9 7.9 5.9 4 14.4-.7c-.5 6.9-1.9 13.4-5.4 19.9 3.4-3 6.8-4.2 11.1-4.8-1.1 2.9-2.4 4.8-4.8 6.6m-27.8-1.1c-3.3-3.5-5.3-7-6.6-11.9 6 1.7 12 4.4 14.9 10.7C-7.6 6.7-5-.6 0-9.5 5-.6 7.6 6.7 4.2 18.7c2.9-6.3 8.9-9 14.9-10.7-1.3 4.9-3.3 8.4-6.6 11.9" fill="none" stroke="#718abf"/>
</svg>
