<svg xmlns="http://www.w3.org/2000/svg" viewBox="-18 -15 36 35">
  <path fill="#f6b8d2" d="M0 18.6-5 13.8-5.7-13.7H5.7L5 13.8Z"/>
  <path fill="#f5415f" d="m-12.4-12c2.2 3.7 0 4.7-4.3 3.1-.2 12.3 0 14.2 11.7 22.7v-27.4z"/>
  <path fill="#bf5d93" d="m12.4-12c-2.2 3.7 0 4.7 4.3 3.1.2 12.3 0 14.2-11.7 22.7v-27.4z"/>
  <path fill="none" stroke="#ab3266" d="M0 18.6C-3.7 12.7-16.7 9.7-16.7-3v-5.9c4.3 1.6 6.5.6 4.3-3.1 7.4-2.5 17.4-2.5 24.8 0-2.2 3.7 0 4.7 4.3 3.1V-3C16.7 9.7 3.7 12.7 0 18.6Z"/>
  <path fill="#a02699" d="M-.1 7.4 5.8 11 5 4.3 9.8-.2 3.1-1 .1-11.1-3.4-1-10-.2-5 4.3-6.1 11Z"/>
  <path fill="#fd41f8" d="m-.5 5.5c-.025 1.425-2.7 2.9-3.6 2s0-3 3.1-3l.1-7.9C2.2-1.7 3.3 0 2.6 2.5 2.1 1.1 1.1.3-.4-.2Z"/>
</svg>
