<svg xmlns="http://www.w3.org/2000/svg" xmlns:inkscape="http://www.inkscape.org/namespaces/inkscape" height="699.99976" viewBox="0 0 699.99975 699.99975" width="699.99976">
  <defs>
    <inkscape:path-effect bendpath1="m -23.505994,-46.055658 h 47.256899" bendpath2="m 12.143524,-45.294628 c 20.545444,26.273237 24.351392,56.937416 8.889225,91.5481" bendpath3="m -23.505994,46.3 h 47.256899" bendpath4="m -24.521982,-45.437312 c 19.6386362,29.315291 21.9894339,59.558552 4.459855,90.794251" effect="envelope" id="path-effect1529" yy="false" />
    <inkscape:path-effect effect="powerstroke" id="path-effect1510" interpolator_type="CubicBezierSmooth" offset_points="0.24,2.5" start_linecap_type="zerowidth" />
    <inkscape:path-effect effect="powerstroke" id="path-effect1508" interpolator_type="CubicBezierSmooth" offset_points="0.25,2.5" start_linecap_type="zerowidth" />
    <inkscape:path-effect effect="powerstroke" id="path-effect1077" interpolator_type="CubicBezierSmooth" offset_points="0.16,2.5 | 5,2.5" start_linecap_type="zerowidth" />
    <inkscape:path-effect effect="powerstroke" end_linecap_type="zerowidth" id="path-effect1050" interpolator_type="CubicBezierSmooth" miter_limit="20" offset_points="0.17,2.5 | 6.4,2.5" start_linecap_type="zerowidth" />
    <inkscape:path-effect effect="powerstroke" id="path-effect997" interpolator_type="CubicBezierSmooth" offset_points="0.45,2.5 | 2,2.5" start_linecap_type="zerowidth" />
    <inkscape:path-effect effect="powerstroke" end_linecap_type="zerowidth" id="path-effect895" interpolator_type="CubicBezierSmooth" offset_points="0.32,2.5 | 0.64,2.5" start_linecap_type="zerowidth" />
    <inkscape:path-effect effect="powerstroke" end_linecap_type="zerowidth" id="path-effect891" interpolator_type="CubicBezierSmooth" offset_points="0.5,2.5 | 1.55,2.5 | 2,2 | 3,2.5 | 3.65,2.5" start_linecap_type="zerowidth" />
    <inkscape:path-effect effect="powerstroke" end_linecap_type="zerowidth" id="path-effect863" interpolator_type="CubicBezierSmooth" offset_points="0.38,2.5 | 3.66,2.5" start_linecap_type="zerowidth" />
    <inkscape:path-effect effect="powerstroke" end_linecap_type="zerowidth" id="path-effect821" interpolator_type="CubicBezierSmooth" offset_points="0.35,2.5 | 1.8,2.5" start_linecap_type="zerowidth" />
  </defs>
  <g inkscape:groupmode="layer" inkscape:label="Drawing">
    <g>
      <path d="m 383.68762,456.82048 c 52.8536,-38.7418 139.33576,-33.46779 138.83495,45.15013 5.24349,-14.92097 8.36806,-27.26707 10.39496,-43.29475 19.54829,43.28075 11.72946,98.02003 24.38868,136.7476 1.59477,-26.81306 4.62639,-49.74883 11.43633,-72.05367 11.00085,43.81753 26.80895,80.83995 60.48293,101.2889 -7.17609,-10.06181 -10.09035,-17.11926 -12.87787,-28.03683 14.92757,22.41529 31.57148,33.42629 55.03695,38.86363 -31.58153,-18.96147 -40.52257,-36.03627 -42.05064,-80.11327 5.56148,13.28826 11.09902,24.02409 18.7785,34.71873 -13.28413,-76.32387 51.93525,-220.79318 -111.82139,-250.78559 27.38328,-5.06235 56.45419,-4.15786 83.43687,4.78851 -59.29699,-53.15574 -199.4978,-14.21178 -253.49469,93.46297 z" fill="#5fbb4e" />
      <path d="m 593.02268,468.13231 c 6.98749,28.24752 11.53519,91.98376 23.32492,128.48955 2.78752,10.91757 5.70178,17.97502 12.87787,28.03683 -33.67398,-20.44895 -49.48208,-57.47137 -60.48293,-101.2889 -6.80994,22.30484 -9.84156,45.24061 -11.43633,72.05367 -12.65922,-38.72757 -4.84039,-93.46685 -24.38868,-136.7476 -2.0269,16.02768 -5.15147,28.37378 -10.39496,43.29475 0.50081,-78.61792 -85.98135,-83.89193 -138.83495,-45.15013 l -17.45442,-19.26364 c 3.56411,-7.10717 7.5038,-13.91489 11.62969,-20.19382 114.07262,-39.29043 195.3055,-29.49335 215.15979,50.76929 z" fill="#faf5ab" />
      <path d="m 378.71933,451.33721 4.96829,5.48327 c 52.8536,-38.7418 139.33576,-33.46779 138.83495,45.15013 5.24349,-14.92097 8.36806,-27.26707 10.39496,-43.29475 19.54829,43.28075 11.72946,98.02003 24.38868,136.7476 1.59477,-26.81306 4.62639,-49.74883 11.43633,-72.05367 3.37286,13.43447 7.19763,26.23017 11.85066,38.10528 -5.92953,-50.22933 -6.31694,-94.68815 -27.48324,-120.63859 -30.77521,-37.73124 -117.84297,-32.04025 -174.39063,10.50073 z" fill="#ef7135" />
      <path d="m 522.52257,501.97061 c 5.24349,-14.92097 8.36806,-27.26707 10.39496,-43.29475 19.54829,43.28075 11.72946,98.02003 24.38868,136.7476 0.82299,-13.83707 2.02864,-26.64156 4.06673,-39.11489 -7.92127,-96.84699 -10.66065,-141.27981 -118.09978,-122.8357 41.1627,-3.77808 79.5837,16.02063 79.24941,68.49774 z" fill="#ec4141" />
      <path d="m 629.33391,555.37222 c 5.56148,13.28826 11.09902,24.02409 18.7785,34.71873 -13.28413,-76.32387 51.93525,-220.79318 -111.82139,-250.78559 27.38328,-5.06235 56.45419,-4.15786 83.43687,4.78851 -45.26773,-40.57946 -137.68542,-27.48412 -202.90581,28.88904 239.62554,-31.44872 198.93767,142.52819 212.51183,182.38931 z" fill="#1b98d1" />
      <path d="m 647.87472,525.70899 c 5.08211,-74.83402 12.77284,-163.62744 -111.5837,-186.40363 27.38328,-5.06235 56.45419,-4.15786 83.43687,4.78851 -37.07512,-33.23533 -105.77802,-30.46607 -165.26302,2.59579 183.80093,4.41334 180.78225,98.5073 193.40985,179.01933 z" fill="#632e86" />
      <path d="m 383.68762,456.82048 c 52.8536,-38.7418 139.33576,-33.46779 138.83495,45.15013 5.24349,-14.92097 8.36806,-27.26707 10.39496,-43.29475 19.54829,43.28075 11.72946,98.02003 24.38868,136.7476 1.59477,-26.81306 4.62639,-49.74883 11.43633,-72.05367 11.00085,43.81753 26.80895,80.83995 60.48293,101.2889 -7.17609,-10.06181 -10.09035,-17.11926 -12.87787,-28.03683 14.92757,22.41529 31.57148,33.42629 55.03695,38.86363 -31.58153,-18.96147 -40.52257,-36.03627 -42.05064,-80.11327 5.56148,13.28826 11.09902,24.02409 18.7785,34.71873 -13.28413,-76.32387 51.93525,-220.79318 -111.82139,-250.78559 27.38328,-5.06235 56.45419,-4.15786 83.43687,4.78851 -59.29699,-53.15574 -199.4978,-14.21178 -253.49469,93.46297 z" style="stroke:#1b98d1;stroke-width:5;fill:none;stroke-miterlimit:20" />
    </g>
    <g>
      <path d="m 134.84498,403.76364 c -4.68792,8.36663 -2.811,22.32493 4.46142,40.2229 13.49407,33.20993 42.22659,47.46001 36.80799,-6.99453 l 25.57771,-62.46036 c -5.31757,-26.88241 -33.55137,-33.04412 -40.58072,-4.32771 -26.84578,-6.09217 -34.97629,7.42938 -26.2664,33.5597 z" fill="#88c4e9" />
      <path fill="#6babda" inkscape:original-d="m 175.62913,374.40425 c -38.28996,-14.33294 -50.91662,-1.02587 -40.70052,29.53049" inkscape:path-effect="#path-effect1510" />
      <path fill="#6babda" inkscape:original-d="m 168.15954,395.53509 c -36.47882,-7.04021 -43.27443,12.95956 -28.85314,48.45145 13.49407,33.20993 42.22659,47.46001 36.80799,-6.99453 l 25.57771,-62.46036 c -5.31757,-26.88241 -33.55137,-33.04412 -40.58819,-4.12028" inkscape:path-effect="#path-effect1508" />
    </g>
    <path d="m 202.76967,345.31817 c -51.7779,92.18307 -99.98391,156.49682 -176.214877,220.62363 -32.3716347,27.23158 62.818343,47.25288 85.320257,22.10338 46.21113,-51.64835 72.84407,-105.07248 94.74386,-167.08681 z" fill="#9bdbf5" stroke="#6babda" stroke-width="5" />
    <path d="m 219.22917,504.1833 c 9.45881,50.48745 40.25354,73.24927 73.63094,77.06573 0.91955,32.63615 6.65794,65.78788 22.5263,91.72575 18.32266,29.94955 64.20269,-31.50201 53.17505,-53.43586 -17.13518,-34.08156 -25.09568,-64.89389 -29.80528,-104.19684 -1.22329,-10.20856 -17.91385,-11.62231 -30.68468,-6.09224 z" fill="#88c4e9" stroke="#6babda" stroke-width="5" />
    <path d="m 376.59384,573.84564 c -1.68364,32.41325 1.43794,65.91284 15.22392,93.01497 15.91818,31.29388 65.47894,-21.00522 56.20485,-43.7361 -14.41043,-35.32008 -19.93071,-66.66166 -21.54442,-106.21285 -0.41915,-10.27309 -16.94752,-12.99105 -30.03702,-8.50055 3.40144,-76.91528 -46.18414,-97.1766 -107.06306,-85.27694 16.09769,-66.29968 42.22023,-90.82132 71.74517,-137.81572 80.39584,-127.96488 -111.26485,-243.856098 -179.75697,-112.22356 l 30.45826,132.09514 c -79.08077,183.31548 18.22208,271.86631 127.12628,242.91348 9.9653,14.6829 23.04224,22.98535 37.64299,25.74213 z" fill="#9bdbf5" />
    <g>
      <ellipse cx="190.11182" cy="289.16293" fill="#9bdbf5" rx="51.301987" ry="34.380825" transform="rotate(339.7257)" />
      <path d="m 306.99146,229.44794 c 23.55497,12.10683 24.90131,9.79269 3.09682,-2.62203 m -13.5886,9.08803 c 24.22522,19.48735 27.14362,17.23944 3.68007,-2.29134 m -14.91899,6.67472 c 9.54414,21.02745 13.1277,19.34378 3.6909,-1.30956 m -54.79389,-6.23253 c 13.75055,15.37022 57.44463,19.10005 82.18267,-11.62027 -30.93726,26.86001 -66.59961,22.52566 -79.21504,9.04347 -9.3881,-10.03314 -10.60599,-26.97255 11.8118,-47.67526 -23.83282,16.25202 -27.16131,36.41173 -14.77943,50.25206 z" />
    </g>
    <path fill="#6babda" inkscape:original-d="m 318.74335,481.48265 c 5.15672,65.0497 34.01925,93.46391 69.29864,93.33456" inkscape:path-effect="#path-effect895" />
    <path fill="#6babda" inkscape:original-d="m 390.92256,548.67998 c 24.14147,-110.06644 -31.15216,-139.305 -101.54445,-125.54581 16.09769,-66.29968 42.22023,-90.82132 71.74517,-137.81572 80.39584,-127.96488 -111.26485,-243.856098 -179.75697,-112.22356 l 30.45826,132.09514 c -79.08077,183.31548 18.22208,271.86631 127.23367,242.78079" inkscape:path-effect="#path-effect1077" />
    <path d="m 396.36559,508.43243 c 13.16508,-4.51182 29.69345,-1.79386 30.1126,8.47923 1.61371,39.55119 7.13399,70.89277 21.54442,106.21285 9.27409,22.73088 -40.28667,75.02998 -56.20485,43.7361 -13.78598,-27.10213 -16.90756,-60.60172 -15.27735,-92.98075" fill="none" stroke="#6babda" stroke-width="5" />
    <g>
      <ellipse cx="261.26414" cy="3.1075357" fill="#9bdbf5" rx="11.371555" ry="33.387542" transform="rotate(38.528793)" />
      <path d="m 187.81379,166.33448 c -12.68511,-11.04222 -11.41785,-13.18264 1.63073,-2.50612 m -6.34069,11.58326 c -16.67467,-6.69506 -16.07106,-9.36291 1.09886,-2.8764 m -3.61696,11.64109 c -17.1549,-1.43772 -16.85496,-3.89256 0.25457,-3.0189 m 11.12208,-21.01217 c -23.17954,36.12178 -4.85599,44.77794 27.09352,0.84172 -26.97264,49.74797 -58.7371,37.83388 -27.09352,-0.84172 z" />
      <path d="m 158.90342,200.06027 -0.92244,27.78144 c 9.38437,4.17199 17.55837,5.2174 24.83854,0.42214 l -9.1074,-7.47883 11.30299,2.65143 c -1.10494,-13.09591 -10.21653,-21.40062 -26.11169,-23.37618 z" style="stroke:#b0d8e7;stroke-width:3;fill:#fff;stroke-miterlimit:20" />
      <path d="m 203.2615,184.40032 c -17.74534,-0.82097 -26.75205,-24.59245 -37.32233,-11.85598 -14.60734,17.60085 -11.33355,45.43325 17.81,39.22569 -5.94007,11.75782 -14.7786,14.0833 -28.26423,10.61654 6.65971,33.57295 30.17448,67.62818 65.43281,88.56552 z" fill="#9bdbf5" />
      <path fill="#6babda" inkscape:original-d="m 203.2615,184.40032 c -17.74534,-0.82097 -26.75205,-24.59245 -37.32233,-11.85598 -14.60734,17.60085 -11.33355,45.43325 17.81,39.22569 -5.94007,11.75782 -14.7786,14.0833 -28.26423,10.61654 6.65971,33.57295 30.17448,67.62818 65.43281,88.56552" inkscape:path-effect="#path-effect891" />
      <path d="m 174.65638,184.61508 c 1.04247,4.85885 3.5413,6.49453 7.66152,4.29271 -4.14396,6.73474 -10.2537,3.23418 -7.66152,-4.29271 z" fill="#6babda" />
    </g>
    <g transform="matrix(.65779166-.08743325.10473578.85103202 366.00464 482.08866)" inkscape:path-effect="#path-effect1529">
      <path fill="#1b98d1" inkscape:original-d="m 5.4,-14.7 c -4.2,2.7 -7.4,6 -10.5,10.6 l 8.1,-4.1 c -8.4,12.9 -9.5,30.5 -7.1,54.5 -22.6,-75.8 13.6,-77.2 9.5,-61 z" />
      <path fill="#fde85f" inkscape:original-d="m 3.9,-26.6 c -7.9,7.3 -12,16.6 -15.2,27.6 l 8.2,-4.3 c -5.9,14 -5,29.6 -1,49.6 -16.4,-39.2 4.8,-50 -17.1,-35.5 9.4,-50.5 24.2,-46.3 25.1,-37.4 z" />
      <path fill="#ec4141" inkscape:original-d="m -8.4,-36.9 c -10.5,15 -15.3,31.5 -15.1,51.5 l 11.7,-8 c -1.9,12.2 0.7,24.8 7.7,39.7 -6,-17.9 -7.4,-31.8 -3.9,-45.5 l -10.5,6.8 c 2.6,-16.4 7.6,-29.3 17,-40.7 z" />
      <path fill="#fff" inkscape:original-d="m -3.1,-27.4 c -10.5,9.8 -1.1,18.9 7,8.4 -2,14.5 8.6,16.2 15,10.8 6.4,-5.4 5.8,-15.8 -2.2,-19.9 8.8,-8.6 -2.5,-19.8 -10.6,-14.6 -10.1,-10 -26,8.3 -9.2,15.3 z" />
      <path fill="#1b98d1" inkscape:original-d="m 5.9,-42.4 c -9.8,-9.4 -25.3,8.3 -8.1,14.8 -11.2,10 -1.6,19.3 6.9,6.6 -3.2,15.6 7.5,17.9 13.9,12.5 6.4,-5.4 5.4,-15.6 -2.6,-19.5 8,-8 0.3,-15.6 -5.4,-15.6 -5.7,0 -9.9,6.8 -3.5,9 -12.5,12.4 8.3,18 3.7,7.7 6.4,11.5 -17.1,6.3 -5.3,-7.4 -5.1,-2.3 -2.3,-10.2 5.1,-10.2 7.4,0 13.8,9.3 6.8,16.2 7.6,4.3 8.6,14.8 1.8,20.5 -6.8,5.7 -17.3,3.4 -15.9,-9.8 -8.6,9.5 -17.1,-0.5 -7.2,-9.7 -16.5,-7.2 -0.6,-26.1 10.5,-15.7 z" />
    </g>
    <g>
      <path d="m 293.76713,427.11221 c 64.49385,-69.85974 123.19551,-102.9977 167.15528,-111.11777 62.02209,-11.45646 84.9737,7.02818 29.22056,31.44207 113.83332,-17.34064 149.69092,22.37333 -37.10837,49.79076 71.6677,2.92637 97.6249,29.69441 16.10774,32.97607 -19.85357,0.79925 -50.57641,-0.90501 -79.69546,0.76673 44.44071,12.74198 21.8711,35.62847 -20.59777,28.32744 -24.70312,-4.24683 -53.86883,-7.70942 -75.73855,-2.39772 z" fill="#9bdbf5" />
      <path fill="#6babda" inkscape:original-d="m 293.76713,427.11221 c 64.49385,-69.85974 123.19551,-102.9977 167.15528,-111.11777 62.02209,-11.45646 84.9737,7.02818 29.22056,31.44207 113.83332,-17.34064 149.69092,22.37333 -37.10837,49.79076 71.6677,2.92637 97.6249,29.69441 16.10774,32.97607 -19.85357,0.79925 -50.57641,-0.90501 -79.69546,0.76673 44.44071,12.74198 21.8711,35.62847 -20.59777,28.32744 -24.70312,-4.24683 -53.86883,-7.70942 -75.73855,-2.39772" inkscape:path-effect="#path-effect1050" />
      <path d="m 366.06055,361.43124 c 30.3629,-15.77209 60.69114,-8.57239 3.4043,33.06263 56.75348,-21.2856 77.48803,12.03338 -27.87107,38.94466 15.9866,3.59552 18.44241,15.27401 -6.99975,21.38496" style="stroke:#6babda;stroke-width:5;fill:none;stroke-miterlimit:100" />
    </g>
    <g>
      <path d="m 385.63002,187.42827 c -13.00543,-82.40007 -55.13844,-149.063718 -115.74597,-168.31304 6.22637,5.269401 11.52113,10.390875 16.74133,16.255716 -25.40475,-13.428789 -48.60436,-17.558339 -73.46726,-8.024201 34.98746,5.479802 59.68772,19.21671 78.25139,35.650137 -48.72526,-19.221472 -89.10657,-16.483125 -121.77103,27.059583 42.31988,1.509965 76.23053,12.288175 106.58525,30.784785 -7.47557,6.23046 -10.12214,16.99598 -8.01441,30.48304 32.34449,-16.40868 68.06586,-12.30704 104.07543,40.94327 z" fill="#ef7135" />
      <path d="m 385.63002,187.42827 -13.34527,4.83929 c -36.00957,-53.25031 -71.73094,-57.35195 -104.07543,-40.94327 -2.10773,-13.48706 0.53884,-24.25258 8.01441,-30.48304 -4.07092,-2.48061 -8.20579,-4.82239 -12.37038,-7.13654 43.5932,-2.75195 83.93224,7.3653 112.27559,32.07069 3.92901,12.73281 7.17923,26.94206 9.50108,41.65287 z" fill="#faf5ab" />
      <path d="m 269.88405,19.11523 c 6.22637,5.269401 11.52113,10.390875 16.74133,16.255716 -16.72554,-8.841013 -32.49528,-13.651351 -48.50373,-13.325536 47.50352,26.436857 90.75812,60.863664 130.44951,100.3219 -21.39059,-51.40495 -55.30644,-89.474114 -98.68711,-103.25208 z" fill="#ec4141" />
      <path fill="#1b98d1" inkscape:original-d="m 300.45805,116.55529 c -25.60543,-3.32476 -35.84413,11.76255 -32.24873,34.769 32.34449,-16.40868 68.06586,-12.30704 104.07543,40.94327" inkscape:path-effect="#path-effect997" />
      <path d="m 385.63002,187.42827 c -13.00543,-82.40007 -55.13844,-149.063718 -115.74597,-168.31304 6.22637,5.269401 11.52113,10.390875 16.74133,16.255716 -25.40475,-13.428789 -48.60436,-17.558339 -73.46726,-8.024201 34.98746,5.479802 59.68772,19.21671 78.25139,35.650137 -48.72526,-19.221472 -89.10657,-16.483125 -121.77103,27.059583 42.31988,1.509965 76.23053,12.288175 106.3512,30.484345" style="stroke:#1b98d1;stroke-width:5;fill:none;stroke-miterlimit:20" />
      <path d="m 355.4304,274.54936 c -16.0025,18.76848 -34.20704,34.93317 -59.97049,35.56379 6.45841,5.23298 12.27556,8.51869 19.80479,11.51738 -18.41602,13.45794 -36.46834,33.70872 -44.31942,61.14626 8.82639,-8.11831 14.85087,-13.65154 25.34471,-19.34602 -8.34248,21.96502 -7.31988,42.12664 -2.07237,62.41688 24.84087,-58.19165 66.03236,-91.82655 77.44964,-165.71298 z" fill="#1b98d1" />
      <path d="m 368.48653,262.98089 -13.05613,11.56847 c -16.0025,18.76848 -34.20704,34.93317 -59.97049,35.56379 6.45841,5.23298 12.27556,8.51869 19.80479,11.51738 -10.63554,7.77217 -21.14978,17.80992 -29.77329,30.08737 38.43621,-16.40869 68.42631,-48.43125 82.99512,-88.73701 z" fill="#5fbb4e" />
      <path d="m 290.18549,396.74587 c -0.003,9.83375 1.5368,19.45322 4.03213,29.10178 14.40606,-33.74731 34.31122,-59.23562 50.48648,-89.14283 -24.3266,13.05272 -45.58952,35.51855 -54.51861,60.04105 z" fill="#632e86" />
      <path d="m 355.4304,274.54936 c -16.0025,18.76848 -34.20704,34.93317 -59.97049,35.56379 6.45841,5.23298 12.27556,8.51869 19.80479,11.51738 -18.41602,13.45794 -36.46834,33.70872 -44.31942,61.14626 8.82639,-8.11831 14.85087,-13.65154 25.34471,-19.34602 -8.34248,21.96502 -7.31988,42.12664 -2.07237,62.41688 24.84087,-58.19165 66.03236,-91.82655 77.44964,-165.71298 z" style="stroke:#1b98d1;stroke-width:5;fill:none;stroke-miterlimit:20" />
      <path d="m 354.76934,197.81536 c 21.14353,-19.17374 61.1993,-31.83051 67.60078,-24.87625 5.77954,6.27862 4.6145,93.03379 -82.02891,110.52235 z" fill="#9bdbf5" />
      <path fill="#6babda" inkscape:original-d="m 354.76934,197.81536 c 21.14353,-19.17374 61.1993,-31.83051 67.60078,-24.87625 5.77954,6.27862 4.6145,93.03379 -82.02891,110.52235" inkscape:path-effect="#path-effect821" />
      <path d="m 402.82379,204.91019 c -10.79248,17.82025 -26.15937,33.23405 -46.09839,46.87082 22.64203,-10.1788 37.93772,-26.2573 46.09839,-46.87082 z" fill="#6babda" />
    </g>
    <g>
      <path d="m 249.29637,383.37123 c 10.50324,-42.17637 28.18698,-51.93613 32.40443,-11.09506 12.57718,121.79529 31.22795,174.57028 69.09695,251.29278 15.52863,31.46097 -69.90541,16.88197 -80.37571,-14.73449 -23.88273,-72.11704 -25.08836,-129.05013 -15.22483,-195.03733 z" fill="#9bdbf5" />
      <path fill="#6babda" inkscape:original-d="m 249.29637,383.37123 c 10.50324,-42.17637 28.18698,-51.93613 32.40443,-11.09506 12.57718,121.79529 31.22795,174.57028 69.09695,251.29278 15.52863,31.46097 -69.90541,16.88197 -80.37571,-14.73449 -23.88273,-72.11704 -25.08836,-129.05013 -15.22483,-195.03733" inkscape:path-effect="#path-effect863" />
    </g>
  </g>
</svg>
