<?xml version="1.0" encoding="UTF-8" standalone="no"?>
<svg xmlns="http://www.w3.org/2000/svg" width="768" height="768">
<path style="fill:#e50083;stroke:#b00064;stroke-width:12;stroke-linejoin:round" d="M 160,176 384,64 608,176 608,592 384,704 160,592 z"/>
<path style="fill:#ffb3de" d="m 240,208 288,0 -240,128 96,-192 96,192 z m 0,352 288,0 -240,-128 96,192 96,-192 z"/>
<path style="fill:none;stroke:#b00064;stroke-width:9;stroke-linecap:round;stroke-linejoin:round" d="M 528,208 288,336 M 240,560 480,432 m -96,192 0,80 M 608,592 528,560 M 384,144 384,64 m -224,112 80,32 m -80,384 80,-32 288,0 -240,-128 96,192 96,-192 -48,-48 -96,0 -48,-48 96,-192 96,192 -240,-128 288,0 80,-32 m -176,208 48,-48 m -192,96 48,-48"/>
</svg>
