<svg xmlns="http://www.w3.org/2000/svg" viewBox="-15 -22 30 44">
  <path d="M0 9.1L-8-5.5l8-14.8L8-5.5z" fill="#4e33a1"/>
  <path d="m0-12.1a5 6.5 0 0 0 0 13 5 6.5 0 0 0 0-13z" fill="#9e35ae"/>
  <path d="M0-17.3C-5.3-10.6-5.3-.6 0 6.1 5.3-.6 5.3-10.6 0-17.3zM0 9.1L-8-5.5l8-14.8L8-5.5z" fill="#1e1251"/>
  <path d="M8-5.5L0 9.1-8-5.5M0 9.1v11.4m13.2-31.4V3.7L0-20.3l-13.2 24v-14.6" fill="none" stroke="#2d3777" stroke-linecap="round" stroke-linejoin="round"/>
  <path d="m0-10.6 a3 5 0 0 0 0 10 3 5 0 0 0 0-10z" fill="#e693df"/>
</svg>
