<?xml version="1.0" encoding="UTF-8" standalone="no"?>
<!-- Created with Inkscape (http://www.inkscape.org/) -->

<svg
   xmlns:dc="http://purl.org/dc/elements/1.1/"
   xmlns:cc="http://creativecommons.org/ns#"
   xmlns:rdf="http://www.w3.org/1999/02/22-rdf-syntax-ns#"
   xmlns:svg="http://www.w3.org/2000/svg"
   xmlns="http://www.w3.org/2000/svg"
   xmlns:xlink="http://www.w3.org/1999/xlink"
   xmlns:sodipodi="http://sodipodi.sourceforge.net/DTD/sodipodi-0.dtd"
   xmlns:inkscape="http://www.inkscape.org/namespaces/inkscape"
   width="2012.91"
   height="1472.239"
   id="svg2"
   version="1.1"
   inkscape:version="0.48.3.1 r9886"
   sodipodi:docname="Northwest to Hertogenbosch.svg"
   inkscape:export-filename="/home/parclytaxel/Pictures/Northwest to Hertogenbosch.png"
   inkscape:export-xdpi="383.21588"
   inkscape:export-ydpi="383.21588">
  <defs
     id="defs4">
    <linearGradient
       id="linearGradient4692"
       inkscape:collect="always">
      <stop
         id="stop4694"
         offset="0"
         style="stop-color:#611c1c;stop-opacity:1" />
      <stop
         id="stop4696"
         offset="1"
         style="stop-color:#c64c4c;stop-opacity:1" />
    </linearGradient>
    <linearGradient
       inkscape:collect="always"
       id="linearGradient4862">
      <stop
         style="stop-color:#ffffff;stop-opacity:1"
         offset="0"
         id="stop4864" />
      <stop
         style="stop-color:#ffffff;stop-opacity:0"
         offset="1"
         id="stop4866" />
    </linearGradient>
    <inkscape:path-effect
       effect="skeletal"
       id="path-effect4015"
       is_visible="true"
       pattern="m 394.33589,251.78485 c -18.79199,0 -38.32233,0.84315 -56,6.5 17.67767,5.65685 37.20801,6.5 56,6.5 l 464,0 c 18.792,0 38.02944,-0.84315 55.70711,-6.5 -16.97056,-4.94975 -36.91511,-6.5 -55.70711,-6.5 z"
       copytype="single_stretched"
       prop_scale="1"
       scale_y_rel="false"
       spacing="0"
       normal_offset="0"
       tang_offset="0"
       prop_units="false"
       vertical_pattern="false"
       fuse_tolerance="0"
       pattern-nodetypes="scsscss" />
    <inkscape:path-effect
       effect="skeletal"
       id="path-effect4407"
       is_visible="true"
       pattern="m -64,580 0,13 910,0 c 18.792,0 38.02944,-0.84315 55.70711,-6.5 C 884.73655,581.55025 864.792,580 846,580 z"
       copytype="single_stretched"
       prop_scale="1"
       scale_y_rel="false"
       spacing="0"
       normal_offset="0"
       tang_offset="0"
       prop_units="false"
       vertical_pattern="false"
       fuse_tolerance="0"
       pattern-nodetypes="ccscsc" />
    <inkscape:path-effect
       effect="skeletal"
       id="path-effect4371"
       is_visible="true"
       pattern="m 696,740 c -18.79199,0 -38.32233,0.84315 -56,6.5 17.67767,5.65685 37.20801,6.5 56,6.5 l 38,0 16,-13 z"
       copytype="single_stretched"
       prop_scale="1"
       scale_y_rel="false"
       spacing="0"
       normal_offset="0"
       tang_offset="0"
       prop_units="false"
       vertical_pattern="false"
       fuse_tolerance="0"
       pattern-nodetypes="scsccs" />
    <inkscape:path-effect
       effect="skeletal"
       id="path-effect4351"
       is_visible="true"
       pattern="m 587.7443,639.22453 c -18.79199,0 -38.32233,0.84315 -56,6.5 17.67767,5.65685 37.20801,6.5 56,6.5 l 240,0 c 18.792,0 38.02944,-0.84315 55.70711,-6.5 -16.97056,-4.94975 -36.91511,-6.5 -55.70711,-6.5 z"
       copytype="single_stretched"
       prop_scale="1"
       scale_y_rel="false"
       spacing="0"
       normal_offset="0"
       tang_offset="0"
       prop_units="false"
       vertical_pattern="false"
       fuse_tolerance="0"
       pattern-nodetypes="scsscss" />
    <inkscape:path-effect
       effect="skeletal"
       id="path-effect4262"
       is_visible="true"
       pattern="m 684.63456,332.6066 c -15.0453,0 -27.67588,0.31802 -45,3.5 16.97056,2.82843 29.9547,3.5 45,3.5 l 49,0 c 15.0453,0 29.7972,-0.31802 45,-3.5 -15.2028,-2.82843 -29.9547,-3.5 -45,-3.5 z"
       copytype="single_stretched"
       prop_scale="1"
       scale_y_rel="false"
       spacing="0"
       normal_offset="0"
       tang_offset="0"
       prop_units="false"
       vertical_pattern="false"
       fuse_tolerance="0"
       pattern-nodetypes="scsscss" />
    <inkscape:path-effect
       effect="skeletal"
       id="path-effect4048"
       is_visible="true"
       pattern="m 603,271 c -18.79199,0 -38.32233,0.84315 -56,6.5 17.67767,5.65685 37.20801,6.5 56,6.5 l 290,0 c 18.792,0 38.02944,-0.84315 55.70711,-6.5 C 931.73655,272.55025 911.792,271 893,271 z"
       copytype="single_stretched"
       prop_scale="1"
       scale_y_rel="false"
       spacing="0"
       normal_offset="0"
       tang_offset="0"
       prop_units="false"
       vertical_pattern="false"
       fuse_tolerance="0"
       pattern-nodetypes="scsscss" />
    <clipPath
       clipPathUnits="userSpaceOnUse"
       id="clipPath3940">
      <path
         transform="matrix(0.94312945,-0.29884248,0.29884248,0.94312945,-85.742773,362.09156)"
         d="m 1152.718,489.24719 a 47.7882,69.050438 0 1 1 -95.5764,0 47.7882,69.050438 0 1 1 95.5764,0 z"
         sodipodi:ry="69.050438"
         sodipodi:rx="47.7882"
         sodipodi:cy="489.24719"
         sodipodi:cx="1104.9298"
         id="path3942"
         style="fill:none;stroke:#000000"
         sodipodi:type="arc" />
    </clipPath>
    <clipPath
       clipPathUnits="userSpaceOnUse"
       id="clipPath3982">
      <path
         transform="matrix(0.96562556,-0.39123104,0.39123104,0.96562556,-183.38305,427.07094)"
         d="m 1145.592,503.85019 a 66.460915,85.264359 0 1 1 -132.9218,0 66.460915,85.264359 0 1 1 132.9218,0 z"
         sodipodi:ry="85.264359"
         sodipodi:rx="66.460915"
         sodipodi:cy="503.85019"
         sodipodi:cx="1079.1311"
         id="path3984"
         style="fill:none;stroke:#ffff00;stroke-width:1;stroke-linecap:butt;stroke-linejoin:miter;stroke-miterlimit:4;stroke-opacity:1;stroke-dasharray:none"
         sodipodi:type="arc" />
    </clipPath>
    <linearGradient
       inkscape:collect="always"
       xlink:href="#linearGradient4692"
       id="linearGradient3998"
       gradientUnits="userSpaceOnUse"
       x1="1086.5609"
       y1="439.06241"
       x2="1084.2963"
       y2="540.013" />
    <clipPath
       clipPathUnits="userSpaceOnUse"
       id="clipPath4239">
      <path
         id="path4241"
         style="fill:none;stroke:#000000"
         d="m 783.7923,194.45781 c -7.07635,49.82278 -7.0809,101.37289 5.43696,150.61385 82.91582,4.59479 107.2845,-139.99962 34.37069,-163.43804 -5.24791,-20.58389 -7.67136,-41.95625 -8.60878,-63.45853 -25.79215,-16.96295 -70.07609,25.33852 -31.19887,76.28272 z"
         inkscape:connector-curvature="0"
         sodipodi:nodetypes="ccccc" />
    </clipPath>
    <clipPath
       clipPathUnits="userSpaceOnUse"
       id="clipPath4243">
      <path
         style="font-size:medium;font-style:normal;font-variant:normal;font-weight:normal;font-stretch:normal;text-indent:0;text-align:start;text-decoration:none;line-height:normal;letter-spacing:normal;word-spacing:normal;text-transform:none;direction:ltr;block-progression:tb;writing-mode:lr-tb;text-anchor:start;baseline-shift:baseline;color:#000000;fill:none;stroke:#000000;stroke-width:1;stroke-miterlimit:4;stroke-dasharray:none;marker:none;visibility:visible;display:inline;overflow:visible;enable-background:accumulate;font-family:Sans;-inkscape-font-specification:Sans"
         d="m 818.3125,127.28125 c -6.35367,30.17503 -9.62106,54.8713 -9.125,79.84375 L 796.90625,250.25 C 787.15328,232.87084 777.28899,212.19719 770.96875,193.5625 694,298 726,467 915,491 1105.9587,430.03403 1007.1492,155.89087 818.3125,127.28125 z"
         id="path4245"
         inkscape:connector-curvature="0"
         sodipodi:nodetypes="cccccc" />
    </clipPath>
    <clipPath
       clipPathUnits="userSpaceOnUse"
       id="clipPath4289">
      <path
         style="fill:none;stroke:#000000"
         d="m 928.57155,441.28335 c -1.51383,-110.86893 -77.2028,-145.21856 -94.2358,-185.09471 -65.66425,23.68864 -34.85956,306.0923 94.2358,185.09471 z"
         id="path4291"
         inkscape:connector-curvature="0"
         sodipodi:nodetypes="ccc" />
    </clipPath>
    <clipPath
       clipPathUnits="userSpaceOnUse"
       id="clipPath4042">
      <path
         style="font-size:medium;font-style:normal;font-variant:normal;font-weight:normal;font-stretch:normal;text-indent:0;text-align:start;text-decoration:none;line-height:normal;letter-spacing:normal;word-spacing:normal;text-transform:none;direction:ltr;block-progression:tb;writing-mode:lr-tb;text-anchor:start;baseline-shift:baseline;color:#000000;fill:none;stroke:#000000;stroke-width:1;stroke-miterlimit:4;stroke-dasharray:none;marker:none;visibility:visible;display:inline;overflow:visible;enable-background:accumulate;font-family:Sans;-inkscape-font-specification:Sans"
         d="m 736.03125,161.9375 c 10.13208,12.3458 10.77238,25.88562 6.0625,35.21875 C 665.51442,247.08701 617.82829,437.21837 540.09375,325 461.8943,226.66698 415.22525,100.15747 408.1875,-21.1875 187.8551,66.037329 308.22476,569.33943 545.14078,592.60676 715.39171,609.32697 858.72452,537.79643 865.60927,355.84253 872.49401,173.88863 827.84736,60.147222 736.03125,161.9375 z"
         id="path4044"
         inkscape:connector-curvature="0"
         sodipodi:nodetypes="ccccssc" />
    </clipPath>
    <clipPath
       clipPathUnits="userSpaceOnUse"
       id="clipPath4046">
      <path
         style="fill:none;stroke:#ffff00;stroke-width:0.5;stroke-linecap:butt;stroke-linejoin:miter;stroke-miterlimit:4;stroke-opacity:1;stroke-dasharray:none"
         d="m 745.53737,134.50159 -9.9662,27.27294 -1.15493,12.915 c 8.37235,-4.03584 18.79858,-5.81535 28.94221,-2.32879 72.64593,144.4779 -100.65222,208.4862 -217.5948,147.46778 C 532.65395,305.2335 518.9852,291.13276 504.83663,277.52391 491.32557,264.53266 477.44438,251.99785 462.89305,240.38324 261.32413,89.953051 253.95301,-412.96241 504.4304,-454.4212 798.82777,-503.14959 907.97115,-8.3039048 745.53737,134.50159 z"
         id="path4048"
         inkscape:connector-curvature="0"
         sodipodi:nodetypes="cccccccsc" />
    </clipPath>
    <clipPath
       clipPathUnits="userSpaceOnUse"
       id="clipPath4073">
      <path
         clip-path="none"
         sodipodi:nodetypes="cccccc"
         inkscape:connector-curvature="0"
         id="path4075"
         d="m 677.26971,509.18646 24.70236,4.6739 L 841.90559,60.136122 597.98902,-374.58616 68.847419,79.806814 z"
         style="fill:none;stroke:#000000;stroke-width:1;stroke-linecap:butt;stroke-linejoin:miter;stroke-miterlimit:4;stroke-opacity:1;stroke-dasharray:none" />
    </clipPath>
    <clipPath
       clipPathUnits="userSpaceOnUse"
       id="clipPath4031">
      <path
         style="fill:none;stroke:#000000"
         d="M 1157.5501,413.48642 C 1193.7332,321.6284 1117.5057,225.40383 1018.2284,283.10126 1343.4412,17.693101 1488.9288,122.86519 1157.5501,413.48642 z"
         id="path4033"
         inkscape:connector-curvature="0"
         sodipodi:nodetypes="ccc" />
    </clipPath>
    <linearGradient
       inkscape:collect="always"
       xlink:href="#linearGradient4862"
       id="linearGradient4885"
       gradientUnits="userSpaceOnUse"
       x1="1821.4415"
       y1="1009.947"
       x2="1821.4415"
       y2="1048.6469" />
    <mask
       maskUnits="userSpaceOnUse"
       id="mask4881">
      <rect
         y="205.05278"
         x="1179.6189"
         height="868.0163"
         width="641.82251"
         id="rect4883"
         style="fill:url(#linearGradient4885);fill-opacity:1;fill-rule:nonzero;stroke:none" />
    </mask>
  </defs>
  <sodipodi:namedview
     id="base"
     pagecolor="#ffffff"
     bordercolor="#666666"
     borderopacity="1.0"
     inkscape:pageopacity="0.0"
     inkscape:pageshadow="2"
     inkscape:zoom="0.36271284"
     inkscape:cx="1006.455"
     inkscape:cy="736.11951"
     inkscape:document-units="px"
     inkscape:current-layer="layer2"
     showgrid="true"
     inkscape:window-width="1364"
     inkscape:window-height="698"
     inkscape:window-x="0"
     inkscape:window-y="0"
     inkscape:window-maximized="1"
     showguides="false"
     inkscape:guide-bbox="true"
     fit-margin-top="0"
     fit-margin-left="0"
     fit-margin-right="0"
     fit-margin-bottom="0">
    <inkscape:grid
       type="xygrid"
       id="grid2985"
       empspacing="8"
       visible="true"
       enabled="false"
       snapvisiblegridlinesonly="true"
       spacingx="16px"
       spacingy="16px"
       originx="348.6075px"
       originy="39.996096px" />
    <inkscape:grid
       type="xygrid"
       id="grid4033"
       empspacing="5"
       visible="true"
       enabled="false"
       snapvisiblegridlinesonly="true"
       spacingx="13px"
       spacingy="13px"
       originx="348.6075px"
       originy="39.996096px" />
    <inkscape:grid
       type="xygrid"
       id="grid4247"
       empspacing="5"
       visible="true"
       enabled="false"
       snapvisiblegridlinesonly="true"
       spacingx="7px"
       spacingy="7px"
       originx="348.6075px"
       originy="39.996096px" />
  </sodipodi:namedview>
  <metadata
     id="metadata7">
    <rdf:RDF>
      <cc:Work
         rdf:about="">
        <dc:format>image/svg+xml</dc:format>
        <dc:type
           rdf:resource="http://purl.org/dc/dcmitype/StillImage" />
        <dc:title />
      </cc:Work>
    </rdf:RDF>
  </metadata>
  <g
     inkscape:groupmode="layer"
     id="layer2"
     inkscape:label="Drawing"
     style="display:inline"
     transform="translate(348.6075,408.24278)">
    <g
       id="g4532">
      <g
         transform="matrix(0.98247517,0.18639416,-0.18639416,0.98247517,107.22691,-124.30706)"
         inkscape:transform-center-y="-441.04551"
         inkscape:transform-center-x="73.958469"
         id="g4083">
        <path
           style="fill:#11a2f9;fill-opacity:1;stroke:#1c92cd;stroke-width:12.99999905;stroke-miterlimit:20;stroke-opacity:1;stroke-dasharray:none"
           d="M 725.72714,484.82351 C 701.87681,433.95088 662.8472,274.7032 736.89559,238.02646 c 50.0073,-24.769 41.6733,-62.85496 13.72953,-60.78621 4.61531,23.15817 -12.3361,44.24852 -39.02116,37.66215 85.12199,-220.0097353 -22.04336,-448.70805 -193.14241,-595.64884 82.93693,133.15354 70.62733,462.32355 -117.45766,348.225166 3.51089,94.346554 31.01586,192.252854 78.83287,278.557424 -32.37352,-27.77649 -61.34483,-46.16548 -71.58539,-38.78631 -35.02142,25.23581 7.81805,259.26359 293.7207,306.61052 z"
           id="path4085"
           inkscape:connector-curvature="0"
           sodipodi:nodetypes="cscccccscc"
           clip-path="none" />
        <path
           sodipodi:nodetypes="cccccccc"
           inkscape:connector-curvature="0"
           clip-path="none"
           d="M 690.75046,512.54355 C 670.82793,443.28615 605.76018,347.58476 401.89624,273.12323 M 718.76201,195.575 C 715.86573,147.44474 708.96276,85.123231 696.57784,36.564203 M 652.3452,247.86222 c 75.90873,-33.58793 76.71074,-333.170739 -96.93101,-532.17684 m 76.55617,697.60551 C 707.62331,376.01828 698.99373,203.17451 429.93642,-17.974974"
           style="fill:none;stroke:#1c92cd;stroke-width:7;stroke-linecap:butt;stroke-linejoin:miter;stroke-miterlimit:4;stroke-opacity:1;stroke-dasharray:none"
           id="path4091" />
      </g>
      <path
         inkscape:transform-center-y="-115.09394"
         inkscape:transform-center-x="32.826435"
         sodipodi:nodetypes="cccccccc"
         inkscape:connector-curvature="0"
         d="M 866.06824,464.91602 C 809.46535,395.9987 802.61292,310.5214 820.12864,228.68019 c 5.84102,18.35274 12.49841,34.49335 18.41385,44.13247 -3.15421,-29.94061 -3.16301,-59.62426 0.0187,-89.93638 4.19419,14.22404 8.84322,29.82621 14.52535,42.96877 0.6953,-19.34935 3.39356,-36.85683 8.22854,-55.23146 8.18751,133.68601 118.55988,119.52225 82.92696,245.83524 z"
         style="fill:#11a2f9;fill-opacity:1;stroke:#1c92cd;stroke-width:13;stroke-miterlimit:20;stroke-opacity:1;stroke-dasharray:none"
         id="path4074-9" />
      <path
         style="fill:#11a2f9;fill-opacity:1;stroke:#1c92cd;stroke-width:13;stroke-linecap:butt;stroke-linejoin:miter;stroke-miterlimit:4;stroke-opacity:1;stroke-dasharray:none"
         d="M 357.44795,577.68063 C 267.35861,646.4905 157.80165,682.13387 128.81803,680.03502 66.78174,675.54266 70.340737,574.46776 105.01455,567.26941 c 36.09761,-7.49394 102.9401,-10.12118 202.64869,-65.76685 12.85423,-7.17373 48.00467,-2.20443 67.29023,12.79929 61.31079,-28.98839 142.99256,24.04601 163.91439,101.87903 -65.09227,27.94637 -116.47047,17.95251 -181.41991,-38.50025 z"
         id="path3051"
         inkscape:connector-curvature="0"
         sodipodi:nodetypes="csssccc" />
      <path
         sodipodi:nodetypes="csscc"
         inkscape:connector-curvature="0"
         id="path4391"
         d="M 853.64645,687.70711 C 948.66726,661.61522 988.01427,938.6724 919,978.70711 869.34249,1007.5131 804.35335,906.85253 823.5,844 c 4.34653,-14.26831 40.62132,-35.93934 17.5,-94 z"
         style="fill:#11a2f9;fill-opacity:1;stroke:#1c92cd;stroke-width:13;stroke-miterlimit:4;stroke-opacity:1;stroke-dasharray:none" />
      <g
         id="g4527">
        <path
           sodipodi:nodetypes="cccccccccccccc"
           inkscape:connector-curvature="0"
           id="path4525"
           d="M 275.465,361.28336 C 261.96216,346.47228 243.44202,330.19103 221.98634,315.74826 302.54274,331.35001 382.39815,363.1056 448,411.5 l -44.05025,26.91421 c -151.6508,-19.90494 -186.17395,46.18553 -144.55619,87.31538 -139.66381,-23.05937 -177.454772,120.63014 -443.92305,1.72318 38.77938,2.04656 68.59523,-2.74609 96.322896,-14.3881 C -208.93957,491.44052 -294.13456,424.00601 -342.1075,324.76813 c 31.32919,33.31759 66.40813,57.00313 105.56222,69.34681 -13.84817,-15.61317 -19.71152,-33.69535 -22.07845,-53.26861 11.5366,13.02076 25.52226,22.4198 37.53805,26.63548 -19.99643,-34.1462 -30.83651,-68.06034 -36.7556,-108.49636 133.18855,225.54137 299.119908,121.94866 172.969876,55.03859 C 39.024236,337.16633 150.754,330.39749 275.465,361.28336 z"
           style="fill:#f3a4d9;fill-opacity:1;stroke:none" />
        <path
           sodipodi:nodetypes="ccccccccccccccc"
           inkscape:connector-curvature="0"
           id="path4523"
           d="m -257.84128,258.98545 c 5.91909,40.43602 16.75917,74.35016 36.7556,108.49636 -12.01579,-4.21568 -26.00145,-13.61472 -37.53805,-26.63548 2.36693,19.57326 8.23028,37.65544 22.07845,53.26861 -39.15409,-12.34368 -74.23303,-36.02922 -105.56222,-69.34681 47.97294,99.23788 133.16793,166.67239 253.900906,188.29654 -27.727666,11.64201 -57.543516,16.43466 -96.322896,14.3881 266.468278,118.90696 304.25924,-24.78255 443.92305,-1.72318 -41.61776,-41.12985 -7.09461,-107.22032 144.55619,-87.31538 L 431.7967,421.40004 C 326.5,391.5 208,396.5 101,443.5 c 37,-3 62.07107,1.46447 88.57107,13.46447 -100.500002,14 -146.671575,65.08578 -286.671575,24.08578 32,2 55.600505,-4.05025 77.600505,-20.05025 -106,-19 -201.68256,-88.5291 -238.34128,-202.01455 z"
           style="fill:#961370;fill-opacity:1;stroke:none" />
        <path
           style="fill:none;stroke:#d91e9b;stroke-width:13;stroke-linecap:butt;stroke-linejoin:miter;stroke-miterlimit:20;stroke-opacity:1;stroke-dasharray:none"
           d="M 275.465,361.28336 C 261.96216,346.47228 243.44202,330.19103 221.98634,315.74826 302.54274,331.35001 382.39815,363.1056 448,411.5 l -44.05025,26.91421 c -151.6508,-19.90494 -186.17395,46.18553 -144.55619,87.31538 -139.66381,-23.05937 -177.454772,120.63014 -443.92305,1.72318 38.77938,2.04656 68.59523,-2.74609 96.322896,-14.3881 C -208.93957,491.44052 -294.13456,424.00601 -342.1075,324.76813 c 31.32919,33.31759 66.40813,57.00313 105.56222,69.34681 -13.84817,-15.61317 -19.71152,-33.69535 -22.07845,-53.26861 11.5366,13.02076 25.52226,22.4198 37.53805,26.63548 -19.99643,-34.1462 -30.83651,-68.06034 -36.7556,-108.49636 133.18855,225.54137 299.119908,121.94866 172.969876,55.03859 C 39.024236,337.16633 150.754,330.39749 275.465,361.28336 z"
           id="path4518"
           inkscape:connector-curvature="0"
           sodipodi:nodetypes="cccccccccccccc" />
      </g>
      <path
         sodipodi:nodetypes="csssssscssscc"
         inkscape:connector-curvature="0"
         id="path3898"
         d="m 468,597 c 175.64301,167.5729 471.82379,40.4188 526.35278,42.9778 177.85302,8.3463 232.34022,-27.89595 238.91062,-97.05927 1.0684,-11.24679 -47.6589,-6.72033 -45.7634,-14.81193 46.6536,-199.15236 -100.2602,-290.04299 -274.39279,-197.8891 -37.81304,20.0113 -6.42031,91.00193 -54.81432,114.24697 -176.45494,84.7564 -368.0127,-134.35436 -488.70562,17.84062 -14.63567,18.45573 -27.82455,45.02357 -36.28226,72.83818 -24.15467,-10.8562 -53.47887,-21.6153 -63.37711,-8.01293 C 201.61002,621.0143 143.22702,653.6106 112.97601,674.6836 89.926502,690.7399 115.17368,798.3517 172.56865,776.043 199.65411,765.5152 246.46119,735.0153 325.09984,608.41131 370.50384,627.1323 422.92909,618.89114 468,597 z"
         style="fill:#6dc6fb;fill-opacity:1;stroke:none" />
      <g
         id="g3986">
        <path
           sodipodi:type="arc"
           style="fill:#ffffff;stroke:none"
           id="path3968"
           sodipodi:cx="1079.1311"
           sodipodi:cy="503.85019"
           sodipodi:rx="66.460915"
           sodipodi:ry="85.264359"
           d="m 1145.592,503.85019 c 0,47.0902 -29.7555,85.26436 -66.4609,85.26436 -36.7053,0 -66.4609,-38.17416 -66.4609,-85.26436 0,-47.09021 29.7556,-85.26436 66.4609,-85.26436 36.7054,0 66.4609,38.17415 66.4609,85.26436 z"
           transform="matrix(0.96562556,-0.39123104,0.39123104,0.96562556,-183.38305,427.07094)" />
        <g
           id="g3944"
           clip-path="url(#clipPath3982)">
          <path
             transform="matrix(1.0103053,-0.30763928,0.30763928,1.0103053,-174.27113,337.44585)"
             d="m 1152.718,489.24719 c 0,38.13551 -21.3955,69.05044 -47.7882,69.05044 -26.3927,0 -47.7882,-30.91493 -47.7882,-69.05044 0,-38.1355 21.3955,-69.05044 47.7882,-69.05044 26.3927,0 47.7882,30.91494 47.7882,69.05044 z"
             sodipodi:ry="69.050438"
             sodipodi:rx="47.7882"
             sodipodi:cy="489.24719"
             sodipodi:cx="1104.9298"
             id="path2988"
             style="fill:url(#linearGradient3998);fill-opacity:1.0;stroke:none"
             sodipodi:type="arc" />
          <g
             transform="matrix(1.0674132,0.0120336,-0.0120336,1.0674132,-78.390875,-48.023829)"
             clip-path="url(#clipPath3940)"
             id="g3934">
            <path
               sodipodi:nodetypes="ccccc"
               inkscape:connector-curvature="0"
               id="path3764"
               d="m 1076.734,563.77528 23.4907,-40.26967 -3.5955,-11.98501 -44.5843,11.26591 z"
               style="fill:#d67272;fill-opacity:1;stroke:none" />
            <path
               style="fill:#c74d4d;fill-opacity:1;stroke:none"
               d="m 1047.0112,512.4794 48.6592,-4.07491 1.9176,7.67042 -44.824,25.16853 z"
               id="path2992"
               inkscape:connector-curvature="0"
               sodipodi:nodetypes="ccccc" />
          </g>
          <path
             sodipodi:type="arc"
             style="fill:#000000;stroke:none"
             id="path2990"
             sodipodi:cx="1104.9298"
             sodipodi:cy="489.24719"
             sodipodi:rx="46.455818"
             sodipodi:ry="69.789513"
             d="m 1151.3856,489.24719 c 0,38.54369 -20.799,69.78952 -46.4558,69.78952 -25.6568,0 -46.4558,-31.24583 -46.4558,-69.78952 0,-38.54368 20.799,-69.78951 46.4558,-69.78951 25.6568,0 46.4558,31.24583 46.4558,69.78951 z"
             transform="matrix(0.83537419,-0.21418861,0.21418861,0.83537419,68.329819,319.09791)" />
          <path
             transform="matrix(1.1458633,0.42710815,-0.42710815,1.1458633,34.053936,-544.95653)"
             d="m 1099.6275,476.87415 c 0,14.28969 -7.4911,25.87378 -16.7319,25.87378 -9.2407,0 -16.7318,-11.58409 -16.7318,-25.87378 0,-14.2897 7.4911,-25.87379 16.7318,-25.87379 9.2408,0 16.7319,11.58409 16.7319,25.87379 z"
             sodipodi:ry="25.873789"
             sodipodi:rx="16.731836"
             sodipodi:cy="476.87415"
             sodipodi:cx="1082.8956"
             id="path3965"
             style="fill:#ffffff;stroke:none"
             sodipodi:type="arc" />
          <path
             sodipodi:type="arc"
             style="fill:#ffffff;stroke:none"
             id="path3967"
             sodipodi:cx="1082.8956"
             sodipodi:cy="476.87415"
             sodipodi:rx="18.495195"
             sodipodi:ry="25.873789"
             d="m 1101.3908,476.87415 c 0,14.28969 -8.2806,25.87378 -18.4952,25.87378 -10.2146,0 -18.4952,-11.58409 -18.4952,-25.87378 0,-14.2897 8.2806,-25.87379 18.4952,-25.87379 10.2146,0 18.4952,11.58409 18.4952,25.87379 z"
             transform="matrix(0.33120607,0.26237146,-0.26237146,0.33120607,860.25313,58.406929)" />
        </g>
        <path
           sodipodi:nodetypes="cccccccccc"
           inkscape:connector-curvature="0"
           id="path3977"
           style="fill:#000000;stroke:none"
           d="m 1003.2451,420.45429 c -49.43673,-33.24059 -52.38962,-29.56293 -5.73806,6.8786 z m -12.30131,15.66685 c -52.68274,-26.01408 -55.1043,-22.22353 -3.57216,8.11225 z m 132.42341,99.48878 c 42.11,-103.80099 -100.9685,-198.43366 -144.63964,-83.61438 -50.47647,-11.36527 -51.27031,-7.09151 5.7202,10.59501 31.67924,-107.28676 159.82244,-37.88249 138.91944,73.01937 z" />
      </g>
      <path
         sodipodi:nodetypes="ccc"
         inkscape:connector-curvature="0"
         id="path3047"
         d="m 303.39724,596.94193 c 71.90338,33.09844 151.44014,9.09467 209.96945,-27.19301 -46.6877,51.85424 -159.4989,77.80761 -209.96945,27.19301 z"
         style="fill:#1c92cd;fill-opacity:1;stroke:none" />
      <path
         style="fill:#1c92cd;fill-opacity:1;stroke:none"
         d="m 472.48688,592.29703 -8.97376,9.40594 c 21.4342,20.44738 45.91314,37.6645 72.37816,50.9589 25.1739,12.6364 51.99035,21.7401 79.39121,27.7377 26.9494,5.89932 54.43112,8.87458 81.88017,9.66186 2e-5,0 4e-5,0 5e-5,0 26.77633,0.77027 53.5419,-0.50579 80.09318,-3.22609 10e-6,0 3e-5,0 5e-5,0 24.89052,-2.54889 49.60497,-6.36209 74.11535,-11.01002 21.45363,-4.06794 42.7367,-8.78711 63.91658,-13.74872 16.54513,-3.87459 32.9344,-7.96062 49.34842,-11.44926 5.95194,-1.26273 11.83284,-2.44132 17.67524,-3.27926 3e-5,-10e-6 7e-5,-10e-6 1e-4,-2e-5 4.19869,-0.57706 8.12532,-1.0789 11.73641,-0.87743 10e-6,0 3e-5,0 4e-5,0 37.30552,1.76385 74.96622,2.1342 112.44882,-1.94966 25.0573,-2.68391 50.575,-7.4123 74.2309,-18.08884 16.6357,-7.47373 32.135,-18.77444 42.8242,-34.34797 0,-10e-6 0,-3e-5 0,-4e-5 4.7782,-7.06173 8.4427,-14.77951 11.0362,-22.78767 2.7304,-8.44469 4.3355,-17.12258 5.1461,-25.76321 0.1776,-1.86113 -0.1684,-3.72494 -1.0334,-5.48738 -0.9565,-1.72144 -2.0456,-2.97056 -3.1468,-3.76234 0,-2e-5 0,-4e-5 0,-6e-5 -2.731,-1.99126 -5.3323,-3.02264 -7.4322,-3.52473 -2.9055,-0.83762 -5.7202,-1.36121 -8.3801,-1.76009 -3.0453,-0.4669 -6.0391,-0.81375 -8.9668,-1.1311 0,0 -1e-4,0 -1e-4,0 -2.9186,-0.31785 -5.7803,-0.60387 -8.5758,-0.9381 0,0 0,-10e-6 -10e-5,-10e-6 -2.4396,-0.29668 -4.7434,-0.59133 -6.8771,-1.04079 -1.6579,-0.44161 -2.7728,-0.58211 -3.072,-0.89317 0.021,-0.13817 0.307,0.25096 1.013,1.10323 0.6377,1.17848 0.8236,2.296 0.5658,3.49044 10.0827,-42.61681 13.2627,-88.19001 1.221,-131.14986 -4.8471,-17.16906 -12.3178,-33.71752 -22.6265,-48.48743 -9.6441,-13.79307 -21.7473,-25.85658 -35.6498,-35.39101 0,-2e-5 0,-4e-5 0,-6e-5 -14.1243,-9.66708 -29.9252,-16.66629 -46.3538,-21.02033 0,-1e-5 0,-2e-5 -10e-5,-3e-5 -17.8615,-4.72924 -36.3583,-6.44058 -54.6451,-5.78192 -44.30386,1.63902 -87.07714,16.19857 -125.70759,36.71392 -5.28439,2.80225 -9.89007,6.77849 -13.43213,11.60779 -3.44397,4.77176 -5.81018,9.98648 -7.43283,15.18986 -2e-5,4e-5 -3e-5,7e-5 -4e-5,1e-4 -1.77731,5.63044 -2.88137,11.27255 -3.71875,16.76732 -0.904,5.86086 -1.55158,11.63453 -2.2638,17.27547 -10e-6,3e-5 -10e-6,6e-5 -10e-6,1e-4 -0.72779,5.72155 -1.50358,11.32065 -2.64678,16.72569 -10e-6,3e-5 -10e-6,6e-5 -2e-5,9e-5 -1.12199,5.26277 -2.53426,10.33529 -4.57651,14.98926 -2.00109,4.5589 -4.5744,8.79156 -7.80008,12.28669 -3.48631,3.84002 -7.89238,6.9579 -12.71729,9.29053 -20.23332,9.72628 -42.21898,15.83343 -64.59495,18.25538 -21.64465,2.35707 -43.70182,1.34426 -65.52031,-1.69182 -4e-5,0 -7e-5,-10e-6 -10e-5,-10e-6 -22.08431,-3.07937 -43.95608,-8.25342 -65.70057,-14.211 -21.60217,-5.92428 -43.08789,-12.67524 -64.78919,-19.09547 -20.62142,-6.1078 -41.50383,-11.96322 -62.90757,-16.1182 -3e-5,-10e-6 -7e-5,-2e-5 -10e-5,-2e-5 -19.63857,-3.82987 -39.89007,-6.1583 -60.29115,-5.00419 -9.69306,0.55771 -19.39032,1.9544 -28.89264,4.36657 -9.58067,2.43593 -18.90464,5.9193 -27.7346,10.42148 -14.54494,7.461 -27.45805,17.53881 -38.67871,29.14077 -4.18478,4.327 -8.13576,8.89292 -11.82599,13.63585 -10.60504,13.61554 -18.64872,28.91247 -24.71491,44.44062 -6.90737,17.62119 -11.3192,35.8575 -12.78049,53.55384 6.08332,-16.0933 13.2937,-32.9127 21.87318,-49.45012 7.42329,-14.27326 15.70842,-28.32604 25.68358,-40.56553 3.56174,-4.3671 7.27702,-8.57671 11.1285,-12.56475 10.37371,-10.74154 22.1346,-19.97586 35.22205,-26.61031 7.94234,-4.05347 16.3655,-7.19737 25.03216,-9.40306 8.603,-2.19331 17.48283,-3.46353 26.44033,-3.98715 18.88978,-1.12392 38.06625,1.13267 57.06603,4.78866 3e-5,0 6e-5,10e-6 10e-5,10e-6 20.70595,4.00343 41.18315,9.7599 61.69196,15.82134 21.56198,6.38012 43.13072,13.15475 65.03823,19.16648 22.04051,6.05395 44.45859,11.34064 67.33948,14.54892 3e-5,0 7e-5,10e-6 10e-5,10e-6 22.62428,3.1785 45.74732,4.20796 68.71789,1.74177 23.79876,-2.56992 47.19488,-9.0792 68.82633,-19.46177 6.19064,-2.95846 11.91769,-7.05741 16.68021,-12.23376 4.32097,-4.75371 7.67073,-10.18282 10.12943,-15.87602 2.48346,-5.7497 4.16254,-11.65842 5.37696,-17.49789 10e-6,-2e-5 10e-6,-3e-5 10e-6,-5e-5 1.25516,-5.99153 2.0896,-11.93944 2.82274,-17.7721 0,-3e-5 10e-6,-6e-5 10e-6,-9e-5 0.72987,-5.76429 1.36077,-11.41925 2.21376,-16.91936 0.8118,-5.16898 1.76254,-10.15875 3.25881,-14.81029 0,-3e-5 10e-6,-6e-5 2e-5,-9e-5 1.38747,-4.25102 3.12168,-8.22147 5.53684,-11.45704 2.35061,-3.22387 5.48611,-5.92896 9.02161,-7.79435 37.45772,-19.75178 78.35712,-33.81076 120.08589,-35.21219 17.1797,-0.59473 34.4111,0.97412 50.8491,5.35446 0,10e-6 10e-5,10e-6 10e-5,2e-5 15.097,4.01883 29.5602,10.40419 42.3408,19.17876 12.5855,8.62146 23.5874,19.59397 32.346,32.11799 9.3987,13.41301 16.2511,28.65861 20.7718,44.57887 11.4319,39.95441 8.2022,83.35884 -1.37,124.64357 -0.4754,2.12314 -0.1419,4.25007 0.9925,6.24291 1.2954,1.81907 2.52,2.9135 3.5183,3.34742 2.7608,1.48033 5.1843,2.12412 6.9982,2.40303 2.7718,0.56859 5.4425,0.9231 7.9776,1.22034 0,0 10e-5,10e-6 10e-5,10e-6 2.96,0.35291 5.8664,0.64404 8.7102,0.95343 0,0 0,10e-6 1e-4,10e-6 2.872,0.31396 5.6757,0.63586 8.3965,1.05621 2.4214,0.38301 4.6786,0.78272 6.7074,1.38846 1.5993,0.57998 2.7318,0.85327 3.0257,1.25046 0,10e-6 0,10e-6 0,10e-6 0.014,0.0885 -0.076,-0.10212 -0.3894,-0.55688 -0.2642,-0.57877 -0.368,-1.08596 -0.316,-1.62565 -0.7593,7.88469 -2.1719,15.63396 -4.5686,22.97736 -2.2603,6.93813 -5.3897,13.56226 -9.4313,19.50674 0,3e-5 0,5e-5 -10e-5,8e-5 -8.7838,13.1427 -22.4891,22.93024 -37.4421,29.80844 -21.6547,9.9097 -45.851,14.27566 -70.2666,17.00156 0,0 -1e-4,1e-5 -1e-4,1e-5 -36.4518,4.0008 -73.4383,3.60954 -110.42622,1.88692 -4e-5,-10e-6 -8e-5,-10e-6 -1.2e-4,-10e-6 -5.0589,-0.20538 -9.80621,0.33592 -14.19847,0.99584 -3e-5,10e-6 -6e-5,10e-6 -10e-5,2e-5 -6.3072,0.91145 -12.47179,2.14057 -18.52632,3.43085 -16.70797,3.55428 -33.18419,7.65974 -49.60926,11.50753 -21.08038,4.9367 -42.18231,9.61751 -63.37319,13.63363 -24.2195,4.58974 -48.568,8.34962 -73.01751,10.85009 -4e-5,0 -7e-5,0 -10e-5,10e-6 -26.08361,2.66624 -52.28289,3.9216 -78.39429,3.16396 -3e-5,0 -6e-5,0 -1e-4,0 -26.7642,-0.77893 -53.44344,-3.65555 -79.47275,-9.36595 -26.45041,-5.80331 -52.24936,-14.54638 -76.33868,-26.65579 -25.31531,-12.7158 -48.74809,-29.19597 -69.23971,-48.74808 z"
         id="path3862"
         inkscape:connector-curvature="0"
         sodipodi:nodetypes="cssssssc"
         inkscape:path-effect="#path-effect4407"
         inkscape:original-d="m 468,597 c 175.64301,167.57289 471.82379,40.41882 526.35278,42.97778 177.85302,8.34636 232.34022,-27.89593 238.91062,-97.05925 1.0684,-11.24679 -47.6589,-6.72033 -45.7634,-14.81193 46.6536,-199.15236 -100.2602,-290.04299 -274.39279,-197.8891 -37.81304,20.0113 -6.42031,91.00193 -54.81432,114.24697 -176.45494,84.7564 -368.01272,-134.35438 -488.70562,17.84062 -18.34006,23.127 -34.40825,58.99224 -42.53998,93.99403" />
      <path
         sodipodi:nodetypes="csssc"
         inkscape:connector-curvature="0"
         id="path4393"
         d="M 325.09984,608.41131 C 246.46119,735.01525 199.65411,765.5152 172.56865,776.043 115.17368,798.35174 89.926502,690.73992 112.97601,674.68357 c 30.25101,-21.07295 88.63401,-53.6693 156.95189,-147.55323 9.89824,-13.60237 39.22244,-2.84327 63.78274,8.06"
         style="fill:none;stroke:#1c92cd;stroke-width:13;stroke-linecap:butt;stroke-linejoin:miter;stroke-miterlimit:4;stroke-opacity:1;stroke-dasharray:none" />
      <path
         sodipodi:nodetypes="ccc"
         inkscape:connector-curvature="0"
         id="path3826"
         d="m 1196.093,603.76591 c -0.7537,11.53693 -6.1066,21.23638 -17.3533,26.43426 5.6409,-9.39538 7.8894,-17.63136 6.0911,-29.07881"
         style="fill:#ffffff;fill-opacity:1;fill-rule:nonzero;stroke:#b0d8e7;stroke-width:3;stroke-linecap:butt;stroke-linejoin:miter;stroke-miterlimit:20;stroke-opacity:1;stroke-dasharray:none" />
      <path
         inkscape:connector-curvature="0"
         d="m 1158.8527,576.73765 c 12.7314,17.10278 28.9908,24.95148 54.723,23.73442 l -7.7706,8.90327 c -26.9491,-1.91253 -42.4546,-11.90422 -46.9524,-32.63769 z m 35.7075,-25.58221 c 3.4773,7.1285 9.114,8.33119 14.5039,2.59362 -2.434,13.38768 -16.2426,11.31567 -14.5039,-2.59362 z"
         style="fill:#1c92cd;fill-opacity:1;fill-rule:nonzero;stroke:none"
         id="path3055" />
      <g
         transform="matrix(0.12628248,0.03887263,-0.10073797,0.14420935,452.08203,429.50854)"
         id="g3948">
        <path
           style="fill:#5a318e;fill-rule:evenodd"
           d="m 725.48579,132.93352 c -128,48 -160,160 -96,288 -128,-16 -208,64 -192,192 -96,-96 -192,-96 -288,0 16,-128 -63.999997,-208 -191.999997,-192 64,-128 32,-240 -96.000003,-288 160.000003,-112.000002 336,-160.000002 544,0 l -112,768 -112,-768 c 208,-160.000002 384,-112.000002 544,0 z"
           id="path3781"
           inkscape:connector-curvature="0" />
        <path
           style="fill:#54a2e1;fill-rule:evenodd"
           d="m 293.48579,900.93352 -112,-768 c 208,-160.000002 384,-112.000002 544,0 -192,32 -304,80 -432,176 -128,-96 -239.999997,-144 -432,-176 160.000003,-112.000002 336,-160.000002 544,0 z"
           id="path3011"
           inkscape:connector-curvature="0" />
      </g>
      <g
         id="g4035">
        <path
           sodipodi:nodetypes="ccccccccccccccc"
           inkscape:connector-curvature="0"
           id="path4026"
           d="m 916.92005,354.56006 c 25.42221,-3.07716 43.34695,12.63829 47.16744,34.61503 7.94985,-8.43666 12.94913,-21.53259 12.63504,-34.2774 16.64588,18.83773 23.76577,40.88016 20.13812,66.94025 23.99375,-19.09907 32.87965,-40.49784 35.02165,-70.86879 12.4471,30.51303 34.1574,54.26883 64.2655,65.17901 -39.4486,-90.12174 58.8082,-105.89994 61.4023,-2.66174 22.1316,-23.68122 30.5159,-45.15652 25.345,-79.67085 12.8071,16.05693 20.8804,34.23104 23.4448,56.74768 8.7619,-17.25088 14.2832,-34.45706 14.6569,-54.02662 15.9628,22.43085 23.9445,45.15044 26.5366,73.79784 71.3449,-135.99175 -44.5516,-230.12491 -230.5355,-172.28995 11.0734,-18.61898 15.8576,-37.58875 15.022,-58.71243 -45.74395,63.549 -85.0662,100.33092 -167.1372,143.05154 z"
           style="fill:#f3a4d9;fill-opacity:1;stroke:none" />
        <path
           sodipodi:nodetypes="ccccccccccc"
           inkscape:connector-curvature="0"
           id="path3865"
           d="m 916.92005,354.56006 c 25.42221,-3.07716 43.34695,12.63829 47.16744,34.61503 7.94985,-8.43666 12.94913,-21.53259 12.63504,-34.2774 16.64588,18.83773 23.76577,40.88016 20.13812,66.94025 23.99375,-19.09907 32.87965,-40.49784 35.02165,-70.86879 12.4471,30.51303 34.1574,54.26883 64.2655,65.17901 -39.4486,-90.12174 58.8082,-105.89994 61.4023,-2.66174 36.1831,-91.85802 -40.0444,-188.08259 -139.3217,-130.38516 8.3365,-13.17256 17.2158,-23.5678 29.4732,-32.99253 -74.86396,19.40381 -88.28673,62.67683 -158.02506,87.60576 z"
           style="fill:#961370;fill-opacity:1;stroke:none" />
        <path
           style="fill:none;stroke:#d91e9b;stroke-width:13;stroke-linecap:butt;stroke-linejoin:miter;stroke-miterlimit:20;stroke-opacity:1;stroke-dasharray:none"
           d="m 916.92005,354.56006 c 25.42221,-3.07716 43.34695,12.63829 47.16744,34.61503 7.94985,-8.43666 12.94913,-21.53259 12.63504,-34.2774 16.64588,18.83773 23.76577,40.88016 20.13812,66.94025 23.99375,-19.09907 32.87965,-40.49784 35.02165,-70.86879 12.4471,30.51303 34.1574,54.26883 64.2655,65.17901 -39.4486,-90.12174 58.8082,-105.89994 61.4023,-2.66174 22.1316,-23.68122 30.5159,-45.15652 25.345,-79.67085 12.8071,16.05693 20.8804,34.23104 23.4448,56.74768 8.7619,-17.25088 14.2832,-34.45706 14.6569,-54.02662 15.9628,22.43085 23.9445,45.15044 26.5366,73.79784 71.3449,-135.99175 -44.5516,-230.12491 -230.5355,-172.28995 11.0734,-18.61898 15.8576,-37.58875 15.022,-58.71243 -45.74395,63.549 -85.0662,100.33092 -167.1372,143.05154 z"
           id="path3087"
           inkscape:connector-curvature="0"
           sodipodi:nodetypes="ccccccccccccccc" />
        <g
           id="g3858"
           clip-path="url(#clipPath4031)">
          <path
             sodipodi:nodetypes="ccc"
             inkscape:connector-curvature="0"
             id="path3849"
             d="m 1102.7423,311.14944 57.2461,50.1598 C 1320.86,141.6381 1311.14,133.99432 1102.7423,311.14944 z"
             style="fill:#6dc6fb;fill-opacity:1;stroke:#1c92cd;stroke-width:13;stroke-linecap:butt;stroke-linejoin:miter;stroke-miterlimit:20;stroke-opacity:1;stroke-dasharray:none" />
          <path
             sodipodi:nodetypes="cccccc"
             inkscape:connector-curvature="0"
             d="m 1209.7033,223.95914 c 15.6337,2.00814 31.4493,1.20396 47.5906,-2.31091 m -94.3561,39.0378 c 20.868,7.20931 42.4283,9.05239 65.0344,5.82496 M 1122.86,294.39528 c 23.4621,12.44517 48.1749,17.50366 74.679,15.68049"
             style="fill:none;stroke:#1c92cd;stroke-width:6.5;stroke-linecap:butt;stroke-linejoin:miter;stroke-miterlimit:20;stroke-opacity:1;stroke-dasharray:none"
             id="path3855" />
        </g>
      </g>
      <g
         id="g4077">
        <path
           clip-path="none"
           sodipodi:nodetypes="cscccccscc"
           inkscape:connector-curvature="0"
           id="path4052"
           d="M 725.72714,484.82351 C 701.87681,433.95088 662.8472,274.7032 736.89559,238.02646 c 50.0073,-24.769 41.6733,-62.85496 13.72953,-60.78621 4.61531,23.15817 -12.3361,44.24852 -39.02116,37.66215 85.12199,-220.0097353 -22.04336,-448.70805 -193.14241,-595.64884 82.93693,133.15354 70.62733,462.32355 -117.45766,348.225166 3.51089,94.346554 31.01586,192.252854 78.83287,278.557424 -32.37352,-27.77649 -61.34483,-46.16548 -71.58539,-38.78631 -35.02142,25.23581 7.81805,259.26359 293.7207,306.61052 z"
           style="fill:#6dc6fb;fill-opacity:1;stroke:none" />
        <path
           style="fill:none;stroke:#1c92cd;stroke-width:13;stroke-linecap:butt;stroke-linejoin:miter;stroke-miterlimit:10;stroke-opacity:1;stroke-dasharray:none"
           d="m 741.06858,157.81058 c 23.11702,28.16778 4.89491,65.57239 -29.46462,57.09182 C 796.72595,-5.1073353 689.5606,-233.80565 518.46155,-380.74644 601.39848,-247.5929 589.08888,81.57711 401.00389,-32.521274 405.70342,93.766943 453.39395,226.43327 535.00872,329.06094"
           id="path3998"
           inkscape:connector-curvature="0"
           sodipodi:nodetypes="ccccc"
           clip-path="url(#clipPath4046)" />
        <path
           style="fill:#1c92cd;fill-opacity:1;stroke:none"
           d="m 688.75107,364.49083 c 1.02775,11.26055 2.65242,22.56845 4.86415,33.75444 2.21173,11.18598 5.0097,22.24892 8.34121,33.01488 3.28031,10.6121 7.10753,20.96972 11.55358,30.82686 3.59714,7.97809 7.59686,15.69285 12.21713,22.7365 -2.4592,-8.05681 -4.54802,-16.29322 -6.59267,-24.676 -2.51766,-10.33723 -4.88406,-20.85482 -7.09631,-31.49316 -4.48771,-21.60985 -8.36629,-43.6317 -10.34352,-65.34358 -0.23218,-2.54959 -0.43603,-5.1011 -0.61054,-7.6542 -0.82994,-12.16626 -0.98534,-24.32535 -0.0703,-36.34736 0.85592,-11.1221 2.56227,-22.09074 5.75981,-32.50205 2.89722,-9.37501 6.91624,-18.30868 12.60385,-25.83249 10e-6,-1e-5 2e-5,-3e-5 3e-5,-4e-5 5.40326,-7.1935 12.42644,-13.19304 20.40308,-17.1235 11.94917,-5.78827 23.64784,-13.83212 31.97563,-25.42781 5.42569,-7.30118 8.88947,-17.00644 7.29986,-27.30697 0,-2e-5 0,-3e-5 -10e-6,-4e-5 -1.69453,-8.54078 -7.61183,-15.59116 -15.6976,-18.75557 -10.14363,-3.48656 -20.56986,-1.70705 -28.94221,2.32879 -30.50743,13.7012 -58.39377,33.16597 -81.68587,57.19077 -9.40317,9.70645 -18.05412,20.06309 -26.09819,30.80781 -10e-6,2e-5 -2e-5,3e-5 -3e-5,4e-5 -6.83453,9.12988 -13.19338,18.49528 -19.4464,27.81831 -4.98542,7.41741 -9.75056,14.72711 -15.03595,21.36183 -10e-6,10e-6 -2e-5,2e-5 -3e-5,3e-5 -2.06368,2.5831 -4.13193,5.00132 -6.3421,7.08348 -1.83996,1.70659 -3.63415,3.18239 -5.47327,4.12874 0,0 -10e-6,1e-5 -2e-5,1e-5 -1.5397,0.78943 -3.09241,1.3343 -4.5023,1.39416 -1.46256,0.14622 -3.14902,-0.21146 -4.84982,-0.83023 -2.24208,-0.81724 -4.47883,-2.31188 -6.77851,-4.07215 -3.07607,-2.39708 -5.94041,-5.30182 -8.7688,-8.43097 -13.33005,-14.83982 -27.21862,-29.168 -41.58648,-42.98694 -13.70477,-13.18558 -27.88612,-25.98357 -42.84404,-37.93022 -6.36195,-5.08201 -12.90266,-10.0265 -19.71524,-14.66871 -1e-5,-1e-5 -3e-5,-2e-5 -4e-5,-3e-5 -5.54336,-3.78538 -11.35335,-7.42938 -17.58018,-10.56469 -4.45594,-2.30086 -9.51078,-4.44433 -15.26107,-5.4883 -2.11385,-0.39601 -4.5245,-0.52952 -7.15386,-0.19818 -2.25078,0.27115 -4.60107,1.13489 -6.84269,2.67203 -2e-5,2e-5 -4e-5,3e-5 -6e-5,5e-5 -3.60582,2.73524 -6.07729,6.10913 -7.63919,9.47209 -2.11315,4.34672 -3.3644,8.81232 -4.11624,13.11507 -2.13198,12.00126 -1.57265,24.01473 0.0286,35.45627 2.11466,15.50726 6.2251,30.60345 11.58955,45.10092 10e-6,2e-5 2e-5,4e-5 2e-5,5e-5 6.53862,17.69696 14.9975,34.62471 24.93298,50.57782 24.79254,39.78491 58.7766,73.42658 97.69613,99.24356 16.94593,11.24514 34.80255,21.04485 53.26812,29.46881 7.63689,3.48393 15.42792,6.7186 23.32496,9.66119 16.13643,6.01212 32.71062,10.81117 49.27775,14.16696 16.56714,3.35579 33.12159,5.2689 49.15804,5.62125 -14.73478,-4.45849 -30.36835,-9.15014 -46.23295,-14.3526 -15.8646,-5.20245 -31.95681,-10.92232 -47.63925,-17.26664 -7.61767,-3.08145 -15.1398,-6.30636 -22.49239,-9.65991 -17.88277,-8.15643 -35.14148,-17.62315 -51.47439,-28.46983 -37.4785,-24.89908 -70.18044,-57.22059 -93.84977,-95.28312 -9.50077,-15.26858 -17.57334,-31.40725 -23.77406,-48.21059 -10e-6,-2e-5 -10e-6,-3e-5 -2e-5,-5e-5 -5.08159,-13.79219 -8.96309,-27.96993 -10.90274,-42.34557 -1.4057,-10.72176 -1.9958,-21.37635 -0.12093,-31.37962 0.67816,-3.5504 1.54985,-6.87008 2.97755,-9.67732 1.13689,-2.08973 2.25804,-3.87017 3.58824,-4.69175 0,0 1e-5,0 1e-5,0 0.0714,-0.12957 0.49712,-0.21863 1.06902,-0.348 1e-5,0 1e-5,0 1e-5,0 0.7868,-0.15339 1.86315,-0.0381 3.15098,0.14361 3.67822,0.55721 7.51475,2.30141 11.60614,4.29049 5.48851,2.74467 10.80304,6.09734 16.09377,9.69071 2e-5,1e-5 3e-5,2e-5 4e-5,3e-5 6.45917,4.39675 12.73539,9.14601 18.92178,14.08304 14.55133,11.61461 28.43252,24.14942 41.94358,37.14067 14.14857,13.60885 27.81732,27.70959 40.92702,42.30461 3.09911,3.46981 6.51092,6.88696 10.41122,9.96818 2.88054,2.30758 6.23995,4.43934 10.14651,5.98354 3.1533,1.24549 6.69696,1.8806 10.42142,1.66253 3.56574,-0.28958 6.85646,-1.33489 9.71636,-2.89546 2e-5,-10e-6 4e-5,-2e-5 6e-5,-3e-5 3.22976,-1.76114 5.96418,-3.91493 8.29397,-6.16272 2.83457,-2.70202 5.3138,-5.56887 7.57506,-8.42935 5.76769,-7.27721 10.73842,-14.8682 15.65274,-22.20569 6.23046,-9.28272 12.45928,-18.46476 19.05627,-27.26824 7.77346,-10.37435 16.06769,-20.31287 25.02807,-29.55345 22.11546,-22.82549 48.66528,-41.35306 77.67633,-54.37914 6.64411,-2.70743 13.75749,-4.38866 19.00364,-2.03396 3.71908,1.31618 6.91393,5.1083 7.53029,8.98082 0,1e-5 10e-6,2e-5 10e-6,3e-5 1.31985,5.32826 -1.42757,11.74658 -5.15083,17.4462 -6.26426,9.13985 -16.34247,15.79443 -27.11424,21.26001 -9.90017,4.92406 -18.46668,12.20672 -25.0331,20.97286 -10e-6,2e-5 -2e-5,3e-5 -3e-5,5e-5 -6.76939,9.08564 -11.46588,19.35288 -14.63628,29.83321 -3.52649,11.59203 -5.40967,23.50002 -6.29027,35.32011 -0.96252,12.78366 -0.80931,25.56645 0.0637,38.21846 0.18261,2.65151 0.39511,5.29974 0.63648,7.94435 z"
           id="path3992"
           inkscape:connector-curvature="0"
           sodipodi:nodetypes="cssssc"
           inkscape:path-effect="#path-effect4015"
           inkscape:original-d="M 725.72714,484.82351 C 701.87681,433.95088 662.8472,274.7032 736.89559,238.02646 c 57.37534,-28.41845 37.95092,-74.36718 0.1834,-57.40735 C 599.04255,242.60555 605.28711,376.36774 550.59934,315.48494 499.62631,258.73769 425.95353,194.49398 408.25137,207.24984 c -35.02142,25.2358 7.81805,259.26359 293.7207,306.61052"
           clip-path="url(#clipPath4042)" />
        <path
           inkscape:connector-curvature="0"
           id="path4058"
           style="fill:none;stroke:#1c92cd;stroke-width:7;stroke-linecap:butt;stroke-linejoin:miter;stroke-miterlimit:4;stroke-opacity:1;stroke-dasharray:none"
           d="M 694.03201,525.44305 C 678.55359,455.56335 618.74491,352.32745 401.89624,273.12323 M 718.76201,195.575 C 715.86573,147.44474 708.96276,85.123231 696.57784,36.564203 M 652.3452,247.86222 c 75.90873,-33.58793 76.71074,-333.170739 -96.93101,-532.17684 m 76.55617,697.60551 C 707.62331,376.01828 698.99373,203.17451 429.93642,-17.974974"
           clip-path="url(#clipPath4073)" />
      </g>
      <g
         id="g4385">
        <path
           sodipodi:nodetypes="ccsssccc"
           inkscape:connector-curvature="0"
           id="path4383"
           d="m 749.57322,592.52145 c 4.48532,7.86256 10.23142,14.57987 16.34263,18.74356 C 815.30025,566.70579 868.42555,560.34645 881,611 c 11.07038,44.59472 -5.5,215 -104.5,261.5 -41.70654,19.58943 -71.07751,-88.79908 -47.08578,-135.8033 9.99744,-19.58683 24.98621,-30.73984 40.49772,-43.60378 -67.67872,23.39879 -106.5817,-18.85875 -78.16194,-84.90358 z"
           style="fill:#6dc6fb;fill-opacity:1;stroke:none" />
        <path
           style="fill:#1c92cd;fill-opacity:1;stroke:none"
           d="m 733.22751,743.97519 c 0.59698,-1.47798 1.25145,-2.92246 1.97127,-4.32595 3.75817,-7.43864 8.81473,-14.36838 14.63934,-20.69466 0,0 0,0 0,0 5.59226,-6.0813 11.99732,-11.72367 18.41976,-17.55369 6.86148,-6.20622 13.70052,-12.6499 19.7112,-19.74237 7.03294,-8.30492 12.75826,-17.42838 16.71721,-26.85827 -6.59372,7.81786 -13.92457,15.06429 -21.85891,21.71128 -6.78507,5.69014 -14.07848,10.99468 -21.45664,16.55389 -6.95121,5.21991 -14.01078,10.75765 -20.51213,17.25789 0,0 0,0 0,10e-6 -6.82791,6.83672 -12.75173,14.72483 -17.22895,23.42084 -0.89731,1.76477 -1.70776,3.55399 -2.43954,5.35902 -2.19109,5.40455 -3.70292,10.974 -4.73716,16.51355 -1.56612,8.28025 -2.1916,16.63581 -2.16807,24.89628 0,10e-6 0,2e-5 0,3e-5 0.031,17.26357 2.67102,34.51816 7.83231,51.00011 2.34665,7.5246 5.29526,14.97312 9.10216,22.09189 3.20595,6.05178 7.19861,11.99702 12.38736,17.17482 4.23582,4.31831 9.73326,7.97604 16.34289,9.7449 3.12352,0.77644 6.3683,1.00196 9.58474,0.65697 0,0 10e-6,0 10e-6,0 3.48057,-0.39651 6.75817,-1.38517 9.72903,-2.79839 12.89775,-6.07002 24.67749,-14.25727 35.02723,-23.87761 10.47249,-9.73715 19.51633,-20.82956 27.2867,-32.63347 15.98935,-24.3095 26.98425,-51.424 34.70782,-79.08231 7.15376,-25.5168 11.68746,-51.77248 13.4643,-78.22049 0.70894,-10.49667 0.97606,-21.09561 0.49248,-31.73417 0,-10e-6 0,-2e-5 0,-3e-5 -0.32231,-7.59683 -0.99814,-15.48876 -2.9334,-23.40131 0,-10e-6 0,-2e-5 0,-3e-5 -1.61751,-6.62923 -4.162,-13.23545 -7.99072,-19.31214 -3.262,-5.16009 -7.5469,-9.77235 -12.73764,-13.35303 -2.39706,-1.63002 -4.93504,-3.00286 -7.56571,-4.11859 -2.85774,-1.21204 -5.8311,-2.11888 -8.855,-2.71603 -6.23687,-1.2196 -12.52997,-1.2508 -18.55472,-0.43176 -10e-6,0 -10e-6,0 -10e-6,10e-6 -14.70516,2.02895 -28.12395,8.24661 -39.66742,15.9677 C 776.80242,595.52432 764.27092,608.30557 754.5,622 c 12.86756,-10.01003 26.9867,-20.09606 42.45652,-28.01717 11.60853,-5.89959 23.84913,-10.77125 36.15863,-11.92859 0,0 0,0 0,0 4.98535,-0.47906 9.9052,-0.39199 14.47112,0.58765 2.19842,0.46614 4.34049,1.12744 6.36771,1.98026 1.87054,0.7869 3.64831,1.74536 5.28506,2.87544 3.58738,2.42567 6.66309,5.78753 9.11004,9.60182 2.93069,4.549 4.92574,9.8734 6.3424,15.46664 1.65239,6.53952 2.2051,13.58567 2.56405,20.86396 0,10e-6 0,2e-5 0,3e-5 0.46255,10.02036 0.20063,20.13054 -0.47684,30.26792 0,0 0,1e-5 0,2e-5 -1.71666,25.54612 -6.09928,50.92268 -13.01105,75.58311 -7.51603,26.70729 -17.95629,52.60629 -33.04392,75.43579 -7.30455,11.06244 -15.67885,21.36426 -25.27809,30.26172 -9.46299,8.77381 -20.13665,16.21454 -31.70902,21.63806 -1.86682,0.85902 -3.76867,1.46175 -5.60178,1.64062 -1.66952,0.18409 -3.40192,0.0615 -5.04762,-0.3482 -3.5986,-0.77 -7.09702,-3.30575 -10.34581,-6.37895 -3.96972,-3.86676 -7.18836,-8.77657 -10.06526,-14.06855 -3.34519,-6.21896 -5.97736,-12.91444 -8.15282,-19.83277 0,-1e-5 0,-2e-5 0,-3e-5 -4.7641,-15.21831 -7.20617,-31.18637 -7.23845,-47.1405 0,-10e-6 0,-2e-5 0,-2e-5 -0.007,-7.60217 0.54254,-15.14009 1.9393,-22.44334 0.94865,-4.88957 2.21588,-9.64441 4.00334,-14.06973 z"
           id="path4335"
           inkscape:connector-curvature="0"
           sodipodi:nodetypes="csssc"
           inkscape:path-effect="#path-effect4351"
           inkscape:original-d="m 804.68629,654.80025 c -23.7807,38.86827 -57.45388,46.98733 -75.27207,81.89645 C 705.42249,783.70092 734.79346,892.08943 776.5,872.5 875.5,826 892.07038,655.59472 881,611 867.4709,556.50085 807,568 754.5,622" />
        <path
           style="fill:#1c92cd;fill-opacity:1;stroke:none"
           d="m 763.34467,613.72855 5.61244,-4.8776 c -6.8059,-4.06586 -12.67158,-8.56434 -19.38389,-16.3295 3.15165,9.42678 7.18046,15.13128 13.77145,21.2071 z"
           id="path4337"
           inkscape:connector-curvature="0"
           sodipodi:nodetypes="cccc" />
        <path
           style="fill:#1c92cd;fill-opacity:1;stroke:none"
           d="m 705.59713,685.0226 c -1.12881,-0.78427 -2.2118,-1.62625 -3.23928,-2.52616 -7.7231,-6.50866 -12.35942,-16.92447 -14.11229,-27.73349 -1.21592,-7.52724 -1.1403,-15.28953 -0.36902,-23.11836 0.77128,-7.82883 2.23106,-15.72592 3.87346,-23.45525 -4.48354,6.50676 -8.35614,13.88132 -11.00006,21.92152 -2.64392,8.0402 -4.05355,16.73985 -3.67391,25.73098 0.29026,6.674 1.82899,13.43722 4.63002,19.69603 2.80103,6.25882 6.86118,12.00951 12.09489,16.72447 1.40287,1.22956 2.86609,2.3706 4.37766,3.4233 4.11952,2.86896 8.61158,5.11313 13.28017,6.72794 7.19531,2.48196 14.67201,3.5959 22.0197,3.69252 0,0 0,0 0,0 9.85145,0.10652 19.50474,-1.32044 28.82165,-3.78583 7.5965,-6.49702 14.00664,-13.70854 19.73344,-21.05724 -15.58507,7.05442 -32.0355,12.19918 -48.34911,11.8447 0,0 -10e-6,0 -10e-6,0 -6.21525,-0.1183 -12.33544,-0.99172 -17.95017,-2.97096 -3.61638,-1.27051 -7.06076,-2.97676 -10.13714,-5.11417 z"
           id="path4333"
           inkscape:connector-curvature="0"
           sodipodi:nodetypes="cc"
           inkscape:path-effect="#path-effect4371"
           inkscape:original-d="m 691.75,608.18934 c -30.42386,70.70216 16.3047,114.14389 92.99264,78.98223" />
      </g>
      <g
         id="g4084">
        <path
           sodipodi:nodetypes="ccccccccccccc"
           inkscape:connector-curvature="0"
           id="path4082"
           d="m 854.36636,420.08154 c -18.32828,102.70389 84.37744,101.69501 111.31102,187.8243 -76.79947,-71.79076 -109.11735,45.65574 13.63243,57.02891 -21.42726,10.68573 -47.96478,13.21365 -80.31374,4.46226 39.99744,51.00363 43.04689,105.88626 19.18333,156.76564 -1.11347,-34.80792 -13.87524,-82.31434 -35.81638,-102.60628 9.26253,28.10754 5.37785,49.41618 -5.66389,72.25171 -1.55209,-24.73331 -5.49681,-42.0443 -15.19181,-61.08567 -3.76567,70.86485 -30.79521,119.77247 -82.94671,154.82457 52.50275,-116.5479 20.63377,-224.82175 30.68201,-349.34975 -12.58337,28.88647 -22.83809,66.61747 -25.77893,101.70249 -16.89606,-94.17145 5.50534,-176.47629 38.4754,-266.55622 z"
           style="fill:#f3a4d9;fill-opacity:1;stroke:none" />
        <path
           sodipodi:nodetypes="ccccccccccc"
           inkscape:connector-curvature="0"
           id="path4080"
           d="m 839.2839,399.27314 15.08246,20.8084 c -18.32828,102.70389 84.37744,101.69501 111.31102,187.8243 -76.79947,-71.79076 -109.11735,45.65574 13.63243,57.02891 -21.42726,10.68573 -47.96478,13.21365 -80.31374,4.46226 39.99744,51.00363 43.04689,105.88626 19.18333,156.76564 22.28829,-124.53782 -56.75177,-125.53227 -51.80202,-201.8998 -6.0104,15.55634 -9.22792,32.61269 -9.22792,53.8259 -8.87437,-45.16905 -6.19239,-95.832 2.82843,-140.32947 -10.25305,14.14213 -16.27386,28.07716 -20.87006,46.46194 -6.45163,-61.87141 -6.91816,-126.27544 0.17607,-184.94808 z"
           style="fill:#961370;fill-opacity:1;stroke:none" />
        <path
           style="fill:none;stroke:#d91e9b;stroke-width:13;stroke-linecap:butt;stroke-linejoin:miter;stroke-miterlimit:20;stroke-opacity:1;stroke-dasharray:none"
           d="m 854.36636,420.08154 c -18.32828,102.70389 84.37744,101.69501 111.31102,187.8243 -76.79947,-71.79076 -109.11735,45.65574 13.63243,57.02891 -21.42726,10.68573 -47.96478,13.21365 -80.31374,4.46226 39.99744,51.00363 43.04689,105.88626 19.18333,156.76564 -1.11347,-34.80792 -13.87524,-82.31434 -35.81638,-102.60628 9.26253,28.10754 5.37785,49.41618 -5.66389,72.25171 -1.55209,-24.73331 -5.49681,-42.0443 -15.19181,-61.08567 -3.76567,70.86485 -30.79521,119.77247 -82.94671,154.82457 52.50275,-116.5479 20.63377,-224.82175 30.68201,-349.34975 -12.58337,28.88647 -22.83809,66.61747 -25.77893,101.70249 -16.89606,-94.17145 5.50534,-176.47629 38.4754,-266.55622 z"
           id="path4076"
           inkscape:connector-curvature="0"
           sodipodi:nodetypes="ccccccccccccc" />
      </g>
      <g
         id="g4300">
        <path
           sodipodi:nodetypes="cccccccc"
           inkscape:connector-curvature="0"
           d="m 871.90834,469.05459 c -67.63325,-58.13111 -89.11442,-141.14844 -85.96542,-224.78374 8.91647,17.07149 18.25602,31.82316 25.74428,40.29871 -8.26708,-28.94914 -13.39143,-58.18723 -15.48127,-88.59393 6.58247,13.28822 13.85111,27.85576 21.71309,39.82241 -2.64976,-19.17959 -3.00884,-36.88996 -1.41323,-55.82311 31.10469,130.27457 137.38479,97.30102 124.05385,227.86512 -1.12786,33.95388 -13.72597,56.00155 -68.6513,61.21454 z"
           style="fill:#6dc6fb;fill-opacity:1;stroke:none"
           id="path4074" />
        <path
           id="path4024"
           style="fill:#1c92cd;fill-opacity:1;stroke:none"
           d="m 800.0507,378.57001 c 4.84214,12.22932 10.76178,24.23806 17.83238,35.51964 7.10473,11.32417 15.36253,21.85487 24.48909,31.15 9.12656,9.29512 19.11866,17.35048 29.53617,23.81494 -7.95633,-9.32794 -15.75802,-19.05364 -23.11983,-29.24429 -7.36181,-10.19065 -14.2811,-20.84684 -20.4558,-31.91707 -6.16026,-11.03092 -11.59277,-22.47488 -16.19366,-34.1071 -4.11101,-10.39369 -7.53943,-21.07791 -10.31377,-31.93008 -12.07384,-47.08839 -11.97715,-96.96108 -5.16054,-145.5816 0.5657,-4.74775 -0.14006,-9.13095 -1.43523,-12.87379 0,-10e-6 -10e-6,-10e-6 -10e-6,-2e-5 -1.50524,-4.59081 -3.58938,-8.7357 -5.83186,-12.51739 0,0 0,0 -10e-6,-1e-5 -5.32886,-9.04439 -11.67248,-17.09076 -17.88032,-24.82117 -10e-6,-1e-5 -10e-6,-2e-5 -2e-5,-3e-5 -6.02838,-7.54628 -12.11204,-14.71327 -17.26466,-22.21943 0,-10e-6 -10e-6,-10e-6 -10e-6,-2e-5 -1.95989,-2.88738 -3.73234,-5.61087 -4.89784,-8.33304 -0.43907,-1.04055 -0.7887,-1.94962 -0.93678,-2.73294 -0.0911,-0.63616 -0.17495,-1.04266 -0.10842,-1.15398 0.4694,-3.06862 1.49239,-6.00132 3.14597,-8.30995 1.46941,-2.1464 3.57423,-3.978536 5.96127,-5.354129 5.08667,-3.034873 11.77629,-3.763903 18.30595,-3.060362 6.75642,0.873257 13.33118,3.420529 18.20851,7.679921 2.36211,2.04477 4.36149,4.45338 5.70464,7.09352 0,0 0,1e-5 10e-6,2e-5 1.4299,2.74064 2.22574,5.89038 2.36722,9.06132 0.93626,22.11819 3.48927,44.37214 8.99747,66.10329 0,1e-5 10e-6,2e-5 10e-6,3e-5 4.11688,16.24738 10.02385,32.18768 18.26195,47.02494 0,1e-5 1e-5,2e-5 1e-5,2e-5 6.65598,11.9535 14.80913,23.01235 24.08112,32.9863 8.15646,8.76119 17.01849,16.60743 25.94287,24.09909 7.80754,6.56949 15.60496,12.8506 22.75184,19.54754 0.40031,0.37511 0.79885,0.75153 1.1955,1.12936 7.20273,6.87986 13.82393,14.25427 18.97958,22.41894 5.81877,9.12197 9.91484,19.43553 12.59573,30.11216 3.73852,14.84717 4.94211,30.40593 5.75041,45.68541 1.78523,-7.20597 3.16892,-14.84327 3.85842,-22.79117 0.68951,-7.94789 0.68183,-16.20571 -0.32525,-24.5957 -1.43901,-11.88121 -5.15205,-23.90536 -11.35374,-34.77746 0,0 -10e-6,-1e-5 -10e-6,-1e-5 -5.56801,-9.67503 -12.81392,-18.12206 -20.54188,-25.46595 -0.42459,-0.40452 -0.85028,-0.80616 -1.2769,-1.20504 -7.62068,-7.12508 -15.59023,-13.55997 -23.26822,-20.0089 -8.74881,-7.36589 -17.22493,-14.84493 -24.78514,-22.99747 -8.59687,-9.25591 -16.1377,-19.47181 -22.24417,-30.45745 -10e-6,-1e-5 -10e-6,-2e-5 -2e-5,-3e-5 -7.61346,-13.65421 -13.10738,-28.55527 -17.02278,-43.90723 0,-1e-5 0,-1e-5 0,-2e-5 -5.24791,-20.58389 -7.67136,-41.95625 -8.60878,-63.45853 -0.20927,-4.99479 -1.48419,-9.94686 -3.80448,-14.46832 0,-1e-5 0,-2e-5 -10e-6,-2e-5 -2.22407,-4.267635 -5.25186,-7.976566 -8.78988,-10.994484 -7.19325,-6.097928 -16.06316,-9.657791 -25.09396,-10.717697 -8.70888,-1.162436 -18.07071,0.102889 -26.32256,4.669247 -3.96554,2.244552 -7.4802,5.36427 -10.19082,9.216875 -2.91627,4.249849 -4.6727,9.040249 -5.3463,13.883059 -0.26296,2.16924 -0.12913,4.09554 0.25842,5.71336 0.43665,1.97013 1.05722,3.72079 1.74957,5.25771 10e-6,1e-5 10e-6,3e-5 10e-6,4e-5 1.758,3.93775 3.92921,7.37695 6.09413,10.48019 10e-6,1e-5 10e-6,2e-5 2e-5,3e-5 5.66447,8.2039 11.93352,15.62049 17.82086,22.96821 6.15181,7.71849 12.14061,15.24896 16.81589,23.27345 0,1e-5 10e-6,2e-5 10e-6,2e-5 1.94297,3.35943 3.64099,6.64171 4.67349,9.92956 10e-6,10e-6 10e-6,2e-5 10e-6,2e-5 0.775,2.68418 1.31459,5.13327 0.93673,7.07147 -7.07635,49.82278 -7.0809,101.37289 5.43696,150.61385 2.89721,11.36415 6.49486,22.57113 10.82144,33.49835 z"
           inkscape:connector-curvature="0"
           sodipodi:nodetypes="csssc"
           inkscape:path-effect="#path-effect4048"
           inkscape:original-d="M 871.90834,469.05459 C 791.16153,399.65231 776.1989,294.77774 790.22852,195.36613 c 3.4502,-24.44754 -50.76426,-67.97738 -48.35215,-84.67294 5.03259,-34.833516 65.12431,-27.07826 66.62079,7.76084 8.73916,203.45381 147.16577,141.46338 132.06248,289.38602"
           clip-path="url(#clipPath4243)" />
        <path
           style="fill:none;stroke:#1c92cd;stroke-width:13;stroke-linecap:butt;stroke-linejoin:miter;stroke-miterlimit:20;stroke-opacity:1;stroke-dasharray:none"
           d="m 764.80821,195.66155 c 11.34193,32.57215 32.73872,72.07295 46.87899,88.90801 -8.26708,-28.94914 -13.39143,-58.18723 -15.48127,-88.59393 6.58247,13.28822 13.85111,27.85576 21.71309,39.82241 -4.87742,-35.30398 -1.99358,-65.62996 6.75581,-107.18284"
           id="path4028"
           inkscape:connector-curvature="0"
           sodipodi:nodetypes="ccccc"
           clip-path="url(#clipPath4239)" />
        <path
           clip-path="none"
           sodipodi:nodetypes="sssccs"
           inkscape:connector-curvature="0"
           id="path4285"
           d="m 871.25175,445.00518 c 7.91735,14.53745 31.73374,2.89241 22.28359,-7.77617 -21.55641,-24.33574 11.31276,-36.12039 13.09627,-4.458 0.62875,11.16219 13.39289,7.67008 21.49525,-3.20148 -5.78066,-90.58543 -62.6917,-126.88475 -86.75069,-160.93768 -5.7312,63.23877 5.28065,131.21331 29.87558,176.37333 z"
           style="fill:#045789;fill-opacity:1;stroke:none" />
        <path
           id="path4297"
           style="fill:none;stroke:#032e49;stroke-width:4;stroke-linecap:butt;stroke-linejoin:miter;stroke-miterlimit:20;stroke-opacity:1;stroke-dasharray:none"
           d="m 840.06784,316.12676 c 9.14437,-6.71036 19.51478,-11.38701 30.71339,-13.81014 m -25.9482,62.01349 c 14.78048,-14.52628 34.09562,-22.77926 55.65783,-23.39833 m -43.82432,70.11353 c 16.57758,-16.88368 39.2187,-25.69736 64.55574,-24.3502"
           inkscape:connector-curvature="0"
           sodipodi:nodetypes="cccccc" />
        <path
           inkscape:original-d="M 928.57155,441.28335 C 927.05772,330.41442 851.36875,296.06479 834.33575,256.18864"
           inkscape:path-effect="#path-effect4262"
           sodipodi:nodetypes="cc"
           inkscape:connector-curvature="0"
           id="path4281"
           d="m 913.24776,374.83904 c 1.97637,5.29793 3.62969,10.47078 5.10372,15.64041 1.47404,5.16962 2.76821,10.33696 3.96782,15.65591 1.19961,5.31896 2.30473,10.79021 3.34617,16.58813 1.04145,5.79792 2.0199,11.92346 2.90608,18.55986 1.23626,-13.0425 0.92439,-24.77061 -0.5535,-35.96511 -0.73894,-5.59726 -1.77854,-11.06644 -3.134,-16.51778 -1.35547,-5.45134 -3.02608,-10.88574 -5.07912,-16.40416 -0.30712,-0.82552 -0.62046,-1.64897 -0.94006,-2.4703 -7.03641,-18.02711 -17.03997,-34.74827 -28.82419,-49.95516 0,0 -10e-6,0 -10e-6,0 -3.26437,-4.21142 -6.65536,-8.29626 -10.11492,-12.30234 -7.01574,-8.12403 -14.29418,-15.80461 -21.62837,-23.36721 -4.60248,-4.75124 -9.19869,-9.43552 -13.57186,-14.38414 -3.76017,-4.26246 -7.37432,-8.68896 -10.38977,-13.72851 1.63715,5.62828 4.36654,10.94513 7.48463,15.89197 3.61769,5.74956 7.77432,11.08643 12.03851,16.21978 6.77519,8.16617 13.87461,15.96124 20.77162,23.94248 3.40101,3.93566 6.71219,7.92428 9.87549,12.01369 0,0 0,1e-5 10e-6,1e-5 11.42943,14.77171 21.10385,30.91166 27.83677,48.21153 0,0 0,1e-5 0,1e-5 0.30768,0.78806 0.60933,1.5784 0.90498,2.37093 z"
           style="fill:#1c92cd;fill-opacity:1;stroke:none" />
        <path
           style="fill:none;stroke:#1c92cd;stroke-width:7;stroke-linecap:butt;stroke-linejoin:miter;stroke-miterlimit:20;stroke-opacity:1;stroke-dasharray:none"
           d="m 841.6893,264.13058 c -6.55635,64.52008 4.38728,134.64918 29.56245,180.8746 7.91735,14.53745 31.73374,2.89241 22.28359,-7.77617 -21.55641,-24.33574 11.31276,-36.12039 13.09627,-4.458 0.69964,12.42063 16.42521,6.69641 24.04349,-7.06546"
           id="path4022"
           inkscape:connector-curvature="0"
           sodipodi:nodetypes="csssc"
           clip-path="url(#clipPath4289)" />
      </g>
    </g>
    <g
       id="g4818"
       mask="url(#mask4881)">
      <path
         style="fill:#73901d;fill-opacity:1;stroke:#597414;stroke-width:6.5;stroke-miterlimit:4;stroke-opacity:1;stroke-dasharray:none"
         d="m 1485.2277,1000.0982 c 121.1283,-133.111 98.1054,-218.36846 175.8248,-377.6045 -140.321,69.90299 -203.2046,191.09655 -183.9605,373.5366 z"
         id="path4617"
         inkscape:connector-curvature="0"
         sodipodi:nodetypes="cccc" />
      <path
         sodipodi:nodetypes="cccc"
         inkscape:connector-curvature="0"
         id="path4627"
         d="m 1485.2277,1000.0982 c 25.5338,-181.9252 93.309,-268.48799 160.1808,-361.28248 -78.6253,83.4625 -144.8482,182.91023 -168.3165,357.21458 z"
         style="fill:#eaed63;fill-opacity:1;stroke:none" />
      <path
         sodipodi:nodetypes="csscc"
         inkscape:connector-curvature="0"
         id="path4604"
         d="m 1437.5759,1058.8165 c 41.6467,-221.32307 -20.9601,-301.28058 28.735,-354.04915 9.8365,-10.44489 54.8513,-11.11473 49.9229,8.53354 -23.8548,95.10257 -7.7494,147.40654 -31.6474,347.44531 z"
         style="fill:#eaed63;fill-opacity:1;stroke:#ccd051;stroke-width:6.5;stroke-miterlimit:4;stroke-opacity:1;stroke-dasharray:none" />
      <path
         style="fill:#e8f634;fill-opacity:1;stroke:#c7d614;stroke-width:6.5;stroke-miterlimit:4;stroke-opacity:1;stroke-dasharray:none"
         d="m 1524.1317,255.1706 c 46.4419,3.52855 81.9223,451.24521 -43.2289,445.1852 -118.5528,-5.74051 -3.213,-448.71376 43.2289,-445.1852 z"
         id="path4659"
         inkscape:connector-curvature="0"
         sodipodi:nodetypes="sss" />
      <path
         sodipodi:nodetypes="cccccccccccccccccccccccccccccccccccccccccccccccccccccccccccccccccccccccccccsccscc"
         inkscape:connector-curvature="0"
         d="m 1530.4207,476.81675 c 7.1505,0 14.1505,0.66208 21.9631,2.3835 m -22.0406,-15.98624 c 7.1505,0 14.9632,0.66208 22.7332,2.62746 -2.8356,-44.61805 -1.4257,-84.4125 3.715,-124.45564 m -43.7948,23.57476 c 6.6209,-0.13242 14.8308,0.66208 22.3786,1.98626 m -30.642,-96.54477 c 15.6313,1.77094 25.461,3.94009 37.4011,9.31913 -6.8999,67.54288 -13.0721,172.84116 -12.1628,256.0422 M 1496.998,283.93176 c 16.4258,1.37369 30.3604,3.80767 44.2881,7.37622 m -50.0963,4.9161 c 29.0054,8.25938 38.835,4.46976 58.4567,5.52239 m -63.3974,7.21277 c 28.0785,4.28687 45.4559,13.20928 67.3286,9.89215 M 1531.5214,430.125 c 6.6669,0.11872 13.6231,0.8724 20.1245,1.88128 m -19.2091,-15.14645 c 6.6669,0.11872 12.7081,0.73998 19.2095,1.74886 m -14.8937,-74.75931 c 8.5792,0.87876 14.5486,2.23402 22.3724,4.40062 m -23.236,9.74158 c 8.2999,0.86949 15.889,2.1119 24.736,4.38342 m -25.875,10 c 10,3.75 19,5.375 27.125,0.5 m -64.9351,-23.46286 c -8.694,0.6198 -17.9847,1.59835 -27.9773,3.8986 m 25.1023,14.4764 c -10.194,-2.0052 -17.7347,-6.02665 -25.6023,-11.8514 m 21.5094,46.87056 c 14.8838,1.28697 29.305,4.34302 42.6699,9.24991 m -41.1218,-22.1074 c 14.6244,0.51803 29.1229,3.44421 41.8404,8.88876 m -71.2279,-20.20224 c 54.9948,-19.7773 68.0062,21.85913 101.6623,9.54169 m -71.7661,-2.91658 c -12.2195,1.06556 -20.0034,2.54188 -33.2274,5.69799 m 31.8316,6.22664 c -12.7659,1.33105 -24.0493,4.15587 -36.3891,9.69888 m 35.2176,5.37649 c -13.2008,1.8016 -24.7296,4.74998 -37.2175,9.99153 m -2.0915,7.52502 c 11.7969,-2.86252 26.5529,-4.04044 38.0029,-3.78022 m -40.6943,14.12718 c 38.6493,1.33542 66.3276,-15.41497 116.8587,18.11045 m -75.8834,-38.27383 c 15.9474,-0.36802 29.5842,2.14457 43.5689,7.17415 m -23.835,27.46755 c 7.9551,-1.94455 15.8216,-3.27037 23.2462,-4.06587 m -42.1612,13.52341 c 24.8371,-1.32582 13.9219,6.01041 41.3223,2.65166 m -62.0189,-0.35241 c 6.7176,0.7071 12.963,2.90859 19.5038,5.8254 M 1480.75,491.25 c 15.375,0.75 36.625,3.875 49.75,7.125 m -45.3157,-17.75 c 15.375,-0.125 30.3157,2 45.1907,5.375 m -61.25,-31.875 c 11.375,-3.125 25.5,-5.625 38.625,-6.5 m -12.1156,-89.6767 c 6.1746,-0.22855 13.036,0.4205 18.2509,1.74632 m -29.7439,160.26589 c 13.3101,2.05729 26.2206,5.5897 37.8195,10.22165 M 1537.625,330 c 6.5,1.625 14.125,4.875 19.125,8.625 m -73.6882,-16.95881 c 20.6084,2.58883 38.6994,9.00305 53.7098,17.90102 m -55.4604,-2.5306 c 19.5592,1 37.6403,6.84315 55.012,15.78661 m -3.2609,51.30178 c 5.5178,-0.41161 13.7772,-0.24372 18.6877,0.5 m -67.4915,-90.2958 c -8.1581,60.84915 -13.5316,118.49998 -18.5488,184.14177 m 62.7343,-241.87393 c -13.2161,88.28208 -22.9449,163.13994 -20.5535,192.31424 2.6031,31.75722 -3.9256,68.69661 -16.1928,110.89595 m 20.8183,-298.17736 c -11.0308,52.36799 -21.863,117.81115 -26.2159,186.30003 -0.736,11.58 13.0816,7.72147 -11.6151,56.10157 18.6951,2.65814 38.6919,6.96853 55.565,11.59353"
         style="fill:none;stroke:#c7d614;stroke-width:4.30000019;stroke-linecap:butt;stroke-linejoin:miter;stroke-miterlimit:4;stroke-opacity:1;stroke-dasharray:none"
         id="path4814" />
      <path
         style="fill:#73901d;fill-opacity:1;stroke:#597414;stroke-width:6.5;stroke-miterlimit:4;stroke-opacity:1;stroke-dasharray:none"
         d="m 1320.0636,613.17535 c 70.3284,155.23633 166.6056,163.18616 137.8628,378.49922 -76.9341,-138.58999 -165.6116,-160.77629 -137.8628,-378.49922 z"
         id="path4661"
         inkscape:connector-curvature="0"
         sodipodi:nodetypes="ccc" />
      <path
         style="fill:#eaed63;fill-opacity:1;stroke:none"
         d="m 1455.6187,998.66 c -32.5978,-153.08133 -92.9485,-182.41217 -130.8435,-356.05019 49.9891,168.79583 104.9135,200.34374 137.3765,352.2666 3.9347,10.42509 -4.5271,14.32759 -6.533,3.78359 z"
         id="path4619"
         inkscape:connector-curvature="0"
         sodipodi:nodetypes="cccc" />
      <path
         style="fill:#cce680;fill-opacity:1;stroke:#b8dc4d;stroke-width:6.5;stroke-linejoin:miter;stroke-miterlimit:20;stroke-opacity:1;stroke-dasharray:none"
         d="m 1480.6631,709.22471 c -9.8279,-67.27991 -0.03,-129.25753 37.7794,-185.19704 29.7079,-43.95337 25.1054,-109.19042 61.0048,-156.18475 -20.9706,154.0524 22.2993,349.36606 -98.7842,341.38179 -106.1827,-7.00171 -53.2924,-166.00272 -28.7502,-333.59692 2.8912,82.13215 38.041,120.71388 53.1708,171.11209"
         id="path4837"
         inkscape:connector-curvature="0"
         sodipodi:nodetypes="cscscc" />
    </g>
  </g>
</svg>
