<svg xmlns="http://www.w3.org/2000/svg" xmlns:inkscape="http://www.inkscape.org/namespaces/inkscape" xmlns:xlink="http://www.w3.org/1999/xlink" height="840" viewBox="0 0 360 840" width="360">
  <defs>
    <inkscape:path-effect effect="powerstroke" id="path-effect6431" interpolator_type="CubicBezierSmooth" offset_points="0.27,3.5" start_linecap_type="zerowidth" />
    <inkscape:path-effect effect="powerstroke" id="path-effect6393" interpolator_type="CubicBezierSmooth" offset_points="0.16,3.5" start_linecap_type="zerowidth" />
    <inkscape:path-effect effect="powerstroke" id="path-effect6391" interpolator_type="CubicBezierSmooth" offset_points="0.16,3.5" start_linecap_type="zerowidth" />
    <inkscape:path-effect effect="powerstroke" end_linecap_type="zerowidth" id="path-effect6244" interpolator_type="CubicBezierSmooth" offset_points="0.23,3.5 | 2.77,3.5" start_linecap_type="zerowidth" />
    <inkscape:path-effect effect="powerstroke" end_linecap_type="zerowidth" id="path-effect4401" interpolator_type="CubicBezierSmooth" offset_points="0.2,3.5 | 1.6,3.5" start_linecap_type="zerowidth" />
    <linearGradient id="linearGradient4296">
      <stop offset="0" stop-color="#1e093c" />
      <stop offset="1" stop-color="#662f89" />
    </linearGradient>
    <clipPath id="clipPath4310">
      <use xlink:href="#ellipse4275" />
    </clipPath>
    <linearGradient gradientUnits="userSpaceOnUse" id="linearGradient4344" x1="263.36874" x2="262.26871" y1="195.61981" y2="244.10414" xlink:href="#linearGradient4296" />
    <clipPath id="clipPath4356">
      <use xlink:href="#ellipse4336" />
    </clipPath>
    <linearGradient gradientUnits="userSpaceOnUse" id="linearGradient4436" x1="88.152184" x2="88.082001" y1="238.94887" y2="286.41498" xlink:href="#linearGradient4296" />
    <clipPath id="clipPath6120">
      <use xlink:href="#path4416" />
    </clipPath>
    <clipPath id="clipPath6169">
      <use xlink:href="#path4452" />
    </clipPath>
  </defs>
  <g inkscape:groupmode="layer" inkscape:label="Drawing">
    <g>
      <path d="m 104.26663,357.22324 c -76.118248,28.52013 -115.695215,81.43942 -54.115202,336.20568 92.148042,-81.66229 116.598972,-219.98243 54.115202,-336.20568 z" fill="#243870" stroke="#132248" stroke-width="7" />
      <path d="m 111.39618,372.1152 c -56.548667,23.74966 -94.648056,130.32685 -38.640198,298.07083" fill="none" stroke="#132248" stroke-width="3.5" />
      <path d="m 56.494559,472.00453 c 6.364033,-54.00215 29.665091,-67.70615 57.666511,-74.62829 l 22.45906,375.19752 c -7.93777,27.72 -81.360014,29.1539 -86.388318,3.49058 -15.196028,-77.55707 -7.487809,-134.22906 12.91806,-188.42872 2.540825,-6.74864 10.75,-8.75 15.899817,-7.46891 -6.364325,-30.32816 -28.148209,-60.70198 -22.55513,-108.16218 z" fill="#bf89d1" />
      <path fill="#9156a9" inkscape:original-d="m 80.911179,593.16418 c -1.700238,-35.27677 -30.780653,-67.1575 -24.41662,-121.15965 6.364033,-54.00215 29.665091,-67.70615 57.666511,-74.62829 l 22.45906,375.19752 c -7.93777,27.72 -81.360014,29.1539 -86.388318,3.49058 -15.196028,-77.55707 -7.487809,-134.22906 12.91806,-188.42872 2.540825,-6.74864 10.75,-8.75 15.75,-7.75" inkscape:path-effect="#path-effect6431" />
      <path d="m 213.31398,515.30321 c 30.8624,0.0402 39.51082,-20.00963 36.68239,-35.45938 11.27818,-17.24569 1.40262,-44.72832 -16.39171,-44.47816 -4.6496,-13.33088 -22.14086,-15.89659 -39.69297,-1.44678 z m -123.913709,0.1161 c -30.862403,0.0402 -39.510821,-20.00963 -36.682393,-35.45938 -11.278175,-17.24569 -0.993607,-46.31931 17.86139,-44.47816 4.649592,-13.33088 22.140857,-15.89659 39.692962,-1.44678 z" fill="#cc9cdf" stroke="#a46bbd" stroke-width="7" />
      <path d="m 236.054,488.20728 15.01159,-10.65282 m -35.95093,-37.70074 16.18316,-8.76893 m 4.93296,24.94571 14.30448,-10.06183 m -42.20553,-20.34836 c 6.97263,5.5538 7.75143,13.00036 5.80689,22.19274 19.70672,-4.23612 32.46508,13.95156 19.46828,37.39302 7.05733,7.95224 7.03036,16.97485 -1.48308,27.07357 m -165.461571,-23.95626 -15.011583,-10.65282 m 36.304476,-37.70074 -15.067039,-8.76893 m -6.402631,24.94571 -14.304476,-10.06183 m 43.675199,-20.34836 c -6.972628,5.5538 -9.221102,13.00036 -7.276558,22.19274 -19.706723,-4.23612 -32.465088,13.95156 -19.468285,37.39302 -7.057333,7.95224 -7.030363,16.97485 1.483078,27.07357" fill="none" stroke="#a46bbd" stroke-width="3.5" />
      <path d="m 84.694683,498.4021 c 0,-116.2337 156.828567,-113.91398 156.828567,0.92953 0,119.90193 -156.828567,115.19912 -156.828567,-0.92953 z" fill="#cc9cdf" stroke="#a46bbd" stroke-width="7" />
      <path d="m 128.79898,546.10563 -38.15908,254.25196 c -3.374886,22.48669 87.23975,27.32237 86.78598,0.74135 l -3.91429,-230.11739 7.1996,230.54091 c 0.73268,23.46134 91.46649,21.36284 86.91097,-2.46747 l -48.72502,-254.88493 z" fill="#cc9cdf" />
      <path fill="#a46bbd" inkscape:original-d="m 218.89714,544.17006 48.72502,254.88493 c 4.55552,23.83031 -86.17829,25.92881 -86.91097,2.46747 l -7.1996,-230.54091" inkscape:path-effect="#path-effect6393" />
      <path fill="#a46bbd" inkscape:original-d="m 128.79898,546.10563 -38.15908,254.25196 c -3.374886,22.48669 87.23975,27.32237 86.78598,0.74135 l -3.91429,-230.11739" inkscape:path-effect="#path-effect6391" />
      <path d="m 160.60641,563.97156 c 5.59752,13.32569 19.52725,12.02309 23.62303,-0.129 -7.33717,6.39088 -14.45834,6.21073 -23.62303,0.129 z" fill="#a46bbd" />
    </g>
    <path d="m 226.09239,464.14452 -13.61711,-135.75359 h -91.94044 l -14.38711,133.0163 z" fill="#cc9cdf" />
    <path fill="#a46bbd" inkscape:original-d="m 226.09239,464.14452 -13.61711,-135.75359 h -91.94044 l -14.38711,133.0163" inkscape:path-effect="#path-effect6244" />
    <g>
      <path d="m 79.180401,272.03144 c 4.065825,46.20933 -7.299554,86.83588 -6.114694,116.01705 2.210355,54.43739 50.986673,94.56783 50.986673,94.56783 21.89185,-30.95338 29.67566,-57.36812 29.46914,-90.16973 -18.40737,-6.38342 -33.53279,-20.21375 -43.91654,-42.77531 13.7165,13.532 28.15133,24.10021 43.7015,27.56432 l -6.78848,-38.98461 z" fill="#243870" />
      <path d="m 78.353974,323.22633 c 11.498497,51.87886 37.486236,99.89676 64.675556,126.77703 l -9.5,19.25 c -21.68932,-19.38027 -46.427059,-73.39817 -56.925556,-128.52703 z" fill="#ea428b" />
      <path d="m 78.353974,326.47633 c 10.498497,59.62886 37.986236,113.14676 60.925556,132.27703 l 6.95711,-18.14645 c -22.58577,-15.80704 -51.550747,-66.6766 -66.958254,-121.31067 z" fill="#652d87" />
      <path d="m 79.180401,272.03144 c 4.065825,46.20933 -7.299554,86.83588 -6.114694,116.01705 2.210355,54.43739 50.986673,94.56783 50.986673,94.56783 21.89185,-30.95338 29.67566,-57.36812 29.46914,-90.16973 -18.40737,-6.38342 -33.53279,-20.21375 -43.91654,-42.77531 13.7165,13.532 28.15133,24.10021 43.7015,27.56432 l -6.78848,-38.98461 z" style="stroke-width:7;stroke:#132248;stroke-miterlimit:20;fill:none" />
      <path d="m 83.014686,276.01969 c 10.547631,45.57582 36.661524,80.31707 67.725384,86.10816 m -71.012165,-52.55957 c 11.047631,43.82582 41.277025,102.4066 70.012165,120.55957" fill="none" stroke="#132248" stroke-width="3.5" />
    </g>
    <path d="m 274.51816,221.44558 c 67.50334,-56.19853 12.26691,-156.208986 -5.84823,-154.607823 -13.89446,1.228105 -23.52251,37.535183 -24.22273,79.488333 z" fill="#cc9cdf" stroke="#a46bbd" stroke-width="7" />
    <path d="m 63.181427,222.38934 c 0,-157.01921 223.708553,-149.770529 223.708553,-0.42773 0,173.93625 -223.708553,169.86185 -223.708553,0.42773 z" fill="#cc9cdf" stroke="#a46bbd" stroke-width="7" />
    <path d="m 204.39475,297.17845 c 5.59328,6.05466 1.66613,12.19655 -5.71721,9.23513 4.87606,-1.45857 6.59369,-4.72808 5.71721,-9.23513 z m -32.17365,-0.74328 c -5.59328,6.05466 -1.66613,12.19655 5.71721,9.23513 -4.87606,-1.45857 -6.59369,-4.72808 -5.71721,-9.23513 z m -1.0289,-15.6762 c 11.21669,-1.86885 21.27806,-1.51444 32.10949,0.72097 -7.68179,-6.66415 -23.03778,-6.98181 -32.10949,-0.72097 z" fill="#a46bbd" />
    <g>
      <path d="m 72.218509,216.96652 c -69.0627689,-54.27069 -16.67135,-155.800471 1.481758,-154.711284 13.923597,0.835416 24.572659,36.856268 26.456813,78.772924 z" fill="#cc9cdf" />
      <path fill="#a46bbd" inkscape:original-d="m 72.218509,216.96652 c -69.0627689,-54.27069 -16.67135,-155.800471 1.481758,-154.711284 13.923597,0.835416 24.572659,36.856268 26.456813,78.772924" inkscape:path-effect="#path-effect4401" />
      <path d="m 68.655426,102.68244 c -13.210452,22.62585 -14.234098,51.12569 -2.593243,72.98507 -6.384774,-24.61552 -5.387001,-48.93859 2.593243,-72.98507 z" fill="#a46bbd" />
    </g>
    <path d="m 161.43219,332.96891 c 13.78003,-16.15517 35.1373,-13.25687 45.22811,0.76745 -15.35026,-4.55309 -29.00631,-5.01144 -45.22811,-0.76745 z" fill="#bb1c76" stroke="#a46bbd" stroke-width="5" />
    <g>
      <path d="m 83.429581,248.87891 c -5.77122,-5.02961 -14.671752,-4.6174 -19.675309,2.7357 8.427437,-3.94494 15.17865,-3.46445 20.411525,2.85656 m 0.218253,2.65611 c -9.700184,-2.92535 -18.95919,-1.07898 -20.764869,8.49125 5.254776,-6.55003 14.088499,-8.33668 23.133203,-3.61354 m 0.98108,0.41451 c -7.505207,1.5082 -12.958647,7.10352 -9.221168,17.39011 0.312372,-9.67154 5.208823,-13.61743 14.102952,-14.5643" />
      <g clip-path="url(#clipPath6120)">
        <path d="m 80.30189,211.88866 c 7.511347,-60.02827 91.33433,-55.5546 70.51599,83.79158 -42.80524,14.94592 -79.738846,-10.08547 -70.51599,-83.79158 z" fill="#fff" id="path4416" />
        <g clip-path="url(#clipPath4310)">
          <ellipse cx="96.929924" cy="261.66879" fill="url(#linearGradient4436)" id="ellipse4275" rx="22.196068" ry="33.544704" transform="rotate(351.45644)" />
          <path d="m 114.47347,551.04066 21.6395,-18.54345 -27.74007,5.86899 z" fill="#ccb2d3" transform="translate(3.9857652-280)" />
          <path d="m 107.38168,532.40571 28.73129,0.0915 -26.37357,9.28121 z" fill="#8d5da4" transform="translate(3.9857652-280)" />
          <ellipse cx="101.7269" cy="261.11929" rx="15.595536" ry="23.988016" transform="rotate(352.54929)" />
          <ellipse cx="250.20198" cy="461.67163" fill="#fff" rx="8.7896986" ry="14.366524" transform="rotate(15.157323 1054.2332-125.02149)" />
          <ellipse cx="391.93375" cy="367.7496" fill="#fff" rx="3.4444296" ry="4.7312322" transform="rotate(32.481291 482.60319-133.15857)" />
        </g>
      </g>
      <path d="m 80.30189,211.88866 c 9.547126,-55.33411 83.96704,-54.34901 70.51599,83.79158 23.84128,-140.28812 -61.391411,-147.34007 -74.387628,-88.19382 -7.828548,0.40801 -13.523895,-2.26858 -18.286658,-8.30911 2.667242,10.39782 10.510945,14.46854 22.158296,12.71135 z m 10.435209,-28.38452 c -6.492911,-3.98821 -9.735987,-10.80331 -9.905773,-18.37399 -3.328026,9.31978 -0.623106,16.97037 7.307923,22.35099 z m -7.495913,11.03789 c -8.783068,-1.72974 -14.337203,-7.73413 -18.289776,-17.5659 -0.182348,12.43204 6.444269,19.55016 16.613608,22.14578 z" />
    </g>
    <g>
      <path d="m 272.10098,249.4151 c 5.77018,-5.03081 14.67655,-4.49558 19.68164,2.85648 -8.42826,-3.94319 -15.18514,-3.58615 -20.41669,2.73593 m -0.62095,1.91839 c 9.82411,-2.47757 18.98873,-0.20868 20.35376,9.43427 -4.94894,-6.78404 -13.69148,-8.9738 -22.9432,-4.67026 m -0.8363,0.1721 c 7.62743,0.65214 13.67712,5.5967 11.12361,16.23918 -1.40118,-9.5746 -6.71136,-12.94309 -15.65554,-12.88085" />
      <g clip-path="url(#clipPath6169)">
        <path d="m 277.57832,212.16965 c -5.46259,-59.21311 -76.87425,-55.86588 -61.30115,81.63781 36.54848,16.40636 67.89672,-10.14343 61.30115,-81.63781 z" fill="#fff" id="path4452" />
        <g clip-path="url(#clipPath4356)">
          <ellipse cx="255.87061" cy="218.34134" fill="url(#linearGradient4344)" id="ellipse4336" rx="20.303991" ry="34.41507" transform="rotate(5.7419573)" />
          <path d="m 248.48041,270.70166 -21.63951,-18.54345 27.74007,5.869 z" fill="#ccb2d3" />
          <path d="m 255.5722,252.06672 -28.7313,0.0915 26.37358,9.28122 z" fill="#8d5da4" />
          <ellipse cx="254.78175" cy="220.0739" rx="14.114926" ry="25.005877" transform="rotate(5.7419573)" />
          <ellipse cx="279.85419" cy="160.82251" fill="#fff" rx="7.3087959" ry="13.852051" transform="rotate(15.162736)" />
          <ellipse cx="307.71268" cy="138.94545" fill="#fff" rx="3.0127954" ry="4.7010131" transform="rotate(21.424964)" />
        </g>
      </g>
      <path d="m 267.64849,183.372 c 6.61285,-3.78607 10.06462,-10.49787 10.46787,-18.05965 3.03894,9.41797 0.0993,16.98146 -7.99394,22.11485 z m 7.15184,11.26384 c 8.83225,-1.45801 14.56897,-7.28818 18.82296,-16.99333 -0.2013,12.43175 -7.0443,19.34206 -17.28887,21.62271 z m 2.77799,17.53381 c -7.74846,-55.56024 -70.75711,-54.89995 -61.30115,81.63781 -18.06555,-138.55358 54.7527,-144.57813 64.68309,-85.91516 6.68919,0.51699 11.60329,-2.03446 15.77366,-7.9117 -2.44789,10.19819 -9.22181,14.09063 -19.1556,12.18905 z" />
    </g>
    <g>
      <path d="m 100.16327,92.093508 c 8.54856,43.535422 -5.23634,68.111072 -55.052722,87.311972 89.179252,38.29612 152.821722,-22.89408 243.031172,-6.38574 1.14646,-19.11886 -0.93163,-39.48774 -6.76353,-60.10661 15.89918,18.24724 20.38313,42.89522 24.73673,64.89452 14.15947,2.84604 26.89488,7.11614 39.06307,11.95346 -12.3761,-99.349644 -66.08575,-147.282745 -123.74008,-138.479669 -43.55959,6.65099 -62.96979,26.178164 -121.27464,40.812067 z" fill="#243870" />
      <path d="m 131.54923,190.82182 c 19.65422,-34.7673 10.78263,-75.93213 -19.91325,-101.492295 l 20.08404,-7.299939 c 31.01655,22.322304 54.27883,53.691274 69.29573,94.679844 z" fill="#ea428b" />
      <path d="m 138.55786,79.293647 c 33.41513,19.623122 63.27233,55.112023 80.97234,95.094673 l -34.71689,5.69687 c -9.71484,-37.13503 -31.34757,-74.56922 -61.36717,-94.464555 z" fill="#652d87" />
      <path d="m 100.16327,92.093508 c 8.54856,43.535422 -5.23634,68.111072 -55.052722,87.311972 89.179252,38.29612 152.821722,-22.89408 243.031172,-6.38574 1.14646,-19.11886 -0.93163,-39.48774 -6.76353,-60.10661 15.89918,18.24724 20.38313,42.89522 24.73673,64.89452 14.15947,2.84604 26.89488,7.11614 39.06307,11.95346 -12.3761,-99.349644 -66.08575,-147.282745 -123.74008,-138.479669 -43.55959,6.65099 -62.96979,26.178164 -121.27464,40.812067 z" style="stroke-width:7;stroke:#132248;stroke-miterlimit:20;fill:none" />
      <path d="m 191.33241,57.680327 c 37.11478,16.124066 64.97078,62.404263 66.56905,113.032183 m -73.31905,-110.282183 c 34.36478,24.124066 57.52556,79.118103 63.31905,110.282183 m -139.74702,-80.576586 c 7.7158,27.245516 8.40023,66.205696 -11.782949,102.303296" style="stroke-width:3.5;stroke:#132248;stroke-miterlimit:20;fill:none" />
      <path d="m 163.66447,110.17397 c 29.7524,-134.924125 48.98356,-122.312982 41.65666,51.02716" fill="#cc9cdf" stroke="#a46bbd" stroke-width="7" />
      <path d="m 179.87858,46.813825 c 6.63847,17.609247 18.47916,21.11973 27.03199,14.868977 m -35.42119,14.694549 c 6.26588,32.936929 26.40162,35.438289 35.65378,20.150437" fill="none" stroke="#a46bbd" stroke-width="3.5" />
      <path d="m 157.44383,92.345054 c 22.99046,18.353086 43.24036,43.887266 57.47604,72.273276 l -20.16585,3.36166 -40.47181,-59.4888 z" fill="#652d87" />
    </g>
  </g>
</svg>