<svg xmlns="http://www.w3.org/2000/svg" xmlns:inkscape="http://www.inkscape.org/namespaces/inkscape" xmlns:xlink="http://www.w3.org/1999/xlink" height="1186" viewBox="0 0 674 1186" width="674">
  <title>7√2 and Two Colons</title>
  <defs>
    <linearGradient id="linearGradient1013">
      <stop offset="0" stop-color="#bcd3f7" />
      <stop offset="1" stop-color="#bcd3f7" stop-opacity="0" />
    </linearGradient>
    <inkscape:path-effect effect="powerstroke" id="path-effect989" interpolator_type="CubicBezierSmooth" offset_points="0.93,3 | 1.8,3" start_linecap_type="zerowidth" />
    <inkscape:path-effect effect="powerstroke" id="path-effect987" interpolator_type="CubicBezierSmooth" offset_points="0.94,3" start_linecap_type="zerowidth" />
    <inkscape:path-effect effect="powerstroke" id="path-effect985" interpolator_type="CubicBezierSmooth" offset_points="0.6,3 | 9,3" start_linecap_type="zerowidth" />
    <inkscape:path-effect effect="powerstroke" id="path-effect909" interpolator_type="CubicBezierSmooth" offset_points="0.48,3" start_linecap_type="zerowidth" />
    <inkscape:path-effect effect="powerstroke" id="path-effect899" interpolator_type="CubicBezierSmooth" offset_points="0.51,3" start_linecap_type="zerowidth" />
    <linearGradient id="linearGradient11165">
      <stop offset="0" stop-color="#7aa7f0" />
      <stop offset="1" stop-color="#bcd3f7" />
    </linearGradient>
    <inkscape:path-effect effect="powerstroke" id="path-effect11101" interpolator_type="CubicBezierSmooth" offset_points="0.25,3" start_linecap_type="zerowidth" />
    <inkscape:path-effect effect="powerstroke" id="path-effect11065" interpolator_type="CubicBezierSmooth" offset_points="0.33,3" start_linecap_type="zerowidth" />
    <inkscape:path-effect effect="powerstroke" id="path-effect11061" interpolator_type="CubicBezierSmooth" offset_points="0.55,3" start_linecap_type="zerowidth" />
    <inkscape:path-effect effect="powerstroke" end_linecap_type="zerowidth" id="path-effect11055" interpolator_type="CubicBezierSmooth" offset_points="0.59,3 | 1.78,3" start_linecap_type="zerowidth" />
    <linearGradient id="linearGradient4349">
      <stop offset="0" stop-color="#1f5450" />
      <stop offset="1" stop-color="#87e8e0" />
    </linearGradient>
    <inkscape:path-effect effect="powerstroke" id="path-effect4255" interpolator_type="CubicBezierSmooth" offset_points="0.29,3" start_linecap_type="zerowidth" />
    <inkscape:path-effect effect="powerstroke" end_linecap_type="zerowidth" id="path-effect4250" interpolator_type="CubicBezierSmooth" offset_points="0.25,3 | 2.33,3" start_linecap_type="zerowidth" />
    <inkscape:path-effect effect="powerstroke" end_linecap_type="zerowidth" id="path-effect4269" interpolator_type="CubicBezierSmooth" offset_points="0.37,3 | 1.79,3" start_linecap_type="zerowidth" />
    <clipPath id="clipPath4379">
      <use xlink:href="#ellipse4280" />
    </clipPath>
    <clipPath id="clipPath4689">
      <use xlink:href="#path4282" />
    </clipPath>
    <linearGradient gradientUnits="userSpaceOnUse" id="linearGradient8468" x1="345.74298" x2="349.16071" y1="188.52332" y2="265.03638" xlink:href="#linearGradient4349" />
    <clipPath id="clipPath10869">
      <use xlink:href="#path4256" />
    </clipPath>
    <clipPath id="clipPath10939">
      <use xlink:href="#path4252" />
    </clipPath>
    <linearGradient gradientUnits="userSpaceOnUse" id="linearGradient11027" x1="124.88417" x2="125.79395" y1="293.82147" y2="366.948" xlink:href="#linearGradient4349" />
    <clipPath id="clipPath11141">
      <path d="M 163.70711,219.25 C 86.845094,42.99288 118.94871,24.398683 228,189.75 201.38584,191.34053 181.32627,200.30762 163.70711,219.25 Z" />
    </clipPath>
    <linearGradient gradientUnits="userSpaceOnUse" id="linearGradient11167" x1="231.4594" x2="211.8858" y1="211.64417" y2="127.46543" xlink:href="#linearGradient11165" />
    <linearGradient gradientUnits="userSpaceOnUse" id="linearGradient1015" x1="522.0799" x2="514.93085" y1="771.36462" y2="816.72302" xlink:href="#linearGradient1013" />
  </defs>
  <path d="M 213.69961,570.38545 C 159.89468,513.42687 51.475473,574.03648 69.268383,752.46269 76.2928,822.90309 168.88481,715.25607 160.97299,673.499 156.37434,649.22816 161.11949,625.22915 172.54721,607.38518 Z" fill="#54709e" stroke="#2f4b7a" stroke-width="6" />
  <g>
    <path d="M 280.2761,714.52204 177.05684,723.98124 C 171.30421,784.87038 189.84999,791.07426 187.63851,824.82487 185.06284,864.13333 132.43805,958.57122 78.302742,1025.274 51.040726,1058.8649 165.71809,1081.0334 194.5317,1033.391 229.60217,975.4031 261.83785,901.96554 266.10296,831.89793 266.78023,820.77164 261.62122,815.17502 249.37361,814.5211 255.8582,779.6159 279.28171,764.22489 280.2761,714.52204 Z" fill="#54709e" />
    <path fill="#2f4b7a" inkscape:original-d="M 247.8569,837.57517 C 245.81028,784.33238 279.08673,773.97047 280.2761,714.52204 L 177.05684,723.98124 C 171.30421,784.87038 189.84999,791.07426 187.63851,824.82487 185.06284,864.13333 132.43805,958.57122 78.302742,1025.274 51.040726,1058.8649 165.71809,1081.0334 194.5317,1033.391 229.60217,975.4031 261.83785,901.96554 266.10296,831.89793 266.78023,820.77164 261.62122,815.17502 249.34599,814.59983" inkscape:path-effect="#path-effect11101" />
  </g>
  <g>
    <path d="M 496.4703,906.69837 C 494.65149,890.19762 498.07597,872.71287 507.4691,858.87293 510.57451,865.46397 515.17916,871.19681 521.85928,876.48264 515.84391,825.0872 536.50454,808.59262 528.44732,765.62654 534.8455,768.57139 541.07969,769.62658 548.02726,769.70329 524.38858,744.40598 541.75019,692.8559 483.69077,676.26738 496.69805,672.874 508.75081,672.97414 523.26551,677.53591 478.89143,629.0147 386.24298,642.46116 349.74834,706.74143 L 353.93502,723.1611 C 405.67412,708.71402 443.92478,732.48765 430.25984,801.36947 420.46921,850.7224 442.7095,911.29755 490.83833,938.33985 486.17513,923.76596 484.76567,908.18649 484.84271,893.34948 487.78019,898.55776 491.60779,903.05424 496.4703,906.69837 Z" fill="#7aa7f0" />
    <path d="M 516.43904,757.95747 C 517.48552,785.23719 512.87331,806.93817 499.2408,828.04231 L 521.01143,849.28702 C 522.97328,817.41029 534.88936,799.97948 528.45341,765.62781 524.57385,763.83878 520.63199,761.34981 516.43904,757.95747 Z" fill="url(#linearGradient1015)" />
    <path fill="#265299" inkscape:original-d="M 502.92153,839.4017 C 504.10498,855.08837 509.33356,866.57131 521.85928,876.48264 515.82276,824.90648 536.65016,808.47706 528.34895,765.16976" inkscape:path-effect="#path-effect987" />
    <path fill="#265299" inkscape:original-d="M 477.10781,870.67295 C 479.68003,885.65683 485.38663,898.39188 496.4703,906.69837 494.63279,890.02799 498.14693,872.35327 507.67516,858.43493" inkscape:path-effect="#path-effect989" />
    <path fill="#265299" inkscape:original-d="M 488.95714,841.86696 C 510.5831,816.17096 517.71458,791.20833 516.43904,757.95747 527.523,766.92503 536.85233,769.57991 548.02726,769.70329 524.38858,744.40598 541.75019,692.8559 483.69077,676.26738 496.69805,672.874 508.75081,672.97414 523.26551,677.53591 478.89143,629.0147 386.24298,642.46116 349.74834,706.74143 L 353.93502,723.1611 C 405.67412,708.71402 443.92478,732.48765 430.25984,801.36947 420.46921,850.7224 442.7095,911.29755 490.83833,938.33985 486.17513,923.76596 484.76567,908.18649 484.88731,893.30599" inkscape:path-effect="#path-effect985" />
  </g>
  <path d="M 302.90993,844.27742 C 339.2772,880.74185 348.06701,973.65587 312.30835,1077.8933 297.70571,1120.4604 421.52993,1126.4788 426.88813,1083.3115 437.36863,998.8773 426.42299,906.12564 392.78978,837.25766 389.36246,830.23983 382.42803,827.04385 372.57657,828.39913 370.8493,799.36066 383.83592,761.57362 361.87667,699.18706 297.34982,515.86534 394.90679,442.644 385.27886,300.26361 371.91527,102.63937 59.822818,148.78475 134.9721,371.76409 129.08879,374.38592 125.08894,377.79998 126.00954,385.01132 130.5574,420.63627 172.06851,459.62507 234.50065,460.58594 111.71534,660.96659 188.16812,847.49725 277.83113,811.93174 284.25053,823.49234 292.70489,834.04511 302.90993,844.27742 Z" fill="#6181b6" />
  <g transform="matrix(1.2330042-.17596813.17245263 1.4596106 326.77951 769.14984)">
    <path d="M -20,10 A 10,10 0 1 1 -20,-10 H 20 A 10,10 0 1 1 20,10 Z" fill="#265299" id="F1" />
    <use transform="rotate(45)" xlink:href="#F1" />
    <use transform="rotate(90)" xlink:href="#F1" />
    <use transform="rotate(135)" xlink:href="#F1" />
    <path d="M -20,7 A 7,7 0 1 1 -20,-7 H 20 A 7,7 0 1 1 20,7 Z" fill="#7aa7f0" id="F2" />
    <use transform="rotate(45)" xlink:href="#F2" />
    <use transform="rotate(90)" xlink:href="#F2" />
    <use transform="rotate(135)" xlink:href="#F2" />
    <circle fill="#bcd3f7" r="10" />
  </g>
  <path fill="#2f4b7a" inkscape:original-d="M 262.18233,738.67392 C 259.62589,784.75474 274.46913,815.76063 302.90993,844.27742 339.2772,880.74185 348.06701,973.65587 312.30835,1077.8933 297.70571,1120.4604 421.52993,1126.4788 426.88813,1083.3115 437.36863,998.8773 426.423,906.12564 392.78978,837.25766 389.2529,830.01548 381.98109,826.84342 371.75055,828.44501" inkscape:path-effect="#path-effect11061" />
  <path fill="#2f4b7a" inkscape:original-d="M 378.77397,852.07031 C 360.35579,819.23789 390.2147,779.69582 361.87667,699.18706 297.34982,515.86534 394.90678,442.644 385.27886,300.26361 371.90306,102.45876 59.252118,148.8693 135.196,372.36549" inkscape:path-effect="#path-effect11065" />
  <path d="M 234.63165,460.48369 C 111.71534,660.96659 188.16812,847.49725 277.93975,811.82583" fill="none" stroke="#2f4b7a" stroke-width="6" />
  <g>
    <path d="M 215.45259,555.95868 C 152.49723,535.35708 79.798985,618.90475 133.5,774.5 156.59506,841.41645 221.83727,715.30295 204.5,676.5 196.6733,658.98287 194.36873,640.32417 196.97677,623.47627 261.15124,654.27521 294.88923,606.0228 278.15032,534.0978 L 225.0493,528.08003 C 222.66275,538.85943 220.02132,546.60116 215.45259,555.95868 Z" fill="#6181b6" />
    <path fill="#2f4b7a" inkscape:original-d="M 232,564 C 166.5,521 75,605 133.5,774.5 156.59506,841.41645 221.83727,715.30295 204.5,676.5 194.4229,653.94621 193.5,629.5 200.5,609.5" inkscape:path-effect="#path-effect4250" />
    <path fill="#2f4b7a" inkscape:original-d="M 278.15032,534.0978 C 294.91378,606.12828 261.05218,654.41669 196.66147,623.32277" inkscape:path-effect="#path-effect4255" />
    <path d="M 217.82832,556.77807 C 222.19012,547.49768 224.41613,539.2687 225.0493,528.08003 221.42059,538.24119 218.14891,546.41158 212.63962,555.27165" fill="#2f4b7a" />
  </g>
  <g>
    <path d="M 126.78159,281.39416 C 119.57889,283.71493 112.72684,283.11398 106.16028,279.27124 111.03151,286.04618 117.74841,288.33735 127.21746,286.24096 M 129.55465,266.57737 C 121.34763,266.57715 115.57777,264.56054 110.51968,259.0506 113.33843,266.90447 118.75359,270.57767 128.6399,271.35698 M 133.04871,359.91506 C 128.40259,361.21325 125.81156,364.12172 124.24554,369.19962 124.24554,363.64864 126.59365,359.40005 131.17381,356.72082 M 130.2623,349.32733 C 125.48949,350.02851 121.94515,352.34379 119.75053,357.18332 120.64338,351.07187 123.95745,347.73837 128.83921,345.65888 M 127.45599,338.7093 C 123.14013,338.98519 119.61533,340.88239 116.49585,345.22415 118.18595,339.54584 121.64381,336.32282 127.10244,334.73183" />
    <g clip-path="url(#clipPath10939)">
      <path d="M 132.76478,252.96725 C 158.89052,263.13414 169.13364,305.75587 162.43216,357.00828 156.86827,364.08579 146.37056,368.13326 134.87056,372.13326 119.31421,327.58554 118.62264,289.38325 132.76478,252.96725 Z" fill="#fff" id="path4252" />
      <g clip-path="url(#clipPath4689)">
        <ellipse cx="130.83975" cy="328.98682" fill="url(#linearGradient11027)" id="path4282" rx="17.764515" ry="46.566357" transform="rotate(356.25476)" />
        <path d="M 155.10325,325.43214 142.55395,369.61427 128.05047,340.40893 Z" fill="#f6fffe" />
        <path d="M 155.10325,325.43214 125.95128,330.11137 131.4855,353.1949 Z" fill="#b2ede8" />
        <ellipse cx="132.64432" cy="330.63492" rx="14.402985" ry="37.754753" transform="rotate(356.25476)" />
        <ellipse cx="146.44556" cy="303.68356" fill="#fff" rx="18.081203" ry="6.7839103" transform="rotate(276.67815 146.44555 303.68356)" />
        <ellipse cx="152.0354" cy="329.8396" fill="#fff" rx="5.7607899" ry="2.2001085" transform="rotate(277.19919 152.0354 329.8396)" />
      </g>
    </g>
    <path d="M 162.43216,357.00828 C 174.53934,289.23163 151.06404,256.19222 133.17938,250.58472 126.09087,248.36221 121.08319,246.04745 117.28203,240.51453 118.73038,248.3017 124.10728,252.41607 131.57218,254.97492 149.3283,261.06143 167.79684,289.52995 162.43216,357.00828 Z" />
  </g>
  <path fill="#2f4b7a" inkscape:original-d="M 162.43216,357.00828 C 150.27989,372.3307 123.78547,367.58944 126.00954,385.01132 132.34985,434.6771 210.53179,490.88087 316.73203,441.74345" inkscape:path-effect="#path-effect11055" />
  <path d="M 140.00714,417.61237 C 159.80613,419.02657 172.90322,409.71287 179.26717,392.21198 177.85296,410.77353 164.34687,423.15311 144.19432,422.97633 Z M 141.02859,384.64091 C 146.039,388.19421 149.47098,386.74446 150.65664,381.06248 153.18177,390.29776 146.15359,393.06921 141.02859,384.64091 Z" fill="#2f4b7a" />
  <g>
    <path d="M 303.29591,339.24362 C 311.07496,340.99664 317.32854,345.01035 320.25171,352.76475 315.20187,347.18285 309.3898,344.29424 302.31323,343.72658 Z M 298.40367,350.21843 C 305.21118,354.22574 310.24617,360.10862 311.05494,368.90039 307.86288,361.70616 302.62748,357.12169 296.09775,354.31954 Z M 291.71114,360.13891 C 296.96734,365.77396 299.57556,372.41095 298.2796,380.50759 296.9915,372.71185 293.96122,367.55401 288.66219,363.09479 Z" />
    <g clip-path="url(#clipPath10869)">
      <ellipse cx="346.52896" cy="218.19881" fill="#fff" id="path4256" rx="53.543209" ry="66.645493" transform="rotate(18.764494)" />
      <g clip-path="url(#clipPath4379)">
        <ellipse cx="332.4808" cy="228.01811" fill="url(#linearGradient8468)" id="ellipse4280" rx="42.153797" ry="52.468994" transform="rotate(18.764494)" />
        <path d="M 225.06932,326.85533 265.07122,378.65154 285.21879,349.50527 Z" fill="#f6fffe" />
        <path d="M 225.06932,326.85533 288.82082,336.47045 280.63079,358.33184 Z" fill="#b2ede8" />
        <ellipse cx="328.33899" cy="230.63457" rx="34.83744" ry="43.362331" transform="rotate(18.764494)" />
        <ellipse cx="358.6626" cy="160.295" fill="#fff" rx="14.867416" ry="20.560934" transform="rotate(26.647801)" />
        <ellipse cx="391.58612" cy="162.22209" fill="#fff" rx="4.7735143" ry="6.6015463" transform="rotate(29.406474)" />
      </g>
    </g>
    <path d="M 317.24468,296.99511 C 324.68918,296.59669 332.64581,292.51084 338.05875,285.01331 334.79137,297.45861 325.85993,302.54289 312.71654,303.25247 305.60697,261.47725 269.92048,245.5145 241.95662,261.65944 213.70525,277.97038 196.01674,315.75766 209.33606,356.23491 188.97565,316.84988 210.05561,273.84671 239.21812,257.00973 268.12332,240.32131 305.84751,253.65338 317.24468,296.99511 Z M 308.68956,281.19249 C 318.32192,279.17515 325.21921,273.56781 329.61561,264.23582 328.68782,275.50054 321.18394,283.93545 310.79842,286.93009 M 298.89544,267.84188 C 307.12489,264.32815 312.57726,258.04463 315.42534,248.85676 316.01057,259.02312 310.99024,267.65806 302.77396,272.49503" />
  </g>
  <g>
    <path d="M 339,191 C 285.34876,242.81666 214.99734,205.32183 153.25,280.25 156.15093,261.8539 161.18961,247.77247 170,233 140.46156,247.76436 122.45472,265.65196 103.41421,298.20711 97.126626,237.02544 111.18737,186.82923 161.86927,154.09044 144.49007,153.15929 129.29003,155.85723 113.25205,161.61667 182.87911,85.565408 293.99396,90.887353 354.41421,159.12132 Z" style="fill-rule:evenodd;stroke:#265299;stroke-width:6;fill:url(#linearGradient11167);stroke-miterlimit:20" />
    <g clip-path="url(#clipPath11141)">
      <path d="M 187.53553,245.82014 C 106.99577,47.081555 109.69459,44.223683 229.77411,210.46226 Z" fill="#6181b6" stroke="#2f4b7a" stroke-width="6" />
      <path d="M 148.63947,148.03396 C 154.61971,138.04717 158.15689,127.15407 159.3524,115.6768 M 165.20278,189.88746 C 175.6666,177.62976 181.74359,163.24666 183.62608,147.55835 M 179.63817,227.13191 C 194.7779,215.28154 204.36155,199.41874 208.47769,180.93195" fill="none" stroke="#2f4b7a" stroke-width="3" />
    </g>
    <path d="M 163.70711,219.25 C 179.72272,198.91637 202.28249,188.52297 228,189.75 202.29899,193.62868 183.1118,201.59315 163.70711,219.25 Z" fill="#265299" />
    <path d="M 392.52895,483.17548 C 353.37865,462.26949 342.61593,424.57792 348.13278,387.78837 335.3271,389.52186 322.56765,384.338 310.74753,373.5605 354.21044,365.2859 380.92728,328.83855 376.70189,271.31072 L 377.15644,182.95103 C 439.25785,266.84476 394.23597,357.86549 436.21846,454.2705 412.70238,452.15583 395.40306,438.79984 387.71976,413.17613 382.02727,435.30138 383.88073,460.20538 392.52895,483.17548 Z" fill="#7aa7f0" />
    <path fill="#265299" inkscape:original-d="M 397.53475,389.60733 C 381.59765,416.1712 380.60725,451.51084 392.52895,483.17548 353.37865,462.26949 342.49093,424.45292 348.28323,387.47044" inkscape:path-effect="#path-effect909" />
    <path fill="#265299" inkscape:original-d="M 371.13627,376.8023 C 351.49974,393.50736 330.03906,391.15038 310.74753,373.5605 354.21044,365.2859 380.92728,328.83855 376.70189,271.31072 L 377.15644,182.95103 C 439.25785,266.84476 394.23597,357.86549 436.21846,454.2705 412.70238,452.15583 395.40306,438.79984 387.69427,413.13586" inkscape:path-effect="#path-effect899" />
    <path d="M 316.55008,214.69823 C 321.54504,166.93401 355.18091,135.03223 364.47771,135.25598 375.17427,135.51341 428.7349,212.2665 370.79517,296.96719 Z" fill="#6181b6" />
    <path fill="#2f4b7a" inkscape:original-d="M 316.55008,214.69823 C 321.54504,166.93401 355.18091,135.03223 364.47771,135.25598 375.17427,135.51341 428.7349,212.2665 370.79517,296.96719" inkscape:path-effect="#path-effect4269" />
    <path d="M 359.73571,180.13657 C 370.34155,201.34255 369.4261,224.69339 359.90041,246.94883 373.32335,228.93994 374.34955,199.07906 359.73571,180.13657 Z" fill="#2f4b7a" />
  </g>
</svg>
