<svg xmlns="http://www.w3.org/2000/svg" xmlns:inkscape="http://www.inkscape.org/namespaces/inkscape" xmlns:xlink="http://www.w3.org/1999/xlink" viewBox="17 154 1820 1100">
  <defs>
    <linearGradient id="linearGradient1375">
      <stop offset="0" stop-color="#e92424" />
      <stop offset="0.24209726" stop-color="#eb5813" />
      <stop offset="0.50358808" stop-color="#ded21f" />
      <stop offset="0.74530894" stop-color="#55bb43" />
      <stop offset="1" stop-color="#68308c" />
    </linearGradient>
    <inkscape:path-effect effect="powerstroke" id="path-effect4861" interpolator_type="CubicBezierSmooth" offset_points="0.18,2" start_linecap_type="zerowidth" />
    <inkscape:path-effect effect="powerstroke" id="path-effect4800" interpolator_type="CubicBezierSmooth" offset_points="0.43,4" start_linecap_type="zerowidth" />
    <inkscape:path-effect effect="powerstroke" id="path-effect4794" interpolator_type="CubicBezierSmooth" offset_points="0.06,4 | 4.8,4" start_linecap_type="zerowidth" />
    <inkscape:path-effect effect="powerstroke" id="path-effect4827" interpolator_type="CubicBezierSmooth" offset_points="0.5,2" start_linecap_type="zerowidth" />
    <inkscape:path-effect effect="powerstroke" id="path-effect6031" interpolator_type="CubicBezierSmooth" offset_points="0.17,4" start_linecap_type="zerowidth" />
    <linearGradient id="linearGradient5257">
      <stop offset="0" stop-color="#5a2878" />
      <stop offset="1" stop-color="#c9a5e0" />
    </linearGradient>
    <inkscape:path-effect effect="powerstroke" end_linecap_type="zerowidth" id="path-effect4424" interpolator_type="CubicBezierSmooth" offset_points="0.18,4 | 3.74,4" start_linecap_type="zerowidth" />
    <inkscape:path-effect bendpath1="M -46.291086,-36.764603 H 46.291086" bendpath2="m 46.291086,-36.764603 c -7.84864,24.193016 -9.920138,49.447746 -4.640317,72.546118" bendpath3="M -46.291086,35 H 46.291086" bendpath4="M -45.359377,-36.82528 C -53.922873,-12.346052 -54.757029,12.109123 -46.291086,35" effect="envelope" id="path-effect211" yy="false" />
    <inkscape:path-effect effect="powerstroke" end_linecap_type="zerowidth" id="path-effect7884" interpolator_type="CubicBezierSmooth" offset_points="0.39,4 | 2.6,4" start_linecap_type="zerowidth" />
    <linearGradient id="linearGradient6431">
      <stop offset="0" stop-color="#02534d" />
      <stop offset="1" stop-color="#02aca4" />
    </linearGradient>
    <inkscape:path-effect effect="powerstroke" end_linecap_type="zerowidth" id="path-effect193" interpolator_type="CubicBezierSmooth" offset_points="0.2,4 | 1.69,4" start_linecap_type="zerowidth" />
    <inkscape:path-effect effect="powerstroke" end_linecap_type="zerowidth" id="path-effect2285" interpolator_type="CubicBezierSmooth" offset_points="0.28,4 | 2.33,4" start_linecap_type="zerowidth" />
    <inkscape:path-effect effect="powerstroke" id="path-effect1119" interpolator_type="CubicBezierSmooth" offset_points="0.22,4 | 5,4" start_linecap_type="zerowidth" />
    <inkscape:path-effect effect="powerstroke" id="path-effect1071" interpolator_type="CubicBezierSmooth" offset_points="0.27,4 | 3,4" start_linecap_type="zerowidth" />
    <inkscape:path-effect effect="powerstroke" end_linecap_type="zerowidth" id="path-effect1057" interpolator_type="CubicBezierSmooth" offset_points="0.55,4 | 6.76,4" start_linecap_type="zerowidth" />
    <inkscape:path-effect effect="powerstroke" id="path-effect1020" interpolator_type="CubicBezierSmooth" offset_points="0.4,4" start_linecap_type="zerowidth" />
    <inkscape:path-effect effect="powerstroke" end_linecap_type="zerowidth" id="path-effect3831" interpolator_type="CubicBezierSmooth" offset_points="0.59,4 | 6.43,4" start_linecap_type="zerowidth" />
    <linearGradient id="linearGradient6201">
      <stop offset="0" stop-color="#82136c" />
      <stop offset="1" stop-color="#cd1daa" />
    </linearGradient>
    <inkscape:path-effect effect="powerstroke" end_linecap_type="zerowidth" id="path-effect8811-3" interpolator_type="CubicBezierSmooth" offset_points="0.5,4 | 3.47,4" start_linecap_type="zerowidth" />
    <inkscape:path-effect effect="powerstroke" end_linecap_type="zerowidth" id="path-effect4765" interpolator_type="CubicBezierSmooth" offset_points="0.2,4 | 1.69,4" start_linecap_type="zerowidth" />
    <inkscape:path-effect effect="powerstroke" id="path-effect6893" interpolator_type="CubicBezierSmooth" offset_points="0.32,4" start_linecap_type="zerowidth" />
    <inkscape:path-effect effect="powerstroke" id="path-effect4565" interpolator_type="CubicBezierSmooth" offset_points="0.21,4" start_linecap_type="zerowidth" />
    <inkscape:path-effect effect="powerstroke" id="path-effect4567" interpolator_type="CubicBezierSmooth" offset_points="0.22,4" start_linecap_type="zerowidth" />
    <inkscape:path-effect effect="powerstroke" end_linecap_type="zerowidth" id="path-effect4536" interpolator_type="CubicBezierSmooth" offset_points="0.21,4 | 1.6,4" start_linecap_type="zerowidth" />
    <inkscape:path-effect effect="powerstroke" id="path-effect990-1-3" interpolator_type="CubicBezierSmooth" offset_points="0.07,4" start_linecap_type="zerowidth" />
    <linearGradient gradientTransform="matrix(0.9582584,0,0,0.9582584,-189.60003,-111.4114)" gradientUnits="userSpaceOnUse" id="linearGradient6195" x1="842.69806" x2="923.89252" y1="-359.45615" y2="-348.3562" xlink:href="#linearGradient6201" />
    <linearGradient gradientTransform="matrix(0.95279653,0,0,0.95279653,-197.41758,-30.706505)" gradientUnits="userSpaceOnUse" id="linearGradient7072" x1="652.90021" x2="728.69879" y1="-763.20673" y2="-764.56012" xlink:href="#linearGradient6201" />
    <clipPath id="clipPath7084">
      <use xlink:href="#path4297" />
    </clipPath>
    <clipPath id="clipPath7098">
      <use xlink:href="#path5053" />
    </clipPath>
    <clipPath id="clipPath7114">
      <use xlink:href="#path12893-0" />
    </clipPath>
    <clipPath id="clipPath7130">
      <use xlink:href="#path4541" />
    </clipPath>
    <inkscape:path-effect effect="powerstroke" end_linecap_type="zerowidth" id="path-effect16317-3-7" interpolator_type="CubicBezierSmooth" offset_points="0.42,4 | 2.67,4" start_linecap_type="zerowidth" />
    <clipPath id="clipPath3803">
      <path d="m 1000.8688,631.77321 c -0.047,-10.80753 -3.13617,-18.65504 -8.8887,-26.06108 -5.75253,-7.40604 -13.2774,-11.38782 -23.50469,-11.77584 9.6477,-19.91338 10.74765,-36.56884 0.0184,-54.2523 -3.60045,7.76411 -8.37471,13.86511 -15.52676,20.49234 2.36184,-25.37702 -1.52243,-40.49424 -11.14097,-57.33049 -7.54857,-13.21298 -21.57375,-26.56749 -30.86879,-31.22015 l -218.16284,115.67275 43.51723,131.13195 z" />
    </clipPath>
    <clipPath id="clipPath3815">
      <path d="m 939.67876,499.34249 c -41.55429,63.25037 -22.22077,110.42985 54.70683,109.73744 120.78001,25.79235 -40.94474,-239.93854 -54.70683,-109.73744 z" />
    </clipPath>
    <clipPath id="clipPath3835">
      <path d="m 617.14842,780.20851 c 0.23956,4.18677 0.66864,7.82703 1.32671,11.01145 2.57134,12.4427 8.31734,18.40543 20.23497,22.33878 -13.16934,8.26917 -18.62689,20.25425 -21.33335,36.04611 9.1145,-7.94264 17.27421,-10.29652 25.99632,-10.18743 -12.84067,19.90883 -15.32351,38.59727 -8.08252,67.34708 0.84334,3.3484 1.81714,6.83325 2.92006,10.47237 l 103.19085,9.29953 11.31371,-248.90159 -130.81476,1.06066 z" />
    </clipPath>
    <clipPath id="clipPath3845">
      <path d="m 617.72859,786.6855 c 55.31963,9.15976 62.61935,53.24507 18.4336,124.05597 -77.61131,90.25753 -82.49758,-173.00258 -18.4336,-124.05597 z" />
    </clipPath>
    <clipPath id="clipPath1038">
      <path d="m 482.86679,1150.3951 c 5.32003,12.021 12.31829,22.1164 21.10089,29.8957 10.473,9.2766 22.12839,13.599 38.67657,16.652 -8.27724,-9.4052 -12.08257,-17.7436 -14.77025,-29.1302 13.2649,11.9297 27.65189,20.6636 45.49016,25.4376 -3.40485,-8.0757 -6.25319,-15.0369 -6.30799,-23.3861 13.70946,12.8466 28.56063,17.6412 46.24852,18.1908 4.30553,0.1338 8.77896,0 13.44463,-0.3399 L 700.91766,848.40187 H 499.5779 Z" />
    </clipPath>
    <clipPath id="clipPath1044">
      <path d="m 499.71911,1176.2042 c 19.49588,-42.3831 78.33863,-46.111 117.8845,11.8981 84.43932,73.5746 -182.91135,97.9043 -117.8845,-11.8981 z" />
    </clipPath>
    <clipPath id="clipPath1076">
      <path d="m 834.18709,416.7954 c -48.5352,15.23384 -46.28839,-69.23823 -83.16812,-67.22355 -38.08606,2.08058 -38.5248,81.39678 -77.91211,88.37162 -39.38731,6.97483 -72.74359,75.85367 -40.60139,153.32568 37.51515,90.42239 41.67634,160.60025 19.02995,286.07629 l -31.26971,74.91758 188.86482,-3.7715 z" />
    </clipPath>
    <clipPath id="clipPath1081">
      <path d="m 826.03899,418.49538 -43.21623,24.20155 -210.06565,570.70567 -48.41356,-9.0262 -78.77462,-774.6171 426.69584,-16.41138 -6.48975,221.04757 z" />
    </clipPath>
    <clipPath id="clipPath2301">
      <path d="m 685.17187,1156.5855 c 5.81469,0.37 10.69807,0.066 14.85631,-0.8459 11.97905,-2.6266 18.19452,-10.0059 23.06753,-21.1224 11.89824,17.8474 25.09792,23.7516 43.971,24.9825 -9.02626,-9.6417 -10.43052,-15.238 -10.43052,-26.9311 14.12775,12.3207 30.29471,19.0503 50.6075,21.2426 5.05311,0.5453 10.36277,0.8099 15.96143,0.8099 l -29.47776,-218.63876 -144.95689,6.01041 z" />
    </clipPath>
    <clipPath id="clipPath2311">
      <path d="m 696.01115,1156.4029 c 15.33007,-59.823 63.32194,-63.6165 116.2576,-2.0473 106.51875,61.8556 -150.85885,79.1535 -116.2576,2.0473 z" />
    </clipPath>
    <clipPath id="clipPath205">
      <path d="m 569.50204,204.12467 c -35.2095,50.37191 -46.02506,116.55903 -19.12831,159.08428 8.32962,13.16959 2.47265,34.02151 -20.62387,51.18099 -83.36036,-72.2127 -39.49885,-262.62781 39.75218,-210.26527 z" />
    </clipPath>
    <clipPath id="clipPath216">
      <path d="m 537.78701,407.63442 c -23.10773,-55.21889 -23.90589,-139.87571 16.93002,-178.65448 134.97116,14.72903 24.0025,309.75717 -16.93002,178.65448 z" />
    </clipPath>
    <clipPath id="clipPath1045">
      <use xlink:href="#circle1031" />
    </clipPath>
    <clipPath id="clipPath7023">
      <use xlink:href="#path4029" />
    </clipPath>
    <clipPath id="clipPath7041">
      <use xlink:href="#path3951" />
    </clipPath>
    <clipPath id="clipPath7745">
      <use xlink:href="#path4029-1" />
    </clipPath>
    <clipPath id="clipPath7764">
      <use xlink:href="#path7069" />
    </clipPath>
    <linearGradient gradientUnits="userSpaceOnUse" id="linearGradient4718" x1="567.68927" x2="564.51068" y1="507.31915" y2="604.56812" xlink:href="#linearGradient6431" />
    <linearGradient gradientTransform="translate(0.30400322,0.86559161)" gradientUnits="userSpaceOnUse" id="linearGradient4720" x1="344.00696" x2="345.19534" y1="552.41376" y2="654.58466" xlink:href="#linearGradient6431" />
    <inkscape:path-effect effect="powerstroke" end_linecap_type="zerowidth" id="path-effect5966-2-8" interpolator_type="CubicBezierSmooth" offset_points="0.42,4 | 1.8,4" start_linecap_type="zerowidth" />
    <inkscape:path-effect effect="powerstroke" id="path-effect5085" interpolator_type="CubicBezierSmooth" offset_points="0.23,4" start_linecap_type="zerowidth" />
    <inkscape:path-effect effect="powerstroke" id="path-effect6761" interpolator_type="CubicBezierSmooth" offset_points="0.56,4" start_linecap_type="zerowidth" />
    <inkscape:path-effect effect="powerstroke" id="path-effect6759" interpolator_type="CubicBezierSmooth" offset_points="0.31,4 | 3,4" start_linecap_type="zerowidth" />
    <inkscape:path-effect effect="powerstroke" end_linecap_type="zerowidth" id="path-effect3796" interpolator_type="CubicBezierSmooth" offset_points="0.34,4 | 2.73,4" start_linecap_type="zerowidth" />
    <clipPath id="clipPath5271">
      <use xlink:href="#ellipse4442" />
    </clipPath>
    <clipPath id="clipPath5834">
      <use xlink:href="#path5275" />
    </clipPath>
    <clipPath id="clipPath5851">
      <path d="m 1107.125,628.25 c 22.3531,17.62077 62.9879,26.36877 91,22.125 22.3074,-15.76217 33.8598,-36.81206 42.9482,-59.84467 -11.6792,-45.89147 -31.9626,-69.05833 -86.0143,-79.24239 -40.9617,28.40619 -55.7702,74.50778 -47.9339,116.96206 z" />
    </clipPath>
    <clipPath id="clipPath6224">
      <use xlink:href="#path6211" />
    </clipPath>
    <clipPath id="U">
      <use xlink:href="#T" />
    </clipPath>
    <linearGradient gradientUnits="userSpaceOnUse" id="linearGradient5400" x1="1253.2889" x2="1251.9714" y1="258.67596" y2="360.92496" xlink:href="#linearGradient5257" />
    <linearGradient gradientTransform="translate(2.9999999e-6,6.9000001e-6)" gradientUnits="userSpaceOnUse" id="linearGradient1343-3" x1="611.89331" x2="718.2854" y1="413.27026" y2="389.80612" xlink:href="#linearGradient1375" />
    <linearGradient gradientTransform="translate(2.9999999e-6,6.9000001e-6)" gradientUnits="userSpaceOnUse" id="linearGradient1361-6" x1="821.64868" x2="783.95703" y1="380.31348" y2="380.0379" xlink:href="#linearGradient1375" />
    </defs>
  <g>
    <path d="M 588.78337,798.97812 C 470.62144,588.09191 249.01808,783.40069 326.37346,846.69145 c 81.23632,66.46608 -105.98664,103.61788 -23.92342,136.16192 88.11646,34.94463 -1.38804,61.63383 67.81626,99.04853 51.77305,27.9907 -25.30203,59.2381 41.98462,108.4723 -6.77073,-34.8693 5.83442,-54.2965 31.9256,-65.4942 49.75699,-21.3544 -35.08393,-57.8538 23.33479,-92.6634 97.09456,-57.85511 -42.96706,-56.27679 5.25602,-89.85338 38.59192,-26.87064 43.27656,-49.93178 22.52081,-81.10253 -31.03617,-46.60975 41.92967,-79.48147 78.11011,-31.20161 z" fill="#4a2408" stroke="#291200" stroke-width="8" />
    <path d="m 577.38273,821.0384 c -96.32103,-94.05239 -182.25534,-26.03246 -113.54246,36.96366 61.97208,56.81615 -63.6615,92.05932 -17.16975,114.6817 74.44442,36.22384 -51.77739,33.13954 -29.63888,70.68854 18.15753,30.7969 20.10395,61.3132 5.89599,95.5252 M 584.87169,806.04509 C 423.56779,638.35866 323.3283,798.73601 379.47032,827.5136 c 76.04526,38.97971 -63.25654,96.47861 -10.45563,116.20643 52.80092,19.72782 -43.3567,68.93287 16.55409,104.01137 40.51224,23.7204 1.53922,96.3088 16.17574,134.0941" fill="none" stroke="#291200" stroke-width="4" />
  </g>
  <g>
    <path d="M 387.57547,755.55186 C 207.77332,633.90655 105.855,913.31355 235.85701,1052.5708 c 37.54845,40.2216 19.46219,84.0472 -60.31985,51.5628 -108.182082,-44.0479 -154.341293,15.5905 -139.704769,58.4874 9.048549,26.5196 43.984056,27.1975 54.487622,2.6349 -66.401764,19.3804 -27.04941,-109.4486 92.027427,-16.1987 79.02612,61.8859 158.38708,0.037 127.93265,-105.062 -44.84553,-154.76258 7.66599,-249.16257 74.73656,-261.77023 z" fill="#f3b5cf" stroke="#e581b1" stroke-width="8" />
    <path d="M 386.3103,766.89539 C 264.97296,723.83851 176.96928,859.3905 266.11256,1029.8928 c 31.46007,60.1729 26.27818,119.8102 -21.30457,143.8301" fill="none" stroke="#eb81b4" stroke-width="4" />
    <path d="m 259.39958,808.35602 c 12.61973,-50.03235 49.62503,-89.45454 111.88675,-76.09616 l -46.73726,449.40174 c -3.02148,29.0529 -119.41136,37.0246 -120.11834,-0.5408 -1.6695,-88.7094 10.78341,-149.5894 42.75475,-220.70861 4.10393,-9.12906 11.35474,-12.6905 22.97988,-12.2324 -3.75574,-35.19377 -27.05697,-75.23551 -10.76578,-139.82377 z" fill="#f3e488" />
    <path fill="#e9d461" inkscape:original-d="m 270.46855,963.42071 c 3.58078,-39.27602 -29.73638,-81.05565 -11.06897,-155.06469 12.61974,-50.03235 49.62503,-89.45454 111.88675,-76.09616 l -46.73726,449.40174 c -3.02148,29.0529 -119.41136,37.0246 -120.11834,-0.5408 -1.6695,-88.7094 10.78341,-149.5894 42.75475,-220.70861 4.10393,-9.12906 11.35474,-12.6905 22.91956,-12.29171" inkscape:path-effect="#path-effect6893" />
    <path d="m 450.87551,865.7499 c 37.4974,0.0488 48.00511,-24.31143 44.56861,-43.08266 13.70283,-20.95329 1.70416,-54.34431 -19.9157,-54.04037 -5.6492,-16.19684 -26.90085,-19.31414 -48.22643,-1.75782 z m -150.55348,-0.35894 c -37.4974,0.0488 -48.00511,-24.31143 -44.56861,-43.08266 -13.70284,-20.95329 -1.20722,-56.27734 21.70135,-54.04037 5.64919,-16.19684 26.90083,-19.31414 48.22641,-1.75782 z" fill="#faf5ab" stroke="#e9d461" stroke-width="8" />
    <path d="m 478.50433,832.82871 18.23888,-12.94303 m -43.67989,-45.80589 19.66232,-10.65413 m 5.99348,30.3087 17.37975,-12.22499 m -51.27915,-24.72298 c 8.47165,6.74779 9.41788,15.79526 7.05529,26.96388 23.9434,-5.14683 39.44463,16.95096 23.6537,45.43201 8.57456,9.66187 8.54179,20.62422 -1.80192,32.89403 M 272.69321,832.46977 254.45435,819.52674 m 44.10943,-45.80589 -18.30624,-10.65413 m -7.77911,30.3087 -17.37974,-12.22499 m 53.06476,-24.72298 c -8.47164,6.74779 -11.20351,15.79526 -8.84091,26.96388 -23.94341,-5.14683 -39.44464,16.95096 -23.6537,45.43201 -8.57457,9.66187 -8.5418,20.62422 1.80192,32.89403" fill="none" stroke="#e9d461" stroke-width="4" />
    <path d="m 284.47669,837.91036 c 5.76308,-67.42893 61.11973,-106.87106 109.65699,-99.70945 41.19191,6.07781 89.91109,43.24873 89.02467,104.73677 -2.12759,147.58428 -211.69478,147.2283 -198.68166,-5.02732 z" fill="#faf5ab" stroke="#e9d461" stroke-width="8" />
    <path d="M 325.56852,892.25949 262.0402,1211.8462 c -5.54264,27.884 108.45904,28.4285 109.48006,5.7052 l 13.20204,-293.80985 -4.40328,290.53235 c -0.35492,23.4173 113.95868,19.6979 109.951,-9.3863 L 446.76739,889.17835 Z" fill="#faf5ab" />
    <path fill="#e9d461" inkscape:original-d="M 325.56852,892.25949 262.0402,1211.8462 c -5.54264,27.884 108.45906,28.4285 109.48006,5.7052 L 384.7223,923.74155" inkscape:path-effect="#path-effect4565" />
    <path fill="#e9d461" inkscape:original-d="m 446.76739,889.17835 43.50263,315.70925 c 4.00768,29.0842 -110.30592,32.8036 -109.951,9.3863 l 4.40328,-290.53235" inkscape:path-effect="#path-effect4567" />
    <path d="m 370.75547,914.64951 c 8.27015,7.70702 20.37914,8.04946 29.09946,0.2808 -3.58793,15.56452 -25.57819,15.74751 -29.09946,-0.2808 z" fill="#e9d461" />
  </g>
  <g>
    <path d="m 751.02686,959.12441 c 1.68051,60.55059 21.22994,149.19309 67.78173,211.69189 15.64345,21.0023 -98.35873,32.1386 -112.21099,1.1042 -31.14591,-69.7788 -30.64903,-155.4488 -20.70102,-206.15189 1.66076,-8.46455 13.80994,-14.79734 21.95178,-13.29734 z" style="fill:#ead79c;stroke-width:8;stroke:#92855d;clip-path:url(#clipPath2311)" />
    <path d="m 685.89658,965.76861 c 1.66076,-8.46455 13.80994,-14.79734 21.95178,-13.29734 l 43.1785,6.65314 c 1.53401,55.27209 17.95729,133.95179 56.21683,194.78679 -20.31279,-2.1923 -36.47975,-8.9219 -50.6075,-21.2426 0,11.6931 1.40426,17.2894 10.43052,26.9311 -18.87308,-1.2309 -32.07276,-7.1351 -43.971,-24.9825 -4.87301,11.1165 -11.08848,18.4958 -23.06753,21.1224 -24.44617,-66.4318 -23.32272,-143.1256 -14.1316,-189.97099 z" style="fill:#bb7a30;stroke-width:8;stroke:#634019;clip-path:url(#clipPath2301)" />
    <path d="m 740.0087,987.30837 c 41.01219,-49.49748 42.02899,-114.5667 7.28947,-174.15476 l -73.34921,96.02153 c 14.83145,12.82773 27.51451,30.02871 31.56683,52.66115 z" fill="#bb7a30" />
    <path fill="#634019" inkscape:original-d="m 740.0087,987.30837 c 41.01219,-49.49748 42.02899,-114.5667 7.28947,-174.15476 l -73.34921,96.02153 c 14.83145,12.82773 27.51451,30.02871 31.56683,52.66115" inkscape:path-effect="#path-effect2285" />
  </g>
  <g>
    <path d="m 566.19256,267.81182 c 208.42451,-167.39607 322.15647,-38.1035 277.17506,0.35886 -56.61926,48.41356 80.18654,69.64112 24.17943,113.28884 -65.55352,51.08747 71.05689,54.1838 -14.28228,109.16192 -69.92299,45.04654 22.02963,53.79211 -60.77243,97.08315 -96.60549,50.50782 74.02844,98.54267 -75.3151,141.21226 z" fill="#4a2408" stroke="#291200" stroke-width="8" />
    <path d="m 623.2895,227.03622 c 154.83914,-46.2193 202.66785,11.59824 168.35639,48.29037 -45.1518,48.28463 73.68124,53.08326 37.08326,86.23149 -38.99807,35.32209 32.27555,75.60489 -16.97056,101.11627 -47.69764,24.70922 9.26927,55.66318 -34.69849,72.07464 -77.80509,29.04163 -18.04582,54.83109 -43.08326,79.95332 -34.02691,34.14214 45.20458,65.84672 -23.0061,96.92388" fill="none" stroke="#291200" stroke-width="4" />
  </g>
  <g>
    <path d="M 811.42167,722.80999 C 786.73812,638.17671 790.51238,593.10618 800.79541,592.84747" fill="none" stroke="#7e9ed2" stroke-width="3" />
    <path d="m 726.95982,631.37196 c 97.0062,-33.65371 166.48105,-76.80406 223.91894,-137.90609 20.59633,-21.91023 89.42524,84.39841 48.79754,107.84854 -82.17284,47.42975 -151.16638,72.36868 -260.31404,87.94385 z" style="fill:#ead79c;stroke-miterlimit:20;clip-path:url(#clipPath3815);stroke:#92855d;stroke-width:8" />
    <path d="m 952.96705,560.17633 c 7.15205,-6.62723 11.92631,-12.72823 15.52676,-20.49234 10.72925,17.68346 9.6293,34.33892 -0.0184,54.2523 10.22729,0.38802 17.75216,4.3698 23.50469,11.77584 -78.84491,44.58752 -146.89422,68.45956 -252.61784,83.54613 l -12.40244,-57.8863 c 91.96598,-31.90514 159.18722,-72.34571 214.86626,-128.52612 9.61854,16.83625 13.50281,31.95347 11.14097,57.33049 z" style="fill:#bb7a30;stroke-miterlimit:20;clip-path:url(#clipPath3803);stroke:#634019;stroke-width:8" />
    <g>
      <use transform="rotate(359.66617 722.08226-933.68094)" xlink:href="#path1210" />
      <path d="m 877.22907,545.47822 c 35.76945,-60.30745 21.08287,-78.58633 36.65879,-108.69977 15.57592,-30.11344 13.25549,-62.12884 6.84511,-83.45034 -9.55323,-31.77486 33.81525,-41.87825 53.9601,-7.40355 -13.29145,49.42757 22.6254,33.06093 0.87817,102.86087 -12.6225,40.51319 -55.46576,47.57104 -92.73325,100.33432 z" fill="#d075c4" />
      <path d="m 932.38907,336.35852 c 3.78364,2.26976 8.63755,2.58457 13.48053,1.04089 l -1.79365,3.41682 c -4.875,0.625 -9.07368,-0.57675 -11.68688,-4.45771 z" />
      <circle cx="946.88599" cy="343.31158" r="6.1965332" />
      <circle cx="945.57452" cy="342.51929" fill="#fff" r="2.5592303" />
      <path d="m 913.88786,436.77845 c 10.61853,-20.52915 12.91969,-41.94224 11.27783,-60.24847 12.11901,-5.39053 36.11724,0.021 46.09647,34.75975 4.21201,-6.15426 6.32178,-11.26055 7.99319,-19.24317 4.07491,10.47107 6.42295,24.29923 -3.68411,56.73887 z" fill="#fff" />
      <path d="m 980.83758,396.68969 c 2.90622,10.07025 3.424,24.20322 -5.26634,52.09574 -7.36123,23.62663 -25.00064,35.87499 -45.81825,52.44603 -17.2503,3.74368 -26.42046,-1.60278 -27.6708,-15.85906 3.84253,-18.72793 3.13276,-31.82633 11.80567,-48.59395 9.26738,-17.91693 12.1994,-36.50716 11.70405,-53.11769 19.93913,-4.38883 34.44526,1.25953 43.50965,38.65885 7.12091,-8.22006 10.5315,-16.20376 11.73602,-25.62992 z" fill="#dea0d4" />
      <path d="m 877.22907,545.47822 c 35.76945,-60.30745 21.08287,-78.58633 36.65879,-108.69977 15.57592,-30.11344 13.25549,-62.12884 6.84511,-83.45034 -9.55323,-31.77486 33.81525,-41.87825 53.9601,-7.40355 -13.29145,49.42757 22.6254,33.06093 0.87817,102.86087 -12.6225,40.51319 -55.46576,47.57104 -92.73325,100.33432 z" fill="none" stroke="#9f4493" stroke-width="2" />
      <path d="m 959.23026,348.4974 46.78464,-6.21466 m -46.78464,6.21466 c 1.70423,-4.36423 3.81099,-7.32213 6.81064,-10.33734 l 39.974,4.12268 -39.9812,15.25945 c -3.72779,-2.11619 -6.07726,-5.99298 -6.80344,-9.04479 z" style="fill:#eff27f;stroke-miterlimit:20;stroke:#d5d843;stroke-linecap:round;stroke-width:2" />
      <path d="m 917.5,395.51777 c 7.33975,-37.6744 39.44895,-44.95326 34,-4.26777 -7.5,56 -31.56497,88.44796 -71.81497,115.44796 C 901.8462,462.14035 910.06078,433.70274 917.5,395.51777 Z" fill="#d075c4" />
      <path d="m 908.28162,483.54392 c 6.97142,-13.40389 12.5541,-27.03738 18.07737,-41.93483 -3.80037,14.01177 -8.61844,26.60679 -14.49425,38.63589 m -21.44052,18.75698 c 10.1259,-17.34995 17.27114,-34.55681 24.30419,-53.88028 -5.00012,18.88153 -11.85767,35.20971 -20.65775,51.05706" fill="#9f4493" />
      <path d="m 951.5,391.25 c 5.44895,-40.68549 -26.66025,-33.40663 -34,4.26777 -2.22013,11.39578 -4.50932,21.92342 -7.23587,32.24557 3.61435,0.71916 9.70678,-6.50886 17.28319,-22.36464 -0.26375,15.42981 8.6222,20.72607 20.30901,6.19024 1.45936,-6.4279 2.68644,-13.19159 3.64367,-20.33894 z" fill="#dea0d4" />
      <path d="m 917.5,395.51777 c 7.33975,-37.6744 39.44895,-44.95326 34,-4.26777 -7.5,56 -31.56497,88.44796 -71.81497,115.44796 C 901.8462,462.14035 910.06078,433.70274 917.5,395.51777 Z" fill="none" stroke="#9f4493" stroke-width="2" />
      <path d="m 946.1366,482.926 c 14.61136,-3.33156 22.66219,4.48592 20.30159,20.76055 -1.36619,-11.6683 -5.1121,-17.1596 -11.07573,-18.00849 3.09583,4.15493 3.64659,8.62666 2.67884,14.29617 -1.52387,-7.90761 -3.28443,-11.662 -7.52817,-14.56264 0.8321,3.29566 0.57726,6.64127 -0.47097,10.62936 -0.82969,-5.82276 -1.83018,-9.33912 -3.90556,-13.11495 z" id="path1210" />
    </g>
    <path d="m 796.66368,596.00191 c 1.17917,-2.05796 2.58149,-3.11544 4.13173,-3.15444 18.86352,-0.47459 7.2453,78.89246 16.68791,128.20395" fill="none" stroke="#7e9ed2" stroke-width="3" />
    <path d="m 814.8558,724.50133 c -17.37051,14.7887 -40.94765,26.78797 -60.58777,37.98769 -22.47636,12.81712 68.26466,143.89935 91.40587,132.22705 22.00508,-11.09921 30.45789,-34.9087 63.15054,-46.99567 z" fill="#24bc70" stroke="#149454" stroke-width="4" />
    <path d="m 811.13466,719.01105 c -12.04837,14.59396 -0.53273,90.81256 7.29248,101.04645 10.10254,13.21227 83.56093,42.98051 95.08002,33.54568 C 928.9021,840.99385 824.32538,703.03351 811.13463,719.01105 Z" fill="#24bc70" stroke="#149454" stroke-width="4" />
    <circle cx="1000.4406" cy="585.42603" fill="#0e5a34" r="4.7729716" transform="rotate(14.157499)" />
  </g>
  <path d="m 522.88619,1019.7655 c 4.46771,-15.5027 9.45228,-29.29799 14.68494,-40.41111 3.98557,-8.46455 17.31091,-7.94379 21.93771,-8.07085 -2.12115,-42.1398 -52.46107,-83.47096 8.1345,-215.31546 56.5384,-123.01686 1.41926,-205.37944 -22.37386,-290.84047 -72.66264,-260.99245 312.0029,-285.25474 274.32858,-19.92072 L 682.99593,545.29863 c 43.38931,143.20984 50.65147,300.39479 -56.44013,377.30312 -19.65568,51.58301 -41.52266,100.22085 -103.66961,97.16375 z" fill="#bb7a30" />
  <g transform="matrix(.66923348.12001919-.05493043 1.6315118 583.42195 874.53502)" inkscape:path-effect="#path-effect211">
    <path fill="#f5cbf1" inkscape:original-d="M 0,-9 C 9.9,-32.7 37.7,-26.7 37.7,-4 37.7,14.4 12.1,14.2 0,35 -12.1,14.2 -37.7,14.4 -37.7,-4 -37.7,-26.7 -9.9,-32.7 0,-9 Z" />
    <path style="fill:none;stroke-miterlimit:20;stroke:#cd1daa;stroke-width:2.40000006" inkscape:original-d="M 0,-9 C 9.9,-32.7 37.7,-26.7 37.7,-4 37.7,14.4 12.1,14.2 0,35 -12.1,14.2 -37.7,14.4 -37.7,-4 -37.7,-26.7 -9.9,-32.7 0,-9 Z m 0,0 V 35 M -15.1,20.1 0,6.2 15.1,20.1" />
    <path fill="#cd1daa" inkscape:original-d="m -45.9,-19.8 c -2.6,-3.5 8.5,-11.2 11.6,-7 3.1,4.2 -9,10.5 -11.6,7 z m 20,-12.2 c 0.8,-7 19.4,-5.3 19.8,-1.2 0.4,4.1 -20.6,8.2 -19.8,1.2 z m 32,-1.2 c 0.4,-4.1 19,-5.8 19.8,1.2 0.8,7 -20.2,2.9 -19.8,-1.2 z m 28.2,6.4 c 3.1,-4.2 14.2,3.5 11.6,7 -2.6,3.5 -14.7,-2.8 -11.6,-7 z" />
  </g>
  <path clip-path="url(#clipPath1081)" fill="#634019" inkscape:original-d="m 558.30744,984.82385 c 11.1674,-47.84901 -57.76497,-82.85698 9.3359,-228.85577 56.5384,-123.01686 1.41926,-205.37944 -22.37386,-290.84047 -72.66264,-260.99245 312.0029,-285.25474 274.32858,-19.92072" inkscape:path-effect="#path-effect1071" />
  <g>
    <path d="m 751.98561,325.01757 c 92.60379,-163.29 69.56851,-183.41669 -50.55294,-37.51262 z" fill="#bb7a30" />
    <path fill="#634019" inkscape:original-d="m 751.98561,325.01757 c 92.60379,-163.29 69.56851,-183.41669 -50.55294,-37.51262" inkscape:path-effect="#path-effect990-1-3" />
    <path d="m 707.72555,282.40393 c -0.47221,7.76105 0.72352,14.55598 5.12775,22.60106 -7.02075,-5.60023 -11.67742,-12.16895 -14.50871,-20.04288 z" fill="#634019" />
    <path d="m 765.99289,215.1007 c 3.26151,15.60215 16.07642,19.63193 38.2268,5.0019 m -63.9288,21.90757 c 6.18618,19.23007 24.42344,22.97496 50.56028,9.39325 m -74.32047,17.24795 c 11.62726,25.69224 30.8541,29.64843 58.92716,14.55297" fill="none" stroke="#634019" stroke-width="4" />
  </g>
  <g clip-path="url(#clipPath1076)">
    <path d="m 585.88621,452.95405 166.0994,-127.93648 68.12312,55.27673 c 2.84939,19.29575 2.89596,40.92025 -0.51067,64.91259 L 708.24171,550.37512 c 136.05125,196.76213 14.89697,426.91711 -81.12689,370.56355 z" fill="#ead79c" />
    <path fill="#92855d" inkscape:original-d="m 699.84178,914.17972 c -22.83765,16.98252 -48.57707,20.9318 -72.72696,6.75895 l -41.22861,-467.98462 166.0994,-127.93648 68.12312,55.27673 c 2.84939,19.29575 2.89596,40.92025 -0.51067,64.91259 L 708.24171,550.37512 c 73.5422,106.35933 71.93103,222.47579 39.75966,297.82296" inkscape:path-effect="#path-effect1057" />
  </g>
  <g>
    <path d="m 624.89601,448.83892 c -10.31266,0.88047 -17.26503,5.02653 -18.64015,14.36147 5.19366,-6.52216 11.94293,-9.9922 21.7983,-9.69028 m 4.60492,5.82989 c -10.67648,3.52778 -15.82342,9.91892 -13.85011,21.74482 2.32323,-10.48839 8.32699,-15.78203 18.28096,-18.27667 m 5.59098,4.47059 c -7.23742,5.69986 -9.81475,13.09015 -5.19402,22.79156 0.0245,-9.38516 2.17592,-15.5229 9.36356,-20.00192" />
    <g clip-path="url(#clipPath7130)">
      <ellipse cx="749.9809" cy="-245.05219" fill="#f5cbf1" id="path4541" rx="73.56765" ry="61.97625" transform="rotate(49.807823)" />
      <g clip-path="url(#clipPath7084)">
        <ellipse cx="659.47168" cy="-467.65268" fill="url(#linearGradient6195)" id="path4297" rx="53.467209" ry="45.042999" transform="rotate(65.847775)" />
        <path d="m 672.98075,469.31909 35.63821,-56.88584 -56.57235,29.58614 z" fill="#ff98eb" />
        <path d="m 645.08197,432.203 63.53699,-19.76975 -52.88093,41.15018 z" fill="#e83ec6" />
        <ellipse cx="660.67773" cy="-471.43799" rx="43.551895" ry="36.689926" transform="rotate(65.847775)" />
        <ellipse cx="763.40253" cy="163.29063" fill="#fff" rx="15.144753" ry="21.607693" transform="rotate(18.112085)" />
        <ellipse cx="790.1734" cy="173.08521" fill="#fff" rx="4.9903245" ry="6.8525891" transform="rotate(18.898784)" />
      </g>
    </g>
    <path d="m 610.30014,373.45228 c -11.56271,-6.14688 -16.59396,-17.10974 -14.50743,-29.72424 2.37816,11.15942 7.54461,18.82406 17.85043,23.83914 z m -6.62111,17.59023 c -13.34403,-1.29345 -23.08476,-8.48647 -25.84443,-22.28379 6.93497,9.98038 14.94197,15.2026 27.34599,15.66379 z m 130.96254,56.62694 c 8.74246,-54.10218 -27.92767,-93.02949 -66.04828,-98.43048 -30.99782,-4.39182 -64.23167,15.91013 -64.17224,60.15852 -16.09109,3.36639 -24.79086,-2.67955 -31.8939,-12.92752 8.28072,6.62971 18.46757,8.92011 26.0234,7.29551 2.54381,-44.79202 36.68125,-65.42476 70.73431,-60.66163 39.36816,5.5066 84.68937,49.67916 65.35671,104.5656 z" opacity=".98" />
    <path d="m 817.55045,398.96063 c 5.65441,-4.94634 14.73556,-5.57449 21.08438,-0.0984 -8.11843,-1.68744 -14.99485,-0.56944 -20.43892,5.24093 z m -0.68322,15.49999 c 7.60914,-3.85176 14.63858,-3.95082 23.0968,1.13382 -6.16295,-8.13921 -14.096,-9.4005 -22.16782,-6.23218 z m 16.44105,16.88061 c -2.55118,-8.74618 -8.78637,-12.48271 -17.19927,-11.87825 l -2.67059,4.68472 c 8.27026,-1.6541 14.05482,0.77417 19.86986,7.19353 z m -33.72746,-95.46813 3.59813,4.39794 c 11.30006,-5.92522 17.08602,-14.63095 17.48453,-28.23655 -4.88419,12.13247 -10.55824,19.23186 -21.08266,23.83861 z m 6.39091,13.05179 1.95309,5.2573 c 10.99022,-0.54464 20.54081,-6.41705 24.15377,-18.02477 -7.45365,9.26585 -15.57494,12.56894 -26.10686,12.76747 z" />
    <g clip-path="url(#clipPath7114)">
      <path d="m 792.19697,434.02304 c -17.47318,-36.34015 -20.4967,-81.99691 5.18182,-112.96285 21.20006,31.38284 30.21898,75.05859 21.37947,123.98316 -11.00814,-0.43679 -20.9598,-3.25961 -26.56129,-11.02031 z" fill="#f5cbf1" id="path12893-0" />
      <g clip-path="url(#clipPath7098)">
        <ellipse cx="460.15509" cy="-753.24445" fill="url(#linearGradient7072)" id="path5053" rx="47.390915" ry="18.391415" transform="rotate(84.702551)" />
        <path d="m 788.47043,396.05774 31.42206,14.25081 -4.12489,24.4731 z" fill="#ff98eb" />
        <path d="m 788.47043,396.05774 32.10963,18.5807 0.0626,-20.75069 z" fill="#e83ec6" />
        <ellipse cx="461.44098" cy="-752.40698" rx="37.39843" ry="14.513539" transform="rotate(84.702551)" />
        <ellipse cx="-339.68683" cy="808.52539" fill="#fff" rx="18.344095" ry="5.8339119" transform="rotate(272.3198)" />
        <ellipse cx="-334.23865" cy="828.89105" fill="#fff" rx="5.5529966" ry="1.8616117" transform="rotate(274.29333)" />
      </g>
    </g>
    <path d="m 792.19697,434.02304 c -24.27015,-42.49657 -17.37526,-87.27161 2.5236,-113.503 5.94745,-7.84014 9.37448,-14.82826 10.63076,-25.97881 2.72565,12.25117 0.23472,20.31278 -7.36794,30.43094 -17.92858,23.86065 -24.56766,58.9108 -5.78642,109.05087 z" />
    <path d="m 600.77751,409.41151 c 34.65494,-28.79734 77.29547,-42.96399 121.88771,-41.54064 18.68022,132.97356 -64.44719,143.96636 -121.88771,41.54064 z" fill="url(#linearGradient1343-3)" opacity=".5" />
    <path d="m 824.75221,354.87496 c -15.83726,-8.64411 -33.62614,-5.44007 -49.38189,4.64325 22.84098,126.57895 57.03728,115.14313 49.38189,-4.64325 z" fill="url(#linearGradient1361-6)" opacity=".5" />
    <path d="m 725.12265,393.72067 c 13.28521,-17.59444 39.22564,-22.59167 55.31672,-9.09102 m -56.05806,-1.89782 c 12.62,-14.6508 39.63405,-19.06748 53.70463,-9.05852 m 46.66627,-18.79835 c -15.83726,-8.64411 -33.62614,-5.44007 -49.38189,4.64325 22.84098,126.57896 57.03728,115.14314 49.38189,-4.64325 z m -223.9747,54.53655 c 34.65494,-28.79734 77.29547,-42.96399 121.88771,-41.54064 18.68022,132.97357 -64.44719,143.96637 -121.88771,41.54064 z" fill="none" stroke="#efefef" stroke-width="4" />
    <path d="m 802.24778,485.59706 c -22.10729,15.48811 -33.98676,38.78055 -29.26698,65.88606 -60.8833,-12.4958 -20.75989,-122.98472 29.26698,-65.88606 z" fill="#bb1c76" />
    <path d="m 751.63557,508.97823 c 18.10118,8.68931 23.26721,22.98986 20.2393,42.27066 -19.92587,-4.48713 -25.00107,-26.53773 -20.2393,-42.27066 z" fill="#ef6f2f" />
    <path d="m 792.19697,434.02304 c 11.98842,19.29374 47.60951,0.4406 41.72696,31.18299 -7.1363,37.29448 -52.22831,42.82297 -63.20019,0.55461 -15.28677,32.17451 -20.36453,62.66309 1.57198,86.62857 -45.94815,5.27247 -93.86057,2.69351 -133.31108,-15.30629 z" fill="#ead79c" />
    <path d="m 812.20763,462.23154 c -4.65499,5.35258 -9.83437,5.16481 -12.95048,-1.68784 -0.87915,12.45209 10.15331,13.44535 12.95048,1.68784 z" fill="#92855d" />
    <path fill="#92855d" inkscape:original-d="m 792.19697,434.02304 c 11.98842,19.29374 47.60951,0.4406 41.72696,31.18299 -7.1363,37.29448 -52.22831,42.82297 -63.20019,0.55461 -15.28677,32.17451 -20.36453,62.66309 1.57198,86.62857 -45.94815,5.27247 -93.86057,2.69351 -133.31108,-15.30629" inkscape:path-effect="#path-effect8811-3" />
  </g>
  <g>
    <path d="m 612.35039,989.58151 c -28.51421,45.08799 -24.30541,146.10209 8.15831,215.60089 12.75037,27.2962 -108.2115,32.2244 -113.54006,1.19 -11.98093,-69.7788 6.7287,-176.3149 30.60249,-227.01801" style="fill:#ead79c;stroke-width:8;stroke:#92855d;clip-path:url(#clipPath1044)" />
    <path d="m 651.53542,877.34544 c -9.56802,53.01317 -17.67807,78.22826 -39.18503,112.23607 -26.24754,41.50379 -24.76777,130.39569 0.9543,198.47339 -17.68789,-0.5496 -32.53906,-5.3442 -46.24852,-18.1908 0.0548,8.3492 2.90314,15.3104 6.30799,23.3861 -17.83827,-4.774 -32.22526,-13.5079 -45.49016,-25.4376 2.68768,11.3866 6.49301,19.725 14.77025,29.1302 -16.54818,-3.053 -28.20357,-7.3754 -38.67657,-16.652 -4.49316,-68.0593 12.54641,-156.2155 33.60345,-200.93641 35.92965,68.45581 68.7503,-83.92518 113.96429,-102.00895 z" fill="#bb7a30" />
    <path clip-path="url(#clipPath1038)" fill="#634019" inkscape:original-d="m 651.53542,877.34544 c -9.56802,53.01317 -17.67807,78.22826 -39.18503,112.23607 -26.24754,41.50379 -24.76777,130.39569 0.9543,198.47339 -17.68789,-0.5496 -32.53906,-5.3442 -46.24852,-18.1908 0.0548,8.3492 2.90314,15.3104 6.30799,23.3861 -17.83827,-4.774 -32.22526,-13.5079 -45.49016,-25.4376 2.68768,11.3866 6.49301,19.725 14.77025,29.1302 -16.54818,-3.053 -28.20357,-7.3754 -38.67657,-16.652 -4.49316,-68.0593 12.54641,-156.2155 33.60345,-200.93641 3.98557,-8.46455 17.31091,-7.94379 21.95275,-7.94379" inkscape:path-effect="#path-effect1020" />
  </g>
  <g>
    <path d="m 333.89745,780.16782 c 10.96015,-32.88046 13.28924,-75.28066 6.57173,-100.0294 l 122.80913,13.86244 c -10.66117,28.37868 -16.14046,60.45048 -14.96889,99.13247 z" fill="#faf5ab" />
    <path fill="#e9d461" inkscape:original-d="m 333.89745,780.16782 c 10.96015,-32.88046 13.28924,-75.28066 6.57173,-100.0294 l 122.80913,13.86244 c -10.66117,28.37868 -16.14046,60.45048 -14.96889,99.13247" inkscape:path-effect="#path-effect7884" />
    <path d="m 555.5,546 c 18,148.76703 -93.5,284.56497 -93.20711,358 0.18452,46.26406 51.45711,46.01965 51.45711,6.25 0,-11.73928 -8,-18.5 -21.25,-12 16.25,-36.3033 40.72823,5e-4 28.76777,33.45711 -19.11815,53.47858 -105.84114,65.80392 -133.24247,2.20016 -19.14386,-44.43658 -1.32559,-150.64342 39.12115,-223.26082 z" fill="#f3b5cf" stroke="#e581b1" stroke-width="8" />
    <path d="M 435,974.5 C 395.5,865 497.85355,758.29289 538.35355,690.29289 M 381.5,910 c 8.5,-123 95,-145.5 117,-236" fill="none" stroke="#e581b1" stroke-width="4" />
    <path d="m 291.56173,565.06006 c -11.32294,107.94179 59.8743,160.79369 119.18062,165.87804 70.05319,6.00568 134.39641,-37.27687 140.67098,-138.34124 12.27382,-197.69417 -240.37157,-213.24037 -259.8516,-27.5368 z" fill="#faf5ab" stroke="#e9d461" stroke-width="8" />
    <g>
      <path d="m 536.14368,640.76934 c 7.44453,-1.6262 13.95431,-1.08791 20.289,1.38706 -4.73747,-5.59992 -10.88201,-7.05633 -19.00157,-6.09138 z m -3.64245,9.06236 c 9.07509,0.81487 14.72399,4.56038 18.41978,11.72113 0.73902,-9.05904 -7.36512,-14.39024 -16.97912,-16.25711 z m -4.76079,7.0714 c 5.1893,3.39227 7.93854,7.88468 10.25144,15.23057 1.14523,-9.3711 -1.54566,-15.22148 -8.43203,-19.3039 z" />
      <g clip-path="url(#clipPath7041)">
        <path d="m 543.66599,613.49765 c -9.73049,86.02123 -73.56566,86.83113 -83.90304,43.9636 -16.03836,-66.50863 45.69292,-190.89595 83.90304,-43.9636 z" fill="#fff" id="path3951" />
        <g clip-path="url(#clipPath7023)">
          <ellipse cx="577.37677" cy="554.44678" fill="url(#linearGradient4718)" id="path4029" rx="38.714603" ry="63.131779" transform="rotate(6.9315203)" />
          <path d="m 505.05102,635.56196 -38.53732,38.53731 -8.72271,-28.99658 z" fill="#84d2d4" />
          <path d="m 505.05102,635.56196 -50.73491,-4.06587 4.88909,22.09188 z" fill="#3cbeb7" />
          <ellipse cx="586.9303" cy="551.28827" rx="33.416061" ry="52.248531" transform="rotate(7.3053449)" />
          <ellipse cx="684.17487" cy="366.18103" fill="#fff" rx="14.265585" ry="25.323153" transform="rotate(21.836751)" />
          <ellipse cx="769.19562" cy="229.07913" fill="#fff" rx="5.149982" ry="7.4967346" transform="rotate(33.409708)" />
        </g>
      </g>
      <path d="m 540.19996,601.24032 -3.22913,-8.1757 c 8.2692,6.14435 15.60547,7.90621 25.99132,8.76359 -8.23856,2.47773 -14.73282,2.16343 -22.76219,-0.58789 z m 5.91334,17.5707 -3.68872,-8.7869 c 8.75846,6.05003 16.3196,8.39837 26.8405,8.94038 -9.03533,2.47708 -14.44179,2.793 -23.15178,-0.15348 z m 26.64046,14.42782 c -22.15087,0.004 -28.60521,-9.11026 -33.88669,-26.45241 -37.20816,-122.17593 -86.2576,-20.47647 -79.10412,50.67482 -23.26093,-72.3101 48.47666,-194.34991 83.54949,-52.60876 3.00959,12.16275 11.34803,23.85133 29.44132,28.38635 z" />
    </g>
    <path d="m 386.04163,681.94631 c 4.782,33.95226 50.19233,39.81924 58.22614,3.60685 -2.27905,43.89697 -60.38315,38.25695 -58.22614,-3.60685 z m 17.7505,-12.04038 c -3.73805,-1.56087 -5.15703,-4.06745 -4.5135,-7.87947 -4.50507,3.61092 -1.96315,9.63933 4.5135,7.87947 z m 26.52299,2.1383 c 4.03932,-1.17564 5.68782,-3.51552 5.56381,-7.14761 4.23397,3.75127 0.40009,9.74923 -5.56381,7.14761 z m -29.29247,-21.61071 c 11.2537,-8.11347 26.54782,-6.92905 35.95025,3.82641 -11.69189,-6.38746 -23.63623,-7.64991 -35.95025,-3.82641 z" fill="#e9d461" />
    <use transform="rotate(188.72174 467.71111-3.9584115)scale(1-1)" xlink:href="#g7052" />
    <g>
      <path d="m 302.09265,626.39745 c -7.19842,-2.49965 -13.72603,-2.73904 -20.31002,-1.03467 5.36958,-4.99704 11.64368,-5.71267 19.59095,-3.78934 z m 2.53932,9.4311 c -9.10761,-0.26973 -15.16171,2.7777 -19.68254,9.44833 0.34313,-9.08265 9.02356,-13.41266 18.79132,-14.12341 z m 3.8864,7.5872 c -5.55576,2.75133 -8.81955,6.88507 -11.9893,13.90392 -0.0231,-9.44079 3.34418,-14.92981 10.66702,-18.16465 z" />
      <g clip-path="url(#clipPath7764)">
        <path d="m 297.86565,598.42491 c -0.56443,86.56799 62.72181,94.96067 78.08184,53.62598 23.83096,-64.13043 -22.67582,-194.97414 -78.08184,-53.62598 z" fill="#fff" id="path7069" />
        <g clip-path="url(#clipPath7745)">
          <ellipse cx="358.83661" cy="603.11609" fill="url(#linearGradient4720)" id="path4029-1" rx="38.714603" ry="63.131779" transform="rotate(.9167653)" />
          <path d="m 351.00252,622.74833 -37.87677,37.97648 -8.62199,-28.52579 z" fill="#84d2d4" />
          <path d="m 351.00252,622.74833 -49.93618,-3.9358 4.8402,21.73547 z" fill="#3cbeb7" />
          <ellipse cx="368.7121" cy="601.38184" rx="33.416061" ry="52.248531" transform="rotate(1.29059)" />
          <ellipse cx="534.06335" cy="410.90057" fill="#fff" rx="14.039535" ry="24.921886" transform="rotate(22.289781)" />
          <ellipse cx="630.77985" cy="305.24115" fill="#fff" rx="5.0683761" ry="7.3779426" transform="rotate(33.862737)" />
        </g>
      </g>
      <path d="m 302.76422,586.66653 4.17813,-7.73386 c -8.94098,5.11777 -16.43468,5.99502 -26.8488,5.61168 7.88559,3.43954 14.37116,3.89948 22.67067,2.12218 z m -7.96016,16.74315 4.70712,-8.28609 c -9.41556,4.96595 -17.20225,6.39879 -27.71298,5.68627 8.6768,3.53361 14.00736,4.48999 23.00586,2.59982 z m -28.16669,11.15858 c 21.99333,2.63719 29.48537,-5.64517 36.79098,-22.2365 51.4682,-116.8864 88.08013,-10.07724 72.51914,59.71913 31.69198,-69.03217 -25.02922,-198.73453 -76.70309,-62.16781 -4.43411,11.71874 -14.10293,22.33319 -32.60703,24.68518 z" />
    </g>
    <path d="m 256.31898,384.22183 c 84.17974,-23.82656 147.31088,37.50353 169.55076,128.30649 m 101.5592,-20.38758 c -34.81379,-27.85103 -73.84895,-21.75802 -101.5592,20.38758 -69.04735,-51.06023 -165.26914,25.3382 -101.52125,250.57977 56.85405,200.88345 -83.43733,214.67247 -101.44138,133.55171 -15.04827,-67.80295 54.49254,-67.48444 44.33851,-25.7079 -7.77124,-21.85462 -28.7693,-6.7477 -23.96885,12.82503 5.84894,23.84772 91.09201,35.66019 2.55786,-155.78197 C 83.707143,377.41797 322.27666,267.85559 543.08975,440.59914 Z" fill="#f3b5cf" stroke="#e581b1" stroke-width="8" />
    <path d="m 253.912,746.57772 c 42.77996,60.45764 67.11449,124.80435 51.20458,186.32264 M 516,420.25 c 8.75,17.5 1,46.25 -10,59.25 m -13.05462,-73.49258 c 10.15402,23.20919 12.14471,47.7085 4.31161,70.62758 M 418.40733,371.93431 c 42.06667,25.24 52.48,66.0846 21.72782,124.39769" fill="none" stroke="#e581b1" stroke-width="4" />
  </g>
  <g>
    <path d="m 606.3013,670.46504 c -23.30288,25.44186 -28.81735,50.17638 -18.27607,68.59934 15.66961,27.3856 57.97684,13.94569 93.27141,27.92317 19.89788,-31.9155 -31.87055,-48.67152 -26.37125,-88.65393 z" fill="#bb7a30" />
    <path fill="#634019" inkscape:original-d="m 606.3013,670.46504 c -23.30288,25.44186 -28.81735,50.17638 -18.27607,68.59934 15.66961,27.3856 57.97684,13.94569 93.27141,27.92317 19.89788,-31.9155 -31.87055,-48.67152 -26.37125,-88.65393" inkscape:path-effect="#path-effect16317-3-7" />
    <path d="m 667.94644,748.62723 c -18.38518,29.52639 -38.59428,28.88438 -59.23528,51.99641 -37.73358,42.25081 -14.6356,121.05161 21.28151,108.22853 78.83136,-28.1442 120.7563,-172.36152 95.77936,-200.00387 -22.10252,-24.46119 -66.53817,-11.45133 -83.92759,2.73451 z" style="fill:#ead79c;stroke-width:8;stroke:#92855d;clip-path:url(#clipPath3845)" />
    <path clip-path="url(#clipPath3835)" d="m 667.94644,748.62723 c -15.47494,24.85258 -32.24207,28.33171 -49.47131,42.59273 2.57134,12.4427 8.31734,18.40543 20.23497,22.33878 -13.16934,8.26917 -18.62689,20.25425 -21.33335,36.04611 9.1145,-7.94264 17.27421,-10.29652 25.99632,-10.18743 -12.84067,19.90883 -15.32351,38.59727 -8.08252,67.34708 75.39781,-32.52786 114.89286,-170.89976 90.48148,-197.9162 -22.10252,-24.46119 -66.53817,-11.45133 -83.92759,2.73451 z" fill="#bb7a30" />
    <path clip-path="url(#clipPath3835)" fill="#634019" inkscape:original-d="m 667.94644,748.62723 c -15.47494,24.85258 -32.24207,28.33171 -49.47131,42.59273 2.57134,12.4427 8.31734,18.40543 20.23497,22.33878 -13.16934,8.26917 -18.62689,20.25425 -21.33335,36.04611 9.1145,-7.94264 17.27421,-10.29652 25.99632,-10.18743 -12.84067,19.90883 -15.32351,38.59727 -8.08252,67.34708 75.39781,-32.52786 114.89286,-170.89976 90.48148,-197.9162 -22.10252,-24.46119 -66.53817,-11.45133 -83.92759,2.73451" inkscape:path-effect="#path-effect3831" />
  </g>
  <g>
    <path d="m 545.99089,380.16926 c -30.7491,93.74917 82.68131,15.77581 90.70202,81.13195 6.32425,51.53263 62.77227,35.90757 73.49785,83.36254 10.1011,44.69199 -49.86812,30.47609 -28.18423,82.0696 22.3356,53.14416 -63.65766,14.81875 -47.93231,75.7679 10.11558,39.20649 -4.88285,58.11411 -45.49197,72.71716 23.05692,-47.7455 -26.73662,-45.76126 -35.47671,-85.79798 -7.72848,-35.40266 14.65789,-39.68472 5.05478,-76.36727 -11.08322,-42.3364 30.02134,-38.67335 -19.26197,-99.54295 -36.70409,-45.33306 -23.41593,-72.29507 -76.9608,-114.43208 -46.28469,-36.42364 37.45647,-68.10133 63.92931,-131.49577 z" fill="#4a2408" stroke="#291200" stroke-width="8" />
    <path d="m 539.79893,345.86382 c -25.60934,45.55009 -36.65936,85.73727 24.154,103.35643 65.70314,19.03586 18.36822,36.4599 80.13459,65.09484 87.3416,40.49163 -24.43958,36.63828 -2.71443,87.34136 22.71491,53.01304 -22.58081,30.54766 -26.59303,78.01162 -3.40138,40.23766 21.45836,47.42359 -8.13528,88.50681 M 532.31374,304.373 c -30.30713,53.7879 -79.38108,57.03947 -48.79954,89.45885 48.07301,50.96202 37.28232,87.70979 100.9836,130.89352 51.87288,35.16514 -3.30524,49.28776 12.28557,78.00767 15.59081,28.71991 -35.33705,50.20673 -10.07659,77.10832 14.69565,15.65039 18.23195,39.74617 5.92342,63.95295" fill="none" stroke="#291200" stroke-width="4" />
    <path d="m 547.08753,263.22319 c 72.15467,-118.4635 177.73695,-90.80123 199.05466,-32.14556 2.23531,6.15044 3.1589,11.39167 3.04132,15.90303" fill="#4a2408" stroke="#291200" stroke-width="8" />
    <g>
      <path d="M 550.01873,418.45445 C 465.56157,330.02852 521.53909,226.4189 532.60865,224.4922 c 12.83349,-2.23373 63.15795,31.83954 71.49844,94.10904 z" fill="#bb7a30" />
      <path clip-path="url(#clipPath216)" fill="#634019" inkscape:original-d="M 550.01873,418.45445 C 465.56157,330.02852 521.53909,226.4189 532.60865,224.4922 c 12.83349,-2.23373 63.15795,31.83954 71.49844,94.10904" inkscape:path-effect="#path-effect4765" />
      <g clip-path="url(#clipPath205)">
        <path d="M 550.01873,418.45445 C 465.56157,330.02852 521.53909,226.4189 532.60865,224.4922 c 12.83349,-2.23373 63.15795,31.83954 71.49844,94.10904 z" fill="#261405" />
        <path fill="#0f0802" inkscape:original-d="M 550.01873,418.45445 C 465.56157,330.02852 521.53909,226.4189 532.60865,224.4922 c 12.83349,-2.23373 63.15795,31.83954 71.49844,94.10904" inkscape:path-effect="#path-effect193" />
      </g>
      <g clip-path="url(#clipPath1045)">
        <path d="m 558.53161,364.33612 a 13.726622,13.726622 0 0 1 -13.72662,13.72662 13.726622,13.726622 0 0 1 -13.72662,-13.72662 13.726622,13.726622 0 0 1 13.72662,-13.72662 13.726622,13.726622 0 0 1 13.72662,13.72662 z m -23.45324,0 a 9.7266216,9.7266216 0 0 0 9.72662,9.72662 9.7266216,9.7266216 0 0 0 9.72662,-9.72662 9.7266216,9.7266216 0 0 0 -9.72662,-9.72662 9.7266216,9.7266216 0 0 0 -9.72662,9.72662 z" fill="#fac42d" id="circle1031" />
        <path d="m 546.60148,367.30716 c -2.25657,12.51368 -8.20569,17.94995 -8.20569,17.94995 l 13.1291,-4.00027 c 1.0154,-4.93195 0.92314,-9.50178 -0.30771,-14.77025 z" fill="#ffff64" />
      </g>
      <path d="m 534.19037,349.76751 c 0.24584,4.39099 2.05858,8.66886 5.23113,11.53925 l 7.40887,-4.50463 -3.88028,-9.02983 z" fill="#261405" />
      <path d="m 534.19037,349.76751 c -0.33047,4.7639 1.47243,9.04813 5.23113,11.53925 -2.61704,-3.58228 -4.17027,-7.23329 -5.23113,-11.53925 z m 3.41485,-69.41999 c -3.25509,27.62511 0.53975,55.45051 12.76851,82.86143 -17.26414,-21.95773 -22.8657,-54.36007 -12.76851,-82.86143 z" fill="#0f0802" />
    </g>
    <path d="m 593.92043,239.72788 c -65.56598,46.99862 34.81786,73.16706 -10.22142,106.07861 -51.95495,37.96503 42.58711,42.54117 -10.12133,87.60708 41.84901,-1.23085 73.07279,-18.76184 61.1327,-46.97862 -15.19395,-35.9063 76.90202,-24.6949 56.20866,-62.97762 -32.82275,-60.7221 77.73784,-30.43055 55.22315,-92.3797 -2.11113,26.51513 -97.57349,7.98138 -152.22176,8.65025 z" fill="#4a2408" />
    <path fill="#291200" inkscape:original-d="m 593.92043,239.72788 c -65.56598,46.99862 34.81786,73.16706 -10.22142,106.07861 -51.95495,37.96503 42.58711,42.54117 -10.12133,87.60708 41.84901,-1.23085 73.07279,-18.76184 61.1327,-46.97862 -15.19395,-35.9063 76.90202,-24.6949 56.20866,-62.97762 -32.82275,-60.7221 77.73784,-30.43055 55.22315,-92.3797" inkscape:path-effect="#path-effect1119" />
    <path d="m 576.75711,222.52844 c 85.33917,-48.00328 152.66998,4.31284 92.23742,31.94968 -67.28666,30.77133 14.0591,50.74041 -41.2593,80.72428 -45.32835,24.56904 18.23304,56.97922 -39.20679,79.13458" fill="none" stroke="#291200" stroke-width="4" />
  </g>
  <g id="g7052">
    <path d="m 545.03415,588.97356 c 77.6193,-55.91075 27.27102,-175.93879 4.65805,-177.42481 -13.99692,-0.91981 -29.72513,34.24276 -33.8612,81.57778 z" fill="#faf5ab" />
    <path fill="#e9d461" inkscape:original-d="m 545.03415,588.97356 c 77.6193,-55.91075 27.27102,-175.93879 4.65805,-177.42481 -13.99692,-0.91981 -29.72513,34.24276 -33.8612,81.57778" inkscape:path-effect="#path-effect4536" />
    <path d="m 553.785,458.68028 c 12.80914,24.87661 11.11343,54.41365 -3.12818,79.83863 9.28657,-27.03384 10.31033,-53.54647 3.12818,-79.83863 z" fill="#e9d461" />
  </g>
  <g>
    <g>
      <path d="m 1496.7638,785.4364 -43.5385,170.82741 c 67.6333,29.39883 95.3308,101.91049 104.2552,190.72409 4.4601,44.3867 125.8269,10.8034 107.3705,-33.8766 -29.425,-71.2338 -65.2042,-128.99247 -120.0372,-182.09212 -8.1385,-7.88126 -19.2096,-7.81197 -30.9736,-4.21174 -10.8837,-37.82991 10.3197,-86.61397 -17.0764,-141.37104 z" fill="#95c66d" />
      <path fill="#64a152" inkscape:original-d="m 1518.638,939.24555 c -21.1002,-39.30791 8.6208,-92.85817 -21.8742,-153.80915 l -43.5385,170.82741 c 67.6333,29.39883 95.3308,101.91049 104.2552,190.72409 4.4601,44.3867 125.8269,10.8034 107.3705,-33.8766 -29.425,-71.2338 -65.2042,-128.99247 -120.0372,-182.09212 -8.1385,-7.88126 -19.2096,-7.81197 -30.7967,-4.23224" inkscape:path-effect="#path-effect5085" />
    </g>
    <path d="m 1261.1973,892.17859 c 49.6674,91.54966 90.1912,202.69211 76.9685,282.17071 -5.9006,35.4669 -127.3166,31.1059 -116.3776,1.5624 30.393,-82.0839 19.4415,-176.61821 -23.2056,-314.34949 z" fill="#95c66d" stroke="#64a152" stroke-width="8" />
    <g>
      <path d="m 1166.5114,779.6412 c -15.9794,-12.58139 -39.2726,-7.55553 -49.4178,16.10932 11.9519,-16.49061 32.3762,-22.23965 49.4178,-16.10932 z m -0.6867,-9.037 c -14.5388,-14.22169 -38.2362,-11.72147 -50.8597,10.71958 13.6506,-15.11453 34.5736,-18.6412 50.8597,-10.71958 z" fill="#d74a4f" />
      <path d="m 1051.1488,422.593 c 3.6926,37.33589 43.0798,50.46499 81.2363,41.43873 l 42.2593,-52.51641 z" fill="#ee7676" stroke="#d74a4f" stroke-width="8" />
      <path d="m 1198.13,635.48488 c -50.2551,55.98038 -68.2341,129.04846 -53.072,211.84464 12.3582,67.48437 67.431,45.16598 64.2503,1.27228 z" fill="#ee7676" />
      <path d="m 1147.9158,726.77106 c 14.6312,-10.49632 41.2575,-11.13247 54.9346,-2.22649 l 5.5879,99.73017 c -20.9927,-12.08668 -50.8913,-8.26983 -64.8864,10.81439 -6.0595,-36.10602 -4.5706,-72.21205 4.3639,-108.31807 z" fill="#f19c73" />
      <path d="m 1198.13,635.48488 c -50.2551,55.98038 -68.2341,129.04846 -53.072,211.84464 12.3582,67.48437 67.431,45.16598 64.2503,1.27228 z" fill="none" stroke="#d74a4f" stroke-width="8" />
    </g>
    <g>
      <g>
        <path d="m 1483.5,746.5 c 1.5,-144.5 142.0042,-135.27409 156,-48.5 12.5,77.50001 93.5298,136.86833 46.5,243.5 -33.989,77.0639 5.4796,123.5572 -37.5,198 -36.2807,62.84 -83.4303,36.9322 -65.5,-16.5 25,-74.5 31,-174.5 58.5,-221 27.5,-46.5 -24.5,-278.5 -158,-155.5 z" fill="#ee7676" />
        <path d="m 1596.1167,1072.3772 c 21.0365,-7.6015 55.3312,-5.4801 73.1856,5.8336 -1.136,12.8458 -4.4642,25.6915 -9.3691,38.5373 -16.3505,-16.6998 -45.1961,-20.8929 -70.5339,-16.0867 z m -105.1821,-376.71116 5.3034,-14.49569 c 13.558,7.8546 23.975,18.21031 35.1785,33.58757 l -15.5563,7.42462 c -6.987,-10.95334 -15.943,-20.38259 -24.9256,-26.5165 z" fill="#f19c73" />
        <path d="m 1483.5,746.5 c 1.5,-144.5 142.0042,-135.27409 156,-48.5 12.5,77.50001 93.5298,136.86833 46.5,243.5 -33.989,77.0639 5.4796,123.5572 -37.5,198 -36.2807,62.84 -83.4303,36.9322 -65.5,-16.5 25,-74.5 31,-174.5 58.5,-221 27.5,-46.5 -24.5,-278.5 -158,-155.5 z" fill="none" stroke="#d74a4f" stroke-width="8" />
        <path d="m 1644.9571,889.86612 c 16.1967,9.79505 39.1183,13.58578 55.0429,6.38388" fill="none" stroke="#d74a4f" stroke-width="4" />
        <path d="m 1597.3497,1167.0938 c -9.9501,9.0476 -10.2008,18.7049 -3.0723,29.7495 -2.4134,-11.5765 -1.7498,-19.5551 3.0723,-29.7495 z m 8.6921,-8.6803 c -7.4795,12.2402 -4.8461,22.2026 5.7572,31.3768 -5.9351,-11.13 -7.6434,-19.4969 -5.7572,-31.3768 z m 12.7756,-13.7132 c -9.625,13.125 -7.5993,24.64 3.5141,36.0248 -5.648,-13.1511 -6.7818,-22.7733 -3.5141,-36.0248 z" fill="#d74a4f" />
      </g>
      <g>
        <path d="m 1483,780.5 -9.5,-22.5 c 118.5,-110 173,-36.44638 173,19 0,43.27182 -26.9148,62.69119 -32,124 -3.3479,40.36384 -13.478,80.85175 -27.3147,110.7867 -24.005,51.9333 -77.2728,17.5313 -57,-17.59099 13.5241,-23.43017 27.7323,-59.09863 27.254,-85.07439 -1.0251,-55.66726 2.2115,-76.38299 17.7678,-95.82843 -11.4905,-9.54594 -16.3535,-24.7019 -16.4884,-38.3428 -22.3263,11.20483 -43.2275,13.6033 -75.7187,5.54991 z" fill="#ee7676" />
        <path d="m 1621.0048,864.0946 c -2.9438,10.57829 -5.3184,22.60181 -6.5048,36.9054 -0.8716,10.50815 -2.2028,21.02472 -3.9395,31.3613 -19.3618,10.72867 -38.7236,15.24762 -58.0854,9.33457 3.2107,-11.45516 5.1458,-22.71332 4.9642,-32.57455 -0.272,-14.77029 -0.244,-30.32996 0.2346,-40.80816 21.4909,4.38606 42.5036,3.33672 63.3309,-4.21856 z" fill="#f19c73" />
        <path fill="#d74a4f" inkscape:original-d="M 1577.6213,763.85355 C 1546.9454,784.06497 1524.3657,790.75305 1483,780.5 l -9.5,-22.5 c 118.5,-110 173,-36.44638 173,19 0,43.27182 -26.9148,62.69119 -32,124 -3.3479,40.36384 -13.478,80.85175 -27.3147,110.7867 -24.005,51.9333 -77.2728,17.5313 -57,-17.59099 13.5241,-23.43017 27.7323,-59.09863 27.254,-85.07439 -1.0251,-55.66726 2.2115,-76.38299 17.7678,-95.82843 -11.4905,-9.54594 -16.3535,-24.7019 -16.5,-38.35355" inkscape:path-effect="#path-effect4800" />
        <path d="m 1554.3975,704.97454 c 10.0763,16.08668 15.0866,53.50268 -6.4801,74.71588" fill="none" stroke="#d74a4f" stroke-width="4" />
      </g>
      <g>
        <path d="m 1751.3911,824.78853 c -16.5709,6.90824 -26.4609,18.45699 -23.1411,36.08647 3.3007,-16.50355 11.5332,-24.57308 25.858,-30.91337 z" fill="#d74a4f" />
        <path fill="#d74a4f" inkscape:original-d="M 1688.2071,620.64645 C 1658.9571,660.14645 1624,634.75 1646.5,620.5 c 17.5808,-11.13452 27.25,19.5 -15,42.5" inkscape:path-effect="#path-effect4861" />
        <path d="m 1526.0682,713.86884 c 32.5269,-56.56854 95.0756,-76.92899 143.0574,-39.06245 39.2333,30.96239 80.5173,6.20536 96.1665,48.43681 25.8094,69.65002 67.8822,93.92389 45.6084,125.39014 -14.2146,20.08096 -45.8135,14.34317 -55.5079,-15.78859 -12.5132,-38.89289 -76.7211,-37.47666 -99.3485,-95.45941 -11.3988,-29.20945 -81.1856,-54.27565 -129.9759,-23.5165 z" fill="#ee7676" />
        <path d="m 1664.3839,671.23744 c -3.8611,17.6983 -14.0152,32.66883 -31.4571,43.07322 l 13.2196,9.25 c 16.7458,-12.15981 25.4078,-24.37595 31.1036,-44.06066 z" fill="#f19c73" />
        <path d="m 1526.0682,713.86884 c 32.5269,-56.56854 95.0756,-76.92899 143.0574,-39.06245 39.2333,30.96239 80.5173,6.20536 96.1665,48.43681 25.8094,69.65002 67.8822,93.92389 45.6084,125.39014 -14.2146,20.08096 -45.8135,14.34317 -55.5079,-15.78859 -12.5132,-38.89289 -76.7211,-37.47666 -99.3485,-95.45941 -11.3988,-29.20945 -81.1856,-54.27565 -129.9759,-23.5165 z" fill="none" stroke="#d74a4f" stroke-width="8" />
        <path d="m 1761.6456,714.70767 c -3.5,37.49569 -18.87,56.24012 -50.0329,79.06423" fill="none" stroke="#d74a4f" stroke-width="4" />
      </g>
      <g>
        <path d="m 1612.4677,1034.3715 c -24.8027,9.8215 -48.2378,11.209 -68.0828,29.8525 24.7098,-11.5389 43.6761,-14.5993 71.5666,-25.5504 z m -18.1187,21.3887 c -15.2028,21.9203 -33.9411,36.0625 -40.1283,62.579 13.7886,-25.8095 28.4611,-36.0625 45.6084,-60.6345 z" fill="#d74a4f" />
        <path d="m 1465.0804,752.66395 17.6877,11.696 c 88.7752,-81.23218 190.2882,-42.23484 125.1177,79.31032 -35.6347,66.45984 -39.4655,106.73189 -32.8037,191.06713 5.5936,70.8128 107.1458,28.4129 94.3334,-205.55788 85.7979,-116.10289 -71.1617,-228.15425 -204.3351,-76.51557 z" fill="#ee7676" />
        <path d="m 1573.4415,950.74514 c -1.1416,13.72614 -1.3053,28.28715 -0.7408,44.50657 25.7808,13.59419 62.6611,-10.15891 89.0489,-29.45686 1.6262,-7.93039 3.0652,-16.36769 4.2835,-25.32436 -30.1881,16.49013 -60.9899,21.11507 -92.5916,10.27465 z m 118.0916,-207.81792 c -5.381,-21.76725 -19.646,-39.79849 -39.6784,-51.0582 -8.0293,17.25512 -21.1253,31.31027 -41.8096,40.57273 11.238,8.70333 18.1155,22.5332 18.5418,41.0505 25.4087,-1.33512 46.494,-11.31703 62.9462,-30.56503 z" fill="#f19c73" />
        <path fill="#d74a4f" inkscape:original-d="m 1658.824,841.89612 c 108.0224,-120.17796 -55.6489,-246.47447 -193.7436,-89.23217 l 17.6877,11.696 c 88.7752,-81.23218 190.2882,-42.23484 125.1177,79.31032 -35.6347,66.45984 -39.4655,106.73189 -32.8037,191.06713 5.5936,70.8128 107.1458,28.4129 94.3979,-205.41598" inkscape:path-effect="#path-effect4794" />
      </g>
    </g>
    <path d="m 1342.9442,581.23427 c 14.8689,-211.7916 -301.9217,-213.62799 -279.4472,11.46778 1.0909,10.92591 -35.2646,3.5247 -33.8408,20.86044 4.2974,52.32502 62.8,101.19591 159.7827,96.35659 -44.6152,165.52604 43.0338,241.98946 208.7035,224.92581 5.0386,8.32357 10.9169,16.63432 17.7788,25.69581 41.4654,54.7576 47.6447,164.5419 8.588,237.7957 -14.6283,27.4365 104.3148,32.5585 113.543,2.1743 14.5958,-48.0568 4.9789,-170.3204 -31.0756,-235.25143 -5.4998,-9.90461 -19.2809,-11.09967 -27.0364,-11.18742 5.1153,-33.49516 35.5076,-70.51477 35.5076,-127.52958 0,-51.57932 -42.3569,-88.0794 -83.6555,-88.0794 -54.119,0 -72.1914,41.27046 -120.4356,35.96072 -5.7506,-58.75847 28.1831,-144.69783 31.5875,-193.18932 z" fill="#b9df80" />
    <g clip-path="url(#U)" transform="rotate(180 720.43465 421.53678)scale(1.910244-1.910244)">
      <path d="M -9.5,27 C -5.1,23.4 -4.8,20.9 -4.4,13.5 -4,6.1 -4.3,3.4 -5.2,1.4 -8.2,2 -11.1,0.1 -12,-3.1 -15.4,-3 -19.3,-5.5 -20.3,-9.5 -33,-17 -15,-40.9 0.4,-22.8 c 3.4,-7.7 7.5,-4.5 10.8,-5.4 16.5,-4.5 19.4,23.5 -0.5,26.8 -1.3,2.1 -3.3,3 -6,3.1 C 3,5.2 3.5,22 9,26.9 l -6.1,-2.8 -2.8,5.3 -2,-5 z" fill="#664648" id="T" />
      <ellipse cx="-0.2" cy="14.3" fill="#422728" rx="1.9" ry="2.5999999" />
      <path d="M 26,-10 H -23 V 2.3 h 17.4 c 2.4,5 8.4,5.2 11.3,1.1 H 19 Z" fill="#c93538" />
      <path d="m 28,-30 h -53 v 22.3 h 3.6 c 2.8,1.8 5.5,1.9 8.4,0.7 1.2,1.9 3.1,2.3 5.2,1.4 C -4.4,0 4,0.2 8.3,-6.5 c 3.9,3.2 10.6,2.1 15.8,-3.4 z" fill="#eb4549" />
    </g>
    <g>
      <g clip-path="url(#clipPath5851)">
        <g clip-path="url(#clipPath5834)">
          <ellipse cx="185.88057" cy="1299.0452" fill="#fff" id="path5275" rx="79.411003" ry="56.179474" transform="rotate(304.4836)" />
          <g clip-path="url(#clipPath5271)">
            <ellipse cx="1244.8719" cy="309.55432" fill="url(#linearGradient5400)" id="ellipse4442" rx="28.99111" ry="64.710579" transform="rotate(13.114308)" />
            <path d="m 1131.75,600.75 16.625,56.125 25,-22.875 z" fill="#efe4f4" />
            <path d="m 1131.75,600.75 49.5,20.25 -14.875,22.75 z" fill="#c9a5e0" />
            <ellipse cx="1249.9335" cy="258.8392" rx="23.883188" ry="56.162949" transform="rotate(15.562109)" />
            <ellipse cx="1220.3207" cy="399.76535" fill="#fff" rx="13.037135" ry="26.743731" transform="rotate(7.8281258)" />
            <ellipse cx="1090.5807" cy="667.70349" fill="#fff" rx="5.3794703" ry="7.3737578" transform="rotate(356.24746)" />
          </g>
        </g>
      </g>
      <path d="m 1107.125,628.25 c 22.3531,17.62077 62.9879,26.36877 91,22.125 -32.7975,22.08614 -84.1337,8.08474 -91,-22.125 z" fill="#b9df80" />
      <path d="m 1118.9865,570.04694 c 11.1111,-21.01933 25.1312,-35.59405 47.1882,-48.43684 l -7.4979,-2.9851 c -19.6864,12.4327 -33.5732,28.0858 -39.6903,51.42194 z M 1107.125,628.25 c 23.75,14.75 63,23.25 91,22.125 -22.875,8.375 -75.75,-3.5 -91,-22.125 z m -65.976,23.07414 c 22.0002,4.31859 35.1385,-1.20714 48.3829,-15.64817 -7.5027,17.45969 -20.2725,25.26941 -41.9862,24.03599 m 9.8766,-45.11857 c -1.6143,5.46906 -6.4868,6.28131 -10.5584,2.33591 3.3388,9.12831 11.8114,6.98005 10.5584,-2.33591 z" fill="#64a152" />
      <path d="m 1140.4597,497.85291 c 2.8028,3.93949 5.9842,6.90512 9.4727,9.19239 -1.4263,-4.47477 -1.9046,-8.76203 -1.4142,-13.6118 22.4506,33.23402 89.6258,-1.591 96.6968,115.78873 -40.3051,-126.39534 -96.4468,-54.97755 -104.7553,-111.36932 z" />
      <path d="m 1170.4786,435.78937 c -14.8086,11.16595 -22.4883,24.44012 -26.789,43.66115 44.2399,-5.19763 94.7253,17.47225 132.7468,61.55625 -15.3664,-55.83724 -63.3351,-82.76857 -111.8171,-89.49873 0.7547,-5.23381 2.6176,-10.47293 5.8593,-15.71867 z" fill="#d74a4f" />
    </g>
    <path fill="#64a152" inkscape:original-d="m 1223.022,705.74739 c -115.8657,20.52784 -188.6332,-34.56146 -193.3658,-92.1849 -1.4238,-17.33574 34.9317,-9.93453 33.8408,-20.86044 -22.4745,-225.09577 294.3159,-223.2594 279.4472,-11.46778 -3.7549,53.48449 -44.6499,152.52561 -28.2698,210.57182" inkscape:path-effect="#path-effect4424" />
    <path d="m 1189.8325,709.73518 c -45.0088,165.70994 42.6402,242.17336 208.3263,224.85827" fill="none" stroke="#64a152" stroke-width="8" />
    <g>
      <path d="m 1296.4002,894.62328 c 2.4986,55.8792 -45.8991,105.93372 -20.9129,172.63992 23.1441,61.7884 -58.8722,134.1863 -81.3642,83.1799 -62.2986,-141.2772 35.1758,-198.99839 41.7938,-268.04031 z" fill="#b9df80" />
      <path fill="#64a152" inkscape:original-d="m 1296.4002,894.62328 c 2.4986,55.8792 -45.8991,105.93372 -20.9129,172.63992 23.1441,61.7884 -58.8722,134.1863 -81.3642,83.1799 -62.2986,-141.2772 35.1758,-198.99839 41.7938,-268.04031" inkscape:path-effect="#path-effect3796" />
    </g>
    <path fill="#64a152" inkscape:original-d="m 1480.0951,971.13471 c -6.5025,-38.31227 35.3527,-77.684 35.3527,-144.59244 0,-51.57932 -42.3569,-88.0794 -83.6555,-88.0794 -54.119,0 -72.1914,41.27046 -120.5865,35.83616" inkscape:path-effect="#path-effect6759" />
    <path fill="#64a152" inkscape:original-d="m 1371.7254,862.91503 c 6.4927,40.08526 18.3888,63.54598 44.1958,97.62567 41.4654,54.7576 47.6447,164.5419 8.588,237.7957 -14.6283,27.4365 104.3148,32.5585 113.543,2.1743 14.5958,-48.0568 4.9789,-170.3204 -31.0756,-235.25143 -5.4998,-9.90461 -19.2809,-11.09967 -27.1871,-11.09967" inkscape:path-effect="#path-effect6761" />
    <path d="m 1414.3013,632.64677 c 3.5909,7.90139 10.0652,11.94381 19.5031,11.80285 -8.6562,-2.30693 -13.616,-5.02698 -19.5031,-11.80285 z m -5.5795,10.10999 c 6.0726,8.88393 14.3942,12.37004 25.7521,11.13303 -10.3458,-1.34946 -17.9928,-4.27329 -25.7521,-11.13303 z" fill="#d74a4f" />
    <g>
      <g>
        <path d="m 1509.4739,490.06707 c 6.4836,2.78165 13.0789,5.27876 19.7994,7.44672 -43.4903,49.23413 -120.7668,57.19081 -145.3838,116.27177 l -9.0349,-96.98505" fill="#fecc65" stroke="#f8aa3d" stroke-width="8" />
        <path d="m 1474.6384,508.38468 c 9.0815,19.14991 13.618,36.75039 11.0488,64.16829 l -113.696,44.72 -46.3621,-37.74617 z" fill="#ee7676" />
        <path d="m 1436.4059,583.01422 c -26.2582,-6.76969 -37.3358,-23.18107 -36.5153,-48.00328 l 57.6468,-27.20399 c 6.9627,20.01793 9.5738,38.00506 4.0616,64.98574 z" fill="#f19c73" />
        <path d="m 1474.6384,508.38468 c 9.0815,19.14991 13.618,36.75039 11.0488,64.16829 m -28.1498,-64.74602 c 6.9627,20.01793 9.5738,38.00506 4.0616,64.98574" fill="none" stroke="#d74a4f" stroke-width="8" />
      </g>
      <g>
        <path d="m 1431.427,636.32786 c 32.783,88.48505 6.6727,101.54023 -22.919,78.62114 -14.2877,-44.40209 1.2184,-64.08168 22.919,-78.62114 z" fill="#ee7676" stroke="#d74a4f" stroke-width="8" />
        <path d="m 1408.5079,650.25337 c 41.4865,131.42207 -48.159,134.15632 -64.1154,67.42989 8.1233,136.0639 -12.4749,128.3977 -35.1038,114.18206 -24.6881,-58.06883 8.545,-132.33031 52.0352,-186.07757 z" fill="#ee7676" />
        <path d="m 1418.9688,692.14989 c -17.0189,9.8262 -39.9935,11.93168 -59.2861,6.56455 l -2.1613,14.6458 c 19.4377,12.76505 39.0063,20.3194 60.2415,16.83198 2.2267,-12.68078 2.2523,-25.36155 1.2059,-38.04233 z" fill="#f19c73" />
        <path d="m 1408.5079,650.25337 c 41.4865,131.42207 -48.159,134.15632 -64.1154,67.42989 8.1233,136.0639 -12.4749,128.3977 -35.1038,114.18206 -24.6881,-58.06883 8.545,-132.33031 52.0352,-186.07757 z" fill="none" stroke="#d74a4f" stroke-width="8" />
        <path d="m 1374.5645,645.90165 c -3.1913,59.47356 -15.4749,112.5954 -64.5043,152.34114 36.0858,58.75609 -40.0985,115.3027 -61.4056,2.29012 9.2837,-54.54161 51.3504,-71.07816 88.4851,-163.04459 z" fill="#ee7676" />
        <path d="m 1341.8876,763.84596 c -8.3592,12.32271 -18.7952,23.83229 -31.8274,34.39683 3.6997,6.02403 6.2193,12.02484 7.7389,17.82207 -22.4228,-3.94727 -44.5541,-5.27042 -66.2044,-2.26465 -1.0674,-4.1356 -2.0515,-8.55398 -2.9401,-13.2673 4.5707,-26.85257 17.0876,-44.49306 33.0501,-66.45843 26.0922,-1.33449 45.6915,9.45115 60.1829,29.77148 z" fill="#f19c73" />
        <path d="m 1374.5645,645.90165 c -3.1913,59.47356 -15.4749,112.5954 -64.5043,152.34114 36.0858,58.75609 -40.0985,115.3027 -61.4056,2.29012 9.2837,-54.54161 51.3504,-71.07816 88.4851,-163.04459 z" fill="none" stroke="#d74a4f" stroke-width="8" />
        <path d="M 1357,638.5 1304,621 c -16.9706,65.05382 -55.4229,119.66403 -76,146 -35.1924,45.04163 -37.9393,121.91421 -9.4393,128.41421 28.5,6.5 48.0753,-53.02792 49.4951,-109.80134 C 1314.846,746.39428 1335.5896,691.34266 1357,638.5 Z" fill="#ee7676" />
        <path d="m 1291.9373,763.10192 c -2.5525,-19.62476 -16.9097,-33.67032 -37.2017,-34.99174 l 6.8832,-13.0762 c 20.3091,-1.02571 37.4807,11.94803 42.2779,31.14789 z m -39.9331,105.3987 c -13.9778,-15.3598 -33.1993,-23.91702 -53.7177,-24.72414 l 2.9497,-16.71346 c 20.5216,-0.72419 41.6751,6.51123 57.2208,23.07954 z" fill="#f19c73" />
        <path fill="#d74a4f" inkscape:original-d="m 1253.5,796.5 c 57.3033,-39.33883 80,-100 103.5,-158 L 1304,621 c -16.9706,65.05382 -55.4229,119.66403 -76,146 -35.1924,45.04163 -37.9393,121.91421 -9.4393,128.41421 28.5,6.5 48.0753,-53.02792 49.5606,-109.70559" inkscape:path-effect="#path-effect6031" />
        <path d="m 1284.3388,673.75269 c 21.4685,0.58023 37.1347,9.57379 45.8381,27.85103" fill="none" stroke="#d74a4f" stroke-width="4" />
        <path d="m 1227.0329,742.02062 c 14.246,-8.32631 28.3018,-7.53942 41.3308,0.58868 -13.5167,-3.57949 -27.8725,-3.51887 -41.3308,-0.58868 z" fill="#d74a4f" />
      </g>
      <g>
        <path d="m 1093.8085,375.69328 c 260.3384,-9.51815 143.9888,191.47823 262.3491,221.88884 43.0607,-51.74001 108.0162,-67.04147 173.1157,-100.06833 C 1372.1826,446.83762 1283.434,216.31916 1093.8085,375.69328 Z" fill="#fecc65" id="path6211" />
        <g clip-path="url(#clipPath6224)">
          <g id="g6201">
            <path d="m 1440.0024,500.74699 c 5.6092,-30.876 -32.0174,-27.6164 -17.1068,5.40163 -29.0309,-15.56822 -32.5461,18.4386 -5.5515,12.75366 -23.231,12.35246 -3.7698,35.12131 9.9036,9.9031 -3.59,33.086 26.4437,25.14118 15.6057,-2.85096 19.6312,15.33041 33.6509,-8.29354 7.3518,-14.4043 25.8101,-13.80423 5.1061,-37.72302 -10.2028,-10.80313 z" fill="#fff" />
            <circle cx="-1434.3174" cy="514.34448" fill="#fd9932" r="8.5438967" transform="rotate(180)scale(1-1)" />
          </g>
          <use transform="translate(-74.505747-70.988508)" xlink:href="#g6201" />
          <use transform="translate(-115.46402 12.734044)" xlink:href="#g6201" />
          <use transform="translate(-136.79081-157.57885)" xlink:href="#g6201" />
          <use transform="translate(-250.32092-139.25931)" xlink:href="#g6201" />
        </g>
        <path d="M 1529.2733,497.51379 C 1372.1826,446.83762 1283.434,216.31916 1093.8085,375.69328 c 260.3384,-9.51815 143.9888,191.47823 262.3491,221.88884 43.0607,-51.74001 108.0162,-67.04147 173.1157,-100.06833" fill="none" stroke="#f8aa3d" stroke-width="8" />
      </g>
      <g>
        <path d="m 1286.9697,484.35253 c 12.23,-47.26026 39.7071,-86.24147 56.2914,-82.80873 16.1114,3.33487 71.1214,111.14294 -18.0525,195.73573 z" fill="#b9df80" />
        <path fill="#64a152" inkscape:original-d="m 1286.9697,484.35253 c 12.23,-47.26026 39.7071,-86.24147 56.2914,-82.80873 16.1114,3.33487 71.1214,111.14294 -18.0525,195.73573" inkscape:path-effect="#path-effect5966-2-8" />
        <path d="m 1341.0934,456.14265 c 6.02,30.72804 1.5997,58.5809 -12.3223,85.11527 19.2624,-23.81638 25.6427,-53.22114 12.3223,-85.11527 z" fill="#64a152" />
      </g>
      <g>
        <path d="m 1407.4961,615.05587 c -4.9498,-48.79037 55.7915,-86.55336 85.5598,-44.54774 29.2174,41.22821 -17.6637,133.04373 -82.8802,80.37795 z" fill="#ee7676" />
        <path d="m 1407.4961,615.05587 c 38.7824,-11.42195 55.9363,-34.14973 71.043,-57.94763 5.2896,2.94596 10.2251,7.34393 14.5168,13.39989 29.2174,41.22822 -17.6637,133.04373 -82.8802,80.37795 z" fill="#f19c73" />
        <path d="m 1407.4961,615.05587 c -4.9498,-48.79037 55.7915,-86.55336 85.5598,-44.54774 29.2174,41.22821 -17.6637,133.04373 -82.8802,80.37795 z" fill="none" stroke="#d74a4f" stroke-width="8" />
        <path d="m 1210.7739,429.74794 c -32.0815,-5.8154 -75.2875,10.12327 -120.3147,16.83453 -66.7549,9.94975 -66.3267,-80.68215 2.6066,-87.76703 97.2964,-10 197.7057,19.65685 203.4899,128.30256 3.9059,73.36551 77.2443,123.57114 142.3961,106.11375 25.6813,-6.88126 39.9254,53.93792 2.6778,64.95763 -97.7383,28.91586 -157.7737,-2.49611 -178.7369,-111.36932 -6.9534,-36.113 -27.2892,-99.49971 -52.1188,-117.07212 z" fill="#ee7676" />
        <path fill="#d74a4f" inkscape:original-d="m 999.59177,393.78974 c 6.63153,12.2336 16.18733,16.65269 27.71383,11.1909 14.1579,-6.70868 7.6007,-24.84869 -5.5047,-11.54728 -17.8611,18.12801 8.2698,36.57809 36.419,18.13001" inkscape:path-effect="#path-effect4827" />
        <path d="m 1090.4592,446.58247 c -62.9552,9.3834 -66.1578,-70.69038 -8.499,-85.77909 -11.8244,23.11826 -12.2419,59.38936 8.499,85.77909 z M 1302.5,517.75 c -18.25,3 -31.75,12.75 -38,38.25 3.9853,16.4304 9.4325,33.15317 16.75,50.25 2.75,-32.75 15,-51.25 33.75,-62.75 z m -76.9938,-71.27413 c 2.6213,-29.25915 16.5165,-40.3688 34.1378,-46.6188 l -19.5,-15.5 c -15.8713,6.25 -28.5165,17.10965 -29.6378,45.6188 z" fill="#f19c73" />
        <path d="m 1210.7739,429.74794 c -32.0815,-5.8154 -75.2875,10.12327 -120.3147,16.83453 -66.7549,9.94975 -66.3267,-80.68215 2.6066,-87.76703 97.2964,-10 197.7057,19.65685 203.4899,128.30256 3.9059,73.36551 77.2443,123.57114 142.3961,106.11375 25.6813,-6.88126 39.9254,53.93792 2.6778,64.95763 -97.7383,28.91586 -157.7737,-2.49611 -178.7369,-111.36932 -6.9534,-36.113 -27.2892,-99.49971 -52.1188,-117.07212 z" fill="none" stroke="#d74a4f" stroke-width="8" />
        <path d="m 1178.75,361.25 c -13.25,16 -16.25,43.89964 -9.75,69.64964 M 1391,594.25 c -6,25 -24.75,59.75 -50.75,68" fill="none" stroke="#d74a4f" stroke-width="4" />
      </g>
    </g>
  </g>
</svg>
