<svg xmlns="http://www.w3.org/2000/svg" xmlns:inkscape="http://www.inkscape.org/namespaces/inkscape" xmlns:sodipodi="http://sodipodi.sourceforge.net/DTD/sodipodi-0.dtd" xmlns:xlink="http://www.w3.org/1999/xlink" viewBox="0 0 1200 800" height="800" width="1200">
  <defs>
    <linearGradient id="linearGradient177106">
      <stop offset="0" stop-color="#666" />
      <stop offset="0.34739456" stop-color="#b2b2b2" />
      <stop offset="0.67268753" stop-color="#b2b2b2" />
      <stop offset="1" stop-color="#666" />
    </linearGradient>
    <inkscape:path-effect effect="powerstroke" id="path-effect587090" offset_points="0,2.5 | 3.66,2.5" interpolator_type="CubicBezierSmooth" start_linecap_type="butt" linejoin_type="extrp_arc" end_linecap_type="zerowidth" />
    <inkscape:path-effect effect="powerstroke" id="path-effect403707" offset_points="0.32,2.5 | 6.78,2.5" interpolator_type="CubicBezierSmooth" start_linecap_type="zerowidth" linejoin_type="extrp_arc" end_linecap_type="zerowidth" />
    <inkscape:path-effect effect="powerstroke" id="path-effect377454" offset_points="0.29,2.5 | 0.61,2.5" interpolator_type="CubicBezierSmooth" start_linecap_type="zerowidth" linejoin_type="extrp_arc" end_linecap_type="zerowidth" />
    <inkscape:path-effect effect="powerstroke" id="path-effect347231" offset_points="0.21,2.5 | 2.72,2.5" interpolator_type="CubicBezierSmooth" start_linecap_type="zerowidth" linejoin_type="extrp_arc" end_linecap_type="zerowidth" />
    <inkscape:path-effect effect="powerstroke" id="path-effect340224" offset_points="0.29,2.5 | 10,2.5" interpolator_type="CubicBezierSmooth" start_linecap_type="zerowidth" linejoin_type="extrp_arc" end_linecap_type="butt" />
    <inkscape:path-effect effect="powerstroke" id="path-effect340009" offset_points="0.33,2.5 | 0.73,2.5" interpolator_type="CubicBezierSmooth" start_linecap_type="zerowidth" linejoin_type="extrp_arc" end_linecap_type="zerowidth" />
    <linearGradient id="linearGradient278462">
      <stop offset="0" stop-color="#a2199f" />
      <stop offset="1" stop-color="#d921d4" />
    </linearGradient>
    <inkscape:path-effect effect="powerstroke" id="path-effect192056" offset_points="0.2,2.5 | 2.84,2.5" interpolator_type="CubicBezierSmooth" start_linecap_type="zerowidth" linejoin_type="extrp_arc" end_linecap_type="zerowidth" />
    <inkscape:path-effect effect="powerstroke" id="path-effect158972" offset_points="0.2,2.5 | 1.65,2.5" interpolator_type="CubicBezierSmooth" start_linecap_type="zerowidth" linejoin_type="extrp_arc" end_linecap_type="zerowidth" />
    <inkscape:path-effect effect="powerstroke" id="path-effect48764" offset_points="0.18,2.5 | 2.83,2.5" interpolator_type="CubicBezierSmooth" start_linecap_type="zerowidth" linejoin_type="extrp_arc" end_linecap_type="zerowidth" />
    <linearGradient id="linearGradient86">
      <stop offset="0" stop-color="#ce008e" />
      <stop offset="1" stop-color="#ff59cc" />
    </linearGradient>
    <inkscape:path-effect effect="powerstroke" id="path-effect2181" offset_points="0.34,2 | 1.39,2" interpolator_type="CubicBezierSmooth" linejoin_type="miter" start_linecap_type="zerowidth" end_linecap_type="zerowidth" />
    <inkscape:path-effect effect="powerstroke" id="path-effect2214" offset_points="0.22,2.5 | 1.57,2.5" interpolator_type="CubicBezierSmooth" linejoin_type="miter" start_linecap_type="zerowidth" end_linecap_type="zerowidth" />
    <linearGradient xlink:href="#linearGradient86" id="linearGradient18520" x1="-6.9376397" y1="954.48633" x2="-57.546745" y2="951.99866" gradientUnits="userSpaceOnUse" />
    <clipPath id="clipPath19266">
      <use xlink:href="#path17213" />
    </clipPath>
    <clipPath id="clipPath20133">
      <use xlink:href="#path19494" />
    </clipPath>
    <clipPath id="clipPath121381">
      <path d="M 948.2105,700.73534 C 930.68998,671.95168 893.88493,666.16716 863.25885,697.58782 830.9232,715.02055 849.54637,733.1109 891.94025,732.96953 934.33413,732.82815 960.34378,724.63952 948.2105,700.73534 Z" />
    </clipPath>
    <clipPath id="clipPath121587">
      <path d="M 930.39479,479.64705 860.43891,684.95737 C 864.35816,708.13694 877.5546,706.37565 885.4336,690.45765 887.9001,707.91993 899.86281,706.57159 905.35349,694.18657 909.96437,714.8427 921.94289,711.2226 928.48381,691.15224 930.93605,708.64774 948.18069,704.78796 956.63668,689.32758 989.88564,628.54042 995.55797,556.80028 990.2494,480.69873 Z" />
    </clipPath>
    <clipPath id="clipPath124245">
      <path d="M 911.82363,600.43165 C 900.85808,632.50071 884.35338,668.51341 858.22441,704.73476 851.70429,738.83421 932.55355,734.77865 943.65675,710.99393 962.88864,668.98449 972.76196,631.77239 977.72871,599.28713 Z" />
    </clipPath>
    <clipPath id="clipPath138049">
      <path d="M 931.40766,680.56415 C 915.6429,652.03338 877.96458,644.74374 848.41174,674.33834 819.26082,685.08575 823.12604,710.43997 875.31608,713.43438 927.50613,716.42879 944.22654,701.95555 931.40766,680.56415 Z" />
    </clipPath>
    <clipPath id="clipPath138246">
      <path d="M 895.06078,586.42595 C 883.20518,617.68962 866.61691,649.32517 841.63269,683.95961 835.5201,718.19717 916.06595,713.70548 927.06385,690.22136 944.65359,651.91347 955.78651,618.59324 961.85159,586.29698 Z" inkscape:linked-fill="path137438" />
    </clipPath>
    <clipPath id="clipPath141977">
      <path d="M 912.12918,468.73446 C 915.52056,507.80315 883.70042,606.29373 848.08986,662.85336 848.41184,686.95014 862.48082,686.57711 869.23026,671.63209 871.06566,690.86758 883.23778,691.286 890.71224,668.90506 895.78024,694.59763 904.76198,686.47373 911.131,666.53435 916.61762,684.4609 934.52428,683.57592 943.7423,669.3215 973.42523,598.90232 980.84344,540.92315 972.72971,472.26388 Z" />
    </clipPath>
    <inkscape:path-effect effect="powerstroke" id="path-effect1253" offset_points="0.15,4 | 2.82,4" interpolator_type="CubicBezierSmooth" linejoin_type="miter" start_linecap_type="zerowidth" end_linecap_type="zerowidth" />
    <linearGradient xlink:href="#linearGradient278462" id="linearGradient278464" x1="230.60814" y1="341.83621" x2="232.42195" y2="401.34308" gradientUnits="userSpaceOnUse" />
    <clipPath id="clipPath314234">
      <use xlink:href="#path277179" />
    </clipPath>
    <clipPath id="clipPath337402">
      <use xlink:href="#path158681" />
    </clipPath>
    <clipPath id="clipPath397587">
      <path d="M 947.27495,731.29307 C 934.28635,692.32588 882.13271,690.90421 855.00491,723.25043 839.88672,744.11426 847.79004,754.00195 897.38281,754.7207 946.97559,755.43945 952.66513,743.02071 947.27495,731.29307 Z" />
    </clipPath>
    <clipPath id="clipPath421250">
      <path d="M 1122.6674,731.74503 958.87087,731.35179 C 943.60724,731.6928 933.79547,725.6721 932.33203,707.9375 920.59883,729.73983 908.87321,732.65627 905.09963,715.43164 894.84963,736.55371 881.20321,729.98965 877.62885,709.20351 870.08525,726.48329 855.88415,724.2851 844.98338,717.77543 858.59612,659.30388 928.96848,619.71004 1075.7981,643.49065 1109.9728,645.46661 1135.5244,690.03716 1122.6674,731.74503 Z" />
    </clipPath>
    <clipPath id="clipPath423596">
      <path d="M 858.03938,712.99405 C 855.57204,719.16583 854.16178,725.69695 853.99769,732.49458 L 945.80734,733.64446 C 945.98127,733.11094 946.29847,732.47133 946.88276,731.74695 947.39024,731.11779 948.10785,730.41428 949.1225,729.66252 950.89304,728.35072 953.52236,726.92638 957.36885,725.52312 935.11201,683.25945 888.71897,680.03549 858.03938,712.99405 Z" />
    </clipPath>
    <clipPath id="clipPath453449">
      <path d="M 906.29689,668.08679 C 887.762,633.55244 850.7938,618.60708 815.75042,651.26574 780.10156,676.19434 808.13281,693.83692 855.09961,694.14649 902.06641,694.45606 913.28714,683.9685 906.29689,668.08679 Z" />
    </clipPath>
    <clipPath id="clipPath453552">
      <path d="M 1086.4613,629.02949 C 942.15075,573.61414 863.41191,573.78125 814.87301,637.19052 817.07582,671.97203 831.91396,659.22303 838.05068,646.391 841.56218,666.88538 850.61875,666.27777 858.66016,646.01465 866.57322,674.07181 879.72579,666.52109 884.43652,649.20801 891.91832,667.57882 909.21271,668.75041 918.63574,665.95996 L 1083.8483,683.21569 Z" />
    </clipPath>
    <clipPath id="clipPath453977">
      <path d="M 827.51495,633.67293 C 822.69373,638.81096 818.7524,644.50766 815.99192,650.71442 813.2996,656.76793 811.75454,663.25499 811.58941,670.08621 838.78683,679.30778 879.05406,678.33474 904.42675,669.57999 904.93137,669.03921 905.66913,668.43776 906.73775,667.82219 908.61333,666.74179 911.42367,665.66413 915.55243,664.76447 905.25627,641.62062 849.07623,611.22971 827.51495,633.67293 Z" inkscape:linked-fill="path452605" />
    </clipPath>
    <clipPath id="clipPath65885">
      <use xlink:href="#TABLECLOTH" />
    </clipPath>
    <clipPath id="clipPath177044">
      <path d="M 332.44074,225.57774 C 370.85393,250.92878 397.24808,236.9288 397.81251,212.64876 398.37694,188.36871 429.47911,201.17889 431.26628,170.45233 433.05345,139.72586 475.95911,139.21806 461.75869,109.12477 447.55837,79.031447 419.18785,90.220233 413.2906,114.483 407.39335,138.74578 380.75533,118.84052 373.99273,141.55383 367.23013,164.26714 341.67204,138.24405 344.01815,168.71652 346.36436,199.18889 294.02746,200.22679 332.44074,225.57774 Z" />
    </clipPath>
    <filter id="filter177940" x="-0.13919235" y="-0.13723796" width="1.2777689" height="1.2750098" color-interpolation-filters="sRGB">
      <feGaussianBlur stdDeviation="5.3653336" />
    </filter>
    <mask id="mask2445">
      <g>
        <path d="M 332.44074,225.57774 C 370.85393,250.92878 397.24808,236.9288 397.81251,212.64876 398.37694,188.36871 429.47911,201.17889 431.26628,170.45233 433.05345,139.72586 475.95911,139.21806 461.75869,109.12477 447.55837,79.031447 419.18785,90.220233 413.2906,114.483 407.39335,138.74578 380.75533,118.84052 373.99273,141.55383 367.23013,164.26714 341.67204,138.24405 344.01815,168.71652 346.36436,199.18889 294.02746,200.22679 332.44074,225.57774 Z" fill="none" stroke="url(#linearGradient2453)" stroke-width="10" />
        <path d="M 332.44074,225.57774 C 370.85393,250.92878 397.24808,236.9288 397.81251,212.64876 398.37694,188.36871 429.47911,201.17889 431.26628,170.45233 433.05345,139.72586 475.95911,139.21806 461.75869,109.12477 447.55837,79.031447 419.18785,90.220233 413.2906,114.483 407.39335,138.74578 380.75533,118.84052 373.99273,141.55383 367.23013,164.26714 341.67204,138.24405 344.01815,168.71652 346.36436,199.18889 294.02746,200.22679 332.44074,225.57774 Z" style="clip-path:url(#clipPath177044);fill:#1a1a1a;stroke:#fff;stroke-width:15;filter:url(#filter177940)" />
      </g>
    </mask>
    <linearGradient xlink:href="#linearGradient177106" id="linearGradient2453" gradientUnits="userSpaceOnUse" x1="353.3382" y1="214.35516" x2="442.8692" y2="111.08356" />
    <clipPath id="clipPath13493">
      <path d="M 441.83061,421.53927 C 439.50175,413.79414 456.17207,415.23573 451.97992,423.28275 447.78777,431.32976 454.83438,432.49144 452.59523,438.13855 450.35608,443.78565 446.81126,441.45896 442.1167,449.1529 437.42218,456.84684 430.09761,443.20485 436.29159,439.53849 442.48562,435.87212 444.15947,429.28441 441.83061,421.53927 Z" />
    </clipPath>
    <filter id="filter13908" x="-0.1932771" y="-0.10565921" width="1.3859125" height="1.2109025" color-interpolation-filters="sRGB">
      <feGaussianBlur stdDeviation="0.91551362" />
    </filter>
    <mask id="mask19110">
      <g>
        <path d="M 441.83061,421.53927 C 439.50175,413.79414 456.17207,415.23573 451.97992,423.28275 447.78777,431.32976 454.83438,432.49144 452.59523,438.13855 450.35608,443.78565 446.81126,441.45896 442.1167,449.1529 437.42218,456.84684 430.09761,443.20485 436.29159,439.53849 442.48562,435.87212 444.15947,429.28441 441.83061,421.53927 Z" fill="none" stroke="#1a1a1a" stroke-width="4" />
        <path d="M 441.83061,421.53927 C 439.50175,413.79414 456.17207,415.23573 451.97992,423.28275 447.78777,431.32976 454.83438,432.49144 452.59523,438.13855 450.35608,443.78565 446.81126,441.45896 442.1167,449.1529 437.42218,456.84684 430.09761,443.20485 436.29159,439.53849 442.48562,435.87212 444.15947,429.28441 441.83061,421.53927 Z" style="clip-path:url(#clipPath13493);fill:#1a1a1a;stroke:#fff;stroke-width:3;filter:url(#filter13908)" />
      </g>
    </mask>
  </defs>
  <g transform="translate(1.8)">
    <g>
      <path d="M 914.69383,662.39384 C 906.93311,664.12986 902.21022,666.81704 901.02218,670.46129 895.13187,688.52956 813.62386,689.37607 814.08868,670.14662 814.80148,640.65807 842.60462,616.71085 883.79245,606.16845 Z" style="clip-path:url(#clipPath453449);fill:#be158d;stroke:#700c53;stroke-width:5" />
      <path d="M 1072.3152,638.11666 C 1076.2591,658.65139 1068.4409,674.952 1056.7552,672.95434 968.80461,656.64406 905.84058,655.68106 901.02218,670.46129 895.13178,688.52953 813.62387,689.37607 814.08868,670.14662 815.33197,618.71197 898.9927,584.13581 992.34206,608.14564 Z" style="clip-path:url(#clipPath453552);fill:#fcdfee;stroke:#f8abd5;stroke-width:5" />
      <path d="M 814.87301,637.19052 C 817.07582,671.97203 831.91396,659.22303 838.05068,646.391 841.56218,666.88538 850.61875,666.27777 858.66016,646.01465 866.57322,674.07181 879.72579,666.52109 884.43652,649.20801 891.91832,667.57882 909.21271,668.75041 918.63574,665.95996" style="clip-path:url(#clipPath453977);fill:none;stroke:#700c53;stroke-width:2.5" />
      <path d="M 861.16576,594.61708 C 854.03927,611.61068 851.01264,624.37004 848.54211,641.0092 L 883.16934,630.87568 865.30841,657.29066 C 876.44916,664.31788 889.81022,663.55428 903.60541,657.21113 902.70761,661.78789 902.02762,665.36795 900.90721,671.29152 897.49055,689.35527 812.09206,690.24467 813.57261,670.20749 815.76157,640.5829 835.13388,609.32751 861.16576,594.61708 Z" fill="#e6c362" stroke="#d0ac44" stroke-width="5" />
    </g>
    <g>
      <path d="M 939.13332,655.37189 C 934.87264,666.40209 930.09073,677.63809 924.79191,689.17815 914.1223,712.415 827.70449,707.54086 843.66021,685.4222 851.37794,674.72348 858.38391,664.19401 864.75399,653.7363 Z" style="fill:#be158d;clip-path:url(#clipPath138049);stroke:#700c53;stroke-width:5" />
      <path d="M 962.24226,482.12024 C 971.10981,555.51508 958.26425,616.28027 924.79191,689.17815 914.12231,712.415 827.70451,707.54087 843.66021,685.4222 891.79531,618.69479 912.24337,558.55125 923.41056,481.33879 Z" style="fill:#fcdfee;clip-path:url(#clipPath141977);stroke:#f8abd5;stroke-width:5" />
      <path d="M 848.08986,662.85336 C 848.41184,686.95014 862.48082,686.57711 869.23026,671.63209 871.06566,690.86758 883.23778,691.286 890.71224,668.90506 895.78024,694.59763 904.76198,686.47373 911.131,666.53435 916.61762,684.4609 934.52428,683.57592 943.7423,669.3215" style="clip-path:url(#clipPath138246);fill:none;stroke:#700c53;stroke-width:2.5" />
      <path d="M 889.06638,606.37524 C 893.3715,625.55837 892.96977,638.57067 882.81518,659.55342 L 916.5824,647.7128 897.36422,676.65811 C 908.48617,681.81885 920.15191,680.4582 931.3497,676.07858 929.77893,680.65534 928.22964,684.29402 925.38175,689.98396 913.07663,714.569 827.73551,707.86136 842.3469,685.92321 862.39315,655.82485 874.42113,638.3334 889.06638,606.37524 Z" fill="#e6c362" stroke="#d0ac44" stroke-width="5" />
    </g>
    <g>
      <path d="M 843.38971,213.53321 C 810.32161,284.18952 861.95091,315.77517 877.89923,406.0271 934.62221,374.94455 967.97097,324.90715 973.03974,263.37187 Z" fill="#18b7ea" />
      <path d="M 886.71033,400.75469 C 938.11626,369.54701 968.24269,321.60856 973.03974,263.37187 L 935.24439,248.77903 C 934.53577,301.02111 918.29219,356.79327 886.71033,400.75469 Z" fill="#42dced" />
      <path d="M 843.38971,213.53321 C 820.76534,261.87451 837.78746,291.927 855.95155,335.11812 857.43698,303.5788 851.28913,258.37617 864.12159,221.49845 Z" fill="#f9e684" />
      <path d="M 843.38971,213.53321 C 810.32161,284.18952 861.95091,315.77517 877.89923,406.0271 934.62221,374.94455 967.97097,324.90715 973.03974,263.37187 Z" fill="none" stroke="#198bbf" stroke-width="5" />
    </g>
    <path d="M 1097.8824,718.73509 C 1069.4418,716.01558 1044.4072,714.89827 1023.2161,715.0799 L 1008.0827,656.00199 C 1014.8314,656.66353 1021.704,657.612 1028.711,658.86464 1026.2893,653.01643 1025.0196,646.84987 1024.8639,640.64477 952.91156,614.10398 912.97366,554.17478 900.38496,494.41153 889.70526,443.71085 912.80596,400.22093 915.02427,360.24219 887.20166,357.88714 858.89137,358.62181 834.63176,360.73281 L 813.54156,307.16571 C 829.06996,295.8044 840.91176,277.27143 848.21666,248.76737 870.99206,159.89585 1002.7152,172.48797 1011.0464,266.82147 1018.1942,347.75571 966.09502,467.57895 1077.7433,533.75175 1152.4351,578.02083 1150.4401,647.92721 1110.447,682.77729 1116.2757,703.02959 1109.6838,719.86355 1097.8824,718.73509 Z" fill="#fef3f9" />
    <g transform="rotate(12.112727-2329.2261 5667.5183)scale(-.68049966.68049966)">
      <path d="M 58.3,47.5 C 65.7,45.3 67.6,40.5 66.5,33.3 65.4,26.1 73.5,25.6 74.7,28.7 75.9,31.8 74,34.4 70.7,35.4 73.5,36.2 74.1,39 70,39.9 72.6,41.1 71,44 67.7,44 69.5,45.4 67.9,47.5 64.8,47 M 58.6,43.1 C 64,41.5 65.4,37.9 63.8,30.7 62.2,23.5 77.5,24.5 80.1,16.6 85.3,0.8 94,12.9 85.3,24.8 89.2,23.3 91.2,20.4 93.3,21.9 95.4,23.4 94.8,31.9 83.3,36.1 94.6,36.8 91.4,46.3 80.1,43.9 84.3,49 78.3,54.5 72.9,49 73.2,54.5 67,55.3 64.3,50.6 63.3,55.9 57.4,55.7 55.7,50.3 M 41.7,47.5 C 34.3,45.3 32.4,40.5 33.5,33.3 34.6,26.1 26.5,25.6 25.3,28.7 24.1,31.8 26,34.4 29.3,35.4 26.5,36.2 25.9,39 30,39.9 27.4,41.1 29,44 32.3,44 30.5,45.4 32.1,47.5 35.2,47 M 41.4,43.1 C 36,41.5 34.6,37.9 36.2,30.7 37.8,23.5 22.5,24.5 19.9,16.6 14.7,0.8 6,12.9 14.7,24.8 10.8,23.3 8.8,20.4 6.7,21.9 4.6,23.4 5.2,31.9 16.7,36.1 5.4,36.8 8.6,46.3 19.9,43.9 15.7,49 21.7,54.5 27.1,49 26.8,54.5 33,55.3 35.7,50.6 36.7,55.9 42.6,55.7 44.3,50.3" fill="#fff" stroke="#700014" stroke-miterlimit="20" />
      <path d="M 50,55.4 C 28.8,43.1 43.5,28.2 50,39 56.5,28.2 71.2,43.1 50,55.4 Z" fill="#df0128" stroke="#700014" />
      <path d="M 54.1,17.2 56.5,12.5 52.2,14.9 50,3 47.8,14.9 43.5,12.5 45.9,17.2 38.4,19.1 45.9,21 43.5,25.7 47.8,23.3 50,35.2 52.2,23.3 56.5,25.7 54.1,21 61.6,19.1 Z" fill="#ff2d81" />
    </g>
    <path d="M 980.46696,314.49698 C 980.46696,314.49698 979.89153,316.34006 978.70471,320.23489 977.62891,323.76542 975.57362,330.38639 972.14881,336.74153 971.31371,338.29116 970.37094,339.88038 969.30146,341.4709 966.92901,344.99918 963.97398,348.23293 960.33194,350.96295 955.96584,354.23572 950.64959,356.75221 944.35328,358.14355 938.7703,359.37727 932.47945,359.70765 925.66187,358.90673 897.68903,355.62048 866.66254,355.54811 836.27553,358.08365 830.46035,343.31365 823.58224,325.84391 816.56452,308.01955 823.94096,302.31329 830.49089,294.96889 836.10225,285.68863 842.0891,275.78735 846.95077,263.77731 850.6384,249.388 853.41627,238.54853 857.84192,229.32013 863.43283,221.62799 869.05207,213.89689 875.86756,207.6908 883.42466,202.94746 898.69953,193.35992 917.02317,189.73066 934.78939,191.57911 952.88955,193.46233 970.26371,200.99714 983.57909,213.52669 990.34314,219.89155 996.05854,227.53908 1000.3409,236.40399 1004.6788,245.38389 1007.5468,255.61297 1008.5561,267.04136 1009.4418,277.07029 1009.4029,287.70581 1008.8879,298.69699 1008.3658,309.84112 1007.3476,321.45851 1006.2929,333.14316 1004.0926,357.51867 1001.7981,381.78366 1002.7089,405.91644 1003.1755,418.27805 1004.4828,430.36269 1007.0169,442.08197 1009.6175,454.1084 1013.4908,465.65576 1018.9904,476.6288 1024.6538,487.92833 1031.9932,498.52021 1041.3024,508.32425 1050.9235,518.45672 1062.5711,527.66544 1076.4686,535.90238 1097.1652,548.169 1111.1109,561.96072 1120.1526,575.4169 1130.1928,590.35918 1134.4542,605.24603 1135.1952,618.47163 1136.0609,633.92437 1132.195,647.52044 1126.4515,658.32971 1125.6743,659.7924 1124.8605,661.20928 1124.0158,662.58005 1117.3522,673.39342 1109.5013,681.04657 1105.8165,684.56709 1101.5362,688.65657 1099.6565,690.35912 1099.6565,690.35912 1099.6565,690.35912 1102.1436,689.76456 1107.343,686.54692 1112.063,683.62593 1120.9256,677.12525 1128.2724,665.20317 1129.172,663.74335 1130.0389,662.23414 1130.8669,660.67584 1137.0242,649.08781 1141.1103,634.6652 1140.1873,618.19198 1139.3969,604.08406 1134.8519,588.32797 1124.3027,572.62828 1114.8067,558.49596 1100.2896,544.20858 1079.018,531.60111 1065.4748,523.57421 1054.1996,514.64556 1044.9282,504.8814 1035.9606,495.43705 1028.9047,485.251 1023.4604,474.38844 1018.1713,463.83541 1014.427,452.69289 1011.904,441.02519 1009.4443,429.65024 1008.1635,417.86426 1007.7054,405.72785 1006.8089,381.97504 1009.0655,358.04437 1011.2726,333.59276 1012.3265,321.91686 1013.3546,310.1978 1013.8824,298.93099 1014.4032,287.81597 1014.4495,276.93649 1013.5367,266.60154 1012.4767,254.59936 1009.4564,243.77906 1004.8431,234.22912 1000.2895,224.8027 994.20581,216.66067 987.00554,209.88534 972.8408,196.55655 954.42362,188.59495 935.3069,186.60597 916.54714,184.65414 897.08349,188.47094 880.76655,198.71255 872.68709,203.78376 865.39522,210.42382 859.38836,218.68821 853.41053,226.9127 848.72272,236.72222 845.79492,248.14675 842.20136,262.16897 837.50603,273.7037 831.8236,283.10152 826.13867,292.50344 819.50235,299.70683 812.06537,305.14807 L 810.50879,306.28694 811.21536,308.08157 C 818.47446,326.51899 825.59306,344.59955 832.30556,361.64867 L 832.98925,363.38518 834.84848,363.2234 C 865.5572,360.55121 896.93381,360.56615 925.07846,363.87257 932.40595,364.7334 939.26111,364.38944 945.43215,363.02577 952.4031,361.48534 958.37797,358.67637 963.33088,354.96375 967.45779,351.87027 970.79175,348.21521 973.45068,344.26088 974.64906,342.47866 975.64749,340.68068 976.47855,338.9225 979.97889,331.51722 980.68353,324.48167 980.78806,320.56975 980.90093,316.34541 980.46696,314.49698 980.46696,314.49698 Z" inkscape:path-effect="#path-effect403707" inkscape:original-d="M 980.46696,314.49698 C 977.31416,351.3878 952.29056,364.55225 925.37016,361.38965 894.19986,357.72777 861.86376,358.36316 834.63176,360.73281 L 813.54156,307.16571 C 829.06996,295.8044 840.91176,277.27143 848.21666,248.76737 870.99206,159.89585 1002.7152,172.48797 1011.0464,266.82147 1018.1942,347.75571 966.09501,467.57896 1077.7433,533.75175 1158.4141,581.56451 1149.6293,659.2833 1099.6565,690.35912" fill="#f8abd5" />
    <g>
      <path d="M 1003.0874,181.32388 983.31593,207.23258 C 932.72438,251.495 863.30974,198.05299 822.72836,254.1496 805.84309,223.26241 807.19793,181.40733 838.92643,162.36888 893.49733,129.624 950.13504,177.49806 1003.0874,181.32388 Z M 1017.8456,219.26824 C 1055.4329,283.64744 1007.7816,341.80437 1014.8043,400.43762 978.25822,350.60656 1016.4302,315.08726 1006.7156,268.81254 Z" style="fill:#93f2ef;stroke:#198bbf;stroke-width:5;stroke-miterlimit:20" />
      <path d="M 1003.0695,291.06781 C 1043.5783,227.0693 1016.4761,167.80057 1006.364,164.82221 998.45122,162.49161 975.19186,195.36463 973.6095,224.04521 Z" inkscape:linked-fill="path2218" fill="#fef3f9" />
      <path d="M 1005.4808,198.54445 C 1008.1036,218.24074 1006.9229,238.14556 1000.7802,257.20904 1010.221,239.15756 1012.4017,218.2955 1005.4808,198.54445 Z" fill="#f8abd5" />
      <path d="M 1003.0695,291.06781 C 1003.0695,291.06781 1005.4181,288.81006 1009.5579,282.45988 1013.4894,276.42917 1019.599,265.53309 1023.3144,250.67088 1023.7402,248.9676 1024.155,247.1631 1024.5449,245.26412 1027.0155,233.22897 1028.0577,219.38151 1026.1793,204.74423 1025.4473,199.04036 1024.3141,193.58372 1022.8483,188.50777 1021.4722,183.7425 1019.837,179.43354 1018.0679,175.72776 1016.3577,172.14533 1014.5329,169.15008 1012.737,166.91223 1011.8458,165.8018 1010.9379,164.8481 1010.0286,164.09859 1009.571,163.72142 1009.0992,163.38449 1008.6154,163.10331 1008.1313,162.82194 1007.6143,162.58429 1007.0703,162.42407 1006.5891,162.28231 1006.1035,162.21523 1005.6261,162.20611 1005.1471,162.19695 1004.6773,162.24609 1004.2245,162.33566 1003.3148,162.51559 1002.4273,162.86785 1001.5891,163.30715 999.85321,164.21695 998.0833,165.63045 996.39432,167.2605 994.52602,169.0636 992.68085,171.20496 990.95661,173.45264 988.91807,176.11004 987.06975,178.88646 985.47688,181.50541 984.35084,183.3568 983.36639,185.10601 982.52709,186.67444 979.65573,192.04028 977.60705,197.16675 976.20991,201.62455 973.68569,209.67848 973.23382,215.65525 973.22941,219.07891 973.22485,222.61728 973.6095,224.04521 973.6095,224.04521 973.6095,224.04521 973.99796,222.63999 974.91673,219.30533 975.7525,216.27191 977.41621,210.38112 980.35451,203.10397 982.0261,198.96401 984.19586,194.15336 986.93558,189.03351 987.73748,187.53497 988.67657,185.86654 989.74879,184.10363 991.26808,181.60567 993.01584,178.98307 994.92377,176.49593 996.54283,174.38536 998.22379,172.44365 999.86652,170.85825 1001.3819,169.39571 1002.7622,168.3374 1003.9102,167.73577 1004.4538,167.45083 1004.8813,167.30261 1005.1946,167.24063 1005.3449,167.21091 1005.4552,167.20375 1005.5306,167.20519 1005.6038,167.20659 1005.6429,167.21602 1005.6577,167.22035 1005.7443,167.24588 1005.8924,167.30385 1006.103,167.42623 1006.3114,167.54737 1006.5608,167.71983 1006.8483,167.95684 1007.4264,168.43332 1008.0981,169.12046 1008.8375,170.04177 1010.3292,171.90054 1011.9617,174.54281 1013.5557,177.88182 1015.1953,181.3162 1016.7367,185.3658 1018.0446,189.89493 1019.4368,194.71598 1020.5193,199.92118 1021.2199,205.38068 1023.0186,219.39608 1022.023,232.68437 1019.647,244.25867 1019.2722,246.0844 1018.8733,247.81975 1018.4637,249.45827 1014.9678,263.44238 1010.0887,274.98696 1007.3574,281.27339 1004.4106,288.05548 1003.0695,291.06781 1003.0695,291.06781 Z" inkscape:path-effect="#path-effect2214" inkscape:original-d="M 1003.0695,291.06781 C 1043.5783,227.0693 1016.4761,167.80057 1006.364,164.82221 998.4512,162.49161 975.19186,195.36463 973.6095,224.04521" inkscape:linked-fill="path2218" fill="#f8abd5" />
      <g>
        <path d="M 880.56999,172.05016 891.47176,62.270019 911.49195,143.36141 929.4597,125.79595 949.75943,177.23364 C 926.18484,169.52581 904.30682,168.05145 880.56999,172.05016 Z" fill="#f6d472" />
        <path d="M 914.17749,140.61228 912.41018,170.43154 922.18126,171.13767 926.42356,128.64672 Z" fill="#fbe5a6" />
        <path d="M 885.26348,124.28197 C 893.30228,112.63728 910.09326,126.87471 882.04904,154.91835 Z" fill="#c72f9b" />
        <path d="M 880.56999,172.05016 891.47176,62.270019 911.49195,143.36141 929.4597,125.79595 949.75943,177.23364 C 926.18484,169.52581 904.30682,168.05145 880.56999,172.05016 Z" style="fill:none;stroke:#d0ac44;stroke-width:5;stroke-miterlimit:20" />
        <ellipse cx="821.66492" cy="373.42337" rx="2.0584753" ry="3.4785206" transform="rotate(-16.373924)" fill="#f26ecd" />
      </g>
      <path d="M 867.87686,213.95764 C 749.39081,3.0083977 750.05383,2.3321029 898.95025,193.51415" fill="#fef3f9" stroke="#f8abd5" stroke-width="5" />
      <path d="M 800.01256,92.633146 C 803.70339,86.594105 803.60085,76.16179 797.279,65.713402 M 814.42378,118.16842 C 820.9599,113.36579 822.14245,101.9641 815.67328,88.386479 M 828.97197,144.80026 C 839.69087,142.12378 841.73176,126.82107 835.4085,112.36933 M 844.30711,171.92565 C 856.09166,170.19389 862.43128,157.31926 857.3571,140.44566 M 858.19836,197.01931 C 872.16655,199.07954 881.46471,186.46789 877.79183,166.14096" fill="none" stroke="#f8abd5" stroke-width="2.5" />
      <path d="M 852.44133,198.92886 C 860.94602,185.47165 876.40445,176.89457 894.40254,176.57924 L 906.96014,192.46981 864.63489,219.5189 Z" fill="#93f2ef" />
      <path d="M 894.40254,176.57924 C 876.54183,174.6399 858.66389,184.61855 852.44133,198.92886 862.18812,187.11752 877.63261,178.52198 894.40254,176.57924 Z" fill="#198bbf" />
    </g>
    <g>
      <g clip-path="url(#clipPath20133)">
        <ellipse id="path19494" cx="92.475235" cy="952.70959" rx="42.82761" ry="34.777599" transform="rotate(-67.355652)" fill="#fff" />
        <g clip-path="url(#clipPath19266)">
          <ellipse id="path17213" ry="25.977858" rx="33.409691" cy="944.0813" cx="-31.011459" transform="rotate(-74.494788)" fill="url(#linearGradient18520)" />
          <path d="M 891.85506,284.84464 909.66853,316.95298 924.74732,304.43656 Z" fill="#f9bfe8" />
          <path d="M 891.85506,284.84464 928.73884,293.44892 922.78075,307.919 Z" fill="#f464c8" />
          <ellipse cx="-32.322735" cy="941.99158" rx="26.573069" ry="20.662035" transform="rotate(-74.494788)" />
          <ellipse ry="8.9286518" rx="13.52771" cy="928.68921" cx="185.16357" transform="rotate(-62.017131)" fill="#fff" />
          <ellipse ry="3.5214674" rx="5.3353362" cy="943.35907" cx="172.09218" transform="rotate(-62.017131)" fill="#fff" />
        </g>
      </g>
      <path d="M 935.78388,311.5288 C 935.78388,311.5288 937.30243,310.65208 940.1201,307.79898 942.74677,305.13929 947.1444,299.94441 950.08479,292.10424 950.96382,289.7604 951.72097,287.15293 952.23643,284.31441 952.87365,280.80544 953.34497,276.09835 952.79522,270.72285 952.16531,264.56359 950.22605,257.99833 946.38128,252.17627 942.85715,246.83976 938.02969,242.60475 932.14641,240.08755 928.00921,238.31742 924.00419,237.69893 920.50898,237.66568 917.84877,237.64037 915.56949,237.95422 913.88355,238.28074 912.05861,238.63417 910.34812,239.13094 908.77205,239.71038 900.47672,242.76015 895.32039,248.22164 893.04071,251.07449 890.47416,254.28634 889.87609,255.94717 889.87609,255.94717 889.87609,255.94717 891.16552,254.77301 894.27528,252.3091 896.98067,250.16558 902.70243,245.84237 910.06634,243.40889 911.49681,242.93618 913.02879,242.5206 914.6441,242.20777 916.1379,241.91846 918.14403,241.64336 920.47093,241.6655 923.52195,241.69452 926.99285,242.23331 930.57295,243.76508 935.67432,245.94773 939.91174,249.63828 943.04342,254.38052 946.47067,259.57034 948.23927,265.49079 948.81598,271.1298 949.31856,276.04409 948.88852,280.36331 948.3008,283.59971 947.82654,286.21133 947.18953,288.63641 946.4791,290.84551 944.14509,298.10317 940.74815,303.77643 938.85414,306.79313 936.79224,310.07724 935.78388,311.5288 935.78388,311.5288 Z" inkscape:path-effect="#path-effect2181" inkscape:original-d="M 935.78388,311.5288 C 959.7009,286.62898 953.39951,251.35618 931.35968,241.92632 917.35645,235.93494 900.68282,242.26626 889.87609,255.94717" />
      <path d="M 832.99091,346.01543 C 820.69621,360.76102 838.45571,373.78252 838.1722,364.52165 837.93402,356.7415 839.39003,350.45838 842.30729,346.2073" fill="#ef6f2f" />
      <path d="M 836.35758,346.18939 C 833.98465,350.12712 832.68739,354.49717 833.51169,359.99626 834.24064,354.44227 835.21692,350.36202 837.82099,346.48553" fill="#be4406" />
      <path d="M 864.30292,333.58091 C 855.94448,343.12638 842.2395,346.70744 827.03474,342.03865 L 829.6343,346.7628 C 842.02344,350.95398 859.24128,346.61229 864.30292,333.58091 Z M 838.12073,317.84373 C 844.80786,320.59026 846.4243,314.36746 842.57218,311.61693 843.25595,314.59228 841.89109,317.27789 838.12073,317.84373 Z" fill="#f8abd5" />
    </g>
    <path d="M 914.91866,360.14357 C 912.80596,400.22093 889.70526,443.71085 900.38496,494.41153 912.97366,554.17478 952.91156,614.10398 1024.9002,640.57318" fill="none" stroke="#f8abd5" stroke-width="5" />
    <path d="M 1044.0613,679.10151 C 1044.0613,679.10151 1042.9076,677.60457 1040.4571,674.2979 1038.2493,671.31881 1034.0822,665.53466 1031.0228,657.93825 1030.5846,656.85005 1030.1597,655.70427 1029.7589,654.50188 1028.3148,650.16925 1026.8783,643.75965 1027.4268,635.83664 1027.7179,631.6318 1028.4887,628.22427 1029.076,626.04633 1030.3192,621.43561 1031.9989,617.41214 1033.7034,614.05465 1037.4349,606.70443 1041.9438,601.31857 1044.2942,598.61268 1046.9125,595.59853 1048.1434,594.30592 1048.1434,594.30592 1048.1434,594.30592 1046.4547,594.88367 1043.0723,597.25048 1039.9509,599.43465 1034.3824,603.99435 1029.7043,611.84402 1027.6093,615.35928 1025.6148,619.67696 1024.2484,624.74463 1023.6054,627.12933 1022.7587,630.86952 1022.4387,635.49133 1021.8351,644.21162 1023.4164,651.28539 1025.0155,656.08296 1025.4589,657.41317 1025.9487,658.67202 1026.4701,659.85875 1030.2229,668.39989 1035.6863,673.45933 1038.8499,675.88723 1042.2687,678.51107 1044.0613,679.10151 1044.0613,679.10151 Z" inkscape:path-effect="#path-effect377454" inkscape:original-d="M 1044.0613,679.10151 C 1015.5669,655.76355 1020.1856,614.87127 1048.1434,594.30592" fill="#f8abd5" />
    <g>
      <path d="M 1006.1176,405.95511 C 974.65607,440.58423 930.75289,452.66016 898.12731,444.24025 892.4189,485.0111 904.31757,524.01004 924.45655,557.4877 918.30833,507.36274 924.14557,483.0311 959.47266,474.32462 992.67463,466.14188 1010.7681,441.78442 1006.1176,405.95511 Z" style="fill:#f6d472;stroke:#d0ac44;stroke-width:5;stroke-miterlimit:20" />
      <path d="M 957.68135,439.76082 968.89275,471.42537 988.67596,460.29586 971.15399,433.0878 Z" fill="#fbe5a6" />
      <path d="M 897.4393,478.90042 C 907.05157,465.21838 919.99578,482.23498 904.15609,512.79254 900.81225,501.54133 898.41228,490.25069 897.4393,478.90042 Z" fill="#c72f9b" />
      <path d="M 1006.1176,405.95511 C 974.65607,440.58423 930.75289,452.66016 898.12731,444.24025 892.4189,485.0111 904.31757,524.01004 924.45655,557.4877 918.30833,507.36274 924.14557,483.0311 959.47266,474.32462 992.67463,466.14188 1010.7681,441.78442 1006.1176,405.95511 Z" style="fill:none;stroke:#d0ac44;stroke-width:5;stroke-miterlimit:20" />
      <ellipse cx="885.31531" cy="-517.87994" rx="3.6432223" ry="2.128197" transform="rotate(58.238407)" fill="#f26ecd" />
    </g>
    <g>
      <path d="M 953.12399,681.97432 C 949.59717,691.22632 945.68965,700.54739 941.38363,709.9533 930.7403,733.2022 844.29621,728.31601 860.25193,706.19735 865.17914,699.36699 869.82801,692.45956 874.21276,685.48065 Z" style="fill:#e51fab;clip-path:url(#clipPath121381);stroke:#700c53;stroke-width:5" />
      <g clip-path="url(#clipPath121587)">
        <path d="M 977.05883,489.93681 C 984.97843,563.28588 976.22723,633.84219 941.38363,709.9533 930.74033,733.20221 844.29623,728.31602 860.25193,706.19735 908.38703,639.46994 929.95773,565.38718 938.22713,489.15536 Z" fill="#fef3f9" />
        <path d="M 977.05883,489.93681 C 977.05883,489.93681 976.51147,500.14907 977.16068,529.37805 977.55883,547.30345 976.98116,571.09382 972.78615,598.53145 967.88568,630.58317 958.13943,667.34657 939.11051,708.91267 938.58674,710.05676 937.80834,711.1659 936.75964,712.23362 935.72136,713.29073 934.42758,714.29726 932.88353,715.24097 929.82716,717.109 925.89922,718.66432 921.33551,719.86762 916.84383,721.05193 911.82905,721.87066 906.61271,722.32312 901.43426,722.7723 896.10515,722.85621 890.97191,722.59149 885.83753,722.3267 880.94405,721.71543 876.62775,720.79135 872.26728,719.85782 868.60027,718.62728 865.87465,717.17766 864.50553,716.44951 863.42415,715.69253 862.6183,714.93181 861.80821,714.16709 861.31431,713.43505 861.05051,712.75669 860.91804,712.41605 860.83835,712.0764 860.80764,711.73252 860.77676,711.38663 860.79362,711.01619 860.87127,710.61457 861.02879,709.79987 861.44571,708.81572 862.27945,707.65994 888.74933,670.96599 905.46131,634.4923 916.5547,602.04937 926.34721,573.4109 931.91189,547.36626 935.25399,528.25228 940.32468,499.25221 938.22713,489.15536 938.22713,489.15536 938.22713,489.15536 935.34002,498.73064 930.32871,527.39109 927.01533,546.34081 921.50602,572.11524 911.82363,600.43165 900.85808,632.50071 884.35338,668.51341 858.22441,704.73476 857.07602,706.32672 856.28931,707.9735 855.96219,709.66542 855.79976,710.5055 855.75317,711.34529 855.82746,712.17723 855.90137,713.00487 856.09308,713.80414 856.39046,714.56888 856.98046,716.08604 857.96447,717.41454 859.18604,718.56769 860.39562,719.70952 861.87161,720.71184 863.52681,721.59215 866.80094,723.33348 870.95196,724.68953 875.58102,725.68056 880.19811,726.66903 885.3599,727.30871 890.7144,727.58485 896.0728,727.86119 901.63237,727.77389 907.04479,727.30442 912.49154,726.83197 917.79439,725.97218 922.61027,724.70239 927.48059,723.41825 931.8978,721.70338 935.49103,719.50723 937.3172,718.39109 938.9503,717.13871 940.3268,715.73724 941.72229,714.31644 942.85855,712.73751 943.65675,710.99393 962.88864,668.98449 972.76196,631.77239 977.72871,599.28713 981.97853,571.491 982.56219,547.39945 982.15945,529.26702 981.50023,499.58731 977.05883,489.93681 977.05883,489.93681 Z" inkscape:path-effect="#path-effect48764" inkscape:original-d="M 977.05883,489.93681 C 984.97843,563.28588 976.22723,633.84219 941.38363,709.9533 930.74033,733.20221 844.29623,728.31602 860.25193,706.19735 908.38703,639.46994 929.95773,565.38718 938.22713,489.15536" fill="#f8abd5" />
      </g>
      <path d="M 860.43891,684.95737 C 864.35816,708.13694 877.5546,706.37565 885.4336,690.45765 887.9001,707.91993 899.86281,706.57159 905.35349,694.18657 909.96437,714.8427 921.94289,711.2226 928.48381,691.15224 930.93605,708.64774 948.18069,704.78796 956.63668,689.32758" style="clip-path:url(#clipPath124245);fill:none;stroke:#700c53;stroke-width:2.5;stroke-miterlimit:20" />
      <path d="M 903.1396,626.62524 C 907.44472,645.80837 904.79414,660.52135 899.41873,678.44987 L 934.00918,669.31635 913.61422,696.90811 C 923.60438,702.22905 936.29222,702.10377 948.42292,696.32858 946.85215,700.90534 945.30286,704.54402 942.45497,710.23396 930.14985,734.819 844.2784,728.64169 858.88979,706.70354 878.93604,676.60518 890.23588,659.21317 903.1396,626.62524 Z" fill="#f6d472" stroke="#d0ac44" stroke-width="5" />
    </g>
    <g>
      <path d="M 957.52108,722.8163 C 949.47635,725.59623 944.68858,729.01034 943.43046,732.86958 937.54015,750.93785 856.03277,751.78438 856.49696,732.55491 856.91575,715.20586 865.84809,699.2375 881.14371,686.34634 911.195,661.01909 980.2863,714.94956 957.52108,722.8163 Z" style="clip-path:url(#clipPath397587);fill:#e51fab;stroke:#700c53;stroke-width:5" />
      <g clip-path="url(#clipPath421250)">
        <path d="M 1035.1369,715.11125 C 979.7648,714.37514 947.04345,721.78689 943.43046,732.86958 937.54015,750.93785 856.03277,751.78438 856.49696,732.55491 857.69202,683.048 928.21221,644.78391 1018.0932,657.18365" fill="#fef3f9" />
        <path d="M 1110.8246,682.84256 C 1116.2757,703.02959 1109.6838,719.86351 1097.8824,718.73509 1004.8386,709.83817 948.24886,718.08935 943.43046,732.86958 937.54006,750.93782 856.03046,751.78432 856.49696,732.55491 857.73856,681.12022 933.80938,641.82098 1028.6781,658.86496" fill="none" stroke="#f8abd5" stroke-width="5" />
      </g>
      <path d="M 958.87087,731.35179 C 943.60724,731.6928 933.79547,725.6721 932.33203,707.9375 920.59883,729.73983 908.87321,732.65627 905.09963,715.43164 894.84963,736.55371 881.20321,729.98965 877.62885,709.20351 870.08525,726.48329 855.88415,724.2851 844.98338,717.77543" style="clip-path:url(#clipPath423596);fill:none;stroke:#700c53;stroke-width:2.5" />
      <path d="M 903.46572,656.9671 C 896.33923,673.9607 893.3126,686.72006 890.84207,703.35922 L 925.4693,693.2257 907.60837,719.64068 C 918.74912,726.6679 932.11018,725.9043 945.90537,719.56115 945.00757,724.13791 944.32758,727.71797 943.20717,733.64154 939.79051,751.70529 854.39202,752.59469 855.87257,732.55751 858.06153,702.93292 877.43384,671.67753 903.46572,656.9671 Z" fill="#f6d472" stroke="#d0ac44" stroke-width="5" />
    </g>
    <g>
      <path d="M 1118.7522,586.79086 C 1300.8655,550.42901 1281.6047,830.0528 1091.6258,793.24944 995.06119,774.54271 941.72736,779.48711 916.77484,854.34204 896.14109,767.74171 953.47362,708.18882 1069.6746,690.07626 1150.306,677.50795 1171.7561,612.55644 1122.2761,610.06728 Z" fill="#42dced" />
      <path d="M 1120.4177,598.24363 C 1242.1243,596.28576 1197.478,744.68722 1084.0191,735.83148 987.71875,728.31505 919.54787,775.83393 916.77484,854.34204 896.14109,767.74171 953.47362,708.18882 1069.6746,690.07626 1150.306,677.50795 1171.7561,612.55644 1122.2761,610.06728 Z" fill="#93f2ef" />
      <path d="M 1082.7008,704.33476 C 996.45193,713.06519 941.43515,737.48279 916.41248,791.18383 931.20799,738.72589 984.70157,703.32121 1069.6746,690.07626 1128.0487,680.97727 1155.4046,644.42311 1147.2843,623.99129 1159.9405,651.21108 1139.5949,698.5757 1082.7008,704.33476 Z" fill="#f9e684" />
      <path d="M 1088.0898,794.31009 C 1004.3317,778.08419 953.09811,779.65229 924.60525,829.32995 948.11891,782.81356 1018.4331,752.36173 1073.8386,769.52459 1141.0357,790.34013 1204.005,779.03626 1226.373,738.93218 1203.9971,779.04109 1157.4073,807.73851 1088.0898,794.31009 Z" fill="#18b7ea" />
      <path d="M 1118.7522,586.79086 C 1300.8655,550.42901 1281.6047,830.0528 1091.6258,793.24944 995.06119,774.54271 941.72736,779.48711 916.77484,854.34204 896.14109,767.74171 953.47362,708.18882 1069.6746,690.07626 1150.306,677.50795 1171.7561,612.55644 1122.2761,610.06728 Z" style="fill:none;stroke:#198bbf;stroke-width:5;stroke-miterlimit:20" />
      <path d="M 1125.7554,580.0874 1113.5024,582.98633 1119.7554,615.62451 1137.7427,617.44531 C 1136.8769,603.3433 1132.3628,591.16377 1125.7554,580.0874 Z" fill="#fef3f9" />
      <path d="M 1124.0506,576.83308 C 1133.3439,591.68781 1137.665,607.16142 1137.8118,621.9882" fill="none" stroke="#f8abd5" stroke-width="5" />
    </g>
    <g transform="rotate(65.518967 221.14817 1367.6553)scale(-.64710355.64710355)">
      <path d="M 357.3477,425.61715 C 461.85413,492.2873 404.44549,604.31518 295.23913,554.42829 180.15546,501.85656 137.51876,391.85684 152.90454,372.83463 165.71123,357.00108 251.49977,374.5006 328.49747,420.5073 Z" fill="#fef3f9" />
      <path d="M 357.3477,425.61715 C 357.3477,425.61715 359.99325,428.30183 365.92778,433.92797 371.17599,438.90346 381.66786,448.79516 390.65244,460.42611 395.75091,467.02631 400.19101,474.37788 403.373,482.36596 409.69366,498.23332 410.70663,516.12695 402.85265,531.9535 399.52024,538.66864 394.60611,544.89712 387.9914,550.00847 381.79267,554.79837 374.05679,558.63398 364.78864,560.83092 347.4158,564.94902 324.45886,563.37865 296.90118,550.78994 269.00899,538.04842 245.04057,521.70592 224.96527,503.58156 205.39927,485.917 189.96901,466.95069 178.52352,448.90774 172.82709,439.92774 168.15822,431.23983 164.47623,423.13519 160.76707,414.97074 158.07882,407.44145 156.33825,400.82333 154.56814,394.09287 153.80902,388.42359 153.8823,384.00906 153.91937,381.7756 154.16836,379.93768 154.56402,378.4771 154.9655,376.99504 155.49147,375.99686 156.01457,375.35012 156.41807,374.85126 157.06689,374.30203 158.04374,373.77379 159.04798,373.23074 160.34372,372.73649 161.95468,372.3266 165.29658,371.4763 169.66229,371.07113 174.86786,371.13372 180.322,371.19931 186.52133,371.77473 193.19009,372.78469 200.32945,373.86591 207.91408,375.43028 215.66165,377.36205 234.1294,381.96675 252.53413,388.39208 268.85391,395.12079 274.52856,397.46047 279.8812,399.80645 284.87216,402.0979 301.36205,409.66874 310.47426,413.78218 318.38357,416.9476 325.39799,419.75486 328.49747,420.5073 328.49747,420.5073 328.49747,420.5073 326.44173,418.05063 320.34887,413.46369 314.45562,409.02702 303.92177,402.04108 288.21012,394.82755 283.12994,392.49514 277.68101,390.10693 271.90331,387.72477 255.30445,380.88099 236.52263,374.31854 217.5971,369.5997 209.65194,367.61867 201.81805,366.00013 194.388,364.87488 187.46026,363.8257 180.88049,363.20545 174.96405,363.1343 169.37226,363.06706 164.24654,363.48858 159.98204,364.57362 157.90482,365.10214 155.95928,365.80622 154.23844,366.73677 152.53523,367.65779 151.00392,368.82388 149.79451,370.31914 148.40703,372.03455 147.45716,374.11569 146.84233,376.38532 146.23408,378.63069 145.92863,381.15117 145.8834,383.87629 145.79441,389.23759 146.70948,395.6647 148.60135,402.85814 150.47313,409.97513 153.32527,417.93147 157.19263,426.44414 161.03523,434.90229 165.88296,443.91562 171.76806,453.19304 183.5893,471.82833 199.48423,491.35479 219.60431,509.51958 240.2555,528.16386 264.90483,544.96878 293.57708,558.06664 322.43315,571.24847 347.30726,573.19643 366.63385,568.61522 376.97829,566.16315 385.75887,561.84371 392.88293,556.33878 400.48437,550.46497 406.16407,543.27733 410.01878,535.50971 419.11359,517.18275 417.75361,496.84908 410.80506,479.40545 407.30359,470.61538 402.45797,462.62248 396.98351,455.53553 386.91247,442.4981 375.15564,434.60125 368.30414,430.71038 360.95087,426.53456 357.3477,425.61715 357.3477,425.61715 Z" inkscape:path-effect="#path-effect1253" inkscape:original-d="M 357.3477,425.61715 C 461.85413,492.2873 404.44549,604.31518 295.23913,554.42829 180.15546,501.85656 137.51876,391.85684 152.90454,372.83463 165.71123,357.00108 251.49977,374.5006 328.49747,420.5073" fill="#f8abd5" />
      <path d="M 315.33587,412.64116 C 298.33728,417.87595 298.96671,438.82038 325.85589,455.19952 288.78503,450.14215 273.53763,471.58203 318.3959,502.78783 282.91468,500.61364 269.10087,530.55239 304.7749,559.16957" style="fill:none;stroke:#f8abd5;stroke-width:6;stroke-miterlimit:20" />
      <path d="M 285.78717,516.96974 C 238.97234,482.60706 196.56707,446.53039 153.97127,407.04124 M 291.44292,472.50811 C 244.52057,443.22217 197.41821,411.19036 151.00359,375.81194 M 312.26699,444.0415 186.19217,367.91652" fill="none" stroke="#f8abd5" stroke-width="4" />
    </g>
  </g>
  <g>
    <g>
      <path d="M 224.93122,197.11874 C 149.97709,256.80165 145.32751,383.15887 203.70597,443.09158 Z" fill="#2452a8" stroke="#0f5094" stroke-width="5" />
      <path d="M 235.39671,187.90919 C 382.56108,142.06179 460.3409,249.477 403.22279,320.11225 361.43745,371.78619 401.68831,390.41988 413.57201,367.85398 423.1889,399.46054 395.9506,415.11298 369.87904,397.02879 383.2622,425.12028 380.79223,446.70371 354.98919,467.5161 327.88728,489.37614 350.43062,526.81711 368.48987,501.0969 383.79877,546.98736 305.9839,576.91462 265.89419,495.03269 Z" fill="#23c2dd" />
      <path d="M 261.76758,319.66992 C 260.88351,355.35523 306.99326,366.92939 288.05078,421.77148 260.21752,502.35405 314.28947,560.85937 361.29547,535.18152 341.30077,554.92009 294.19642,552.83908 265.89419,495.03269 L 248.58282,320.69932 Z" fill="#2452a8" />
      <path d="M 327.4668,442.96289 C 355.71706,400.55698 320.18555,374.94531 321.68945,338.48828 323.19336,302.03125 346.58789,282.41601 295.9668,235.38476 L 240.24228,236.70625 236.59648,198.4901 C 355.05616,176.31792 420.93434,238.67709 383.67207,312.17003 348.24196,382.04936 401.6818,397.5509 413.57201,367.85398 423.1889,399.46054 395.9506,415.11298 369.87904,397.02879 383.2622,425.12028 380.79223,446.70371 354.98919,467.5161 327.88728,489.37614 350.43062,526.81711 368.48987,501.0969 343.46054,540.99693 295.60971,490.78294 327.4668,442.96289 Z" fill="#f9dc86" />
      <path d="M 235.39671,187.90919 C 382.56108,142.06179 460.3409,249.477 403.22279,320.11225 361.43745,371.78619 401.68831,390.41988 413.57201,367.85398 423.1889,399.46054 395.9506,415.11298 369.87904,397.02879 383.2622,425.12028 380.79223,446.70371 354.98919,467.5161 327.88728,489.37614 350.43062,526.81711 368.48987,501.0969 383.79877,546.98736 305.9839,576.91462 265.89419,495.03269 Z" style="fill:none;stroke:#0f5094;stroke-width:5;stroke-miterlimit:20" />
    </g>
    <g>
      <path d="M 225.73756,652.66993 C 292.39922,649.27103 332.86942,597.86824 397.53009,651.46361 416.06367,666.82556 358.13264,700.19654 333.22244,694.3191 283.84579,682.66893 239.68385,690.01084 190.63697,694.63017 178.70269,695.75417 170.98553,687.1869 185.29652,670.83398 L 174.77936,609.25966 C 220.66959,620.58651 239.70642,652.87587 214.06284,673.20821" style="fill:#671354;stroke:#3d0b32;stroke-width:5;stroke-miterlimit:20" />
      <path d="M 317.43773,691.93862 C 340.58243,684.5668 356.3677,674.88613 368.55486,664.13318 356.51367,658.87735 343.75398,661.56565 332.91429,666.4503 334.12533,656.73533 339.6766,649.03351 351.32702,647.07853 338.45518,642.96269 327.41278,638.71273 316.43286,628.90741 351.64694,620.19443 380.82333,635.2245 399.20628,652.36353 414.45791,666.58313 361.28515,700.61522 333.75424,695.24723 328.71106,694.26391 322.86742,692.91714 317.43773,691.93862 Z" style="fill:#e9e1a0;stroke:#cdc048;stroke-width:5;stroke-miterlimit:20" />
      <path d="M 258.43486,493.15443 C 234.42787,558.80618 237.25949,632.65892 258.55132,696.79831 264.77938,715.5597 357.73878,712.66049 344.74992,696.05227 291.24957,627.64404 271.14036,569.44629 288.64943,488.97096" style="fill:#671354;stroke:#3d0b32;stroke-width:5;stroke-miterlimit:20" />
      <path d="M 257.59028,696.18408 C 256.27086,691.2463 254.06731,684.83034 253.22877,680.94213 269.29835,690.59787 288.72368,693.20661 306.57504,691.00688 303.6866,675.5244 289.96621,669.78805 276.26835,672.58128 277.92152,659.81242 284.25471,654.38325 296.19664,657.36061 292.97428,643.38265 291.37837,627.74174 297.25608,614.52055 309.28508,644.60823 325.32085,668.94452 345.31814,695.73356 358.8416,713.85003 263.39624,717.91205 257.59028,696.18408 Z" style="fill:#e9e1a0;stroke:#cdc048;stroke-width:5;stroke-miterlimit:20" />
    </g>
    <path d="M 325.66236,401.21597 C 349.44979,398.5339 363.25598,383.5421 367.29383,364.39418 355.09893,351.80288 346.28426,332.29753 352.73818,301.08418 372.27816,206.58216 202.64071,183.35766 192.57225,289.45063 181.61211,404.93939 240.14766,469.1731 132.10392,585.08815 75.804562,645.48908 108.29027,706.10514 167.7048,689.4257 153.39381,705.77862 161.11097,714.34589 173.04525,713.22189 222.09213,708.60256 272.66236,710.11864 322.03901,721.76881 346.94921,727.64625 406.14919,695.6508 387.53009,680.39261 323.3421,627.79114 274.27717,667.86275 207.75852,671.24587 209.76039,660.81363 203.52754,649.32685 190.10632,639.33985 228.05028,586.91001 293.81833,559.13696 295.63772,494.82902 296.9894,447.05272 270.14306,423.34342 264.89966,384.13808 285.15599,387.9196 308.7716,387.23204 325.66236,401.21597 Z" fill="#811868" />
    <g transform="rotate(-51.109048 731.99364 219.53459)scale(.56017428)">
      <path d="M 67.3,65.2 C 73.3,54.4 83.7,57 83.7,65.5 83.7,72.4 72.3,85.4 58.3,81.6 L 60.2,78.7 C 69.9,78.4 78.1,70.6 78.1,65.9 78.1,61.2 71.6,62.1 67,69.1 Z M 49.7,95.1 48.1,86.5 H 24.5 L 22.9,95.1 Z" fill="#fb9dcb" />
      <path d="M 70.5,59.6 C 66.4,78.6 59.9,89.4 36.3,89.4 12.7,89.4 6.2,78.6 2.1,59.6 Z" fill="#fdcee5" />
      <path d="M 43.1,17.2 46.5,11.9 41.2,14.7 38.8,1.8 36.4,14.7 31.1,11.9 34.5,17.2 26.3,19.6 34.5,22 31.1,27.3 36.4,24.5 38.8,37.4 41.2,24.5 46.5,27.3 43.1,22 51.3,19.6 Z" fill="#efc435" />
      <path d="M 50.3,54.8 C 49.4,49.9 46.5,45.6 42.6,43.9 46.5,42.2 49.4,37.9 50.3,33 51.2,37.9 54.1,42.2 58,43.9 54.1,45.6 51.2,49.9 50.3,54.8 Z M 23.6,48.8 C 22.7,43.9 19.8,39.6 15.9,37.9 19.8,36.2 22.7,31.9 23.6,27 24.5,31.9 27.4,36.2 31.3,37.9 27.4,39.6 24.5,43.9 23.6,48.8 Z" fill="#fff" />
      <path d="M 64.5,97.9 67,93 H 8.4 L 10.9,97.9 Z" fill="#ec508c" />
      <path d="M 36.6,59.6 C 38.4,61.9 38.8,65.9 38.8,70.6 H 38 C 38,65.9 37.6,61.9 35.8,59.6 Z" />
      <path d="M 38.3,69.6 C 30.5,61 21.3,74.8 38.3,84.3 55.3,74.8 46.1,61 38.3,69.6 Z" fill="#df0128" />
    </g>
    <path d="M 160.50957,624.06837 C 160.50957,624.06837 162.74384,625.29803 167.58704,627.93239 171.88915,630.27244 180.39571,634.9332 187.99627,640.74689 190.10157,642.35725 192.22463,644.11765 194.25282,646.01612 195.08927,646.79908 196.11709,647.80742 197.20058,648.9948 199.38703,651.3909 201.50198,654.1891 203.08542,657.30096 204.5348,660.14939 205.32863,662.84789 205.61392,665.35283 205.92886,668.11812 205.58407,670.31582 205.23172,671.77086 205.13315,672.17789 205.02487,672.57526 204.90845,672.96294 204.02258,675.91283 202.61759,678.45091 201.2386,680.51702 197.302,686.41513 194.40629,688.98899 194.40629,688.98899 194.40629,688.98899 198.53929,688.75605 204.28041,683.05666 206.2937,681.058 208.43542,678.21144 209.66142,674.46069 209.8212,673.97187 209.9654,673.46741 210.09126,672.94764 210.5439,671.07847 210.97911,668.27552 210.5818,664.78703 210.22316,661.63806 209.23766,658.36648 207.54169,655.03345 205.70051,651.41505 203.29043,648.25077 200.89401,645.62455 199.70127,644.31744 198.57646,643.21456 197.6697,642.36579 195.46669,640.30367 193.14127,638.47016 190.83245,636.85979 182.24339,630.86905 173.37548,627.58205 168.38957,626.03016 162.99609,624.3514 160.50957,624.06837 160.50957,624.06837 Z" inkscape:path-effect="#path-effect340009" inkscape:original-d="M 160.50957,624.06837 C 207.30982,640.87434 221.88771,671.2191 194.40629,688.98899" fill="#3d0b32" />
    <path d="M 233.48737,366.21247 C 233.48737,366.21247 233.67804,367.124 234.59999,368.95274 235.4751,370.68856 237.22713,373.58331 240.51105,376.51559 242.98239,378.7223 246.33593,380.96909 250.96455,382.83281 252.13584,383.30443 253.38112,383.74869 254.70945,384.16272 257.34318,384.98362 260.11095,385.6681 263.03349,386.26257 267.10286,387.09032 271.31766,387.71409 275.83678,388.31806 283.74265,389.37467 293.14842,390.40695 301.58054,392.51532 305.61266,393.5235 309.62561,394.81695 313.47004,396.57159 317.15946,398.25548 320.73513,400.3823 324.06808,403.14165 324.33473,403.36242 324.59875,403.58633 324.86009,403.81336 325.22118,403.77858 325.58198,403.74087 325.94246,403.70023 331.92246,403.02598 337.52701,401.57631 342.6468,399.30974 347.47025,397.17438 351.8173,394.33346 355.59123,390.80625 359.18189,387.45031 362.21971,383.50401 364.63072,379.03558 366.94236,374.7513 368.66439,370.01081 369.74003,364.91006 369.83334,364.46757 369.92144,364.024 370.00431,363.57944 369.69615,363.27451 369.39124,362.96632 369.08964,362.65491 363.45004,356.832 358.29392,349.19661 355.42873,339.04347 352.70395,329.3879 351.96636,317.16361 355.18638,301.59044 357.69479,289.45892 357.20407,278.33708 354.27738,268.39447 351.37723,258.542 346.11291,249.94408 339.17144,242.74401 332.29139,235.60768 323.77918,229.8601 314.32559,225.61931 304.94248,221.41013 294.6141,218.67774 284.02115,217.55813 273.50078,216.4462 262.69503,216.92315 252.30346,219.14647 241.97606,221.35607 232.03328,225.29673 223.21343,231.13657 214.43747,236.94737 206.78107,244.63467 200.99924,254.33395 195.24552,263.98612 191.37712,275.58263 190.08343,289.21442 187.32831,318.24584 188.92916,344.03927 191.20484,368.29875 193.46291,392.37048 196.36444,414.75856 196.24447,437.0961 196.18475,448.21536 195.37621,459.32197 193.36546,470.6203 191.3588,481.89553 188.15111,493.3834 183.27816,505.28655 178.41148,517.17432 171.87614,529.49531 163.19611,542.44993 154.52338,555.39366 143.70848,568.97157 130.27515,583.38357 115.9826,598.71737 107.22559,614.17024 103.1548,628.53652 99.080508,642.91513 99.706899,656.2286 104.20077,667.11591 106.45299,672.57234 109.66898,677.40388 113.72187,681.4399 117.78238,685.48349 122.66333,688.70921 128.21733,690.96912 133.78281,693.2337 140.00493,694.52107 146.7381,694.70769 151.42084,694.83747 156.34753,694.43495 161.47417,693.46101 160.12428,695.54086 159.13089,697.50829 158.46934,699.35952 157.84408,701.10922 157.50534,702.78307 157.45984,704.36583 157.41395,705.96195 157.66709,707.45594 158.21464,708.81304 158.76583,710.17917 159.59378,711.35271 160.62746,712.32201 161.66257,713.29265 162.8833,714.03998 164.20827,714.58784 165.54075,715.13881 166.99207,715.49398 168.50521,715.67511 170.0305,715.85769 171.63624,715.86566 173.27967,715.71088 224.51074,710.88583 274.31348,713.07686 321.46491,724.202 324.93869,725.02161 328.88045,725.14895 332.98359,724.79497 337.16507,724.43422 341.60744,723.56554 346.06267,722.33939 355.21449,719.82065 364.55939,715.76067 372.3759,711.16123 376.41084,708.78695 380.07416,706.24972 383.16608,703.65399 386.31754,701.00828 388.92745,698.25885 390.74429,695.49418 391.6719,694.08262 392.41066,692.6402 392.90352,691.18026 393.40379,689.69835 393.65488,688.18037 393.58042,686.66929 393.50431,685.12494 393.09186,683.63616 392.33231,682.24099 391.56889,680.83871 390.47718,679.5755 389.1147,678.45896 372.35218,664.72223 356.85672,657.42654 342.30734,653.86825 334.65084,651.99574 327.22421,651.15313 320.02913,650.99207 312.55399,650.82474 305.24796,651.39252 298.16562,652.34951 283.57437,654.32114 267.78785,658.33916 254.26823,661.41984 237.88065,665.15404 223.161,667.96578 207.48821,668.76489 L 207.74281,673.75841 C 223.85065,672.93711 238.90325,670.04918 255.37909,666.29488 269.09867,663.16863 284.53637,659.23659 298.83516,657.30448 305.72871,656.37299 312.76564,655.83073 319.91724,655.99082 326.79505,656.14477 333.85703,656.94896 341.11945,658.72509 354.87913,662.09025 369.70828,669.02002 385.94548,682.32626 386.89406,683.10361 387.52997,683.87689 387.9409,684.6317 388.33996,685.36472 388.54728,686.12011 388.58647,686.91536 388.6256,687.70932 388.49908,688.5949 388.16618,689.58099 387.83625,690.55831 387.309,691.6173 386.56579,692.74823 385.09835,694.98124 382.86658,697.37705 379.9512,699.82456 377.11005,702.20976 373.68287,704.59077 369.84018,706.85192 362.38156,711.24077 353.44105,715.12283 344.73592,717.51863 340.5048,718.6831 336.36791,719.48442 332.55382,719.81347 328.78818,720.13834 325.41196,719.99599 322.61314,719.33563 274.8382,708.06337 224.47793,705.8668 172.81084,710.7329 171.48177,710.85808 170.23459,710.84643 169.09949,710.71055 167.97133,710.57551 166.97185,710.31998 166.11883,709.96726 165.27257,709.61735 164.58398,709.1777 164.0476,708.67474 163.51914,708.17918 163.11861,707.60437 162.85146,706.94225 162.58505,706.28194 162.42984,705.48109 162.45778,704.50952 162.48574,703.53688 162.69807,702.38436 163.17774,701.04209 164.13662,698.35879 166.1251,695.02696 169.58609,691.07213 172.19399,688.09212 175.09352,685.38053 178.24135,682.97787 174.6061,684.59313 170.8589,685.94361 167.029,687.01877 159.8301,689.03971 153.07489,689.8814 146.87672,689.70961 140.69672,689.53832 135.0709,688.35975 130.10179,686.33783 125.14533,684.32107 120.82734,681.45942 117.25008,677.89705 113.67914,674.34098 110.82907,670.06943 108.82256,665.20829 104.8184,655.50738 104.14659,643.37663 107.9654,629.89964 111.78167,616.43159 120.0775,601.65732 133.93269,586.79273 147.52048,572.21503 158.50769,558.42976 167.34989,545.23311 176.20185,532.0219 182.90115,519.40474 187.90534,507.18106 192.91739,494.93815 196.22159,483.10799 198.28808,471.49654 200.3579,459.86635 201.18346,448.46861 201.2444,437.12312 201.36612,414.45854 198.41826,391.66044 196.18299,367.83177 193.91774,343.6835 192.34999,318.25406 195.06105,289.68701 196.29005,276.73682 199.94774,265.86287 205.29399,256.89425 210.66766,247.87968 217.78335,240.72866 225.97369,235.30561 234.21553,229.8485 243.56503,226.12926 253.34956,224.03582 263.19754,221.9288 273.47163,221.47097 283.49561,222.53044 293.58928,223.59727 303.40157,226.19893 312.27912,230.18132 321.22435,234.19407 329.18828,239.59295 335.57177,246.21423 342.00238,252.88441 346.82687,260.79013 349.48087,269.80636 352.15744,278.89926 352.64574,289.18466 350.28997,300.57797 346.93025,316.82673 347.64544,329.87256 350.61666,340.40142 353.58249,350.91116 358.81065,358.95715 364.5633,365.14821 363.57488,369.31727 362.11253,373.17305 360.23039,376.66132 358.07163,380.66224 355.36308,384.17563 352.17713,387.15331 348.82923,390.28234 344.9569,392.81899 340.62275,394.73774 336.30576,396.6489 331.54973,397.93903 326.41209,398.60677 322.94026,395.86023 319.27163,393.72334 315.54608,392.02296 311.35497,390.11009 307.03818,388.72601 302.7934,387.66465 294.00997,385.46844 284.20955,384.39262 276.49913,383.36213 272.01131,382.76233 267.93044,382.15627 264.03013,381.36291 261.23573,380.7945 258.63662,380.14952 256.19729,379.38922 254.96804,379.00607 253.82032,378.61709 252.74026,378.22173 248.503,376.67066 245.32626,375.0238 242.81021,373.46703 235.99055,369.24745 233.48737,366.21247 233.48737,366.21247 Z" inkscape:path-effect="#path-effect340224" inkscape:original-d="M 233.48737,366.21247 C 252.11948,394.82865 297.94517,378.26879 325.66236,401.21597 349.44979,398.5339 363.25598,383.5421 367.29383,364.39418 355.09893,351.80288 346.28426,332.29753 352.73818,301.08418 372.27816,206.58216 202.64071,183.35766 192.57225,289.45063 181.61211,404.93939 240.14766,469.1731 132.10392,585.08815 75.804562,645.48908 108.29027,706.10514 167.7048,689.4257 153.39381,705.77862 161.11097,714.34589 173.04525,713.22189 222.09213,708.60256 272.66236,710.11864 322.03901,721.76881 346.94921,727.64625 406.14919,695.6508 387.53009,680.39261 323.3421,627.79114 274.27717,667.86275 207.61551,671.26165" fill="#3d0b32" />
    <g>
      <path d="M 247.25265,320.04074 C 243.12993,325.60497 236.44897,329.7439 227.53314,332.80016 235.78624,332.52414 244.30054,329.6661 249.6038,324.92061 M 244.56245,313.21429 C 239.63471,318.08005 231.40453,321.6493 222.9419,323.23884 231.64473,324.48584 240.34517,322.27271 246.31378,318.39715 M 242.72058,305.63062 C 237.36583,310.02207 229.8776,312.40766 220.48571,313.19849 228.55716,314.94248 237.51128,314.24607 243.81135,310.93642" />
      <g clip-path="url(#clipPath337402)">
        <path d="M 240.45316,304.36418 C 234.68624,249.32498 326.06708,243.84531 317.55664,351.80762 271.52394,359.31921 244.03805,338.57822 240.45316,304.36418 Z" id="path158681" fill="#fff" />
        <g clip-path="url(#clipPath314234)">
          <ellipse id="path277179" cx="244.67636" cy="370.31702" rx="29.867727" ry="39.370441" transform="rotate(-9.6181114)" fill="url(#linearGradient278464)" />
          <path d="M 313.79734,330.37853 295.36967,364.92404 275.62796,346.5023 Z" fill="#f2aff1" />
          <path d="M 313.79734,330.37853 272.42875,337.44631 280.2863,353.90482 Z" fill="#e34ce0" />
          <ellipse cx="247.78346" cy="371.88113" rx="23.657751" ry="31.184727" transform="rotate(-9.6181114)" />
          <ellipse cx="365.02527" cy="222.50069" rx="10.929525" ry="16.949898" transform="rotate(15.506715)" fill="#fff" />
          <ellipse cx="382.7175" cy="238.5309" rx="4.2188673" ry="6.5427737" transform="rotate(15.506715)" fill="#fff" />
        </g>
        <path d="M 234.5127,299.78906 C 261.57666,299.62012 294.44336,291.80908 311.81006,281.38525 286.76632,244.49532 237.12621,254.30224 234.5127,299.78906 Z" fill="#811868" />
      </g>
      <path d="M 256.75351,297.87769 C 250.96725,292.74559 247.15465,286.42538 244.31704,279.15571 244.14589,287.73552 246.02775,292.80978 250.38062,299.04659 M 248.52506,299.17203 C 240.53646,295.69462 234.41584,288.81441 229.02359,279.23246 230.01304,287.08293 232.9187,294.02264 238.9773,299.51363 M 305.98877,267.85352 C 309.66504,275.9292 309.3778,280.33603 305.09473,282.28901 284.81354,291.53679 263.16363,296.09601 239.67806,297.37651 230.19855,297.89335 223.69498,294.58728 217.69824,290.1377 221.60208,297.70662 228.46411,302.09988 239.84049,301.62248 264.29824,300.59612 288.40061,294.80695 306.96289,286.3252 312.77725,283.66842 314.06006,275.87794 305.98877,267.85352 Z" />
      <path d="M 328.88034,373.16034 C 330.38088,383.77418 337.17901,392.25928 349.02931,393.33914 L 344.0193,396.30449 C 332.87176,394.25445 326.97077,384.79154 328.88034,373.16034 Z M 349.59064,365.52433 C 347.3829,368.02176 348.00594,370.64968 351.03177,371.98185 345.46235,372.78318 344.18114,367.71252 349.59064,365.52433 Z" fill="#3d0b32" />
    </g>
    <path d="M 190.17963,639.41463 C 228.05028,586.91001 293.81833,559.13696 295.63772,494.82902 296.9894,447.05272 270.14306,423.34342 264.73157,384.16195" style="fill:none;stroke:#3d0b32;stroke-width:5;stroke-miterlimit:20" />
    <path d="M 307.5742,719.04293 C 330.7189,711.67111 346.50417,704.36544 358.69133,693.61249 346.65014,688.35666 333.76545,689.16996 322.92576,694.05461 323.48885,683.90995 329.81307,676.51282 341.46349,674.55784 328.59165,670.442 316.41839,664.04165 306.31933,653.26172 340.93234,649.93058 369.0057,662.38444 389.34275,681.48929 404.54062,695.76634 348.53312,728.47709 323.89071,722.72654 318.887,721.55888 313.09373,720.37594 307.5742,719.04293 Z" style="fill:#f0eabb;stroke:#cdc048;stroke-width:5;stroke-miterlimit:20" />
    <g>
      <path d="M 275.60984,227.8159 C 286.27554,132.44669 294.98461,239.42716 300.28596,165.57015 303.12417,126.02893 310.73748,122.60891 319.11966,164.10242 332.71635,231.40882 332.19784,121.88671 346.73889,224.40131 Z" fill="#f0eabb" stroke="#cdc048" stroke-width="5" />
      <circle cx="312.99463" cy="199.85352" r="9.7734385" fill="#f357cd" />
      <circle cx="312.99463" cy="199.85352" r="6.4824429" fill="#cf149e" />
      <ellipse cx="370.97745" cy="-20.496254" rx="3.3449731" ry="2.4207797" transform="rotate(34.905256)" fill="#f8ace8" />
      <path d="M 308.30917,230.68647 C 487.92008,62.863464 486.23775,66.987819 343.26178,259.69347" fill="#811868" stroke="#3d0b32" stroke-width="5" />
      <path d="M 412.09054,134.74933 C 418.30627,137.81065 426.68986,137.51588 435.53224,132.70449 M 387.71171,156.51787 C 394.49515,162.51779 406.1139,163.49111 419.01662,156.26536 M 365.34345,176.66605 C 369.71682,185.39027 384.6606,189.72421 401.20787,181.61043 M 344.27339,197.1113 C 347.23031,209.16458 363.59372,214.09533 383.50082,205.59369 M 322.9805,216.22844 C 324.39208,230.37251 341.43721,239.57901 365.69631,229.6475" fill="none" stroke="#3d0b32" stroke-width="2.5" />
      <path d="M 243.00814,219.97811 C 259.15376,247.43574 293.19311,265.27015 339.43578,265.27015 403.87168,265.27015 403.64108,298.74088 374.21388,315.8909 442.86446,325.6657 457.53286,199.91101 348.737,211.85364 308.17764,216.30588 275.74587,216.8746 238.22589,202.24453 Z" fill="#2452a8" />
      <path d="M 333.57376,228.08548 C 427.02611,216.15846 431.07793,305.08184 374.21388,315.8909 442.86446,325.6657 457.53286,199.91101 348.737,211.85364 308.17764,216.30588 275.74587,216.8746 238.22589,202.24453 L 240.92821,212.2099 C 269.16592,226.93793 293.9826,233.13837 333.57376,228.08548 Z" fill="#23c2dd" />
      <path d="M 243.00814,219.97811 C 259.15376,247.43574 293.19311,265.27015 339.43578,265.27015 403.87168,265.27015 403.64108,298.74088 374.21388,315.8909 442.86446,325.6657 457.53286,199.91101 348.737,211.85364 308.17764,216.30588 275.74587,216.8746 238.22589,202.24453 Z" fill="none" stroke="#0f5094" stroke-width="5" />
      <path d="M 206.26226,255.45864 C 187.65648,293.1953 208.8506,302.48162 213.94515,326.42571 219.03969,350.36981 200.05409,360.14706 206.89379,375.60174 211.00906,384.90042 225.15076,388.38465 233.20604,378.38009 231.28395,413.12071 198.67859,412.41565 186.99244,390.92062 173.40918,317.40722 180.29102,274.24805 207.68262,238.30176 Z" fill="#2452a8" />
      <path d="M 204.01999,254.3531 C 201.85254,258.74917 199.99853,263.203 198.64993,267.6323 197.48405,271.46151 196.7149,275.2078 196.40574,278.89117 196.12629,282.22048 196.22878,285.41788 196.7014,288.55555 197.13923,291.46218 197.88026,294.22761 198.86373,296.96082 200.72124,302.1231 203.17934,306.53108 205.74274,311.66007 208.02534,316.22722 210.26818,321.15701 211.49989,326.94599 212.09305,329.73381 212.34152,332.3259 212.32438,334.76185 212.30759,337.14759 212.03629,339.38501 211.58486,341.52051 210.69355,345.73683 209.13201,349.44254 207.47814,353.18724 206.68139,354.99126 205.84983,356.83705 205.13649,358.64743 204.4214,360.46226 203.79055,362.32478 203.38143,364.24395 202.97122,366.1682 202.78172,368.15817 202.95017,370.23565 203.11918,372.32007 203.64407,374.43618 204.60767,376.6135 205.83811,379.39374 207.80085,381.68619 210.13714,383.38684 212.52841,385.12751 215.31625,386.25533 218.18995,386.7002 221.19048,387.16471 224.26746,386.88446 227.14388,385.81848 228.11704,385.45783 229.05568,385.01191 229.95422,384.48373 229.6357,386.11849 229.23745,387.61337 228.77835,388.97751 227.73176,392.0873 226.35932,394.54819 224.84907,396.47748 223.22679,398.54988 221.41195,400.05308 219.5694,401.11802 217.54058,402.29062 215.43165,402.95979 213.38953,403.26644 210.32007,403.72735 207.37166,403.37866 204.8218,402.65463 203.06336,402.15533 201.44754,401.50848 200.00442,400.81297 195.27566,398.53396 191.76617,395.40621 189.94001,393.71061 187.92614,391.84072 186.99244,390.92062 186.99244,390.92062 186.99244,390.92062 187.04286,392.23527 188.30241,394.89519 189.45729,397.33407 192.19662,401.75795 197.74181,405.01658 199.38902,405.98456 201.30391,406.85339 203.45603,407.46449 206.55911,408.34561 210.23418,408.7963 214.132,408.21101 216.73736,407.81978 219.44941,406.96242 222.07141,405.44699 224.4581,404.06755 226.76295,402.14415 228.78623,399.55949 230.66788,397.15574 232.30127,394.18524 233.51718,390.57235 234.66547,387.16036 235.4452,383.16376 235.70222,378.5182 L 236.13143,370.76045 231.25878,376.81223 C 229.58115,378.89583 227.58277,380.32352 225.40639,381.13007 223.35751,381.88937 221.13655,382.0968 218.95487,381.75906 216.85102,381.43337 214.81309,380.60618 213.07973,379.34442 211.38947,378.11404 210.02287,376.49469 209.17991,374.58998 208.43582,372.90867 208.05602,371.33881 207.93381,369.83157 207.81141,368.32197 207.94347,366.82536 208.27155,365.28642 208.60201,363.73625 209.12864,362.15479 209.7884,360.4804 210.4544,358.79014 211.23081,357.06646 212.05193,355.20727 213.71327,351.44562 215.46825,347.3253 216.47675,342.55463 216.99168,340.11873 217.30491,337.54614 217.32426,334.79702 217.344,331.99019 217.05699,329.0383 216.39041,325.90544 215.0229,319.47821 212.54654,314.0893 210.21526,309.42476 207.53088,304.05372 205.29434,300.0645 203.56843,295.26796 202.67962,292.79781 202.02823,290.3508 201.64563,287.8108 201.23291,285.07082 201.14022,282.26404 201.38822,279.30937 201.66322,276.03294 202.35281,272.63686 203.43314,269.08865 204.68442,264.97896 206.42536,260.78121 208.50453,256.56418 Z" inkscape:path-effect="#path-effect587090" inkscape:original-d="M 206.26226,255.45864 C 187.65648,293.1953 208.8506,302.48162 213.94515,326.42571 219.03969,350.36981 200.05409,360.14706 206.89379,375.60174 211.00906,384.90042 225.15076,388.38465 233.20604,378.38009 231.28395,413.12071 198.67859,412.41565 186.99244,390.92062" fill="#0f5094" />
      <path d="M 204.24769,280.17617 C 186.54511,214.36292 232.53856,174.54218 238.48216,175.478 245.68067,176.6114 260.44113,206.04858 251.85508,240.44004 Z" fill="#811868" />
      <path d="M 204.24769,280.17617 C 204.24769,280.17617 204.03837,277.46088 203.50839,271.45049 203.0216,265.9299 202.16747,255.68416 202.93425,244.09042 203.09527,241.65581 203.3587,239.04402 203.76592,236.28564 205.32661,225.71425 208.76284,214.6746 214.68339,204.00959 217.04122,199.7623 219.63712,195.86239 222.34532,192.37387 224.89377,189.09113 227.45919,186.27986 229.85848,183.99936 231.02204,182.89341 232.13082,181.92736 233.15889,181.10627 234.17856,180.2919 235.1042,179.63185 235.9103,179.12449 236.7221,178.61353 237.36618,178.28689 237.82992,178.10653 238.06014,178.01699 238.20738,177.97869 238.28067,177.96466 238.34492,177.95237 238.30483,177.98088 238.09333,177.94758 238.17276,177.96008 238.36433,178.01112 238.67351,178.18762 238.98288,178.36423 239.35895,178.63744 239.79157,179.03178 240.69119,179.85179 241.69431,181.06552 242.72407,182.63911 243.8186,184.31168 244.87983,186.29237 245.85819,188.4822 246.95383,190.93451 247.90109,193.54755 248.69196,196.20127 249.91302,200.29842 250.67061,204.18009 251.14044,207.50101 251.56483,210.50079 251.84906,213.35767 252.03451,216.02996 252.5863,223.98095 252.27706,230.87361 252.10077,234.58441 251.9091,238.61884 251.85508,240.44004 251.85508,240.44004 251.85508,240.44004 252.79691,238.89346 254.04893,234.93564 255.25176,231.13335 256.83683,224.51199 256.76567,215.85047 256.74243,213.02241 256.54142,209.98339 256.09114,206.80062 255.59328,203.28153 254.78838,199.15097 253.48369,194.77322 252.63868,191.93785 251.61846,189.11771 250.42329,186.44263 249.35825,184.05878 248.1743,181.83652 246.90786,179.90124 245.7308,178.10256 244.46571,176.52686 243.15983,175.33654 242.52459,174.75751 241.85323,174.24547 241.1524,173.84537 240.46323,173.45194 239.69538,173.13822 238.871,173.00842 238.30894,172.91993 237.77689,172.97034 237.34089,173.05378 236.8929,173.13951 236.44674,173.27964 236.01753,173.44656 235.16215,173.77925 234.22562,174.27689 233.2469,174.8929 232.25471,175.5174 231.17621,176.29082 230.0386,177.19938 228.88821,178.11815 227.67149,179.17982 226.4138,180.37525 223.82256,182.8382 221.08967,185.83766 218.39578,189.30774 215.53125,192.99765 212.79416,197.11121 210.31183,201.58277 204.07802,212.81206 200.46158,224.43299 198.81954,235.55539 198.39121,238.45668 198.11432,241.20249 197.94515,243.76045 197.11632,256.29245 199.34924,266.2823 201.0542,271.92686 202.85053,277.87393 204.24769,280.17617 204.24769,280.17617 Z" inkscape:path-effect="#path-effect158972" inkscape:original-d="M 204.24769,280.17617 C 186.54511,214.36292 232.53856,174.54218 238.48216,175.478 245.68067,176.6114 260.44113,206.04858 251.85508,240.44004" fill="#3d0b32" />
      <path d="M 231.17685,205.54876 C 218.86302,215.66762 213.58862,237.3288 217.47971,253.78611 217.80106,235.86304 222.51884,218.71073 231.17685,205.54876 Z" fill="#3d0b32" />
    </g>
    <g>
      <path d="M 192.83023,513.60939 C 221.79146,483.12573 256.69537,521.37894 234.77265,563.30329 214.29043,602.47288 173.71889,615.24728 164.66365,609.03367 155.7389,602.9096 157.62925,565.37267 178.81759,534.09286 Z" fill="#811868" />
      <path d="M 183.24555,555.64207 159.77582,598.20106 M 211.87055,572.89207 191.65082,605.20106 M 193.95266,570.0474 172.54727,610.36527" fill="none" stroke="#3d0b32" stroke-width="2.5" />
      <path d="M 192.83023,513.60939 C 192.83023,513.60939 193.83982,513.05042 195.85822,511.85005 197.69534,510.75748 201.08324,508.73916 204.81741,507.27103 206.85532,506.46981 209.16246,505.75739 211.66673,505.36602 212.64509,505.21312 213.65847,505.12487 214.70086,505.1181 217.49832,505.09994 220.50364,505.671 223.51818,507.13211 226.09044,508.37886 228.66586,510.27659 231.00034,512.9483 235.03514,517.56594 238.39599,524.61193 239.04679,533.74276 239.62539,541.8604 238.02906,551.68071 232.55725,562.14483 227.65999,571.51021 221.50825,579.4701 214.71154,586.05108 208.09268,592.45985 201.0202,597.40608 194.26473,600.97696 190.89851,602.75632 187.63848,604.17955 184.58574,605.26801 181.50361,606.36694 178.6541,607.11713 176.13092,607.55465 173.55687,608.00098 171.37539,608.11294 169.64457,607.96797 168.76703,607.89447 168.03184,607.75715 167.43201,607.57846 166.82166,607.39663 166.38294,607.18146 166.07814,606.9723 165.77125,606.76172 165.44306,606.45194 165.10821,606.01212 164.76595,605.56256 164.43089,604.99551 164.11614,604.30336 163.45781,602.85567 162.94214,600.9809 162.60157,598.76031 162.23989,596.40208 162.08895,593.74542 162.13296,590.91718 162.18105,587.82741 162.46017,584.59543 162.92316,581.34971 163.93821,574.23374 165.76132,567.51618 167.73387,561.83229 168.06903,560.86655 168.40358,559.92591 168.73535,559.0121 171.6739,550.91855 175.10592,543.13835 176.48948,539.89779 178.20599,535.8774 178.81759,534.09286 178.81759,534.09286 178.81759,534.09286 177.28662,535.22042 174.50333,538.70738 171.83641,542.04855 167.62196,548.19336 164.08897,557.26256 163.72081,558.20763 163.36011,559.18484 163.01024,560.19299 160.95485,566.11558 159.04233,573.14901 157.97326,580.64363 157.4852,584.06519 157.18539,587.50903 157.13357,590.83939 157.08623,593.88123 157.24631,596.82511 157.65936,599.51829 158.04483,602.03168 158.65948,604.38261 159.56465,606.37312 160.00258,607.33615 160.51956,608.23913 161.12993,609.04085 161.72861,609.82723 162.43015,610.53304 163.24916,611.09504 164.06725,611.6564 165.00279,612.07193 166.00447,612.37034 166.99295,612.66481 168.0751,612.85402 169.22722,612.95052 171.48579,613.1397 174.10741,612.98013 176.98517,612.48113 179.82321,611.98902 182.94931,611.15979 186.26495,609.9776 189.55279,608.80531 193.03212,607.28405 196.60134,605.3974 203.76038,601.61319 211.22,596.39155 218.18961,589.64316 225.35126,582.70883 231.83156,574.32285 236.98804,564.46175 242.87905,553.19596 244.68028,542.45262 244.03414,533.38728 243.3092,523.2164 239.5451,515.12841 234.7655,509.65838 232.00009,506.49349 228.88961,504.17923 225.69898,502.63276 221.95207,500.81668 218.18329,500.09539 214.66841,500.11821 213.36449,500.12667 212.10367,500.23704 210.8947,500.42598 207.78345,500.91221 205.09131,502.00866 202.8759,503.27492 198.7221,505.64911 196.04929,508.72741 194.69037,510.57029 193.23237,512.54753 192.83023,513.60939 192.83023,513.60939 Z" inkscape:path-effect="#path-effect347231" inkscape:original-d="M 192.83023,513.60939 C 221.79146,483.12573 256.69537,521.37894 234.77265,563.30329 214.29043,602.47288 173.71889,615.24728 164.66365,609.03367 155.7389,602.9096 157.62925,565.37267 178.81759,534.09286" fill="#3d0b32" />
      <path d="M 172.93153,543.68315 C 169.37444,561.33187 177.03629,562.79889 192.76616,548.68771 182.75032,571.25431 197.50716,579.0869 212.11234,559.54332 206.17437,581.37992 221.96614,582.01741 233.78601,565.19116" style="fill:none;stroke:#3d0b32;stroke-width:3.5;stroke-miterlimit:20" />
      <path d="M 244.70862,514.73602 C 216.53577,578.07183 208.02949,669.51786 223.44999,733.28787 228.01895,752.18238 321.20324,748.73165 309.30677,732.12343 260.30593,663.7152 251.32146,588.28209 274.77995,510.55255 Z" fill="#811868" />
      <path d="M 244.70862,514.73602 C 244.70862,514.73602 243.02559,516.80362 239.96465,522.73879 237.05471,528.38117 232.26545,538.91561 227.79052,554.99412 222.98061,572.27623 217.93175,595.60972 215.24324,623.61018 211.96274,657.77625 212.46102,698.48051 221.02003,733.87547 221.22035,734.70387 221.53883,735.48849 221.95685,736.22635 222.37108,736.95751 222.87939,737.6365 223.46045,738.26627 224.60635,739.5082 226.05704,740.58261 227.7047,741.51794 230.9396,743.35431 235.15297,744.7768 239.91537,745.85128 244.63211,746.91546 249.97199,747.65641 255.56512,748.09418 261.11972,748.52894 266.93002,748.66495 272.61734,748.51834 278.29831,748.3719 283.85682,747.94352 288.91389,747.24911 293.98767,746.5524 298.59383,745.58308 302.33925,744.34214 304.22775,743.71644 305.93638,743.00903 307.39467,742.20932 308.13005,741.80605 308.81528,741.37196 309.43466,740.90312 310.05593,740.43284 310.62528,739.91675 311.11488,739.34828 311.60774,738.77602 312.02914,738.13965 312.33481,737.43551 312.6444,736.72234 312.82616,735.95981 312.85193,735.16172 312.87781,734.36019 312.74479,733.57348 312.47995,732.81627 312.21532,732.05966 311.82329,731.34349 311.33917,730.66763 284.74549,693.54119 272.1503,657.27363 267.34471,624.4711 262.95963,594.53897 265.16146,568.05024 268.50813,548.08019 273.10437,520.65384 274.77995,510.55255 274.77995,510.55255 274.77995,510.55255 268.30228,519.05686 263.5769,547.2538 260.17112,567.57645 257.91659,594.60952 262.39752,625.19586 267.31323,658.75005 280.19503,695.77478 307.27437,733.57923 307.53143,733.93811 307.67892,734.23432 307.7603,734.46699 307.83933,734.69296 307.85887,734.86612 307.85453,735.00036 307.85026,735.13275 307.82127,735.27646 307.74833,735.44448 307.67344,735.61699 307.54443,735.83208 307.32631,736.08535 307.10826,736.33852 306.81121,736.61802 306.41692,736.91649 306.02503,737.21313 305.55149,737.51763 304.99052,737.82525 303.86992,738.43978 302.45781,739.03557 300.76672,739.59587 297.40715,740.70897 293.1231,741.6242 288.2337,742.29559 283.38247,742.96174 278.00978,743.37768 272.48849,743.52 266.96234,743.66245 261.32627,743.52982 255.9553,743.10943 250.53899,742.68549 245.44479,741.97314 241.0158,740.97388 236.49939,739.95489 232.81298,738.66831 230.17307,737.16971 228.84094,736.41349 227.84002,735.63955 227.13523,734.87569 226.78261,734.49351 226.51088,734.12122 226.30721,733.76173 226.1031,733.40146 225.96419,733.04864 225.87996,732.70028 217.42261,697.72571 216.97325,657.90622 220.22035,624.08806 222.8775,596.41418 227.86613,573.37041 232.60744,556.33477 236.00585,544.12419 241.55637,526.12425 242.28379,523.67239 244.16506,517.33132 244.70862,514.73602 244.70862,514.73602 Z" inkscape:path-effect="#path-effect192056" inkscape:original-d="M 244.70862,514.73602 C 216.53577,578.07183 208.02949,669.51786 223.44999,733.28787 228.01895,752.18238 321.20324,748.73165 309.30677,732.12343 260.30593,663.7152 251.32146,588.28209 274.77995,510.55255" fill="#3d0b32" />
      <path d="M 222.52187,732.71778 C 221.62054,727.78 219.96025,721.36404 219.45093,717.47583 234.70294,727.13157 253.90738,729.74031 271.94499,727.54058 270.36749,712.0581 257.13282,706.32175 243.19845,709.11498 245.93279,696.34612 251.82106,690.37074 263.87021,694.07109 261.8314,680.09313 264.10514,664.27544 271.10233,651.05425 279.54793,681.14193 291.73782,705.49479 310.47962,732.09048 322.98442,749.8355 226.48806,754.44575 222.52187,732.71778 Z" style="fill:#f0eabb;stroke:#cdc048;stroke-width:5;stroke-miterlimit:20" />
    </g>
    <g>
      <path d="M 293.01296,471.76992 C 311.19225,469.25516 314.0629,497.84662 295.16657,500.69365 Z" fill="#f357cd" />
      <path d="M 293.11126,475.19061 C 306.9665,473.27402 309.15441,495.06475 294.75265,497.23462 Z" fill="#cf149e" />
      <path d="M 292.3984,460.49805 C 270.54683,464.47342 224.20033,458.14261 197.90541,444.01761 196.60377,464.10072 211.08377,478.1952 233.05193,483.9066 266.13398,492.50746 282.84892,503.44714 273.68352,553.56783 297.739,523.42652 299.86959,494.33676 292.3984,460.49805 Z" fill="#f0eabb" />
      <ellipse cx="21.865438" cy="566.32562" rx="2.1160734" ry="3.571074" transform="rotate(-30)" fill="#f8ace8" />
      <path d="M 223.52239,453.69117 222.25388,481.31944 242.63706,486.59236 247.08134,458.34883 Z" fill="#f9f7e5" />
      <path d="M 292.3984,460.49805 C 270.54683,464.47342 224.20033,458.14261 197.90541,444.01761 196.60377,464.10072 211.08377,478.1952 233.05193,483.9066 266.13398,492.50746 282.84892,503.44714 273.68352,553.56783 297.739,523.42652 299.86959,494.33676 292.3984,460.49805 Z" style="fill:none;stroke:#cdc048;stroke-width:5;stroke-miterlimit:20" />
    </g>
    <g>
      <path d="M 114.66598,617.76172 C 30.077711,616.10007 -2.340522,714.46997 62.650315,738.98246 95.045887,751.20105 100.82031,770.95312 75.335937,782.08594 98.085937,791.29296 120.12066,781.07864 123.28321,752.52929 153.44141,814.19727 223.74309,792.37028 269.04297,739.97852 292.33069,713.04501 331.17578,717.79297 312.17578,779.46094 395.48828,731.95898 331.36535,573.48831 223.61144,655.91996 150.52346,711.83221 77.589361,695.57898 110.03434,650.68902 Z" fill="#23c2dd" />
      <path d="M 228.73008,717.85856 C 70.963238,790.10809 24.551671,665.93737 113.15173,627.91441 L 113.45568,625.75922 C 62.104816,628.65671 20.263933,696.57835 77.626753,731.72368 116.17417,755.34109 100.63415,782.23943 75.335937,782.08594 98.085937,791.29296 120.12066,781.07864 123.28321,752.52929 153.44141,814.19727 223.74309,792.37028 269.04297,739.97852 289.00915,716.88655 320.41128,717.08307 316.94067,756.44333 324.85306,709.29005 285.11229,692.03825 228.73008,717.85856 Z" fill="#2452a8" />
      <path d="M 223.61144,655.91996 C 150.52346,711.83221 77.589361,695.57898 110.03434,650.68902 L 111.31026,642.13686 C 58.129811,689.66596 122.21544,735.78196 226.43054,682.56031 280.79973,654.79449 322.63432,660.52597 345.03255,681.38902 329.85817,638.6735 283.46602,610.13126 223.61144,655.91996 Z" fill="#f9dc86" />
      <path d="M 114.66598,617.76172 C 30.077711,616.10007 -2.340522,714.46997 62.650315,738.98246 95.045887,751.20105 100.82031,770.95312 75.335937,782.08594 98.085937,791.29296 120.12066,781.07864 123.28321,752.52929 153.44141,814.19727 223.74309,792.37028 269.04297,739.97852 292.33069,713.04501 331.17578,717.79297 312.17578,779.46094 395.48828,731.95898 331.36535,573.48831 223.61144,655.91996 150.52346,711.83221 77.589361,695.57898 110.03434,650.68902 Z" style="fill:none;stroke:#0f5094;stroke-width:5;stroke-miterlimit:20" />
      <path d="M 111.59443,613.50042 118.49287,614.16833 113.06786,653.45022 106.55129,665.66525 C 99.740787,646.92305 103.58973,628.57134 111.59443,613.50042 Z" fill="#811868" />
      <path d="M 113.01296,611.16251 C 101.0823,633.21257 100.36293,653.7126 107.598,668.58152" fill="none" stroke="#3d0b32" stroke-width="5" />
    </g>
  </g>
  <g clip-path="url(#clipPath65885)">
    <path d="M 376.56253,566.5134 C 376.13147,636.37603 367.99186,667.36921 361.38382,732.50862 385.73393,737.93726 395.51605,741.73127 426.17987,742.27445 501.72035,743.61258 501.25945,714.89443 533.52499,735.01486 565.79054,755.13529 592.17854,719.6922 626.74027,731.61293 662.90561,744.08677 683.63716,729.6745 734.33716,735.89157 785.03715,742.10865 815.28827,738.52694 845.3099,732.49458 837.55622,673.95287 836.99382,621.52604 832.4282,566.5134 L 614.6859,544.44119 Z" id="TABLECLOTH" fill="#b1dfe9" />
    <path d="M 359.41666,683.35216 C 403.16883,690.84612 445.6765,686.58701 512.85753,685.50735 549.01366,684.92629 584.13226,680.22393 613.82923,680.67984 689.24274,681.8376 759.55912,685.23484 853.05364,682.04453 L 849.04403,662.96049 C 792.3208,664.49015 706.42592,666.10452 613.6349,662.47236 582.73735,661.26292 548.01952,666.62956 513.34504,666.22128 461.89911,665.61552 398.08889,669.91528 360.07273,662.96508 Z M 359.88073,633.29467 C 403.6329,640.78863 438.81413,634.98026 515.85753,634.49298 654.44859,633.61642 731.6784,641.53806 854.02506,629.42032 L 849.0295,611.5847 C 774.72351,617.46195 661.55177,620.0726 516.34504,616.22128 452.27297,614.52189 399.06015,621.88653 361.04399,614.93633 Z" fill="#5caec1" />
  </g>
  <path d="M 443.88348,520.98164 376.56253,566.5134 H 832.4282 L 766.21982,520.98164 Z" fill="#e2f3f7" />
  <g>
    <ellipse rx="57.525745" ry="7.7519484" cx="551.76373" cy="532.58478" opacity=".15" />
    <path d="M 499.95554,514.57544 C 473.44884,507.31998 466.07283,484.39426 467.73101,476.33146 469.38921,468.26864 484.75784,466.98125 509.34162,467.64124 L 507.42951,473.19205 C 489.29443,472.70464 478.05966,473.22937 476.83633,479.17698 475.61322,485.12514 481.0849,501.17257 500.63859,506.5245 Z" fill="#459364" />
    <path d="M 510.96176,459.36811 C 526.75102,456.79455 546.05246,456.96518 546.05246,453.08508 546.05246,449.25003 542.23598,448.15076 542.21086,443.9097 542.21086,438.81292 561.29035,438.81292 561.29035,443.9097 561.26523,448.15076 557.44875,449.25003 557.44875,453.08508 557.44875,456.96518 576.75019,456.79455 592.53945,459.36811 569.51995,468.1904 536.28521,468.29385 510.96176,459.36811 Z" fill="#459364" />
    <path d="M 592.53945,459.36811 C 565.91719,462.65192 537.58402,462.65192 510.96176,459.36811 498.18268,479.20999 493.51718,500.77673 494.58838,511.14099 495.80694,522.92958 507.38687,523.4778 509.93717,530.52323 524.28191,539.78304 578.46009,539.31147 593.17379,530.52323 597.76773,522.69371 606.47771,520.8327 608.17786,514.7783 612.14131,500.66175 602.45462,475.34612 592.53945,459.36811 Z" fill="#56bd80" />
    <path d="M 628.29151,460.31488 C 634.4936,459.4085 639.93978,459.61217 645.0143,461.22361 636.78157,464.38365 630.66359,464.29403 628.29151,460.31488 Z" fill="#246840" />
    <path d="M 601.08249,489.84446 C 622.21091,489.81363 618.72028,467.43671 628.29151,460.31488 633.0535,462.42367 638.76133,462.73238 645.0143,461.22361 620.76109,474.36211 637.46903,506.91173 603.42606,512.54563 597.82235,508.16761 596.37784,495.19278 601.08249,489.84446 Z" fill="#459364" />
  </g>
  <g>
    <path d="M 684.40046,508.30368 C 687.94965,503.61131 745.9214,503.61131 749.47059,508.30368 738.59099,535.46871 696.82549,536.73322 684.40046,508.30368 Z" fill="#246840" />
    <ellipse rx="26.764965" ry="3.606746" cx="716.93555" cy="549.6449" opacity=".15" />
    <path d="M 706.39874,542.8235 700.24592,548.84245 C 710.24915,552.11307 724.43761,552.11307 734.44084,548.84245 L 728.28802,542.8235 Z M 686.79934,516.36143 C 669.97314,508.18568 671.7115,537.53801 693.39088,533.74702 L 696.82549,536.73322 C 666.0447,543.26967 663.97929,501.74435 686.40046,510.55727 Z" fill="#459364" />
    <path d="M 689.27422,511.77698 C 701.09478,508.55453 732.59319,508.40788 743.70909,512.05866 730.29359,517.58142 700.07288,517.22357 689.27422,511.77698 Z" fill="#114828" />
    <path d="M 684.40046,508.30368 C 684.38443,531.92197 699.24745,546.30368 716.93553,546.30368 734.6236,546.30368 749.48662,531.92197 749.47059,508.30368 745.9214,512.99605 687.94965,512.99605 684.40046,508.30368" fill="#56bd80" />
  </g>
  <g>
    <path d="M 299.61021,217.79439 326.99176,144.24464 433.35799,73.472501 493.13451,105.85904 380.19419,268.08398 Z" mask="url(#mask2445)" fill="#59279a" />
    <path id="path180689" d="M 417.77319,112.86727 419.49211,109.86546 416.97583,107.49183 419.97764,109.21075 422.35127,106.69447 420.63235,109.69629 423.14863,112.06991 420.14681,110.35099 Z" fill="#fff" />
    <use xlink:href="#path180689" transform="translate(41.51421 48.020092)scale(.91783548)" />
    <use xlink:href="#path180689" transform="translate(207.08526 104.12055)scale(.50701288)" />
    <use xlink:href="#path180689" transform="translate(217.66577 104.13471)scale(.43183236)" />
    <use xlink:href="#path180689" transform="translate(37.11682 88.017916)scale(.84498296)" />
    <use xlink:href="#path180689" transform="translate(162.19576 122.84271)scale(.51865288)" />
    <use xlink:href="#path180689" transform="translate(78.667502 116.05039)scale(.76514644)" />
    <use xlink:href="#path180689" transform="translate(134.76924 148.59755)scale(.52563688)" />
    <use xlink:href="#path180689" transform="translate(38.653126 77.78244)scale(.76514644)" />
    <use xlink:href="#path180689" transform="translate(6.4581073 113.04644)scale(.76980244)" />
    <use xlink:href="#path180689" transform="translate(-16.823906 131.49908)scale(.93413148)" />
    <use xlink:href="#path180689" transform="translate(136.76292 36.794625)scale(.69229392)" />
    <use xlink:href="#path180689" transform="translate(168.711 48.08289)scale(.68530992)" />
    <use xlink:href="#path180689" transform="translate(144.47144 118.58714)scale(.52098086)" />
    <use xlink:href="#path180689" transform="translate(223.62228 39.1166)scale(.51166888)" />
    <use xlink:href="#path180689" transform="translate(114.10104 71.569238)scale(.67599792)" />
    <use xlink:href="#path180689" transform="translate(39.56473 113.56549)scale(.75583444)" />
  </g>
  <g>
    <path d="M 434.16247,417.70696 C 429.89767,413.65399 372.69708,423.07826 369.95793,428.28519 385.10893,453.3202 426.52441,447.77821 434.16247,417.70696 Z" fill="#246840" />
    <path d="M 418.06859,455.34377 425.11804,460.28241 C 415.77957,465.13571 401.77985,467.44228 391.378,465.84136 L 396.47049,458.90223 Z M 433.10542,426.0475 C 448.37868,415.24513 451.43516,444.4896 429.42788,444.27338 L 426.52441,447.77821 C 457.95835,449.22378 453.24566,407.91508 432.55543,420.2557 Z" fill="#459364" />
    <path d="M 375.79846,434.60516 C 367.48835,425.48326 405.62179,418.16324 428.14251,427.03304 413.28951,433.46646 393.43107,436.24856 375.79846,434.60516 Z" fill="#114828" />
    <path d="M 434.16247,417.70696 C 438.01783,441.00846 425.69051,457.61509 408.23772,460.49058 390.78495,463.36607 373.78166,451.5919 369.95793,428.28519 374.22273,432.33816 431.42331,422.91389 434.16247,417.70696" fill="#56bd80" />
    <g>
      <path d="M 437.60418,411.67236 427.30941,447.28676 438.76021,460.59195 460.42999,438.677 455.88365,410.10722 Z" mask="url(#mask19110)" fill="#59279a" />
      <use xlink:href="#path180689" transform="translate(323.78412 388.87889)scale(.28645542)" />
      <use xlink:href="#path180689" transform="translate(289.26592 383.22199)scale(.37360404)" />
      <use xlink:href="#path180689" transform="translate(351.42022 408.65673)scale(.2238992)" />
      <use xlink:href="#path180689" transform="translate(349.95818 418.65673)scale(.2238992)" />
      <use xlink:href="#path180689" transform="translate(332.6659 413.37799)scale(.25294874)" />
    </g>
  </g>
  <g transform="rotate(-90 328.41298 277.91803)scale(.35029189)">
    <path d="M -10,0 C -4,-6 -6,-14 -14,-18 3,-20 8,-28 -2,-39 8,-37 17,-42 18,-53 36,-20 5,-16 5,0 5,16 36,20 18,53 17,42 8,37 -2,39 8,28 3,20 -14,18 -6,14 -4,6 -10,0 Z" fill="#5a318e" />
    <path d="M -20,0 20,-7 11,0 20,7 Z" fill="#54a2e1" />
    <path d="M 0,-30 25.980762,-15 V 15 L 0,30 -25.980762,15 V -15 Z" fill="none" stroke="#576ab7" stroke-width="1.8" />
  </g>
  <text xml:space="preserve" x="-590.17267" y="55.106522" transform="rotate(-90)" style="font-size:11.9158px;line-height:1.25;font-family:Junction;fill:#576ab7"><tspan sodipodi:role="line" x="-590.17267" y="55.106522">Parcly Taxel</tspan></text>
</svg>
