<?xml version="1.0" encoding="UTF-8" standalone="no"?>
<!-- Created with Inkscape (http://www.inkscape.org/) -->

<svg
   xmlns:dc="http://purl.org/dc/elements/1.1/"
   xmlns:cc="http://creativecommons.org/ns#"
   xmlns:rdf="http://www.w3.org/1999/02/22-rdf-syntax-ns#"
   xmlns:svg="http://www.w3.org/2000/svg"
   xmlns="http://www.w3.org/2000/svg"
   xmlns:xlink="http://www.w3.org/1999/xlink"
   xmlns:sodipodi="http://sodipodi.sourceforge.net/DTD/sodipodi-0.dtd"
   xmlns:inkscape="http://www.inkscape.org/namespaces/inkscape"
   id="svg2"
   version="1.1"
   inkscape:version="0.48.3.1 r9886"
   width="257"
   height="383"
   sodipodi:docname="Lilo-Stitch Cameron+Gwen.svg"
   inkscape:export-filename="/home/parclytaxel/Pictures/Lilo-Stitch Cameron+Gwen.png"
   inkscape:export-xdpi="2542.8335"
   inkscape:export-ydpi="2542.8335">
  <metadata
     id="metadata8">
    <rdf:RDF>
      <cc:Work
         rdf:about="">
        <dc:format>image/svg+xml</dc:format>
        <dc:type
           rdf:resource="http://purl.org/dc/dcmitype/StillImage" />
        <dc:title></dc:title>
      </cc:Work>
    </rdf:RDF>
  </metadata>
  <defs
     id="defs6">
    <inkscape:path-effect
       effect="skeletal"
       id="path-effect4492"
       is_visible="true"
       pattern="m 213.20554,109.32094 28.4931,0 c 2.41341,0 6.98279,0.19656 9.26896,0.6 -2.28617,0.35861 -6.67624,0.6 -9.26896,0.6 l -28.4931,0 c -2.73836,0 -4.92076,-0.15174 -7.43106,-0.6 2.46547,-0.44827 4.6927,-0.6 7.43106,-0.6 z"
       copytype="single_stretched"
       prop_scale="1"
       scale_y_rel="false"
       spacing="0"
       normal_offset="0"
       tang_offset="0"
       prop_units="false"
       vertical_pattern="false"
       fuse_tolerance="0"
       pattern-nodetypes="sscsscs" />
    <inkscape:path-effect
       effect="skeletal"
       id="path-effect3903"
       is_visible="true"
       pattern="m 0,0.3999 3.572238,0 C 16.839068,0.3999 28.830072,0 42.443472,0 L 60,0 60,2 42.443472,2 C 28.945594,2 16.839069,1.5999 3.572238,1.5999 L 0,1.5999 z"
       copytype="single_stretched"
       prop_scale="1"
       scale_y_rel="false"
       spacing="0"
       normal_offset="0"
       tang_offset="0"
       prop_units="false"
       vertical_pattern="false"
       fuse_tolerance="0" />
    <inkscape:path-effect
       effect="skeletal"
       id="path-effect3878"
       is_visible="true"
       pattern="m 23.104693,143.649 3.572238,0 c 13.26683,0 25.257834,-0.3999 38.871234,-0.3999 l 17.556528,0 0,2 -17.556528,0 c -13.497878,0 -25.604403,-0.4001 -38.871234,-0.4001 l -3.572238,0 z"
       copytype="single_stretched"
       prop_scale="1"
       scale_y_rel="false"
       spacing="0"
       normal_offset="0"
       tang_offset="0"
       prop_units="false"
       vertical_pattern="false"
       fuse_tolerance="0"
       pattern-nodetypes="cssccsscc" />
    <clipPath
       clipPathUnits="userSpaceOnUse"
       id="clipPath3937">
      <path
         style="fill:none;stroke:#000000;stroke-width:0.5;stroke-miterlimit:4;stroke-dasharray:none"
         d="m 105.48255,181.30199 c 0.67704,1.90087 1.38067,3.79262 2.1123,5.67428 l -4.17857,0.21897 -24.016102,-79.97199 -14.050237,6.53499 31.694721,98.02492 34.308718,-4.24775 0.32675,-38.22972 z"
         id="path3939"
         inkscape:connector-curvature="0"
         sodipodi:nodetypes="cc" />
    </clipPath>
    <clipPath
       clipPathUnits="userSpaceOnUse"
       id="clipPath3951">
      <path
         inkscape:connector-curvature="0"
         id="path3953"
         d="m 94.15625,90.125 -19.412568,0 29.943818,93.9687 c 7.10396,-1.40473 10.95459,0.13321 13.25,3.0625 L 130.37313,79.122776 z"
         style="font-size:medium;font-style:normal;font-variant:normal;font-weight:normal;font-stretch:normal;text-indent:0;text-align:start;text-decoration:none;line-height:normal;letter-spacing:normal;word-spacing:normal;text-transform:none;direction:ltr;block-progression:tb;writing-mode:lr-tb;text-anchor:start;baseline-shift:baseline;color:#000000;fill:none;stroke:#000080;stroke-width:0.5;stroke-miterlimit:4;stroke-dasharray:none;marker:none;visibility:visible;display:inline;overflow:visible;enable-background:accumulate;font-family:Sans;-inkscape-font-specification:Sans"
         sodipodi:nodetypes="cccccc" />
    </clipPath>
    <clipPath
       clipPathUnits="userSpaceOnUse"
       id="clipPath4003">
      <path
         id="path4005"
         style="font-size:medium;font-style:normal;font-variant:normal;font-weight:normal;font-stretch:normal;text-indent:0;text-align:start;text-decoration:none;line-height:normal;letter-spacing:normal;word-spacing:normal;text-transform:none;direction:ltr;block-progression:tb;writing-mode:lr-tb;text-anchor:start;baseline-shift:baseline;color:#000000;fill:none;stroke:#000000;stroke-width:0.5;stroke-miterlimit:4;stroke-dasharray:none;marker:none;visibility:visible;display:inline;overflow:visible;enable-background:accumulate;font-family:Sans;-inkscape-font-specification:Sans"
         d="m 39.78125,192.7187 c 2.28436,-2.68322 6.329095,-3.55282 11.625,-3.03125 L 61.227437,90.125 49,90.125 c -10.377571,31.15429 -13.627747,65.27834 -9.21875,102.5937 z"
         inkscape:connector-curvature="0"
         sodipodi:nodetypes="ccccc" />
    </clipPath>
    <clipPath
       clipPathUnits="userSpaceOnUse"
       id="clipPath4009">
      <path
         id="path4011"
         style="font-size:medium;font-style:normal;font-variant:normal;font-weight:normal;font-stretch:normal;text-indent:0;text-align:start;text-decoration:none;line-height:normal;letter-spacing:normal;word-spacing:normal;text-transform:none;direction:ltr;block-progression:tb;writing-mode:lr-tb;text-anchor:start;baseline-shift:baseline;color:#000000;fill:none;stroke:#000000;stroke-width:0.5;stroke-miterlimit:4;stroke-dasharray:none;marker:none;visibility:visible;display:inline;overflow:visible;enable-background:accumulate;font-family:Sans;-inkscape-font-specification:Sans"
         d="m 63.96875,102.06245 c 5.325451,13.78064 9.31238,27.28211 6.625,45.65625 l -4.514328,62.22715 -37.891696,3.4657 1.848375,-35.11913 19.645305,6.71781 c 0.458552,2.11346 0.955648,4.21858 1.491846,6.314 l 1.135686,-0.28617 -3.326989,-32.61568 3.927798,-36.27437 z"
         inkscape:connector-curvature="0"
         sodipodi:nodetypes="ccccccccccc" />
    </clipPath>
    <clipPath
       clipPathUnits="userSpaceOnUse"
       id="clipPath4013">
      <path
         style="font-size:medium;font-style:normal;font-variant:normal;font-weight:normal;font-stretch:normal;text-indent:0;text-align:start;text-decoration:none;line-height:normal;letter-spacing:normal;word-spacing:normal;text-transform:none;direction:ltr;block-progression:tb;writing-mode:lr-tb;text-anchor:start;baseline-shift:baseline;color:#000000;fill:none;stroke:#000000;stroke-width:0.5;stroke-miterlimit:4;stroke-dasharray:none;marker:none;visibility:visible;display:inline;overflow:visible;enable-background:accumulate;font-family:Sans;-inkscape-font-specification:Sans"
         d="m 60.810607,116.57843 c 1.5802,-4.5395 3.355443,-8.9054 5.314393,-13.04718 l 9.88944,-24.357965 34.19495,2.541517 10.8592,123.379058 -95.191334,3.69675 z"
         id="path4015"
         inkscape:connector-curvature="0" />
    </clipPath>
    <clipPath
       clipPathUnits="userSpaceOnUse"
       id="clipPath4029">
      <path
         style="fill:none;stroke:#000000;stroke-width:0.5;stroke-miterlimit:4;stroke-dasharray:none"
         d="m 46.16352,114.42912 c 1.764005,-10.66075 4.822929,-21.070684 10.185181,-30.471703 l 35.160508,3.527767 c -0.299437,9.8348 0.199703,19.680596 1.268732,29.481196 z"
         id="path4031"
         inkscape:connector-curvature="0"
         sodipodi:nodetypes="ccccc" />
    </clipPath>
  </defs>
  <sodipodi:namedview
     pagecolor="#ffffff"
     bordercolor="#666666"
     borderopacity="1"
     objecttolerance="10"
     gridtolerance="10"
     guidetolerance="10"
     inkscape:pageopacity="0"
     inkscape:pageshadow="2"
     inkscape:window-width="1364"
     inkscape:window-height="698"
     id="namedview4"
     showgrid="true"
     fit-margin-top="0"
     fit-margin-left="0"
     fit-margin-right="0"
     fit-margin-bottom="0"
     inkscape:zoom="1.3942559"
     inkscape:cx="128.5"
     inkscape:cy="191.5"
     inkscape:window-x="0"
     inkscape:window-y="0"
     inkscape:window-maximized="1"
     inkscape:current-layer="layer2"
     inkscape:object-nodes="true"
     showguides="true"
     inkscape:guide-bbox="true">
    <inkscape:grid
       type="xygrid"
       id="grid3862"
       empspacing="5"
       visible="true"
       enabled="false"
       snapvisiblegridlinesonly="true"
       spacingx="1.2px"
       spacingy="1.2px" />
  </sodipodi:namedview>
  <g
     inkscape:groupmode="layer"
     id="layer2"
     inkscape:label="Drawing"
     style="display:inline">
    <g
       id="Gwen">
      <g
         id="g3952">
        <g
           id="g3935">
          <path
             style="fill:#235450;fill-opacity:1;stroke:none"
             d="m 46.570509,13.159255 58.119611,0 C 132,40.874999 136.6875,61.999999 119.8125,73.374999 c 0.82664,-2.569643 1.46556,-6.287451 1.85406,-9.175304 -3.9913,5.559337 -7.54354,8.843812 -12.92117,12.214058 0.16757,-1.288907 0.24554,-1.59834 0.23744,-3.038136 -5.86136,2.532829 -10.847716,4.080241 -17.396574,5.742641 l -20.610413,-6.626524 0.441942,6.098796 c -4.763914,0.274465 -9.042622,0.08257 -13.918024,-0.5625 0.669669,0.887679 1.175814,1.656028 1.80882,2.330267 -10.16466,-1.237437 -19.091883,-4.949748 -26.870057,-11.048543 0.486135,1.944543 1.104854,4.021669 1.856155,5.745242 -25.107048,-19.673543 2.40083,-42.520741 12.27583,-61.895741 z"
             id="path3905"
             inkscape:connector-curvature="0"
             sodipodi:nodetypes="cccccccccccccc" />
          <path
             style="fill:#0d1608;fill-opacity:1;stroke:none"
             d="m 121.87586,64.213733 c -4.0756,5.545299 -7.75284,8.829774 -13.13047,12.20002 0.16757,-1.288907 0.24554,-1.59834 0.23744,-3.038136 -5.86136,2.532829 -10.847716,4.080241 -17.396574,5.742641 l -20.610413,-6.626524 0.441942,6.098796 c -4.763914,0.274465 -9.042622,0.08257 -13.918024,-0.5625 0.669669,0.887679 1.175814,1.656028 1.80882,2.330267 C 58.268438,80.231671 57.241252,80.07913 56.114804,79.808149 22.583,60.497123 47.436815,38.536075 52.580844,13.149757 l 48.845386,0 c 9.69685,14.345943 28.97394,33.23028 20.44963,51.063976 z"
             id="path3901"
             inkscape:connector-curvature="0"
             sodipodi:nodetypes="cccccccccccc" />
          <path
             sodipodi:nodetypes="cccccccccccccc"
             inkscape:connector-curvature="0"
             id="path3800"
             d="m 46.570509,13.159255 58.119611,0 C 132,40.874999 136.6875,61.999999 119.8125,73.374999 c 0.82664,-2.569643 1.46556,-6.287451 1.85406,-9.175304 -3.9913,5.559337 -7.54354,8.843812 -12.92117,12.214058 0.16757,-1.288907 0.24554,-1.59834 0.23744,-3.038136 -5.86136,2.532829 -10.847716,4.080241 -17.396574,5.742641 l -20.610413,-6.626524 0.441942,6.098796 c -4.763914,0.274465 -9.042622,0.08257 -13.918024,-0.5625 0.669669,0.887679 1.175814,1.656028 1.80882,2.330267 -10.16466,-1.237437 -19.091883,-4.949748 -26.870057,-11.048543 0.486135,1.944543 1.104854,4.021669 1.856155,5.745242 -25.107048,-19.673543 2.40083,-42.520741 12.27583,-61.895741 z"
             style="fill:none;stroke:#000000;stroke-width:2;stroke-linecap:butt;stroke-linejoin:miter;stroke-miterlimit:20;stroke-opacity:1;stroke-dasharray:none" />
          <path
             id="path3903"
             style="fill:none;stroke:#000000;stroke-width:1.20000005;stroke-miterlimit:4;stroke-dasharray:none"
             d="M 120.9123,66.196416 C 131.83386,47.778018 111.48314,28.024719 101.35247,13.14026 M 56.002679,79.71553 C 22.583,60.497123 47.436815,38.536075 52.661688,13.14026"
             inkscape:connector-curvature="0"
             sodipodi:nodetypes="cccc" />
        </g>
        <path
           sodipodi:nodetypes="ccccscccccccc"
           inkscape:connector-curvature="0"
           id="path3890"
           d="m 99.625,13.062499 c 8.03671,15.548129 16.10441,29.999281 15.58558,38.316572 -0.6268,10.048289 -10.38443,19.413257 -22.89808,31.245928 L 76.39645,77.801777 c -0.0625,5.1875 0.69194,9.375 2.19194,13.125 l -11.83839,0 C 66.7994,85.82261 67.06292,80.530943 67.46339,75.426776 L 61.125,73.749999 60.10539,63.900887 C 51.59215,64.352962 49.26892,62.317428 49.02965,53.790016 l 8.75696,0.209983 C 57.9539,38.76076 61.21144,25.730842 67,13.062499 z"
           style="fill:#fdddc2;fill-opacity:1;stroke:none" />
        <g
           id="g3857">
          <path
             style="fill:#ffffff;stroke:none"
             d="m 63.262169,43.992372 c 2.925273,8.716862 17.623276,9.630044 22.446633,1.999903 C 78.226591,44.770702 70.74438,44.153767 63.262169,43.992372 z"
             id="path2993"
             inkscape:connector-curvature="0"
             sodipodi:nodetypes="ccc" />
          <path
             sodipodi:nodetypes="cccc"
             inkscape:connector-curvature="0"
             id="path3779"
             d="m 72.876196,44.428419 c -1.323262,2.299674 -4.318518,3.533517 -6.850097,3.756505 -1.238244,-1.299719 -2.186677,-2.647739 -2.718342,-4.065221 z"
             style="fill:#000000;stroke:none" />
          <path
             sodipodi:nodetypes="cc"
             inkscape:connector-curvature="0"
             id="path3798"
             d="m 63.262169,43.992372 c 2.925273,8.716862 17.623276,9.630044 22.446633,1.999903"
             style="fill:none;stroke:#000000;stroke-width:1.20000005;stroke-linecap:butt;stroke-linejoin:miter;stroke-miterlimit:4;stroke-opacity:1;stroke-dasharray:none" />
          <path
             sodipodi:nodetypes="sssss"
             inkscape:connector-curvature="0"
             id="path3763"
             d="m 87.733021,45.658274 c 1.076521,0.190834 1.299873,1.420415 -0.25,1.194544 -10.877602,-1.585248 -19.030908,-1.916816 -25.475452,-1.714151 -2.024008,0.06365 -2.10545,-1.972291 0.144607,-2.032932 6.510947,-0.175476 14.567233,0.600169 25.580845,2.552539 z"
             style="fill:#000000;stroke:none" />
          <path
             style="fill:#000000;stroke:none;display:inline"
             d="m 80.875,33.249999 c -0.954391,-1.895789 -2.063875,-3.513221 -3.625,-5.1875 -3.827225,1.761493 -6.673782,3.959456 -9.875,6.8125 4.596197,-1.370019 9.125538,-1.911611 13.5,-1.625 z"
             id="path3807-2"
             inkscape:connector-curvature="0"
             sodipodi:nodetypes="cccc" />
        </g>
        <path
           style="fill:#202418;fill-opacity:1;stroke:none"
           d="m 77.583526,87.949011 c 0.28522,1.027609 0.620574,2.017045 1.004862,2.977766 l -11.838388,0 c 0.0096,-0.989332 0.02721,-1.985708 0.05232,-2.986397 z"
           id="path3888"
           inkscape:connector-curvature="0"
           sodipodi:nodetypes="ccccc" />
        <path
           style="fill:none;stroke:#000000;stroke-width:1.20000005;stroke-linecap:round;stroke-linejoin:round;stroke-miterlimit:4;stroke-opacity:1;stroke-dasharray:none"
           d="m 93.901241,51.392808 5.418915,0.22411 -4.586808,3.595548"
           id="path3020"
           inkscape:connector-curvature="0"
           sodipodi:nodetypes="ccc" />
        <g
           id="g3801">
          <path
             sodipodi:nodetypes="ccsc"
             inkscape:connector-curvature="0"
             id="path3790"
             d="m 74.3125,55.874999 c 8.125,2.5 13.375,3.75 19.3125,4.4375 -2.640742,1.982652 -3.944556,4.619379 -7.384494,4.619379 -4.371185,0 -9.862322,-3.182872 -11.928006,-9.056879 z"
             style="fill:#28544d;fill-opacity:1;stroke:none" />
          <path
             sodipodi:nodetypes="ccsc"
             inkscape:connector-curvature="0"
             id="path3792"
             d="m 74.3125,55.874999 c 4.8125,5.5625 12.125,6.75 17.315562,6.192707 -1.549543,1.505387 -2.918145,2.864172 -5.387556,2.864172 -4.371185,0 -9.862322,-3.182872 -11.928006,-9.056879"
             style="fill:#367d78;fill-opacity:1;stroke:none" />
          <path
             style="fill:none;stroke:#000000;stroke-width:0.80000001;stroke-linecap:butt;stroke-linejoin:miter;stroke-miterlimit:4;stroke-opacity:1;stroke-dasharray:none"
             d="m 74.3125,55.874999 c 4.8125,5.5625 12.125,6.75 17.315562,6.192707"
             id="path3796"
             inkscape:connector-curvature="0"
             sodipodi:nodetypes="cc" />
          <path
             style="fill:none;stroke:#000000;stroke-width:1.20000005;stroke-linecap:round;stroke-linejoin:miter;stroke-miterlimit:4;stroke-opacity:1;stroke-dasharray:none"
             d="m 74.3125,55.874999 c 8.125,2.5 13.375,3.75 19.3125,4.4375 -2.640742,1.982652 -3.944556,4.619379 -7.384494,4.619379 -4.371185,0 -9.862322,-3.182872 -11.928006,-9.056879 z"
             id="path3799"
             inkscape:connector-curvature="0"
             sodipodi:nodetypes="ccsc" />
        </g>
        <g
           id="g3813">
          <path
             sodipodi:nodetypes="ccc"
             inkscape:connector-curvature="0"
             id="path3771"
             d="m 113.33401,42.367372 c -1.73451,8.207093 -14.486187,9.76458 -17.605312,3.332367 5.235312,-1.848349 11.564892,-3.222921 17.605312,-3.332367 z"
             style="fill:#ffffff;stroke:none" />
          <path
             sodipodi:nodetypes="cccc"
             inkscape:connector-curvature="0"
             id="path3769"
             d="m 97.182993,47.698789 c 2.828427,-0.486137 5.170717,-1.707108 6.319767,-4.226176 l -7.733981,2.193243 z"
             style="fill:#000000;stroke:none" />
          <path
             style="fill:none;stroke:#000000;stroke-width:1.20000005;stroke-linecap:butt;stroke-linejoin:miter;stroke-miterlimit:4;stroke-opacity:1;stroke-dasharray:none"
             d="m 113.33401,42.367372 c -1.73451,8.207093 -14.486187,9.76458 -17.605312,3.332367"
             id="path3765"
             inkscape:connector-curvature="0"
             sodipodi:nodetypes="cc" />
          <path
             style="fill:#000000;stroke:none"
             d="m 95.024434,45.283274 c -1.00927,0.420344 -1.246235,1.657582 0.25,1.194544 6.940106,-2.147748 12.155906,-3.104316 21.225456,-3.589151 2.02211,-0.108097 2.10536,-2.097023 -0.14461,-2.032932 -9.19845,0.26202 -14.69223,1.662669 -21.330846,4.427539 z"
             id="path3767"
             inkscape:connector-curvature="0"
             sodipodi:nodetypes="sssss" />
          <path
             sodipodi:nodetypes="cccc"
             inkscape:connector-curvature="0"
             id="path3807"
             d="m 94.625,32.187499 c 1.060574,-1.627862 2.403752,-3.143207 3.875,-4.5625 3.56206,1.717299 6.69653,3.956315 9.5,6.5 -4.72878,-1.502602 -9.133121,-2.135723 -13.375,-1.9375 z"
             style="fill:#000000;fill-opacity:1;stroke:none" />
        </g>
        <path
           style="fill:none;stroke:#000000;stroke-width:1.20000005;stroke-miterlimit:4;stroke-dasharray:none"
           d="m 99.625,13.062499 c 8.03671,15.548129 16.10441,29.999281 15.58558,38.316572 -0.6268,10.048289 -10.38443,19.413257 -22.89808,31.245928 L 76.396447,77.801777 c -0.0625,5.1875 0.691941,9.375 2.191941,13.125 l -11.838388,0 C 66.79945,85.82261 67.062923,80.530943 67.463388,75.426776 L 61.125,73.749999 60.105393,63.900887 C 51.592145,64.352962 49.268921,62.317428 49.029645,53.790016 l 8.756967,0.209983 C 57.953902,38.76076 61.21144,25.730842 67,13.062499 z"
           id="path3864"
           inkscape:connector-curvature="0"
           sodipodi:nodetypes="csccccccccccc" />
        <path
           style="fill:#327876;fill-opacity:1;stroke:#000000;stroke-width:1.20000005;stroke-linecap:butt;stroke-linejoin:miter;stroke-miterlimit:4;stroke-opacity:1;stroke-dasharray:none"
           d="M 61.691942,13.19064 C 56.945396,29.0216 48.808357,50.49116 59.859835,59.66161 58.983394,41.588848 62.212332,36.781952 76.864277,20.599111 c -0.178866,9.620691 0.05316,17.912993 4.28217,19.370558 -0.247505,-1.799979 -0.09265,-3.911448 0.28033,-5.854854 1.8752,4.486572 4.293521,7.066377 8.390165,8.436961 C 87.514969,29.27047 90.514703,22.891629 95.646447,13.19064 z"
           id="path3897"
           inkscape:connector-curvature="0"
           sodipodi:nodetypes="cccccccc" />
        <path
           style="fill:none;stroke:#000000;stroke-width:0.80000001;stroke-linecap:butt;stroke-linejoin:round;stroke-miterlimit:4;stroke-opacity:1;stroke-dasharray:none"
           d="m 66.733203,87.959695 10.88249,0"
           id="path3882"
           inkscape:connector-curvature="0"
           sodipodi:nodetypes="cc" />
        <path
           sodipodi:nodetypes="cc"
           inkscape:connector-curvature="0"
           id="path3947"
           d="m 46.570509,13.159255 58.119611,0"
           style="fill:none;stroke:#000000;stroke-width:2;stroke-linecap:butt;stroke-linejoin:miter;stroke-miterlimit:20;stroke-opacity:1;stroke-dasharray:none" />
      </g>
      <g
         id="g4278">
        <path
           style="fill:#0d1608;fill-opacity:1;stroke:none"
           d="m 44.25,348.52145 0.625,24.22855 -17.801777,0 4.521261,-23.2723 4.443097,-2.57568 c -7.52995,-43.91832 -10.187568,-69.14997 -8.31233,-83.87361 l 22.118105,0.0324 C 47.660082,281.48623 46.445564,306.52776 44.25,348.52145 z"
           id="path4254"
           inkscape:connector-curvature="0"
           sodipodi:nodetypes="cccccccc" />
        <path
           id="path4256"
           d="m 27.725251,263.0284 c 1.803588,-15.0806 8.395367,-19.05153 19.278321,-20.74266 l 3.424621,-49.96253 21.468254,0 c -13.589662,31.1115 -18.868675,43.66952 -22.053091,70.73763 z"
           style="fill:#363322;fill-opacity:1;stroke:none"
           inkscape:connector-curvature="0"
           sodipodi:nodetypes="cccccc" />
        <path
           inkscape:connector-curvature="0"
           d="m 27.786612,263 22.073223,0 m -2.856263,-20.71425 3.424621,-49.96253 21.468254,0 C 49.107469,244.49518 49.688955,244.4927 44.25,348.52145 l 0.625,24.22855 -17.801777,0 4.521261,-23.2723 4.443097,-2.57568 C 20.765673,257.82885 25.535685,245.6217 47.003572,242.28575 z"
           style="fill:none;stroke:#000000;stroke-width:2;stroke-linecap:butt;stroke-linejoin:miter;stroke-miterlimit:4;stroke-opacity:1;stroke-dasharray:none"
           id="path4221"
           sodipodi:nodetypes="ccccccccccc" />
        <path
           id="path4238"
           style="fill:none;stroke:#000000;stroke-width:1.20000005;stroke-linecap:round;stroke-linejoin:round;stroke-miterlimit:4;stroke-opacity:1;stroke-dasharray:none"
           d="m 28.814601,364.08489 15.909903,0 m -7.437892,-41.18218 -5.024865,0 m 5.759701,-11.82322 -7.615856,0 m 9.527468,-11.91161 -10.941682,0 m 11.941682,-10.64644 -13.09073,0 m 20.621058,-9.73483 -21.323223,0"
           inkscape:connector-curvature="0" />
      </g>
      <g
         id="g4272">
        <path
           style="fill:#363322;fill-opacity:1;stroke:none"
           d="m 77,244 22.25,-51.67678 -21.821807,0 -7.071068,50.13931 c -10.085178,3.67039 -14.716491,8.78047 -15.294603,20.53954 l 22.038786,-0.002 z"
           id="path4258"
           inkscape:connector-curvature="0"
           sodipodi:nodetypes="ccccccc" />
        <path
           style="fill:#0d1608;fill-opacity:1;stroke:none"
           d="M 77.5,346.39645 103,363.75 l 0,9.25 -42.676777,0 8.089358,-29.59798 C 59.663363,300.92789 54.424119,277.15309 55.062522,263.00207 l 22.038784,-0.002 z"
           id="path4266"
           inkscape:connector-curvature="0"
           sodipodi:nodetypes="cccccccc" />
        <path
           id="path4218"
           style="fill:none;stroke:#000000;stroke-width:2;stroke-linecap:butt;stroke-linejoin:miter;stroke-miterlimit:4;stroke-opacity:1;stroke-dasharray:none"
           d="m 55.036612,263 22.073223,0 m -6.75271,-20.53747 7.071068,-50.13931 21.821807,0 L 77,244 77.5,346.39645 103,363.75 l 0,9.25 -42.676777,0 8.089358,-29.59798 C 52.390673,265.62174 48.139238,250.54848 70.357125,242.46253 z"
           inkscape:connector-curvature="0" />
        <path
           id="path4236"
           style="fill:none;stroke:#000000;stroke-width:1.20000005;stroke-linecap:round;stroke-linejoin:round;stroke-miterlimit:4;stroke-opacity:1;stroke-dasharray:none"
           d="m 74.27539,322.16788 3.09961,0 m -4.646946,-11.07322 4.521946,0 m -6.246058,-12.09911 6.308558,0 m -9.308558,-10.08394 9.246058,0 m -0.05178,-9.77145 -21.146446,0 M 62.625,364 l 40.25,0"
           inkscape:connector-curvature="0" />
      </g>
      <g
         id="g4176">
        <path
           clip-path="none"
           sodipodi:nodetypes="cccccccc"
           inkscape:connector-curvature="0"
           id="path4116"
           d="m 67.304433,114.86905 c -0.702582,-2.43535 -1.49687,-4.83528 -2.355628,-7.22857 -2.354934,5.38631 -4.376659,11.09501 -6.078527,17.03568 l -12.709851,-2.33088 c 1.401614,-11.61594 3.968068,-22.32816 7.72272,-31.136577 l 36.555106,-0.07742 c -0.04428,5.003594 0.120086,10.175947 0.467312,15.439297 z"
           style="fill:#598aab;fill-opacity:1;stroke:none" />
        <g
           id="g3955">
          <path
             style="fill:#436228;fill-opacity:1;stroke:none"
             d="m 77.439679,113.24838 c 4.062239,11.54045 8.802718,25.74799 13.387286,39.79127 l 6.731862,-1.81467 c -3.263077,-14.411 -5.664365,-29.80869 -6.643228,-44.50315 z"
             id="path4071"
             inkscape:connector-curvature="0"
             sodipodi:nodetypes="ccccc"
             clip-path="none" />
          <path
             clip-path="none"
             sodipodi:nodetypes="ccccccccc"
             inkscape:connector-curvature="0"
             id="path4097"
             d="m 90.810981,152.99069 c 3.533839,10.82416 6.975633,21.5527 9.943449,30.8892 l -4.042253,0.59978 c 0.866426,4.73646 2.935939,9.00253 6.357603,12.80531 0.10151,-2.04799 0.40426,-4.267 1,-6.98562 5.30968,1.47037 12.49817,5.22799 17.72617,8.98562 -0.46367,-8.96432 -2.53571,-17.63619 -15.00105,-16.1316 -3.44761,-9.44237 -6.6288,-20.40143 -9.251673,-31.99733 z"
             style="fill:#fdddc2;fill-opacity:1;stroke:none" />
          <path
             clip-path="url(#clipPath3951)"
             inkscape:original-d="M 108.15415,186.75877 C 97.861534,160.29205 89.529419,119.80311 90.509668,87.454893"
             inkscape:path-effect="#path-effect3903"
             sodipodi:nodetypes="cc"
             inkscape:connector-curvature="0"
             id="path3886"
             d="m 107.59485,186.97627 c -0.73163,-1.88166 -1.43526,-3.77341 -2.1123,-5.67428 -2.50316,-7.02791 -4.61184,-13.93993 -6.45665,-20.86574 -1.844813,-6.92581 -3.423221,-13.86652 -4.800981,-20.9604 -1.398055,-7.18985 -2.594086,-14.56473 -3.436031,-22.29263 -1.076159,-9.87767 -1.578642,-19.815935 -1.278761,-29.758616 l 1.999082,0.06058 c -0.299437,9.8348 0.199703,19.680598 1.268732,29.481198 0.832554,7.63265 1.929245,14.97834 3.205555,22.18269 1.253442,7.06607 2.680668,14.00965 4.403884,20.93657 1.72321,6.92692 3.74064,13.8389 6.22519,20.81385 0.67336,1.89034 1.37312,3.77127 2.10069,5.64185 z"
             style="fill:#000000;stroke:none" />
          <path
             clip-path="url(#clipPath3937)"
             sodipodi:nodetypes="ccccccc"
             inkscape:connector-curvature="0"
             id="path3889"
             d="m 104.5599,183.5193 c 14.45868,-2.85905 16.74593,6.28993 17.23605,15.76568 -5.228,-3.75763 -12.41649,-7.51525 -17.72617,-8.98562 -0.59574,2.71862 -0.89849,4.93763 -1,6.98562 -3.421664,-3.80278 -5.491177,-8.06885 -6.357603,-12.80531 l 4.042253,-0.59978 C 93.94054,162.44395 84.628173,133.67023 77.439679,113.24838"
             style="fill:none;stroke:#000000;stroke-width:1.20000005;stroke-linecap:butt;stroke-linejoin:miter;stroke-miterlimit:20;stroke-opacity:1;stroke-dasharray:none" />
          <path
             id="path3913-9"
             style="fill:#000000;fill-opacity:1;fill-rule:evenodd;stroke:none;display:inline"
             d="m 121.27433,199.00849 -1.72534,-0.99766 c -2.71739,-4.33152 -5.36937,-7.05283 -9.95796,-10.13271 5.30231,1.9916 8.39639,5.03654 11.6833,11.13037 z m 0.0152,-4.86643 c -2.69157,-3.4615 -4.95518,-5.57809 -7.84286,-7.85176 3.15168,1.68 5.44308,3.31849 7.61151,5.76196 z"
             inkscape:connector-curvature="0"
             sodipodi:nodetypes="cccccccc" />
          <path
             style="fill:none;stroke:#000000;stroke-width:1.20000005;stroke-linecap:butt;stroke-linejoin:miter;stroke-miterlimit:4;stroke-opacity:1;stroke-dasharray:none;display:inline"
             d="m 90.704184,153.05956 6.94379,-1.85825"
             id="path4038-0"
             inkscape:connector-curvature="0"
             sodipodi:nodetypes="cc" />
        </g>
        <path
           sodipodi:nodetypes="cccccc"
           inkscape:connector-curvature="0"
           id="path4208"
           d="m 92.413965,100.77971 c -3.20733,0.90027 -6.534854,2.32123 -9.246255,4.08452 -4.937778,-1.75679 -10.282706,-3.06625 -15.875102,-3.73908 -0.330748,-3.485062 -1.47838,-6.938937 -3.004545,-10.089021 l 14.213781,0.120434 c 3.46115,4.383939 8.335244,7.354935 13.912121,9.623147 z"
           style="fill:#fdddc2;fill-opacity:1;stroke:none" />
        <path
           style="fill:none;stroke:#000000;stroke-width:2;stroke-linecap:butt;stroke-linejoin:miter;stroke-miterlimit:20;stroke-opacity:1;stroke-dasharray:none"
           d="m 48.995388,91.130828 45.1595,0"
           id="path3076"
           inkscape:connector-curvature="0"
           sodipodi:nodetypes="cc"
           clip-path="url(#clipPath4029)" />
        <path
           clip-path="none"
           sodipodi:nodetypes="ccccccccccc"
           inkscape:connector-curvature="0"
           id="path4137"
           d="m 83.116956,104.81347 c 3.261185,-1.91597 6.330171,-3.35685 9.233234,-3.96858 1.45945,0.55311 2.94579,1.03609 4.45574,1.48571 -0.9297,7.34588 -4.39183,11.33704 -13.04248,11.42764 -0.4621,11.46247 -1.54758,22.05392 -3.50683,34.5959 19.20076,10.53652 25.0682,23.56976 25.59046,46.97608 l -63.77246,0 c 0.144821,-20.37833 9.334286,-43.76846 27.52314,-47.74503 2.125562,-14.53288 0.05688,-25.92035 -3.572566,-36.92477 1.052986,-2.58819 1.691347,-5.74575 1.2425,-9.55454 5.493993,0.76132 10.790845,1.96622 15.849262,3.70759 z"
           style="fill:#202418;fill-opacity:1;stroke:none" />
        <path
           style="fill:#fdddc2;fill-opacity:1;stroke:none"
           d="m 99.153518,165.22495 -49.502355,-1.02497 c 3.348011,-6.10674 7.831176,-11.17938 13.422126,-14.22502 l 7.42296,9.52824 5.799807,-8.90392 5.881495,7.35186 4.118863,-5.94658 c 5.607476,3.90209 9.76547,8.19493 12.857104,13.22039 z"
           id="path4173"
           inkscape:connector-curvature="0" />
        <path
           id="path4158"
           style="fill:#245350;fill-opacity:1;stroke:none"
           d="m 42.07462,195.33022 c 0.03945,-5.55171 0.750194,-11.32695 2.083947,-16.83307 l 27.31793,0.0392 0.245063,16.76989 z m 50.954903,-17.03891 0.697598,17.01495 12.119959,0.024 c -0.14382,-6.44557 -0.69298,-12.10452 -1.79579,-17.09013 z"
           inkscape:connector-curvature="0" />
        <path
           style="fill:none;stroke:#000000;stroke-width:2;stroke-linecap:butt;stroke-linejoin:miter;stroke-miterlimit:20;stroke-opacity:1;stroke-dasharray:none"
           d="m 78.256554,91.008296 c 5.515516,6.633117 11.796286,9.311444 18.549376,11.322304 -0.9297,7.34588 -4.39183,11.33704 -13.04248,11.42764 -0.4621,11.46247 -1.54758,22.05392 -3.50683,34.5959 19.20076,10.53652 25.0682,23.56976 25.59046,46.97608 l -63.77246,0 c 0.144821,-20.37833 9.334286,-43.76846 27.52314,-47.74503 2.65704,-18.1667 -1.23986,-31.41838 -6.546673,-45.15079"
           id="path3860"
           inkscape:connector-curvature="0"
           sodipodi:nodetypes="cccccccc"
           clip-path="url(#clipPath4013)" />
        <path
           id="path4066"
           style="fill:none;stroke:#000000;stroke-width:1.20000005;stroke-linecap:butt;stroke-linejoin:miter;stroke-miterlimit:20;stroke-opacity:1;stroke-dasharray:none"
           d="m 67.276603,101.11644 c 5.608401,0.68154 10.953329,1.991 15.891107,3.74779 2.711401,-1.76329 6.038925,-3.18425 9.246255,-4.08452 M 64.206316,90.885765 c 3.104123,6.371616 4.492809,13.315045 1.715437,20.013425"
           inkscape:connector-curvature="0" />
        <path
           style="fill:#000000;stroke:none"
           d="m 78.573394,98.588308 c 10.136042,5.694192 5.067729,18.946672 -7.889845,16.058582 12.514888,0.18329 15.373657,-9.06009 7.889845,-16.058582 z"
           id="path4141"
           inkscape:connector-curvature="0"
           sodipodi:nodetypes="ccc" />
        <path
           id="path4155"
           style="fill:none;stroke:#000000;stroke-width:1.20000005;stroke-linecap:butt;stroke-linejoin:miter;stroke-miterlimit:4;stroke-opacity:1;stroke-dasharray:none"
           d="m 63.062692,149.94577 7.433557,9.55743 5.799807,-8.90392 5.881495,7.35186 4.166058,-5.96318 m -36.677654,12.17143 49.584267,1.06193 m 4.819558,13.06999 -11.040257,0 0.735187,16.99099 m -49.6535,-16.74593 27.365287,0 0.245062,16.74593"
           inkscape:connector-curvature="0" />
        <g
           id="g4107">
          <path
             clip-path="none"
             sodipodi:nodetypes="ccccc"
             inkscape:connector-curvature="0"
             id="path4062"
             d="m 61.915327,115.23864 c -4.616153,12.79392 -7.660686,27.0579 -8.869934,41.60545 l -7.747439,0.17009 c -1.03365,-16.28674 -0.105704,-32.65186 2.836381,-46.84595 z"
             style="fill:#436228;fill-opacity:1;stroke:none" />
          <path
             clip-path="none"
             sodipodi:nodetypes="ccccccccc"
             inkscape:connector-curvature="0"
             id="path4060"
             d="m 53.049053,156.80013 c -0.904293,10.84527 -0.788642,21.84882 0.456211,32.51899 l 4.982933,0.32674 c -0.404332,4.6222 -1.394491,8.11269 -3.430872,11.92637 -0.610667,-2.91383 -1.38459,-5.08565 -2.528205,-7.25043 -5.371841,3.75451 -9.952555,8.18042 -14.530452,13.32913 -3.432437,-14.35383 2.132733,-19.19909 12.010821,-18.64905 -2.448308,-10.19926 -4.025805,-21.11599 -4.716522,-32.06651 z"
             style="fill:#fdddc2;fill-opacity:1;stroke:none" />
          <path
             clip-path="url(#clipPath4009)"
             sodipodi:nodetypes="ccccccc"
             inkscape:connector-curvature="0"
             id="path3848"
             d="M 66.656939,103.79238 C 55.2207,127.97186 50.074392,159.91165 53.505264,189.31912 l 4.982933,0.32674 c -0.404332,4.6222 -1.394491,8.11269 -3.430872,11.92637 -0.610667,-2.91383 -1.38459,-5.08565 -2.528205,-7.25043 -5.371841,3.75451 -9.952555,8.18042 -14.530452,13.32913 -3.594246,-15.03049 2.677425,-19.63478 13.460166,-18.57284"
             style="fill:none;stroke:#000000;stroke-width:1.20000005;stroke-linecap:butt;stroke-linejoin:miter;stroke-miterlimit:20;stroke-opacity:1;stroke-dasharray:none" />
          <path
             clip-path="url(#clipPath4003)"
             inkscape:original-d="M 50.592058,191.47293 C 41.299512,155.15328 43.25194,108.86173 57.216676,84.454024"
             inkscape:path-effect="#path-effect3878"
             sodipodi:nodetypes="cc"
             inkscape:connector-curvature="0"
             id="path3858"
             d="m 50.010685,191.62168 c -0.53975,-2.10989 -1.04015,-4.22936 -1.501758,-6.35707 -1.900446,-8.75982 -3.143636,-17.33434 -3.841776,-25.9085 -0.69814,-8.57415 -0.848986,-17.15117 -0.41532,-25.9117 0.298673,-6.18189 0.84083,-12.54356 1.911689,-19.01529 1.764005,-10.66075 4.822929,-21.070684 10.185181,-30.471703 l 1.73595,0.993214 c -5.232199,9.116069 -8.208452,19.304079 -9.937168,29.805929 -1.045603,6.35197 -1.642442,12.63989 -2.034164,18.79199 -0.540309,8.64678 -0.559814,17.16042 -0.0036,25.69175 0.556199,8.53133 1.687069,17.08377 3.571687,25.76993 0.458552,2.11346 0.955648,4.21858 1.491846,6.314 -0.387517,0.0992 -0.775035,0.1983 -1.162552,0.29745 z"
             style="fill:#000000;stroke:none" />
          <path
             inkscape:connector-curvature="0"
             d="m 38.248125,207.49324 1.429529,-1.38869 c 1.75628,-4.65618 3.777373,-8.535 7.167402,-13.02781 -4.288591,3.51256 -6.718121,8.2491 -8.596931,14.4165 z m -1.488783,-6.79848 0.285905,2.08303 c 1.715436,-4.04353 3.51256,-6.67862 5.718121,-9.57853 -2.695686,2.36894 -4.656184,4.63644 -6.004026,7.4955 z"
             style="fill:#000000;fill-opacity:1;fill-rule:evenodd;stroke:none"
             id="path3913" />
          <path
             style="fill:none;stroke:#000000;stroke-width:1.20000005;stroke-linecap:butt;stroke-linejoin:miter;stroke-miterlimit:4;stroke-opacity:1;stroke-dasharray:none"
             d="m 45.173146,156.97089 7.841994,-0.16337"
             id="path4038"
             inkscape:connector-curvature="0"
             sodipodi:nodetypes="cc" />
          <path
             style="font-size:medium;font-style:normal;font-variant:normal;font-weight:normal;font-stretch:normal;text-indent:0;text-align:start;text-decoration:none;line-height:normal;letter-spacing:normal;word-spacing:normal;text-transform:none;direction:ltr;block-progression:tb;writing-mode:lr-tb;text-anchor:start;baseline-shift:baseline;color:#000000;fill:#000000;stroke:none;stroke-width:0.2;marker:none;visibility:visible;display:inline;overflow:visible;enable-background:accumulate;font-family:Sans;-inkscape-font-specification:Sans"
             d="M 61.84375,115.78125 62.25,114.65625 48.15625,109.1875 47.5,111.0625 z"
             id="path4040"
             inkscape:connector-curvature="0"
             sodipodi:nodetypes="ccccc" />
        </g>
      </g>
    </g>
    <g
       id="Cameron">
      <g
         id="g3995">
        <path
           style="fill:#865a16;fill-opacity:1;stroke:#000000;stroke-width:2;stroke-linecap:butt;stroke-linejoin:miter;stroke-miterlimit:4;stroke-opacity:1;stroke-dasharray:none"
           d="m 183.19633,286.14309 c 18.73858,5.33815 21.81866,-1.27677 26.73665,-20.78889 l -10.91115,-0.0936 -12.67708,7.78853 z"
           id="path3961"
           inkscape:connector-curvature="0"
           sodipodi:nodetypes="ccccc" />
        <path
           style="fill:#6c0c05;fill-opacity:1;stroke:#000000;stroke-width:2;stroke-linecap:butt;stroke-linejoin:miter;stroke-miterlimit:4;stroke-opacity:1;stroke-dasharray:none"
           d="m 209.12679,248.30493 2.64653,19.27563 -17.34221,0 9.53989,-19.27563 z"
           id="path3959"
           inkscape:connector-curvature="0"
           sodipodi:nodetypes="ccccc" />
        <path
           style="fill:#990c03;fill-opacity:1;stroke:#000000;stroke-width:2;stroke-linecap:butt;stroke-linejoin:miter;stroke-miterlimit:4;stroke-opacity:1;stroke-dasharray:none"
           d="m 201.25897,251.00925 11.10279,0 -1.31998,-11.35137 z"
           id="path3946"
           inkscape:connector-curvature="0"
           sodipodi:nodetypes="cccc" />
        <path
           style="fill:#990c03;fill-opacity:1;stroke:#000000;stroke-width:2;stroke-linecap:butt;stroke-linejoin:miter;stroke-miterlimit:4;stroke-opacity:1;stroke-dasharray:none"
           d="m 202.99896,147.67549 c 4.05998,4.9714 5.63691,9.46351 5.8485,15.69996 l 2.29156,67.53982 -21.39714,-2.69162 z"
           id="path3926"
           inkscape:connector-curvature="0"
           sodipodi:nodetypes="csccc" />
        <path
           sodipodi:nodetypes="ccccc"
           inkscape:connector-curvature="0"
           id="path3928"
           d="m 203.38187,148.99548 -0.2543,22.84419 3.6457,0 -1.74571,-23.34706 z"
           style="fill:#6c0c05;fill-opacity:1;stroke:#000000;stroke-width:1.20000005;stroke-linecap:butt;stroke-linejoin:miter;stroke-miterlimit:4;stroke-opacity:1;stroke-dasharray:none" />
        <path
           style="fill:#990c03;fill-opacity:1;stroke:#000000;stroke-width:2;stroke-miterlimit:4;stroke-opacity:1;stroke-dasharray:none"
           d="m 200.60755,158.8783 11.0085,-18.77277 -15.07992,0 z"
           id="path3924"
           inkscape:connector-curvature="0"
           sodipodi:nodetypes="cccc" />
      </g>
      <g
         id="g4551">
        <path
           style="fill:#000000;fill-opacity:1;fill-rule:evenodd;stroke:none"
           d="m 248.38019,92.145396 -0.0192,3.404083 -10.5222,-0.943888 0.50266,-3.974886 z"
           id="path4543"
           inkscape:connector-curvature="0"
           sodipodi:nodetypes="ccccc" />
        <path
           sodipodi:nodetypes="cccccccscc"
           inkscape:connector-curvature="0"
           id="path4547"
           d="m 168.59185,98.700697 c 3.3308,13.509953 3.58709,15.125663 16.39371,15.125663 l 9.76277,14.83435 -6.59304,19.14518 13.43967,11.41103 1.64825,-28.52758 17.11655,0 c 7.73415,-13.18609 30.77039,1.47616 22.02313,-41.206518 -10.32897,-50.400758 -96.57879,-37.595844 -71.18514,9.159037 z"
           style="fill:#865a16;fill-opacity:1;stroke:none" />
        <path
           style="fill:#221303;fill-opacity:1;stroke:none"
           d="m 184.86564,89.294943 -5.73783,-18.692767 12.37219,0 -6.54471,-6.858497 10.22051,6.858497 37.72775,0.03748 C 211.1857,46.971735 163.05534,56.021378 166.69185,85.615943 z"
           id="path4519"
           inkscape:connector-curvature="0"
           sodipodi:nodetypes="cccccccc" />
        <g
           id="g4386">
          <path
             style="fill:#4b2c01;fill-opacity:1;stroke:#000000"
             d="m 201.75888,109.1089 25.11197,1.12572 c -0.76206,2.06203 -2.13151,3.88919 -3.0212,3.84532 l -17.24677,-0.85038 c -1.19685,-0.059 -3.56081,-2.14083 -4.844,-4.12066 z"
             id="path4378"
             inkscape:connector-curvature="0"
             sodipodi:nodetypes="ccssc" />
          <path
             sodipodi:nodetypes="csc"
             inkscape:connector-curvature="0"
             id="path4376"
             d="m 201.75888,109.1089 c 1.54341,1.2399 3.79921,2.15798 5.86857,2.22732 l 18.35523,0.61507"
             style="fill:none;stroke:#000000;stroke-width:0.80000001;stroke-linecap:round;stroke-linejoin:round;stroke-miterlimit:4;stroke-opacity:1;stroke-dasharray:none" />
        </g>
        <g
           id="g4399">
          <path
             style="fill:#ffffff;stroke:none"
             d="m 195.26545,101.57748 c 5.12641,-3.029105 9.86344,-3.078214 15.86868,-0.80688 3.66492,-20.52616 -25.73958,-17.449814 -15.86868,0.80688 z"
             id="path4358"
             inkscape:connector-curvature="0"
             sodipodi:nodetypes="ccc" />
          <path
             sodipodi:nodetypes="ccc"
             inkscape:connector-curvature="0"
             id="path4356"
             d="m 202.79671,86.613779 c -1.55574,8.327688 4.24908,13.837671 7.74362,5.615983 -1.68008,-3.37387 -4.27048,-5.230549 -7.74362,-5.615983 z"
             style="fill:#000000;stroke:none" />
          <path
             sodipodi:nodetypes="ccc"
             inkscape:connector-curvature="0"
             id="path4352"
             d="m 195.26545,101.57748 c 5.12641,-3.029105 9.86344,-3.078214 15.86868,-0.80688 3.66492,-20.52616 -25.73958,-17.449814 -15.86868,0.80688 z"
             style="fill:none;stroke:#000000;stroke-width:1.20000005;stroke-miterlimit:4;stroke-dasharray:none" />
          <path
             sodipodi:nodetypes="sssss"
             inkscape:connector-curvature="0"
             id="path4390"
             d="m 187.57631,83.03839 c -1.13452,1.411182 0.43069,2.950443 1.41421,1.727996 5.47928,-6.810389 11.79805,-7.901138 20.17455,-4.601943 1.0311,0.406112 1.49744,-0.763369 0.58146,-1.153441 -10.52962,-4.484044 -16.61144,-2.886912 -22.17022,4.027388 z"
             style="font-size:medium;font-style:normal;font-variant:normal;font-weight:normal;font-stretch:normal;text-indent:0;text-align:start;text-decoration:none;line-height:normal;letter-spacing:normal;word-spacing:normal;text-transform:none;direction:ltr;block-progression:tb;writing-mode:lr-tb;text-anchor:start;baseline-shift:baseline;color:#000000;fill:#000000;stroke:none;stroke-width:0.2;marker:none;visibility:visible;display:inline;overflow:visible;enable-background:accumulate;font-family:Sans;-inkscape-font-specification:Sans" />
        </g>
        <g
           id="g4426">
          <path
             sodipodi:nodetypes="ccc"
             inkscape:connector-curvature="0"
             id="path4367"
             d="m 240.03487,98.323901 c -4.61925,-0.810292 -9.25812,-0.380873 -13.6151,1.446699 -8.6731,-16.215325 16.4492,-20.400734 13.6151,-1.446699 z"
             style="fill:#ffffff;stroke:none" />
          <path
             sodipodi:nodetypes="ccc"
             inkscape:connector-curvature="0"
             id="path4365"
             d="m 231.88799,85.791217 c -1.25742,7.951503 5.34834,11.124644 7.65171,5.156678 -1.49656,-3.449713 -3.98181,-4.969128 -7.65171,-5.156678 z"
             style="fill:#000000;stroke:none" />
          <path
             style="fill:none;stroke:#000000;stroke-width:1.20000005;stroke-miterlimit:4;stroke-dasharray:none"
             d="m 240.03487,98.323901 c -4.61925,-0.810292 -9.25812,-0.380873 -13.6151,1.446699 -8.6731,-16.215325 16.4492,-20.400734 13.6151,-1.446699 z"
             id="path4354"
             inkscape:connector-curvature="0"
             sodipodi:nodetypes="ccc" />
          <path
             style="font-size:medium;font-style:normal;font-variant:normal;font-weight:normal;font-stretch:normal;text-indent:0;text-align:start;text-decoration:none;line-height:normal;letter-spacing:normal;word-spacing:normal;text-transform:none;direction:ltr;block-progression:tb;writing-mode:lr-tb;text-anchor:start;baseline-shift:baseline;color:#000000;fill:#000000;stroke:none;stroke-width:0.19005059;marker:none;visibility:visible;display:inline;overflow:visible;enable-background:accumulate;font-family:Sans;-inkscape-font-specification:Sans"
             d="m 240.04435,81.918407 c -0.35477,0.04336 -0.73341,-0.08382 -1.00846,-0.457321 -4.56733,-6.202177 -9.59001,-6.318038 -16.83685,-2.569985 -0.93239,0.482231 -1.3081,-0.577571 -0.52505,-1.109081 5.93215,-4.026564 11.2101,-4.593945 15.78363,-1.110788 1.00533,1.558276 1.93709,3.214653 2.58673,5.247175 z"
             id="path4390-1"
             inkscape:connector-curvature="0"
             sodipodi:nodetypes="cssscc" />
        </g>
        <path
           style="fill:none;stroke:#000000;stroke-width:2;stroke-miterlimit:4;stroke-dasharray:none"
           d="m 185.26817,98.700697 -16.67632,0 c 3.3308,13.509953 3.58709,15.125663 16.39371,15.125663 l 9.76277,14.83435 -6.59304,19.14518 13.43967,11.41103 1.64825,-28.52758 17.11655,0 c 7.73415,-13.18609 30.77039,1.47616 22.02313,-41.206518 -10.32897,-50.400758 -96.57879,-37.595844 -71.2163,9.100199"
           id="path4432"
           inkscape:connector-curvature="0"
           sodipodi:nodetypes="ccccccccsc" />
        <path
           style="fill:#000000;stroke:none"
           d="m 213.18281,106.28603 c 0.8657,0.55418 2.44451,-0.081 3.49915,-0.8682 0.73903,-0.67679 1.78147,-1.26063 2.99189,-1.14556 0.84148,0.15076 1.49284,0.61056 1.99261,1.07346 0,0 0,0 0,0 0.48091,0.37637 0.78558,0.78251 1.0766,0.78138 0.0622,0.0276 0.17653,-0.0138 0.28409,-0.0738 0.23176,-0.1309 0.42819,-0.40885 0.65297,-0.72189 0.3851,-0.64756 1.16186,-1.14214 2.11173,-1.00814 0.75927,0.2204 1.29389,0.68417 1.71046,1.0752 0,0 0,0 0,0 0.47268,0.39164 0.83139,0.78706 1.21519,0.90383 0,0 0,0 0,0 0.11128,0.0301 0.20996,0.0524 0.24096,0.0219 0.0906,-0.006 0.19389,-0.15881 0.33511,-0.34039 0.0272,-0.0392 0.0495,-0.0834 0.0667,-0.1303 0.0481,-0.1314 0.0683,-0.30755 0.008,-0.45637 -0.0834,-0.28629 -0.36017,-0.58982 -0.69777,-0.9319 -1.01464,-0.9813 -2.43339,-1.84529 -3.21589,-2.52922 1.01263,0.26009 2.58213,0.79435 3.8774,1.74138 0.43796,0.30656 0.86529,0.73375 1.12059,1.28238 0.18321,0.45181 0.1671,0.91521 0.0331,1.29482 -0.0464,0.13152 -0.10776,0.25874 -0.18362,0.37937 -0.17178,0.30398 -0.4699,0.61447 -0.9197,0.81281 -0.39126,0.12898 -0.77039,0.10751 -1.08232,-0.0194 0,0 0,0 0,0 -0.70235,-0.28611 -1.18456,-0.75484 -1.5857,-1.12377 0,0 0,0 0,0 -0.46621,-0.37735 -0.83438,-0.75457 -1.21113,-0.81554 -0.20127,-0.15112 -0.55028,0.1789 -0.82844,0.51445 -0.23249,0.36475 -0.54617,0.75671 -1.00472,1.06393 -0.31662,0.20924 -0.72013,0.30581 -1.1515,0.23943 -0.79523,-0.20789 -1.2879,-0.70542 -1.64061,-1.05553 0,0 0,0 0,0 -0.48139,-0.39215 -0.92631,-0.7575 -1.3733,-0.79011 -0.63566,-0.14768 -1.36329,0.34544 -2.04749,0.87343 -1.22482,1.14242 -3.25172,1.80148 -4.84341,0.9397 -0.18353,-0.0994 -0.35735,-0.21815 -0.51989,-0.35574 0,0 0,0 0,0 -0.60816,-0.65238 -0.60474,-1.54592 -0.16248,-2.16624 0.81713,-0.98943 1.96976,-1.19254 3.07711,-1.23534 -0.46802,0.2818 -0.93638,0.55978 -1.32713,0.84956 -0.39075,0.28978 -0.70771,0.59093 -0.88087,0.96673 -0.12788,0.23176 -0.083,0.60747 0.11461,0.72067 0,0 0,0 0,0 0.0788,0.0917 0.1679,0.16915 0.26759,0.23296 z"
           id="path4451"
           inkscape:connector-curvature="0"
           sodipodi:nodetypes="csssc"
           inkscape:path-effect="#path-effect4492"
           inkscape:original-d="m 215.00861,103.51611 c -5.82913,1.72758 -1.53524,5.40392 2.06101,2.35967 4.14514,-3.50891 4.69262,3.37127 7.10789,-0.20876 1.94362,-2.88093 3.9986,3.15782 5.62037,0.6419 0.97894,-1.51867 -1.64851,-2.99862 -4.34317,-4.37287" />
        <g
           id="g4529">
          <path
             sodipodi:nodetypes="ccccc"
             id="path4511"
             style="fill:#ffffff;stroke:none"
             d="m 224.97405,97.321518 -10.28717,0 0.22413,-4.44827 9.30098,0 z"
             inkscape:connector-curvature="0" />
          <path
             sodipodi:nodetypes="ccccc"
             inkscape:connector-curvature="0"
             id="path4509"
             style="fill:#3f5267;fill-opacity:1;fill-rule:evenodd;stroke:none"
             d="m 218.80719,97.363764 0,-4.572332 2.3935,0 0,4.572332 z" />
          <path
             sodipodi:nodetypes="cccc"
             inkscape:connector-curvature="0"
             d="m 221.20069,92.791432 0,4.572332 m -2.3935,-4.572332 0,4.572332"
             style="fill:none;stroke:#000000;stroke-width:0.80000001;stroke-miterlimit:4;stroke-dasharray:none"
             id="path4506" />
          <path
             inkscape:connector-curvature="0"
             d="m 214.68688,97.321518 10.28717,0 m -10.06304,-4.44827 9.30098,0"
             style="fill:none;stroke:#000000;stroke-width:1.20000005;stroke-miterlimit:4;stroke-dasharray:none"
             id="path4448" />
          <path
             transform="translate(0.08965356,0.53792136)"
             d="m 215.07889,93.867271 a 12.730805,11.117042 0 1 1 -25.46161,0 12.730805,11.117042 0 1 1 25.46161,0 z"
             sodipodi:ry="11.117042"
             sodipodi:rx="12.730805"
             sodipodi:cy="93.867271"
             sodipodi:cx="202.34808"
             id="path4434"
             style="fill:#6587ba;fill-opacity:0.40784314;stroke:#000000;stroke-width:2;stroke-linecap:butt;stroke-linejoin:miter;stroke-miterlimit:4;stroke-opacity:1;stroke-dasharray:none"
             sodipodi:type="arc" />
          <path
             sodipodi:type="arc"
             style="fill:#6587ba;fill-opacity:0.40784314;stroke:#000000;stroke-width:2;stroke-linecap:butt;stroke-linejoin:miter;stroke-miterlimit:4;stroke-opacity:1;stroke-dasharray:none"
             id="path4436"
             sodipodi:cx="202.34808"
             sodipodi:cy="93.867271"
             sodipodi:rx="12.192884"
             sodipodi:ry="10.489467"
             d="m 214.54097,93.867271 a 12.192884,10.489467 0 1 1 -24.38577,0 12.192884,10.489467 0 1 1 24.38577,0 z"
             transform="translate(34,-0.28277152)" />
          <path
             sodipodi:nodetypes="ccccc"
             inkscape:connector-curvature="0"
             id="path4438"
             d="m 163.43843,88.936328 1.61377,6.634364 24.65473,0 0.17931,-2.689606 z"
             style="fill:#000000;stroke:none" />
        </g>
        <path
           sodipodi:nodetypes="cccc"
           inkscape:connector-curvature="0"
           id="path4444"
           d="m 184.66858,102.85909 -3.23312,5.83231 -3.61451,-5.83231 z"
           style="fill:#6a4219;fill-opacity:1;stroke:none" />
        <path
           style="fill:none;stroke:#000000;stroke-width:1.20000005;stroke-miterlimit:4;stroke-dasharray:none"
           d="m 169.64405,102.85909 15.02453,0 -3.23312,5.83231 -3.61349,-5.83231"
           id="path4442"
           inkscape:connector-curvature="0"
           sodipodi:nodetypes="cccc" />
        <path
           sodipodi:nodetypes="ccccc"
           inkscape:connector-curvature="0"
           id="path4545"
           d="m 195.1758,70.602176 37.72775,0.03748 m -48.03791,18.655287 -5.73783,-18.692767 12.37219,0"
           style="fill:none;stroke:#000000;stroke-width:1.20000005;stroke-linecap:round;stroke-linejoin:round;stroke-miterlimit:4;stroke-dasharray:none" />
      </g>
      <g
         id="g4093">
        <path
           style="fill:#ffffff;stroke:none"
           d="m 193.39074,314.02178 0,59.15545 -39.84302,0 c 3.70394,-11.50346 12.37505,-16.54207 29.01419,-16.77643 l 1.81952,-42.46257 z"
           id="path4089"
           inkscape:connector-curvature="0"
           sodipodi:nodetypes="cccccc" />
        <path
           d="m 193.30471,363.03153 -6.95997,0 0.78612,-4.77044 c -21.92736,7.20171 -20.28588,8.4865 -22.99172,1.70474 -2.72384,1.69643 -5.22864,3.68491 -7.29139,6.26279 0.87,1.40857 1.69674,1.98856 3.0657,1.98856 l 33.47412,0 z"
           style="fill:#c85b0d;fill-opacity:1;stroke:none"
           id="path4091"
           inkscape:connector-curvature="0"
           sodipodi:nodetypes="cccccscc" />
        <path
           style="fill:#865a16;fill-opacity:1;stroke:none"
           d="m 184.38143,313.93823 1.71589,-40.04402 7.29342,0 0,40.12757 z"
           id="path4085"
           inkscape:connector-curvature="0"
           sodipodi:nodetypes="ccccc" />
        <path
           sodipodi:nodetypes="ccccc"
           inkscape:connector-curvature="0"
           id="path4072"
           style="fill:#990c03;fill-opacity:1;fill-rule:evenodd;stroke:none;display:inline"
           d="m 184.01232,322.91402 9.21681,0 0,2.3935 -9.21681,0 z" />
        <path
           id="path4509-5"
           style="fill:#3f5267;fill-opacity:1;fill-rule:evenodd;stroke:none;display:inline"
           d="m 184.01232,317.85543 9.21681,0 0,2.3935 -9.21681,0 z m 0,10.58987 9.21681,0 0,2.3935 -9.21681,0 z"
           inkscape:connector-curvature="0" />
        <path
           style="fill:none;stroke:#000000;stroke-width:2;stroke-linecap:butt;stroke-linejoin:miter;stroke-miterlimit:4;stroke-opacity:1;stroke-dasharray:none"
           d="m 193.39074,273.89421 0,99.28302 -39.84302,0 c 3.70394,-11.50346 12.37505,-16.54207 29.01419,-16.77643 l 3.53541,-82.50659 z"
           id="path4026"
           inkscape:connector-curvature="0"
           sodipodi:nodetypes="cccccc" />
        <path
           id="path4506-8"
           style="fill:none;stroke:#000000;stroke-width:0.80000001;stroke-miterlimit:4;stroke-dasharray:none;display:inline"
           d="m 193.22913,320.24893 -9.21681,0 m 9.21681,-2.3935 -9.21681,0 m 9.21681,12.98337 -9.21681,0 m 9.21681,-2.3935 -9.21681,0 m 9.21681,-3.13778 -9.21681,0 m 9.21681,-2.3935 -9.21681,0"
           inkscape:connector-curvature="0" />
        <path
           id="path4082"
           style="fill:none;stroke:#000000;stroke-width:1.20000005;stroke-linecap:round;stroke-linejoin:miter;stroke-miterlimit:4;stroke-opacity:1;stroke-dasharray:none"
           d="m 184.37815,313.98269 8.90546,0 m -16.5446,42.70706 5.26898,6.85087 m -9.1518,-6.32357 4.74168,7.61651 m -8.44874,-6.79228 3.85886,7.7337 m -8.86884,-5.80915 c 2.70584,6.78176 1.06436,5.49697 22.98563,-1.69145 m -4.42572,-8.25136 5.79997,0 -2.15428,13.00851 6.7114,0 m -36.20839,3.19709 c 0.87,1.40857 1.69674,1.98856 3.0657,1.98856 l 33.47412,0"
           inkscape:connector-curvature="0" />
      </g>
      <use
         height="383"
         width="257"
         transform="matrix(-1,0,0,1,386.78148,0)"
         id="use4103"
         xlink:href="#g4093"
         y="0"
         x="0" />
      <g
         id="g4116">
        <path
           sodipodi:nodetypes="ccccc"
           inkscape:connector-curvature="0"
           id="path4012"
           d="m 183.21038,244.64115 -3.46072,34.7743 31.05193,0 -1.87483,-34.7743 z"
           style="fill:#cd8a09;fill-opacity:1;stroke:none" />
        <path
           sodipodi:nodetypes="ccccc"
           inkscape:connector-curvature="0"
           id="path4009"
           d="m 183.21038,244.64115 -0.94607,9.50637 27.18053,0.10299 -0.51808,-9.60936 z"
           style="fill:#6c0c05;fill-opacity:1;stroke:none" />
        <path
           id="path3956"
           style="fill:none;stroke:#000000;stroke-width:1.20000005;stroke-linecap:butt;stroke-linejoin:miter;stroke-miterlimit:4;stroke-opacity:1;stroke-dasharray:none"
           d="m 204.15895,254.15781 0,-9.65282 m -5.71711,9.65282 0,-9.65282 m -8.45139,9.65282 0,-9.65282 m -7.75421,9.65282 27.09415,0"
           inkscape:connector-curvature="0" />
        <path
           sodipodi:nodetypes="cccccccc"
           inkscape:connector-curvature="0"
           d="m 201.75611,279.4291 -0.82857,-15.45278 5.63425,0 m -23.35141,-19.33517 -3.46072,34.7743 31.05193,0 -1.87483,-34.7743 z"
           style="fill:none;stroke:#000000;stroke-width:2;stroke-linecap:butt;stroke-linejoin:miter;stroke-miterlimit:4;stroke-opacity:1;stroke-dasharray:none"
           id="path4007" />
        <path
           sodipodi:nodetypes="csccccccccc"
           inkscape:connector-curvature="0"
           id="path3914"
           d="m 213.33095,248.01199 c 2.8001,-25.6511 -10.14065,-31.45908 -10.05129,-45.55413 l -0.62916,-45.31973 -17.62787,-17.33919 -14.76432,0 -2.0466,44.58589 4.7024,7.5e-4 -2.5607,66.10659 16.0742,0 -0.0569,-2.48019 z"
           style="fill:#990c03;fill-opacity:1;stroke:none" />
        <path
           style="fill:#6c0c05;fill-opacity:1;stroke:#000000;stroke-width:1.20000005;stroke-linecap:butt;stroke-linejoin:miter;stroke-miterlimit:4;stroke-opacity:1;stroke-dasharray:none"
           d="m 191.74188,150.8412 -1.33715,20.08704 3.89427,0 -0.99428,-19.51277 z"
           id="path3912"
           inkscape:connector-curvature="0"
           sodipodi:nodetypes="ccccc" />
        <path
           sodipodi:nodetypes="sccccccs"
           inkscape:connector-curvature="0"
           d="m 173.95733,158.15127 c 0.18666,-4.78279 2.81711,-6.904 6.88717,-9.71525 l 21.806,8.70211 -17.62787,-17.33919 -14.76432,0 -2.0466,44.58589 4.70253,-0.003 z"
           style="fill:#990c03;fill-opacity:1;stroke:none"
           id="path3908" />
        <path
           inkscape:connector-curvature="0"
           d="m 173.33625,250.42925 -2.56856,16.81992 14.66564,0 -2.15427,-16.81992 z"
           style="fill:#6c0c05;fill-opacity:1;stroke:none"
           id="path3893"
           sodipodi:nodetypes="ccccc" />
        <path
           sodipodi:nodetypes="ccccc"
           inkscape:connector-curvature="0"
           id="path3891"
           d="m 180.60422,267.17444 c 1.39191,26.33052 -12.98959,25.38049 -22.76668,20.32623 l 2.69508,-13.94407 c 9.49134,2.69507 12.53794,1.40612 14.2956,-6.44474 z"
           style="fill:#865a16;fill-opacity:1;stroke:none" />
        <path
           id="path3873"
           style="fill:none;stroke:#000000;stroke-width:1.20000005;stroke-linecap:butt;stroke-linejoin:miter;stroke-miterlimit:4;stroke-opacity:1;stroke-dasharray:none"
           d="m 181.22637,267.24917 -1.27718,-16.73706 m -4.29295,16.73706 1.16,-16.73706"
           inkscape:connector-curvature="0" />
        <path
           id="path3885"
           style="font-size:medium;font-style:normal;font-variant:normal;font-weight:normal;font-stretch:normal;text-indent:0;text-align:start;text-decoration:none;line-height:normal;letter-spacing:normal;word-spacing:normal;text-transform:none;direction:ltr;block-progression:tb;writing-mode:lr-tb;text-anchor:start;baseline-shift:baseline;color:#000000;fill:#000000;fill-opacity:1;stroke:none;stroke-width:1.20000005;marker:none;visibility:visible;display:inline;overflow:visible;enable-background:accumulate;font-family:Sans;-inkscape-font-specification:Sans"
           d="m 158.84304,282.34874 -0.41714,1.50804 c 9.0389,4.26802 14.97505,3.43271 17.24775,-4.10731 -4.06582,6.25562 -8.39067,6.67076 -16.83061,2.59927 z m 0.87571,-4.70999 -0.41714,1.50804 c 7.92033,3.77087 13.3479,2.69271 15.49632,-3.14874 -3.69297,4.51563 -7.42638,5.25648 -15.07918,1.6407 z"
           inkscape:connector-curvature="0" />
        <path
           style="fill:none;stroke:#000000;stroke-width:2;stroke-linecap:butt;stroke-linejoin:miter;stroke-miterlimit:4;stroke-opacity:1;stroke-dasharray:none"
           d="m 186.37017,248.01199 26.96078,0 c 2.8001,-25.6511 -10.14065,-31.45908 -10.05129,-45.55413 l -0.62916,-45.31973 -17.62787,-17.33919 -14.76432,0 -2.0466,44.58589 4.68309,0"
           id="path3896"
           inkscape:connector-curvature="0"
           sodipodi:nodetypes="ccsccccc" />
        <path
           id="path3900"
           style="fill:none;stroke:#000000;stroke-width:1.20000005;stroke-linecap:round;stroke-linejoin:miter;stroke-miterlimit:4;stroke-opacity:1;stroke-dasharray:none"
           d="m 207.96756,240.23788 -2.4857,-17.23419 m -13.33713,17.15133 2.23713,-17.31705"
           inkscape:connector-curvature="0" />
        <path
           style="fill:none;stroke:#000000;stroke-width:1.20000005;stroke-linecap:round;stroke-linejoin:miter;stroke-miterlimit:4;stroke-opacity:1;stroke-dasharray:none"
           d="m 175.49053,146.36122 27.15997,10.77691"
           id="path3904"
           inkscape:connector-curvature="0"
           sodipodi:nodetypes="cc" />
        <path
           id="path3877"
           style="fill:none;stroke:#000000;stroke-width:2;stroke-linecap:butt;stroke-linejoin:miter;stroke-miterlimit:4;stroke-opacity:1;stroke-dasharray:none"
           d="m 180.60422,267.17444 c 1.39191,26.33052 -12.98959,25.38049 -22.76668,20.32623 l 2.69508,-13.94407 c 9.49134,2.69507 12.53794,1.40612 14.2956,-6.44474 m -1.49197,-16.68261 -2.56856,16.81992 14.66564,0 -2.15427,-16.81992 m 1.15999,-87.33098 1.98856,87.3939 -16.0742,0 3.60392,-92.3409 c 0.18666,-4.78279 2.81711,-6.904 6.88569,-9.72453"
           inkscape:connector-curvature="0"
           sodipodi:nodetypes="cccccccccccsc" />
      </g>
    </g>
  </g>
</svg>
