<svg xmlns="http://www.w3.org/2000/svg" xmlns:inkscape="http://www.inkscape.org/namespaces/inkscape" xmlns:xlink="http://www.w3.org/1999/xlink" height="1000" viewBox="0 0 1000 1000" width="1000">
  <defs>
    <inkscape:path-effect effect="powerstroke" end_linecap_type="zerowidth" id="path-effect1645" interpolator_type="CubicBezierSmooth" offset_points="0.47,3.5 | 2.47,3.5" start_linecap_type="zerowidth" />
    <inkscape:path-effect effect="powerstroke" end_linecap_type="zerowidth" id="path-effect1627" interpolator_type="CubicBezierSmooth" offset_points="0.52,3.5 | 6.45,3.5" start_linecap_type="zerowidth" />
    <inkscape:path-effect bendpath1="M -26.4,-43.9 H 26.4" bendpath2="M 29.032689,-44.473146 C 13.454142,-14.874463 12.66819,13.41407 25.254551,44.188652" bendpath3="M -26.4,43.7 H 26.4" bendpath4="M -18.319224,-44.619911 C -37.548683,-17.484771 -38.84913,13.182247 -25.120843,44.247042" effect="envelope" id="path-effect1600" yy="false" />
    <inkscape:path-effect effect="powerstroke" end_linecap_type="zerowidth" id="path-effect15940" interpolator_type="CubicBezierSmooth" offset_points="0.38,3.5 | 7.72,3.5" start_linecap_type="zerowidth" />
    <linearGradient id="linearGradient14322">
      <stop offset="0" stop-color="#d62a2a" />
      <stop offset="1" stop-color="#f3a3a3" />
    </linearGradient>
    <inkscape:path-effect effect="powerstroke" end_linecap_type="zerowidth" id="path-effect836" interpolator_type="CubicBezierSmooth" offset_points="0.21,3.5 | 2.78,3.5" start_linecap_type="zerowidth" />
    <inkscape:path-effect effect="powerstroke" end_linecap_type="zerowidth" id="path-effect5954" interpolator_type="CubicBezierSmooth" offset_points="0.37,3.5 | 1.8,3.5" start_linecap_type="zerowidth" />
    <linearGradient id="linearGradient13792">
      <stop offset="0" stop-color="#757575" />
      <stop offset="1" stop-color="#dfdfdf" />
    </linearGradient>
    <inkscape:path-effect effect="powerstroke" end_linecap_type="zerowidth" id="path-effect12381" interpolator_type="CubicBezierSmooth" offset_points="0.4,3.5 | 1.69,3.5" start_linecap_type="zerowidth" />
    <clipPath id="clipPath15057">
      <use xlink:href="#ellipse18277" />
    </clipPath>
    <clipPath id="clipPath15073">
      <use xlink:href="#path14098" />
    </clipPath>
    <linearGradient gradientTransform="matrix(1.3757969,0,0,1.3757969,194.22809,-673.10806)" gradientUnits="userSpaceOnUse" id="linearGradient15144" x1="305.01105" x2="303.41522" y1="799.91595" y2="850.99084" xlink:href="#linearGradient13792" />
    <clipPath id="clipPath15165">
      <use xlink:href="#ellipse16081" />
    </clipPath>
    <clipPath id="clipPath15181">
      <use xlink:href="#path13732" />
    </clipPath>
    <linearGradient gradientTransform="matrix(1.3758006,0,0,1.3758006,703.63267,57.532714)" gradientUnits="userSpaceOnUse" id="linearGradient15267" x1="-705.26581" x2="-753.9292" y1="541.96527" y2="541.52197" xlink:href="#linearGradient14322" />
    <clipPath id="clipPath2982">
      <path d="M 555.87949,496.97647 C 557.37171,483.12035 557.52787,464.99618 556.24052,442.15349 L 543.16861,403.19767 506.39535,155.23256 H 852.32558 L 825,512.2093 716.27907,483.13953 675.45876,456.93338 M 675.45876,456.93338 C 678.91687,475.41118 681.70823,493.58951 682.98722,511.19842 L 801.74419,705.81395 370.93023,742.44186 367.44186,450 517.44186,441.86046 555.87949,496.97647" />
    </clipPath>
  </defs>
  <g>
    <path d="M 532.95001,620.27792 C 480.07968,695.58186 473.10111,773.31283 510.7342,851.73677 521.26679,873.68572 404.74054,878.89201 402.24365,851.59032 395.97331,783.02845 410.69269,713.07307 439.772,649.94388 443.76939,641.26584 454.23295,636.09032 466.0152,635.59032 Z M 556.40888,640.02642 C 536.42784,706.78639 543.86413,792.56737 563.98943,863.18762 572.08863,891.60793 691.99079,886.30461 676.99546,862.35425 637.43505,799.16884 616.17008,712.36923 612.95386,628.44856 Z" fill="#dcc67c" stroke="#ab9b62" stroke-width="7" />
    <path d="M 630.04791,730.14626 C 621.37435,692.68908 616.63064,661.95547 614.80298,625.61563 L 555.96842,637.04211 C 545.11002,670.94148 541.29334,700.01562 542.75435,738.70191 572.41618,743.74307 599.69387,741.22511 630.04791,730.14626 Z" fill="#050505" />
    <path d="M 630.04791,730.14626 627.34542,717.28092 C 599.64104,727.58222 571.04222,730.34624 542.45575,725.40502 L 542.75435,738.70191 C 572.41618,743.74307 599.69387,741.22511 630.04791,730.14626 Z" fill="#822222" />
    <path d="M 630.04791,730.14626 C 621.37435,692.68908 616.63064,661.95547 614.80298,625.61563 L 555.96842,637.04211 C 545.11002,670.94148 541.29334,700.01562 542.75435,738.70191 572.41618,743.74307 599.69387,741.22511 630.04791,730.14626 Z" fill="none" stroke="#242424" stroke-width="7" />
  </g>
  <circle cx="674.91052" cy="332.10687" fill="none" r="126.88158" stroke="#000" stroke-width="7" />
  <g>
    <path d="M 457.06494,490.61233 C 413.26567,348.79979 218.7589,372.07064 227.58758,503.85358 230.26065,543.75361 213.83863,557.22422 187.72137,561.81582 209.21394,577.72446 227.75546,573.67807 247.34356,555.48996 227.82752,615.83609 227.26813,681.17841 242.87603,750.76269 249.7756,718.59199 260.20453,699.68014 277.08855,681.49233 289.66881,750.86771 261.02001,800.57956 191.04722,817.4817 321.62449,887.55432 445.50198,815.66985 397.807,660.95224 360.35635,539.46617 397.33947,479.88994 430.94569,505.69615 Z" fill="#202023" />
    <path d="M 443.43174,498.48548 457.06494,490.61233 C 413.26567,348.79979 218.7589,372.07064 227.58758,503.85358 230.26065,543.75361 213.83863,557.22422 187.72137,561.81582 209.21394,577.72446 227.75546,573.67807 247.34356,555.48996 243.65666,566.89033 240.64631,578.46901 238.29371,590.22091 259.94042,562.0829 266.36346,533.71547 263.8902,500.33058 257.39929,412.71421 382.52657,391.08618 443.43174,498.48548 Z" fill="#362f36" />
    <path d="M 448.08816,495.7964 457.06494,490.61233 C 413.26567,348.79979 218.7589,372.07064 227.58758,503.85358 230.26065,543.75361 213.83863,557.22422 187.72137,561.81582 205.79055,575.19049 221.7739,574.46083 238.04693,563.08125 251.10534,546.29413 255.00175,525.23832 252.86846,497.49729 245.28448,398.87617 396.41653,380.09171 448.08816,495.7964 Z" fill="#c43434" />
    <path d="M 457.06494,490.61233 C 413.26567,348.79979 218.7589,372.07064 227.58758,503.85358 230.26065,543.75361 213.83863,557.22422 187.72137,561.81582 209.21394,577.72446 227.75546,573.67807 247.34356,555.48996 227.82752,615.83609 227.26813,681.17841 242.87603,750.76269 249.7756,718.59199 260.20453,699.68014 277.08855,681.49233 289.66881,750.86771 261.02001,800.57956 191.04722,817.4817 321.62449,887.55432 445.50198,815.66985 397.807,660.95224 360.35635,539.46617 397.33947,479.88994 430.94569,505.69615 Z" style="fill:none;stroke:#111;stroke-width:7;stroke-miterlimit:10" />
  </g>
  <path d="M 829.43852,350.31327 C 841.7045,418.34375 748.73777,468.88312 813.30884,525.74708 773.91421,526.81802 746.57107,510.14949 731.14645,462.82107 718.54033,489.01922 716.12473,520.54857 728,551 697,534.25 678.25,511.75 666.75,474.5 L 678.93705,241.14012 833.34947,264.75797 C 825.62723,297.94273 825.27888,324.00979 829.43852,350.31327 Z" fill="#202023" stroke="#111" stroke-width="7" />
  <path d="M 476,879.14645 C 487.93515,901.10214 371.75844,906.30169 367.5,879 356.80592,810.43813 367.01165,740.48275 392.01776,677.35356 395.45522,668.67552 405.73242,663.5 417.40342,662.98747 414.30799,632.54464 392.16579,606.0035 397.56558,547.87628 402.53151,494.41939 436.9742,475.92295 476.52931,477.33717 515.0596,478.71475 527.92168,500.57471 558.98191,500.5524 562.75806,471.18963 559.95093,422.64696 550.77096,353.59032 523.38795,147.60075 866.87117,155.85 787.97102,399.84192 L 671.51812,454.92555 C 685.90692,530.56953 691.31255,609.12519 615.48145,642.4322 564.293,664.91551 513.02787,665.34524 482.3474,643.47898 441.02944,720.7625 434.97309,803.6741 476,879.14645 Z" fill="#edd889" />
  <g transform="rotate(7.2698247-4102.2454 3678.0499)scale(.59973233 1.112002)" inkscape:path-effect="#path-effect1600">
    <path inkscape:original-d="M -26.4,-12 -20.6,-43.9 -19.5,-43.7 -23.8,-13.4 -4.7,-7 -9.5,-20.7 -6.7,-39 -5.7,-38.8 -7.6,-20.8 -0.2,-3.4 -8.9,19.1 -5.2,43.5 -6.2,43.7 -10.7,18.6 -3.2,-2.3 -22.1,10 -20.1,40.5 -21.2,40.7 -24.4,8.6 -5.3,-4.2 Z M 26.4,-12 20.6,-43.9 19.5,-43.7 23.8,-13.4 4.7,-7 9.5,-20.7 6.7,-39 5.7,-38.8 7.6,-20.8 0.2,-3.4 8.9,19.1 5.2,43.5 6.2,43.7 10.7,18.6 3.2,-2.3 22.1,10 20.1,40.5 21.2,40.7 24.4,8.6 5.3,-4.2 Z" />
    <path fill="#904d4d" stroke="#6f3b3b" stroke-width="0.99939537" inkscape:original-d="M -8.6,-6.5 0,-12.5 8.6,-6.5 0,9.2 Z" />
    <path fill="none" stroke="#6f3b3b" stroke-width="0.99939537" inkscape:original-d="M 8.6,-6.5 0,-2.4 -8.6,-6.5 M 0,-2.4 0,9.2" />
  </g>
  <g clip-path="url(#clipPath2982)">
    <path fill="#ab9b62" inkscape:original-d="M 417.54655,673.49864 C 419.66787,638.14331 391.55518,612.57655 397.56558,547.87628 402.53151,494.41939 436.9742,475.92295 476.52931,477.33717 515.0596,478.71475 527.92168,500.57471 558.98191,500.5524 562.75806,471.18963 559.95093,422.64696 550.77096,353.59032 523.38795,147.60075 866.87117,155.85 787.97102,399.84192 L 671.51812,454.92555 C 685.90692,530.56953 691.31255,609.12519 615.48145,642.4322 535.84877,677.40896 456.03052,659.01319 453.56387,586.65808" inkscape:path-effect="#path-effect15940" />
    <path d="M 553.41111,441.33889 C 577.07796,491.50023 617.3671,518.08038 665.87791,530.82474 676.56385,511.63031 680.51266,497.26279 683.07221,477.64722" fill="none" stroke="#666" stroke-width="3" />
  </g>
  <g>
    <g clip-path="url(#clipPath15181)">
      <path d="M 720.7302,402.86776 C 728.5636,328.18026 691.64667,285.12386 607.84167,296.64228 596.62651,379.73834 650.03979,428.47271 720.7302,402.86776 Z" fill="#fff" id="path13732" />
      <g clip-path="url(#clipPath15165)">
        <ellipse cx="624.33167" cy="462.47037" fill="url(#linearGradient15144)" id="ellipse16081" rx="34.43745" ry="48.63586" transform="rotate(-9.2733999)" />
        <path d="M 666.76815,410.80878 697.82665,359.4951 643.33008,385.06195 Z" fill="#fafafa" />
        <path d="M 638.13884,368.31366 697.82665,359.4951 648.19426,393.33104 Z" fill="#d0d0d0" />
        <ellipse cx="636.24567" cy="450.89297" rx="26.221655" ry="37.032711" transform="rotate(-8.1164797)" />
        <ellipse cx="736.35254" cy="167.05203" fill="#fff" rx="11.392423" ry="18.53056" transform="rotate(13.741352)" />
        <ellipse cx="755.48749" cy="184.47124" fill="#fff" rx="4.1796317" ry="6.0784907" transform="rotate(13.904254)" />
      </g>
    </g>
    <g clip-path="url(#clipPath15073)">
      <path d="M 768.12659,385.57988 C 748.80461,317.10038 776.81215,291.87279 793.73147,289.13677 804.46972,327.03225 799.95223,364.96926 788.06914,397.9803 780.47814,395.9463 773.76472,391.93065 768.12659,385.57988 Z" fill="#fff" id="path14098" />
      <g clip-path="url(#clipPath15057)">
        <ellipse cx="-300.30862" cy="806.59436" fill="url(#linearGradient15267)" id="ellipse18277" rx="43.959446" ry="15.07179" transform="rotate(-86.73558)" />
        <path d="M 774.10664,389.11849 794.02946,349.67007 769.05492,362.98926 Z" fill="#f3c6c6" />
        <path d="M 765.28259,353.5925 794.02946,349.67007 769.92924,371.87635 Z" fill="#eb9898" />
        <ellipse cx="-295.23734" cy="810.3656" rx="34.659473" ry="11.883229" transform="rotate(-86.35527)" />
        <ellipse cx="-182.15463" cy="830.29608" fill="#fff" rx="16.558889" ry="5.0713964" transform="rotate(-79.52674)" />
        <ellipse cx="-210.72885" cy="835.90747" fill="#fff" rx="5.4401345" ry="1.8577272" transform="rotate(-80.07219)" />
      </g>
    </g>
    <path d="M 605.80324,317.68762 C 598.32096,321.29538 591.21216,322.54446 582.53689,322.00165 591.08649,326.24921 598.88246,326.3485 606.52195,323.79712 Z M 604.23073,297.34434 C 601.0717,329.12392 606.53206,362.05391 626.54764,382.97545 611.79444,359.63741 605.44811,327.84239 611.16989,296.78986 Z M 608.76801,293.62261 C 596.46154,295.14394 588.1253,293.80671 576.03582,289.185 586.6348,299.20303 596.72106,301.45188 609.84068,299.86914 676.77356,291.7944 724.34976,314.86438 720.7302,402.86776 732.64134,317.63168 686.04468,284.06963 608.76801,293.62261 Z M 606.82288,305.97274 C 597.78322,308.2851 589.44235,308.34929 579.38478,306.553 588.5842,312.92917 597.49357,313.87179 606.57594,312.32595 Z M 797.89706,310.41227 C 804.27716,310.66534 809.71021,308.63203 814.11258,303.54741 808.45581,306.12758 802.82398,306.49735 797.1928,305.0776 Z M 796.59749,301.34745 C 803.47396,300.83483 809.20676,297.71703 812.79904,291.16713 807.28854,295.16591 802.0165,296.20563 795.81739,295.99984 Z M 791.24796,290.03233 C 798.61774,314.41236 799.37632,338.84538 796.95878,364.92166 804.11367,339.51821 802.2785,314.77036 796.55815,288.81533 Z M 793.1046,286.80372 C 762.35113,293.77229 749.92296,338.22325 768.12659,385.57988 755.68543,333.11736 768.89825,297.21952 794.46005,292.06263 803.7231,290.19388 809.57706,284.49656 811.36285,275.92339 806.66996,282.13529 801.33224,284.93938 793.1046,286.80372 Z" />
    <path d="M 768.12659,385.57988 C 783.34815,405.6739 804.57171,395.28734 799.20201,414.11703 784.64654,465.158 696.06203,479.20568 624.945,443.27524 Z" fill="#edd889" />
    <path fill="#ab9b62" inkscape:original-d="M 768.12659,385.57988 C 783.34815,405.6739 804.57171,395.28734 799.20201,414.11703 784.64654,465.158 696.06203,479.20568 624.945,443.27524" inkscape:path-effect="#path-effect12381" />
    <path d="M 777.3876,407.91058 C 778.43345,413.12382 782.01018,414.39175 785.9571,411.22196 782.72935,418.87561 775.05563,416.15069 777.3876,407.91058 Z M 784.42944,437.89836 C 767.09528,437.64351 757.86066,432.27774 751.90191,419.03718 753.47973,435.17997 765.13698,441.57901 780.24631,442.63771" fill="#ab9b62" />
  </g>
  <path d="M 482.41421,643.39244 C 441.02944,720.7625 434.97309,803.6741 476,879.14645 487.93515,901.10214 371.75844,906.30169 367.5,879 356.80592,810.43813 367.01165,740.48275 392.01776,677.35356 395.45522,668.67552 405.73242,663.5 417.48242,663" fill="none" stroke="#ab9b62" stroke-width="7" />
  <g>
    <path d="M 556.77986,464.42951 C 556.65356,474.31067 556.14571,484.57336 554.35545,496.11848 536.13704,496.02051 520.59424,481.56485 498.81517,475.55266 469.78673,524.13087 468.13139,616.07582 492.7167,657.54502 645.45086,684.48508 693.33294,595.26642 683.48669,509.07159 637.48563,516.60136 590.55678,499.16758 556.77986,464.42951 Z" fill="#050505" />
    <path d="M 498.81517,475.55266 C 469.78673,524.13087 468.13139,616.07582 492.7167,657.54502 L 510.41564,660.00593 C 486.15237,603.42261 488.34913,540.07482 513.6978,480.94048 Z" fill="#9c2929" />
    <path d="M 556.77986,464.42951 C 556.65356,474.31067 556.14571,484.57336 554.35545,496.11848 536.13704,496.02051 520.59424,481.56485 498.81517,475.55266 469.78673,524.13087 468.13139,616.07582 492.7167,657.54502 645.45086,684.48508 693.33294,595.26642 683.48669,509.07159 637.48563,516.60136 590.55678,499.16758 556.77986,464.42951 Z" fill="none" stroke="#242424" stroke-width="7" />
    <path d="M 535.26339,641.1022 C 501.9636,708.93511 497.15163,813.08706 515.17461,892.70066 521.60842,921.12097 641.82134,915.81765 628.22947,891.86729 589.48504,823.59537 578.8409,722.9128 582.95199,633.70224 Z" fill="#edd889" />
    <path fill="#ab9b62" inkscape:original-d="M 535.26339,641.1022 C 501.9636,708.93511 497.15163,813.08706 515.17461,892.70066 521.60842,921.12097 641.82134,915.81765 628.22947,891.86729 589.48504,823.59537 578.8409,722.9128 582.95199,633.70224" inkscape:path-effect="#path-effect836" />
    <path d="M 536.12936,632.62284 C 518.15971,666.91044 510.09101,704.1448 504.84241,748.12082 533.65191,756.04962 562.51631,755.62082 590.0776,747.23171 583.52395,711.46954 581.73127,666.11733 585.94956,629.33931 Z" fill="#050505" />
    <path d="M 506.55298,735.35149 504.84241,748.12082 C 533.65191,756.04962 562.51631,755.62082 590.0776,747.23171 L 588.06496,733.40391 C 562.49162,741.96209 533.89169,742.98428 506.55298,735.35149 Z" fill="#9c2929" />
    <path fill="#242424" inkscape:original-d="M 536.12936,632.62284 C 518.15971,666.91044 510.09101,704.1448 504.84241,748.12082 533.65191,756.04962 562.51631,755.62082 590.0776,747.23171 583.52395,711.46954 581.73127,666.11733 585.94956,629.33931" inkscape:path-effect="#path-effect1645" />
  </g>
  <path d="M 553.41111,441.33889 C 577.07796,491.50023 617.3671,518.08038 665.87791,530.82474 671.75231,520.27296 675.59071,511.17989 678.28158,501.87177" fill="none" stroke="#666" stroke-width="3" />
  <g>
    <path d="M 532.53756,545.72176 C 544.2549,528.77749 548.04608,515.63181 547.83091,496.28723 532.80181,516.67967 514.26127,526.372 486.4232,531.52931 535.98915,469.9707 499.43481,417.42157 515.72779,357.57014 504.31374,368.12428 494.43695,372.39348 476.23642,375.80669 519.36993,333.02673 505.3283,235.39574 552.3509,200.74751 L 559.55369,283.84118 C 553.16579,334.0211 557.41947,369.19159 583.43519,403.13775 577.194,403.23822 569.80168,402.00187 564.77612,399.43318 589.67549,462.11788 586.39637,516.28983 532.53756,545.72176 Z" fill="#202023" />
    <path d="M 554.79573,228.95179 559.55369,283.84118 C 553.16579,334.0211 557.41947,369.19159 583.43519,403.13775 577.194,403.23822 569.80168,402.00187 564.77612,399.43318 589.67549,462.11788 586.39637,516.28983 532.53756,545.72176 543.06003,531.31013 549.69668,515.41819 547.83091,496.28723 L 540.99526,503.72573 C 559.70134,440.41031 515.85975,354.99711 554.79573,228.95179 Z" fill="#362f36" />
    <path d="M 556.68189,250.71115 559.55369,283.84118 C 553.16579,334.0211 557.41947,369.19159 583.43519,403.13775 577.194,403.23822 569.80168,402.00187 564.77612,399.43318 589.67549,462.11788 586.39637,516.28983 532.53756,545.72176 541.66023,532.5296 545.97839,521.63999 547.34193,508.3348 579.17212,461.2202 520.31939,358.8224 556.68189,250.71115 Z" fill="#c43434" />
    <path d="M 532.53756,545.72176 C 544.2549,528.77749 548.04608,515.63181 547.83091,496.28723 532.80181,516.67967 514.26127,526.372 486.4232,531.52931 535.98915,469.9707 499.43481,417.42157 515.72779,357.57014 504.31374,368.12428 494.43695,372.39348 476.23642,375.80669 519.36993,333.02673 505.3283,235.39574 552.3509,200.74751 L 559.55369,283.84118 C 553.16579,334.0211 557.41947,369.19159 583.43519,403.13775 577.194,403.23822 569.80168,402.00187 564.77612,399.43318 589.67549,462.11788 586.39637,516.28983 532.53756,545.72176 Z" style="fill:none;stroke:#111;stroke-width:7;stroke-miterlimit:20" />
    <path d="M 806.80884,352.99729 C 833.01388,368.06085 854.31328,363.24145 866.91291,333.39931 843.77771,339.21167 829.68289,324.52253 836.99713,299.77368 864.98332,205.07805 787.77997,127.9778 704.19866,152.30029 647.93506,168.67322 621.25397,151.53683 566.92807,186.92771 L 602.14127,230.9399 C 657.36057,222.7267 667.49364,266.87936 717.51238,260.3663 762.92183,254.45343 799.74486,262.5319 822.46643,285.90394 Z" fill="#202023" />
    <path d="M 839.60588,290.05426 C 808.92288,256.33171 767.16808,237.90052 717.51238,244.3663 667.49364,250.87936 650.19541,213.30928 594.97611,221.52248 L 583.03531,206.71448 C 647.36109,193.73729 673.01699,223.09436 718.22094,221.00077 763.79192,218.89018 813.50398,231.3533 843.06292,260.57873 842.67398,270.29485 841.92457,280.06246 839.60588,290.05426 Z" fill="#362f36" />
    <path d="M 836.0233,305.01071 C 805.3403,271.28816 767.16808,253.90052 717.51238,260.3663 667.49364,266.87936 657.36057,222.7267 602.14127,230.9399 L 587.55951,212.71448 C 651.59013,198.55665 671.81864,234.97984 723.22094,231.11529 768.71238,227.69513 816.93137,243.93365 841.76776,276.70099 Z" fill="#c43434" />
    <path fill="#111" inkscape:original-d="M 818.14897,287.97786 C 790.78276,265.65799 757.95664,255.09996 717.51238,260.3663 667.49364,266.87936 657.36057,222.7267 602.14127,230.9399 L 566.92807,186.92771 C 621.25397,151.53683 647.93506,168.67322 704.19866,152.30029 787.77997,127.9778 864.98332,205.07805 836.99713,299.77368 829.68289,324.52253 843.77771,339.21167 866.91291,333.39931 854.31328,363.24145 833.01388,368.06085 806.80884,352.99729" inkscape:path-effect="#path-effect1627" />
    <path d="M 616.68619,237.09191 C 611.07725,197.90078 584.05435,161.64387 570.00274,161.64387 553.46596,161.64387 498.75397,248.91255 562.97122,329.75822 569.43808,289.64602 586.91275,260.78705 616.68619,237.09191 Z" fill="#edd889" />
    <path fill="#ab9b62" inkscape:original-d="M 616.68619,237.09191 C 611.07725,197.90078 584.05435,161.64387 570.00274,161.64387 553.46596,161.64387 498.75397,248.91255 562.97122,329.75822" inkscape:path-effect="#path-effect5954" />
    <path d="M 567.31227,206.46511 C 559.89365,235.82242 560.27269,257.01321 568.75969,283.01674 554.49266,258.79356 554.38576,233.01977 567.31227,206.46511 Z" fill="#ab9b62" />
  </g>
  <path d="M 667.7429,531.45146 667.8709,557.42347 M 676.51596,525.76492 667.7429,531.45146 654.62245,526.03969 M 664.74071,519.94917 676.51596,525.76492 667.8709,557.42347 654.62245,526.03969 Z" fill="#904d4d" stroke="#6f3b3b" stroke-width="2" />
</svg>