<svg xmlns="http://www.w3.org/2000/svg" viewBox="-50 -50 100 95">
  <g id="P">
    <path d="M6.3 8.5C19.5 26.3 13.2 38.9 0 38.9S-19.5 26.3-6.3 8.5L0 10.6z" fill="#ac4ee2"/>
    <path d="M0-34.1c-1.6-3.8-4.6-4.8-4.6-7.2s2.9-3.9 4.6-.7c1.7-3.2 4.6-1.7 4.6.7s-3 3.4-4.6 7.2z" fill="#ec98dc"/>
  </g>
  <g id="P" transform="rotate(72)">
    <path d="M6.3 8.5C19.5 26.3 13.2 38.9 0 38.9S-19.5 26.3-6.3 8.5L0 10.6z" fill="#ac4ee2"/>
    <path d="M0-34.1c-1.6-3.8-4.6-4.8-4.6-7.2s2.9-3.9 4.6-.7c1.7-3.2 4.6-1.7 4.6.7s-3 3.4-4.6 7.2z" fill="#ec98dc"/>
  </g>
  <g id="P" transform="rotate(144)">
    <path d="M6.3 8.5C19.5 26.3 13.2 38.9 0 38.9S-19.5 26.3-6.3 8.5L0 10.6z" fill="#ac4ee2"/>
    <path d="M0-34.1c-1.6-3.8-4.6-4.8-4.6-7.2s2.9-3.9 4.6-.7c1.7-3.2 4.6-1.7 4.6.7s-3 3.4-4.6 7.2z" fill="#ec98dc"/>
  </g>
  <g id="P" transform="rotate(216)">
    <path d="M6.3 8.5C19.5 26.3 13.2 38.9 0 38.9S-19.5 26.3-6.3 8.5L0 10.6z" fill="#ac4ee2"/>
    <path d="M0-34.1c-1.6-3.8-4.6-4.8-4.6-7.2s2.9-3.9 4.6-.7c1.7-3.2 4.6-1.7 4.6.7s-3 3.4-4.6 7.2z" fill="#ec98dc"/>
  </g>
  <g id="P" transform="rotate(288)">
    <path d="M6.3 8.5C19.5 26.3 13.2 38.9 0 38.9S-19.5 26.3-6.3 8.5L0 10.6z" fill="#ac4ee2"/>
    <path d="M0-34.1c-1.6-3.8-4.6-4.8-4.6-7.2s2.9-3.9 4.6-.7c1.7-3.2 4.6-1.7 4.6.7s-3 3.4-4.6 7.2z" fill="#ec98dc"/>
  </g>
  <path d="M0-11.5a11.5 11.5 0 1 1 0 23 11.5 11.5 0 0 1 0-23zM0-8.5a8.5 8.5 0 1 0 0 17 8.5 8.5 0 0 0 0-17z" fill="#ac4ee2"/>
</svg>

