<svg xmlns="http://www.w3.org/2000/svg" xmlns:inkscape="http://www.inkscape.org/namespaces/inkscape" xmlns:xlink="http://www.w3.org/1999/xlink" height="398" viewBox="0 0 383 398" width="383">
  <defs>
    <inkscape:path-effect bendpath1="M -16.73694,-13.875 H 16.73694" bendpath2="M 15.523805,-14.440679 C 9.6902448,-2.6177454 9.195733,8.0135999 13.219506,19.158669" bendpath3="M -16.73694,18.6 H 16.73694" bendpath4="M -15.348509,-14.792151 C -20.716581,-2.9336111 -20.602462,8.0797148 -15.689068,18.51" effect="envelope" id="path-effect1635" yy="false" />
    <inkscape:path-effect effect="powerstroke" id="path-effect1480" interpolator_type="CubicBezierSmooth" offset_points="0.44,2 | 3,2" start_linecap_type="zerowidth" />
    <inkscape:path-effect effect="powerstroke" id="path-effect1426" interpolator_type="CubicBezierSmooth" offset_points="0.39,2 | 2,2" start_linecap_type="zerowidth" />
    <inkscape:path-effect effect="powerstroke" end_linecap_type="zerowidth" id="path-effect1420" interpolator_type="CubicBezierSmooth" offset_points="0.37,2 | 0.67,2" start_linecap_type="zerowidth" />
    <inkscape:path-effect effect="powerstroke" end_linecap_type="zerowidth" id="path-effect1276" interpolator_type="CubicBezierSmooth" offset_points="0.27,2 | 2.69,2" start_linecap_type="zerowidth" />
    <inkscape:path-effect effect="powerstroke" end_linecap_type="zerowidth" id="path-effect1128" interpolator_type="CubicBezierSmooth" offset_points="0.43,2 | 1.28,2 | 3,2 | 2,1.75 | 3.45,2" start_linecap_type="zerowidth" />
    <inkscape:path-effect effect="powerstroke" end_linecap_type="zerowidth" id="path-effect998" interpolator_type="CubicBezierSmooth" offset_points="0.44,2 | 1.8,2" start_linecap_type="zerowidth" />
    <linearGradient id="linearGradient951">
      <stop offset="0" stop-color="#482562" />
      <stop offset="1" stop-color="#b28ec0" />
    </linearGradient>
    <clipPath id="clipPath968">
      <use xlink:href="#ellipse914" />
    </clipPath>
    <clipPath id="clipPath1067">
      <use xlink:href="#path1025" />
    </clipPath>
    <clipPath id="clipPath1114">
      <use xlink:href="#ellipse1089" />
    </clipPath>
    <clipPath id="clipPath1330">
      <use xlink:href="#path1142" />
    </clipPath>
    <linearGradient gradientUnits="userSpaceOnUse" id="linearGradient1350" x1="83.123306" x2="81.449387" y1="148.36452" y2="187.97792" xlink:href="#linearGradient951" />
    <linearGradient gradientUnits="userSpaceOnUse" id="linearGradient1367" x1="21.587166" x2="20.747652" y1="127.20233" y2="166.14297" xlink:href="#linearGradient951" />
  </defs>
  <g>
    <path d="M 200.15697,229.0814 C 235.32907,142.07674 335.98601,141.44884 335.98604,250.20466 335.98605,278.71562 343.06064,290.17658 357.9686,298.5 342.69651,307.06163 334.34784,303.83338 323.19153,282.7784 327.19783,326.85921 346.47741,332.81993 369.07558,305.67326 378.21794,370.89668 249.44136,394.7724 267.49302,258.24535 261.82384,265.30291 253.73314,270.92267 243.20465,272.42674 268.95531,238.19585 236.59352,204.53023 207.39801,234.06462 Z" style="fill:#bf5d93;stroke:#bd1f77;stroke-width:4;stroke-miterlimit:20" />
    <path d="M 218.18947,197.85093 C 246.39639,170.55754 315.39852,160.88024 304.77683,257.69156 298.46727,315.20003 310.77425,349.59819 349.51477,348.81779 M 203.70233,231.55233 C 249.46246,172.83406 289.90654,183.86805 287.55,274.35897 286.08419,330.64607 295.5181,349.38372 333.81744,356.04967" fill="none" stroke="#bd1f77" stroke-width="2" />
  </g>
  <path d="M 161.5304,134.84053 C 186.29768,123.57956 203.02858,110.46561 218.97442,90.169767 230.54418,132.51512 199.16511,182.79418 157.51395,209.63605 Z" fill="#bf5d93" stroke="#bd1f77" stroke-width="4" />
  <g>
    <path d="M 161.22636,269.95404 C 162.86479,302.06372 158.27132,331.23601 143.52484,358.90131 137.08641,370.98019 189.59748,370.36174 192.58421,357.14538 198.60564,330.50044 196.89122,302.14836 190.78634,271.20404 Z" fill="#f29e4d" stroke="#e9531b" stroke-width="4" />
    <path d="M 55.557839,244.30738 C 54.130297,246.14913 53.072984,248.06946 52.426777,250 46.694544,267.125 64.343146,310.40533 133.05178,297.125 L 107.875,243.875 Z" fill="#f9b764" />
    <path d="M 55.557839,244.30738 C 54.130297,246.14913 53.072984,248.06946 52.426777,250 46.694544,267.125 64.343146,310.40533 133.05178,297.125" fill="none" stroke="#f37033" stroke-width="4" />
  </g>
  <path d="M 170.06654,298.14966 C 92.29888,316.71489 69.114485,266.65491 102.52528,206.72761 L 32.526912,165.18509 C 3.68785,29.156593 174.77187,22.215845 172.38761,114.97441 167.332,148.51323 166.22555,191.00489 167.63976,219.8195 L 187.3833,260.64451 Z" fill="#f9b764" stroke="#f37033" stroke-width="4" />
  <g>
    <path d="M 136.92193,168.40304 C 142.49785,172.23091 148.34662,173.29205 152.91682,170.56018 147.6571,170.71216 143.11871,169.15056 138.91842,165.59625 M 138.02772,164.57937 C 144.48185,166.60118 150.41035,165.98261 153.97687,162.02916 148.99363,163.7189 144.19678,163.47041 139.13799,161.30618" />
    <g clip-path="url(#clipPath1067)">
      <path d="M 77.027596,176.55271 C 72.977637,160.85933 75.674359,146.3138 87.537353,135.46975 101.988,148.05441 118.78558,157.887 139.93995,158.86759 140.05451,169.79329 137.58111,177.95577 130.73336,184.96517 114.42795,175.69792 95.319754,174.0028 77.027596,176.55271 Z" fill="#fff" id="path1025" />
      <g clip-path="url(#clipPath968)">
        <ellipse cx="75.873055" cy="167.30658" fill="url(#linearGradient1350)" id="ellipse914" rx="15.412104" ry="26.968275" transform="rotate(-4.7797352)" />
        <path d="M 88.855814,165.96831 105.68983,183.67005 111.99536,171.98459 Z" fill="#e7cee4" />
        <path d="M 88.855814,165.96831 112.92093,166.89389 110.78053,176.09186 Z" fill="#c5a6d0" />
        <ellipse cx="66.479454" cy="171.02139" rx="13.040354" ry="21.751163" transform="rotate(-6.6826292)" />
        <ellipse cx="41.216038" cy="175.33006" fill="#fff" rx="6.9795766" ry="13.082389" transform="rotate(-18.036315)" />
        <ellipse cx="116.5014" cy="143.58495" fill="#fff" rx="1.9446094" ry="3.3267126" transform="rotate(11.963685)" />
        <ellipse cx="136.38962" cy="134.65671" fill="#fff" rx="1.1121316" ry="1.7257143" transform="rotate(17.38173)" />
      </g>
    </g>
    <path d="M 78.04146,176.46968 C 74.429001,161.0263 76.340413,147.60485 88.828407,136.7608 L 86.448965,134.20458 C 74.049359,144.5183 70.529952,162.40039 76.54146,176.6411 Z M 82.918417,133.11451 C 97.920159,149.13713 117.12405,158.80549 139.69199,160.25855 146.67745,160.70832 151.70045,157.73228 154.19897,153.10695 150.15004,155.71273 145.66782,157.27702 139.93995,156.98329 118.79066,155.89873 98.485434,145.36332 85.883698,130.90455 84.031237,128.77911 84.035756,124.68285 88.161628,118.64796 82.2125,122.26453 80.12793,130.13413 82.918417,133.11451 Z" />
    <path d="M 73.465928,177.19317 C 94.133744,171.3996 116.42178,173.2126 132.86043,186.35595 114.52766,177.39248 94.571883,175.3581 73.465928,177.19317 Z" fill="#f37033" />
    <path d="M 31.724539,119.69569 C 27.941665,120.20641 24.768673,119.44257 21.545733,116.7066 23.672236,121.37448 27.166919,122.54448 31.775344,122.2816 M 32.334112,115.03181 C 28.586296,114.30737 25.809428,112.61184 23.629312,108.98971 24.153308,114.09231 27.091155,116.31734 31.542109,117.54033" />
    <g clip-path="url(#clipPath1330)">
      <path d="M 53.740116,122.39754 C 55.065847,134.07572 53.973635,147.64265 49.23231,157.40692 44.087746,160.29217 38.04981,161.52562 31.996582,161.11923 28.038901,145.51895 28.432413,126.15624 32.172453,111.00281 38.901021,118.00862 46.878722,121.55189 53.740116,122.39754 Z" fill="#fff" id="path1142" />
      <g clip-path="url(#clipPath1114)" transform="rotate(4.0615523 33.75274 104.45284)">
        <ellipse cx="18.479408" cy="146.11255" fill="url(#linearGradient1367)" id="ellipse1089" rx="8.1512299" ry="25.387659" transform="rotate(-8.0789147)" />
        <path d="M 35.6875,147 48,164.4375 53.3125,152.1875 Z" fill="#e7cee4" />
        <path d="M 35.6875,147 53.625,147.125 51.875,156.6875 Z" fill="#c5a6d0" />
        <ellipse cx="17.695982" cy="147.8185" rx="6.9138098" ry="21.773823" transform="rotate(-7.3211277)" />
        <ellipse cx="3.7303727" cy="138.49307" fill="#fff" rx="4.6337643" ry="11.003163" transform="rotate(-14.72782)" />
        <ellipse cx="52.346004" cy="137.36775" fill="#fff" rx="1.3089926" ry="2.6748354" transform="rotate(7.1598549)" />
        <ellipse cx="72.669708" cy="132.66095" fill="#fff" rx="0.67496896" ry="1.2276613" transform="rotate(14.13918)" />
      </g>
    </g>
    <path d="M 52.276728,122.43101 C 53.477459,134.04669 53.223635,146.89265 49.23231,157.40692 55.036135,147.76765 56.289959,134.92169 55.089228,122.68101 Z M 31.287635,111.74414 C 39.603532,120.27163 47.49012,124.23261 59.625839,124.05601 63.467207,124.00011 65.353553,118.00781 64.1875,111.4375 62.897748,117.6289 61.200433,120.9032 59.231694,121.05178 49.294194,121.80178 41.169827,117.63454 32.9375,109.75 30.270557,107.19573 28.8125,104.75 27.875,101.1875 27.4375,105.1875 27.966857,108.33887 31.287635,111.74414 Z" />
    <path d="M 31.029514,174.85236 53.916893,209.29088 70.859727,185.77958 57.955028,188.43123 69.268737,182.59759 55.949824,172.75876 Z" style="fill:#fff;stroke:#b0d8e7;stroke-width:2;stroke-miterlimit:20" />
    <path d="M 49.23231,157.40692 C 39.332815,164.74315 25.881044,155.50401 27.726213,169.12964 29.910282,185.25787 50.027805,190.96676 55.949824,171.78649 61.606678,187.25445 61.783455,200.62882 53.033009,209.46765 71.948115,214.41741 94.929085,214.06384 111.36932,209.37927 Z" fill="#f9b764" />
    <path fill="#f37033" inkscape:original-d="M 49.23231,157.40692 C 39.332815,164.74315 25.881044,155.50401 27.726213,169.12964 29.910282,185.25787 50.027805,190.96676 55.949824,171.78649 61.606678,187.25445 61.783455,200.62882 53.033009,209.46765 71.948115,214.41741 94.929085,214.06384 111.36932,209.37927" inkscape:path-effect="#path-effect1128" />
    <path d="M 39.079235,168.88597 C 41.813508,170.74466 43.79498,170.34633 44.978619,167.64597 45.490576,172.86654 41.707087,173.94407 39.079235,168.88597 Z" fill="#f37033" />
  </g>
  <g>
    <path d="M 114.97855,286.67678 C 114.03921,318.62284 100.50089,350.71888 83.883883,375.76624 76.125921,387.46008 132.11506,389.57937 136.00888,376.40533 144.07482,349.11567 145.67525,320.0726 144.46967,287.92678 Z" fill="#f9b764" />
    <path fill="#f37033" inkscape:original-d="M 114.97855,286.67678 C 114.03921,318.62284 100.50089,350.71888 83.883883,375.76624 76.125921,387.46008 132.11506,389.57937 136.00888,376.40533 144.07482,349.11567 145.67525,320.0726 144.46967,287.92678" inkscape:path-effect="#path-effect1276" />
    <path d="M 167.875,247.375 C 157.38086,256.78013 154.33568,277.55472 163.72031,293.77016 152.07173,300.32038 134.75096,314.25475 129.60355,325.25 119.08632,347.71556 165.69018,359.83288 170.91421,345.40013 175.64131,332.34027 185.5,321.375 197.25,312.75 202.92029,308.58777 200.75,296.3125 192.76002,290.20282 201.51026,284.49829 212.79786,279.65205 216.75,259.03033 220.96439,237.04019 202.92678,207.74632 165.375,225.75 Z" fill="#f9b764" />
    <g transform="matrix(-.77502654-.1158239-.18305235 1.1774575 192.14878 253.64209)" inkscape:path-effect="#path-effect1635">
      <path fill="#f6b8d2" inkscape:original-d="M 0,18.6 -5,13.8 -5.7,-13.7 H 5.7 L 5,13.8 Z" />
      <path fill="#bf5d93" inkscape:original-d="M -12.4,-12 C -10.2,-8.3 -12.4,-7.3 -16.7,-8.9 -16.9,3.4 -16.7,5.3 -5,13.8 V -13.6 Z" />
      <path fill="#f5415f" inkscape:original-d="M 12.4,-12 C 10.2,-8.3 12.4,-7.3 16.7,-8.9 16.9,3.4 16.7,5.3 5,13.8 V -13.6 Z" />
      <path fill="none" stroke="#ab3266" inkscape:original-d="M 0,18.6 C -3.7,12.7 -16.7,9.7 -16.7,-3 V -8.9 C -12.4,-7.3 -10.2,-8.3 -12.4,-12 -5,-14.5 5,-14.5 12.4,-12 10.2,-8.3 12.4,-7.3 16.7,-8.9 V -3 C 16.7,9.7 3.7,12.7 0,18.6 Z" />
      <path fill="#a02699" inkscape:original-d="M -2.3,-3.4 C -9.7,-6.7 -11.3,-3.8 -2.3,0.6 -7.7,-1 -7,2.6 -1.9,3.5 -3.4,5.1 -0.3,6.9 6.7,8.8 0.3,2 7,1.2 7,-1.8 7,-6.3 -7.9,-13 -9.3,-11.6 -10.1,-10.8 -8,-7.6 -2.3,-3.4 Z" />
      <path fill="#fd41f8" inkscape:original-d="M -4.3,-2.3 0.6,-2.8 -4.6,-8.8 5.7,-1.7 0.6,0.2 3.5,5.3 Z" />
    </g>
    <path fill="#f37033" inkscape:original-d="M 167.875,247.375 C 154.625,259.25 153.25,289.25 173.625,305.375" inkscape:path-effect="#path-effect1420" />
    <path d="M 163.79514,293.73956 C 152.07173,300.32038 134.75096,314.25475 129.60355,325.25 119.08632,347.71556 165.69018,359.83288 170.91421,345.40013 175.64131,332.34027 185.5,321.375 197.25,312.75 202.92029,308.58777 200.75,296.3125 192.75,290.1875" fill="none" stroke="#f37033" stroke-width="4" />
    <path fill="#f37033" inkscape:original-d="M 183.69822,299.39645 C 190.45527,285.75032 211.09963,288.5132 216.75,259.03033 220.96439,237.04019 202.92678,207.74632 165.375,225.75" inkscape:path-effect="#path-effect1426" />
    <path d="M 159.125,222.875 C 158.03841,181.58942 201.48273,142.55255 186.00888,196.01777 212.37115,153.51873 227.50636,173.73853 191.75,215.875 214.29993,211.53067 204.42766,234.96922 182.25,235.875 L 159.63966,236.84971 Z" fill="#f9b764" />
    <path d="M 159.125,222.875 C 158.03841,181.58942 201.48273,142.55255 186.00888,196.01777 212.37115,153.51873 227.50636,173.73853 191.75,215.875 214.29993,211.53067 204.42766,234.96922 182.25,235.875 187.98033,231.20305 186.02242,226.61235 177.5,228.125 191.90971,207.51092 172.26749,191.61251 159.125,222.875 Z" style="fill:none;stroke:#f37033;stroke-width:4;stroke-miterlimit:20" />
  </g>
  <g>
    <path d="M 73.25,259.5 C 93.125,267 95.753349,281.34272 106.75,282.5 118.56657,283.74357 152.48668,259.54392 137.125,248 95.627982,216.81603 58.112784,233.0131 52.426777,250 L 64.375801,249.73625 Z" fill="#f9b764" />
    <path fill="#f37033" inkscape:original-d="M 73.25,259.5 C 93.125,267 95.753349,281.34272 106.75,282.5 118.56657,283.74357 152.48668,259.54392 137.125,248 95.627982,216.81603 58.112784,233.0131 52.426777,250" inkscape:path-effect="#path-effect1480" />
  </g>
  <g>
    <path d="M 176.65693,95.646257 C 139.32609,88.975975 111.26302,93.729671 76.593004,115.75339 82.577344,101.83714 90.407394,88.738984 103.09964,79.429484 22.988083,110.35449 -8.3240846,17.426624 39.95681,14.969768 28.881145,22.107288 23.667124,37.816183 35.555316,39.433056 72.667094,44.480503 99.152347,-1.9929388 151.88305,51.948338 147.83871,41.848128 143.50441,33.528687 136.29186,23.90814 172.54898,35.356688 194.54684,60.49603 196.15548,94.738039 Z" style="fill:#bf5d93;stroke:#bd1f77;stroke-width:4;stroke-miterlimit:20" />
    <path d="M 21.579728,56.686134 C 63.761305,91.123437 123.20678,18.235147 195.20011,85.156226" style="fill:none;stroke:#bd1f77;stroke-width:2;stroke-miterlimit:20" />
    <path d="M 164.93019,100.86386 C 174.74746,80.247589 187.36625,68.174531 193.89114,70.121347 201.76664,72.471137 223.01573,131.9519 161.65777,154.69524 Z" fill="#f9b764" />
    <path fill="#f37033" inkscape:original-d="M 164.93019,100.86386 C 174.74746,80.247589 187.36625,68.174531 193.89114,70.121347 201.76664,72.471137 223.01573,131.9519 161.65777,154.69524" inkscape:path-effect="#path-effect998" />
    <path d="M 189.82475,94.605027 C 187.97414,109.61771 183.59054,119.75555 174.28359,131.20803 186.24628,123.38726 191.28066,108.54695 189.82475,94.605027 Z" fill="#f37033" />
  </g>
</svg>