<svg xmlns="http://www.w3.org/2000/svg" viewBox="0 0 100 100">
  <!--Correct when pony is facing left-->
  <path d="M54.1 45.9l-8.5-15.6 15.1 8 5.8-30.8 5.8 30.8 15.1-8-8.5 15.6 18.6 5.4-18.6 5.4 8.5 15.6-15.1-8-5.8 30.8-5.8-30.8-15.1 8 8.5-15.6-18.6-5.4z" fill="#f06"/>
  <path d="M2.7 28.3l12.5.5-10.5 6.9L9.1 24l3.3 12zm13.2 11.1l12.5.5-10.5 6.9 4.4-11.7 3.3 12zm4.6 9.5l12.2 2.8-11.5 5.1 6.6-11 1.1 12.5zM25 59.4l12.2 2.8-11.5 5.1 6.6-11 1.1 12.5zm-4.4 10.3l11.5 4.9L20 77.4l8.2-9.3-1.1 12.3zm13.2 13.1L46 85.6l-11.5 5.1 6.6-11 1.1 12.5zm9.9-7.5l12.2 2.8-11.5 5.1 6.6-11 1.1 12.5z" fill="#fff"/>
  <path d="M44.6 7.2c-2.1-4.8-10.9 1.3 0 8 10.9-6.7 2.1-12.8 0-8zM87.8 13c-2.1-4.8-10.9 1.3 0 8 10.9-6.7 2.1-12.8 0-8zm0 70.2c-2.1-4.8-10.9 1.3 0 8 10.9-6.7 2.1-12.8 0-8z" fill="#fe8"/>
</svg>
