<svg xmlns="http://www.w3.org/2000/svg" xmlns:inkscape="http://www.inkscape.org/namespaces/inkscape" xmlns:sodipodi="http://sodipodi.sourceforge.net/DTD/sodipodi-0.dtd" xmlns:xlink="http://www.w3.org/1999/xlink" height="1080" viewBox="0 0 1920 1080" width="1920">
  <defs>
    <inkscape:path-effect effect="powerstroke" id="path-effect129" interpolator_type="CubicBezierSmooth" offset_points="0.36,2.5 | 2,2.5" start_linecap_type="zerowidth" />
    <inkscape:path-effect effect="powerstroke" end_linecap_type="zerowidth" id="path-effect929" interpolator_type="CubicBezierSmooth" offset_points="0.24,2.5 | 1.4895675,2.5" start_linecap_type="zerowidth" />
    <inkscape:path-effect effect="powerstroke" end_linecap_type="zerowidth" id="path-effect950" interpolator_type="CubicBezierSmooth" offset_points="0.35,2.5 | 1.71,2.5" start_linecap_type="zerowidth" />
    <inkscape:path-effect effect="powerstroke" end_linecap_type="zerowidth" id="path-effect932" interpolator_type="CubicBezierSmooth" miter_limit="20" offset_points="0.16,2.5 | 6.82,2.5" start_linecap_type="zerowidth" />
    <inkscape:path-effect effect="powerstroke" end_linecap_type="zerowidth" id="path-effect1532" interpolator_type="CubicBezierSmooth" offset_points="0.24,2.5 | 2.76,2.5" start_linecap_type="zerowidth" />
    <inkscape:path-effect effect="powerstroke" end_linecap_type="zerowidth" id="path-effect1363" interpolator_type="CubicBezierSmooth" miter_limit="20" offset_points="0.3,2.5 | 5.84,2.5" start_linecap_type="zerowidth" />
    <inkscape:path-effect bendpath1="M -27.296448,-46.347717 H 27.167291" bendpath2="M 18.566014,-46.648238 C 35.526907,-18.304629 37.596532,15.881003 26.124207,48.971245" bendpath3="M -27.296448,45.8 H 27.167291" bendpath4="M -23.861226,-50.146447 C -7.3600391,-19.34308 -8.1965775,14.176436 -21.390554,48.171142" effect="envelope" id="path-effect1336" yy="false" />
    <inkscape:path-effect effect="powerstroke" id="path-effect1016" interpolator_type="CubicBezierSmooth" offset_points="0.42,2.5 | 2,2.5" start_linecap_type="zerowidth" />
    <inkscape:path-effect effect="powerstroke" end_linecap_type="zerowidth" id="path-effect1014" interpolator_type="CubicBezierSmooth" offset_points="0.22,2.5 | 3.78,2.5" start_linecap_type="zerowidth" />
    <inkscape:path-effect effect="powerstroke" end_linecap_type="zerowidth" id="path-effect1002" interpolator_type="CubicBezierSmooth" offset_points="0.21,2.5 | 2.77,2.5" start_linecap_type="zerowidth" />
    <inkscape:path-effect effect="powerstroke" end_linecap_type="zerowidth" id="path-effect912" interpolator_type="CubicBezierSmooth" offset_points="0.42,2.5 | 1.8,2.5" start_linecap_type="zerowidth" />
    <inkscape:path-effect effect="powerstroke" end_linecap_type="zerowidth" id="path-effect831" interpolator_type="CubicBezierSmooth" offset_points="0.46,2.5 | 1.8,2.5" start_linecap_type="zerowidth" />
    <linearGradient id="linearGradient1620">
      <stop offset="0" stop-color="#196e91" />
      <stop offset="1" stop-color="#7dd0f1" />
    </linearGradient>
    <clipPath id="clipPath1634">
      <use xlink:href="#ellipse805" />
    </clipPath>
    <clipPath id="clipPath881">
      <use xlink:href="#ellipse857" />
    </clipPath>
    <linearGradient gradientUnits="userSpaceOnUse" id="linearGradient949" x1="452.55795" x2="453.12891" y1="617.98578" y2="650.43665" xlink:href="#linearGradient1620" />
    <linearGradient gradientUnits="userSpaceOnUse" id="linearGradient986" x1="575.83527" x2="574.71564" y1="579.12653" y2="612.48468" xlink:href="#linearGradient1620" />
    <clipPath id="clipPath924">
      <path d="M 989.7603,831.0756 863.40899,795.0167 845.61576,869.9816 953.86116,891.08311 C 987.2113,902.20101 1030.7327,912.69145 1077.4958,915.04995 L 1108.4305,928.32004 1120.9732,818.64377 1075.6437,832.10099 C 1045.0634,835.17796 1016.0172,833.93236 989.7603,831.0756 Z" />
    </clipPath>
    <clipPath id="clipPath965">
      <path d="M 1005.5618,715.928 C 1007.6902,742.58849 994.58417,757.9443 977.86336,762.95112 L 932.7672,736.86676 930.13177,648.31625 997.77453,672.91362 Z" />
    </clipPath>
    <clipPath id="clipPath996">
      <path d="M 1093.8904,875.27688 C 1111.8339,873.17014 1127.466,867.59563 1139.4099,859.348 M 1093.8904,875.27688 1097.1755,801.86074 1129.5125,805.01882 C 1129.5125,805.01882 1130.3202,805.80984 1131.9252,807.24437 1133.5712,808.7154 1135.8944,810.60181 1139.5485,812.44664 L 1166.8374,814.44565 1161.4984,861.60729 1139.4099,859.348" />
    </clipPath>
    <clipPath id="clipPath1001">
      <path d="M 1131.7078,805.91011 C 1107.2584,817.23595 1096.7303,839.2809 1107.3371,877.93259 L 1167.3459,879.65837 1171.5409,805.92859 Z" />
    </clipPath>
    <clipPath id="clipPath1784">
      <path d="M 1189.3799,791.8705 1212.8295,764.45039 1267.1354,816.28774 1244.5079,894.86659 1212.998,871.96229 C 1171.1089,879.00739 1128.3242,879.564 1088.33,875.15509 L 986.79774,807.90559 C 1061.4217,810.17151 1128.2815,802.19015 1189.3799,791.8705 Z" />
    </clipPath>
    <clipPath id="clipPath1948">
      <path d="M 528.82153,822.90769 C 543.3593,818.42144 560.58741,814.98165 579.121,812.84111 L 771.7982,908.54483 1194.1878,913.54352 1204.1851,635.61619 959.74906,644.11397 967.64367,741.53545 C 948.97283,745.8745 934.13171,747.40632 921.3539,747.29548 908.58013,747.18467 897.79264,745.43206 887.19714,743.13518 876.59159,740.83613 866.14212,737.97711 854.12858,735.71695 842.10071,733.45411 828.5618,731.80781 811.76068,731.93586 781.73953,732.16468 759.47068,741.75537 739.90273,751.93435 L 674.77228,759.61657 C 636.21441,737.0834 589.24915,727.46165 529.54314,733.43642 L 487.87244,715.09541 V 845.06143 L 527.11218,839.56287 528.82153,822.90769" />
    </clipPath>
  </defs>
  <path d="M 708.70094,857.73832 C 653.56075,872.13084 658.08411,837.86916 702.75701,830.57944 L 748.59813,822.99065 754.39252,844.29907 Z" style="fill:#ddce52;stroke:#a89e0e;stroke-width:5;stroke-miterlimit:20" />
  <g>
    <path d="M 733.45794,702.42991 C 660.97994,648.53399 513,625.54206 391.988,638.89051 L 468.66455,653.9147 C 398.29119,662.68174 329.42135,673.95466 261.15356,686.23099 L 335.70093,695.70093 202.61682,751.02803 245.42056,748.97196 C 218.31284,757.7863 190.2648,763.47222 159.29769,767.43128 208.34062,772.11366 260.31607,767.99488 311.02804,765.98131 284.8078,771.71541 254.95214,777.87414 231.09345,784.62617 350.95533,779.12089 427.51731,799.61884 547.28972,767.47664 L 493.47929,808.267 C 604.1335,789.94924 672.27103,788.50467 733.20561,747.75701 Z" fill="#ed7b00" />
    <path d="M 733.20561,747.75701 733.45794,702.42991 C 582.92382,653.05819 428.95265,715.55727 237.28839,748.83979 L 245.42056,748.97196 C 218.31284,757.7863 190.2648,763.47222 159.29769,767.43128 208.34062,772.11366 260.31607,767.99488 311.02804,765.98131 355.1402,766.35514 484.85982,698.09346 733.20561,747.75701 Z" fill="#fbbe33" />
    <path d="M 733.45794,702.42991 C 660.97994,648.53399 513,625.54206 391.988,638.89051 L 468.66455,653.9147 C 398.29119,662.68174 329.42135,673.95466 261.15356,686.23099 L 335.70093,695.70093 202.61682,751.02803 245.42056,748.97196 C 218.31284,757.7863 190.2648,763.47222 159.29769,767.43128 208.34062,772.11366 260.31607,767.99488 311.02804,765.98131 284.8078,771.71541 254.95214,777.87414 231.09345,784.62617 350.95533,779.12089 427.51731,799.61884 547.28972,767.47664 L 493.47929,808.267 C 604.1335,789.94924 672.27103,788.50467 733.20561,747.75701 Z" style="fill:none;stroke:#a40;stroke-width:5;stroke-miterlimit:20" />
  </g>
  <g clip-path="url(#clipPath1784)">
    <path d="M 986.72186,810.40444 C 1061.5719,812.67722 1128.6096,804.67013 1189.7962,794.33559 1238.6237,786.08852 1251.2061,863.00116 1212.5834,869.49691 1129.2994,883.504 1042.3753,871.71927 981.22429,846.19444 Z" style="fill:#1c6b9e;stroke:#2c457a;stroke-width:5;stroke-miterlimit:20" />
    <path d="M 1203.1264,805.71456 C 1198.642,823.63521 1201.3522,842.19619 1213.5207,857.51582 1197.146,846.6866 1192.7853,821.13385 1203.1264,805.71456 Z" fill="#2c457a" />
    <path d="M 1161.5,787 1156.9848,832.7474 1171.875,817.08839 1160.8902,858.05178 1175.5366,851.02145 1165.0732,881.30178 1144.8081,880.89017 1157.5214,864.46339 1132.9116,873.76517 1143.6291,841.17468 1128.2051,846.69766 1150.7002,786.55069 Z" fill="#d5d77e" />
  </g>
  <g clip-path="url(#clipPath1948)">
    <path d="M 1152.5791,820.11603 C 1228.6628,668.62488 989.58414,615.94427 968.20957,743.97056 892.87622,761.47781 878.24069,733.92925 811.77973,734.43579 752.89262,734.88462 724.36282,771.98433 684.90546,778.17516 683.06683,771.34541 680.07809,765.61287 673.51088,761.77502 635.49663,739.55953 589.08302,729.99076 529.79207,735.924 485.24868,740.38146 493.10016,831.31471 528.08437,820.51884 586.94113,802.35606 688.50582,801.38372 743.1481,832.81115 825.21225,880.01022 885.28053,871.50982 955.96219,832.27084 1015.384,871.28394 1068.4639,878.96281 1105.6172,870.78319 Z" fill="#227eb9" />
    <path d="M 1023.5506,864.94382 C 1018.2793,847.68989 1011.0608,834.84706 1000.2697,822.47191 L 987.77528,821.12359 996.93258,817.06742 995.5955,815.32585 C 932.94849,821.45813 857.30201,885.4324 815.94735,832.78233 817.24645,840.3091 818.86188,847.73043 821.67415,854.75281 810.10895,852.75717 799.79116,848.13564 790.38203,842.06742 L 795.2564,856.41453 C 852.59472,874.67463 901.0789,862.73934 955.96218,832.27084 979.71823,847.86776 1002.4607,858.45654 1023.577,865.02607" fill="#ffff98" />
    <path d="M 1152.5791,820.11605 C 1228.6628,668.62487 989.58416,615.94428 968.20958,743.97056 892.87621,761.47781 878.24065,733.92923 811.77973,734.43579 752.89262,734.88462 724.36282,771.98433 684.90546,778.17516 683.06684,771.34541 680.07809,765.61288 673.51089,761.77502 635.49663,739.55953 589.08302,729.99076 529.79207,735.924 485.24868,740.38146 493.10016,831.31471 528.08437,820.51884 586.94113,802.35607 688.50582,801.38373 743.1481,832.81115 825.21223,880.01021 885.28054,871.50982 955.96218,832.27084 1015.384,871.28394 1068.4639,878.96283 1105.6172,870.78318" style="fill:none;stroke:#335295;stroke-width:5;stroke-miterlimit:20" />
    <ellipse cx="1078.6969" cy="445.78839" fill="#f8ea62" rx="12.070147" ry="19.032316" stroke="#335295" stroke-width="3" transform="rotate(20.165831)" />
    <path d="M 759.42844,764.68163 C 788.85614,777.13568 896.45727,774.85051 960.5703,767.15942 L 937.94426,728.35415 790.75916,713.03625 Z" opacity=".22" />
    <path d="M 544.70931,725.54651 543.29652,768.71511 552.87209,759.29651 546.75,796.65698 556.63953,789.12209 548.94768,822.24418 556.32558,820.83139 568.25581,767.77326 557.89535,776.40697 565.11628,742.02907 553.18605,750.97674 557.73837,725.38953 Z" fill="#ffff98" />
    <path d="M 777.47896,789.46658 788.73783,778.27637 787.3648,788.84872 798.21174,777.45256 793.68073,797.63611 Z" fill="#ffff98" />
  </g>
  <g>
    <g>
      <path d="M 564.14989,682.0202 C 592.11633,807.35882 649.54323,794.02817 669.16566,741.06362 673.82987,802.80804 759.52026,779.05016 793.02026,726.80016 793.02026,726.80016 733.82254,605.76774 649.06857,609.4811 589.67159,508.36483 515.01638,525.98184 488.49987,583.96459 483.2156,545.14479 445.28488,563.43211 412.95036,639.11892 429.96544,619.74779 443.93188,606.02939 462.47296,598.21028 451.97296,618.46028 457.41764,639.59913 480.02195,639.94214 482.22558,671.40274 540.82146,714.17706 564.14989,682.0202 Z" style="fill:#eb458b;stroke:#bb1c76;stroke-width:5;stroke-miterlimit:20" />
      <path d="M 513.49609,606.15625 C 498.98824,606.35014 478.61799,619.90423 480.02148,639.94141 515.45926,640.47918 531.95196,619.38743 525.02734,610.66992 522.51774,607.51054 518.33205,606.09162 513.49609,606.15625 Z M 649.06836,609.48047 C 607.01802,611.32284 597.17695,658.55821 621.35742,667.37891 646.21926,676.44815 663.34331,633.78187 649.06836,609.48047 Z" style="fill:#eb458b;stroke:#bb1c76;stroke-width:3.4000001;stroke-miterlimit:20" sodipodi:type="inkscape:offset" inkscape:original="M 513.49609 606.15625 C 498.98824 606.35014 478.61799 619.90423 480.02148 639.94141 C 515.45926 640.47918 531.95196 619.38743 525.02734 610.66992 C 522.51774 607.51054 518.33205 606.09162 513.49609 606.15625 z M 649.06836 609.48047 C 607.01802 611.32284 597.17695 658.55821 621.35742 667.37891 C 646.21926 676.44815 663.34331 633.78187 649.06836 609.48047 z " inkscape:radius="-0.80000001" />
      <path d="M 506.2278,558.1123 C 513.7811,582.88617 539.28162,612.10673 570.28162,598.10673 614.63725,726.68202 632.83486,761.1189 667.92302,676.43137 693.10368,764.84345 728.95541,779.0271 782.41365,708.06183" style="fill:none;stroke:#bb1c76;stroke-width:2.5;stroke-miterlimit:20" />
    </g>
    <path d="M 675.30624,360.51918 C 662.47401,328.08624 636.17076,307.35995 629.80358,309.26409 621.22974,311.82823 585.71205,382.90452 649.39403,436.60196 Z" fill="#f5b7d0" stroke="#e880b0" stroke-width="5" />
    <g>
      <path d="M 742.73225,743.8778 C 723.78355,708.4984 700.71076,677.11459 679.73225,668.1278 655.85088,657.89748 658.07423,586.77476 684.98225,591.3778 711.68911,595.94643 739.63877,618.79784 758.14075,655.57736 768,605.25 795.5,593.25 816,612.5 Z" fill="#e89cbf" stroke="#dd6fa4" stroke-width="5" />
      <path d="M 681.19509,604.17976 C 689.72977,618.5933 689.15731,638.05492 678.73841,651.97636 684.94064,635.99448 686.01298,621.26799 681.19509,604.17976 Z" fill="#dd6fa4" />
      <path d="M 831.64844,551.21814 C 799.2058,612.91028 759.80663,677.956 701.79489,721.33946 681.50653,736.5119 759.06234,771.2392 775.54489,754.67525 826.17261,703.79751 851.39108,644.26713 859.79489,569.07169 Z" fill="#e89cbf" stroke="#dd6fa4" stroke-width="5" />
    </g>
    <path d="M 824.13911,754.05033 C 868.49198,771.38404 897.46942,753.54764 914.24214,723.69827 976.57344,612.77106 932.59265,492.62788 796.37716,403.41903 771.5716,265.39153 538.44318,351.53166 630.83133,500.44632 L 764.63086,505.70487 C 764.63086,505.70487 855.96279,540.04567 831.1205,654.39324 795.84868,680.13112 801.1643,721.54998 824.13911,754.05033 Z" fill="#f5b7d0" stroke="#e880b0" stroke-width="5" />
    <g>
      <path d="M 845.25,568 C 810.7972,625.93198 763.56039,694.80427 707.5,734.91421 686.89635,749.65566 764.76745,784.81395 781.25,768.25 831.87772,717.37226 865.24264,661.29899 873.64645,586.10355 Z" fill="#f5b7d0" />
      <path fill="#e880b0" inkscape:original-d="M 845.25,568 C 810.7972,625.93198 763.56039,694.80427 707.5,734.91421 686.89635,749.65566 764.76745,784.81395 781.25,768.25 831.87772,717.37226 865.24264,661.29899 873.64645,586.10355" inkscape:path-effect="#path-effect1002" />
    </g>
    <g>
      <ellipse cx="798.30493" cy="220.34666" fill="#fff" rx="37.045547" ry="48.837376" transform="rotate(15.869177)" />
      <g clip-path="url(#clipPath1634)">
        <ellipse cx="569.1969" cy="594.73157" fill="url(#linearGradient986)" id="ellipse805" rx="18.378931" ry="25.108007" transform="rotate(-13.628995)" />
        <path d="M 689.80527,449.02436 716.77811,458.9588 719.5531,447.85887 Z" fill="#dcf3fd" />
        <path d="M 689.80527,449.02436 719.60859,442.7529 719.3866,451.35535 Z" fill="#9cdcf4" />
        <ellipse cx="514.43744" cy="642.22076" rx="10.3413" ry="14.996154" transform="rotate(-18.597035)" />
        <ellipse cx="251.60741" cy="779.35199" fill="#fff" rx="7.2799821" ry="10.904863" transform="rotate(-40.14997)" />
        <ellipse cx="-157.52936" cy="810.13617" fill="#fff" rx="2.382334" ry="2.9737976" transform="rotate(-68.012281)" />
      </g>
      <path d="M 594.28706,445.72932 C 600.65237,446.7221 606.82827,445.06201 611.67376,441.32821 L 614.34237,444.80245 C 608.1936,448.95022 601.45816,450.24472 594.28706,445.72932 Z M 593.32558,427.38332 C 598.57405,431.11914 604.44487,432.00232 610.84408,431.22642 L 611.67625,435.465 C 604.32146,436.42338 597.7186,434.63003 593.32558,427.38332 Z" />
      <path d="M 609.90695,421.65698 C 632.42846,433.3068 643.00328,454.26285 643.7074,485.88119 641.48225,491.67183 636.70515,496.0705 630.70217,499.80051 614.82735,474.82006 606.93572,449.23175 609.90695,421.65698 Z" fill="#fff" />
      <g clip-path="url(#clipPath881)">
        <ellipse cx="456.98926" cy="633.67035" fill="url(#linearGradient949)" id="ellipse857" rx="10.510704" ry="23.180351" transform="rotate(-18.037587)" />
        <path d="M 627.54165,483.55688 634.80254,463.14419 621.14841,475.24567 Z" fill="#dcf3fd" />
        <path d="M 619.6871,471.3184 634.80254,463.14419 622.83805,478.16829 Z" fill="#9cdcf4" />
        <ellipse cx="427.51059" cy="654.39172" rx="5.983151" ry="12.944066" transform="rotate(-20.651337)" />
        <ellipse cx="244.70529" cy="734.47125" fill="#fff" rx="4.2875419" ry="8.4830303" transform="rotate(-36.005135)" />
        <ellipse cx="146.65186" cy="770.96252" fill="#fff" rx="1.2874236" ry="2.1151271" transform="rotate(-42.882056)" />
      </g>
      <path d="M 643.7074,485.88119 C 634.75687,504.14757 619.18359,500.1156 622.80781,511.27342 631.21675,537.16194 703.879,565.1983 777.2435,498.55028" fill="#f5b7d0" />
      <path fill="#e880b0" inkscape:original-d="M 643.7074,485.88119 C 634.75687,504.14757 619.18359,500.1156 622.80781,511.27342 631.21675,537.16194 703.879,565.1983 777.2435,498.55028" inkscape:path-effect="#path-effect912" />
      <path d="M 634.50503,510.11095 C 637.8862,511.18668 639.88902,509.98559 640.02277,506.59142 642.72031,511.9911 638.79765,514.31222 634.50503,510.11095 Z M 644.34673,531.91713 C 655.39788,523.51459 665.80972,520.59197 680.0575,521.41396 667.54503,523.78859 657.68118,527.16786 650.73995,534.20042" fill="#e880b0" />
      <path d="M 597.51565,409.38235 C 601.02304,414.78615 604.40449,417.48268 610.2986,419.73887 630.20425,427.3585 647.01546,456.05796 643.7074,485.88119 641.22885,456.30276 629.42044,432.44381 609.49118,424.0447 603.52266,421.52929 598.9367,417.73663 597.51565,409.38235 Z M 726.16286,384.93286 C 730.79767,380.88122 733.25869,375.52273 734.11558,367.70701 736.28797,375.32212 734.65936,382.13085 729.84111,386.84833 M 734.37617,390.12503 C 741.86376,386.88716 745.95767,381.06261 748.19245,371.65471 749.82162,382.01157 745.34966,388.46264 736.86586,393.49019 M 690.95679,393.36146 C 670.0224,411.00399 665.38467,445.80892 680.92144,469.01912 660.22697,450.43249 665.78296,408.31175 688.45393,390.17841 706.36365,375.85334 729.18675,376.20742 743.3034,397.86433 748.7169,395.40497 751.22162,392.1165 753.79436,386.20178 754.17873,393.45375 750.90372,399.83506 741.80626,403.04738 729.26097,380.36861 707.20941,379.66449 690.95679,393.36146 Z" />
    </g>
    <g>
      <path d="M 832,729 C 847.5,774 805.83038,788.89948 794.75,766.75 777.0513,731.3706 755.82701,698.39921 734,688.25 708.25852,676.28063 713.50287,606.66789 741.75,611.5 771.12593,616.52521 799.95182,644.23026 817.47063,688.50857 828.86123,644.42582 847.17003,621.11962 866.2035,621.91039 889.1424,622.86342 904.81125,644.83114 905.09937,685.45539 Z" fill="#f5b7d0" />
      <path fill="#e880b0" inkscape:original-d="M 832,729 C 847.5,774 805.83038,788.89948 794.75,766.75 777.0513,731.3706 755.82701,698.39921 734,688.25 708.25852,676.28063 713.50287,606.66789 741.75,611.5 775.74327,617.31508 809,653.5 824.75,710.25" inkscape:path-effect="#path-effect1014" />
      <path d="M 737.10704,624.38212 C 745.19351,639.05179 744.26761,658.6192 732.92874,672.07261 739.85499,656.79694 741.39606,641.61068 737.10704,624.38212 Z" fill="#e880b0" />
      <path fill="#e880b0" inkscape:original-d="M 905.09937,685.45539 C 904.81125,644.83114 889.1424,622.86342 866.2035,621.91039 847.17003,621.11962 828.86123,644.42582 817.53624,688.72952" inkscape:path-effect="#path-effect1016" />
      <g transform="matrix(.16223962.74988731-.66973791.17680735 876.07156 716.48851)" inkscape:path-effect="#path-effect1336">
        <path fill="none" stroke="#7ed0f2" inkscape:original-d="M -2.8,-18.3 C -7.5,-7.5 -6.1,-4.1 -0.9,1.7 4.3,7.5 2.2,15.2 -2.5,14.5 -7.2,13.8 -4.9,6 -1,9.5" />
        <path fill="#faf5ab" inkscape:original-d="M -6,-16.9 -4.3,-20.9 A 8.5,12.8 -6 1 1 -0.5,-21.6 L 1.8,-15.2 Z" />
        <path fill="none" stroke="#faf5ab" inkscape:original-d="M -14.1,12.3 C -8.9,15.2 -8.3,19.7 -9.6,25.4 -10.9,31.1 -9.1,40.2 -2.5,37.7 4.1,35.2 0.8,26 -4,25.9 M 14.3,8.4 C 9,14.2 6.5,21.1 10.8,29.2 15.1,37.3 15.2,45.8 10.1,45.8 5,45.8 3.8,39.8 5.3,36.6" />
        <path fill="#7ed0f2" inkscape:original-d="M -17.9,14.8 -16.5,7.9 A 8.5,12.8 -14 1 1 -13,6.5 L -10.2,11.3 Z M 8.5,11.1 13,6.6 A 8.5,12.8 18 1 1 16.7,7.4 L 16.9,13.8 Z" />
      </g>
    </g>
    <g>
      <path d="M 608.59407,318.28178 C 551.20478,253.1751 683.16204,210.66448 715.23851,302.53609 740.20798,200.83814 888.31432,285.47666 845.88169,389.6818 L 764,347.25 C 706.35511,327.83511 662.46722,337.27035 650.75,388.75 611.46022,350.36292 534.32457,374.0277 568.43934,449.5 582.41009,480.40757 524.35709,494.05166 518.10355,442.14645 528.96283,452.43124 538.83845,455.55574 550.25,454 460.82935,393.53785 513.70148,331.76685 568.92807,333.57557 566.89521,313.25746 588.46054,310.80622 608.59407,318.28178 Z" style="fill:#eb458b;stroke:#bb1c76;stroke-width:5;stroke-miterlimit:20" />
      <path d="M 568.92773,333.57617 C 570.84049,352.6939 595.8461,361.29224 600.91992,355.52539 605.75394,350.03109 600.18272,334.5998 568.92773,333.57617 Z" style="fill:#eb458b;stroke:#bb1c76;stroke-width:3.4000001;stroke-miterlimit:20" sodipodi:type="inkscape:offset" inkscape:original="M 568.92773 333.57617 C 570.84049 352.6939 595.8461 361.29224 600.91992 355.52539 C 605.75394 350.03109 600.18272 334.5998 568.92773 333.57617 z " inkscape:radius="-0.80000001" />
      <path d="M 822.89552,282.20677 C 828.40732,301.72399 821.80966,313.33126 806.10174,317.73889 819.93694,329.69119 817.79642,345.60123 788.60084,360.8724 M 666.62492,252.33151 C 688.19027,271.87149 688.5979,291.71811 677.70639,311.72848 696.5325,301.9944 703.45577,322.61293 691.90399,341.25019 M 594.32325,284.50487 C 623.39329,260.47539 655.40426,286.04115 647.00271,329.40615 666.85951,316.57481 677.85832,335.74275 672.45855,350.2658" style="fill:none;stroke:#bb1c76;stroke-width:2.5;stroke-miterlimit:20" />
    </g>
    <g>
      <path d="M 733.03951,353.3784 C 731.70752,318.52461 747.42288,288.95315 754.01738,288.12884 762.89732,287.01885 824.05493,337.74452 787.42515,412.55807 Z" fill="#f5b7d0" />
      <path fill="#e880b0" inkscape:original-d="M 733.03951,353.3784 C 731.70752,318.52461 747.42288,288.95315 754.01738,288.12884 762.89732,287.01885 824.05493,337.74452 787.42515,412.55807" inkscape:path-effect="#path-effect831" />
      <path d="M 766.36046,322.58721 C 777.62959,341.11121 780.09005,360.31457 774.68024,381.45349 775.64045,360.93846 772.98071,341.33056 766.36046,322.58721 Z" fill="#e880b0" />
    </g>
    <g>
      <path d="M 815.29412,360.59207 C 760.58653,358.02295 744.95464,402.95039 762.57177,425.86817 702.49893,453.25487 702.76757,507.16077 748.41707,524.80506 690.85641,525.86767 721.12423,588.27369 775.51936,559.56941 763.35939,556.77859 755.09267,553.3884 747.66707,544.72537 806.17735,557.00465 839.04315,504.40713 805.69272,483.85353 886.0185,491.54726 905.25549,354.73059 826.02204,372.53966 Z" fill="#eb458b" />
      <path fill="#bb1c76" inkscape:original-d="M 815.29412,360.59207 C 760.58653,358.02295 744.95464,402.95039 762.57177,425.86817 702.49893,453.25487 702.76757,507.16077 748.41707,524.80506 690.85641,525.86767 721.12423,588.27369 775.51936,559.56941 763.35939,556.77859 755.09267,553.3884 747.66707,544.72537 806.17735,557.00465 839.04315,504.40713 805.69272,483.85353 886.0185,491.54726 905.25549,354.73059 826.02204,372.53966" inkscape:path-effect="#path-effect1363" />
      <path d="M 853.24566,372.83256 C 874.95495,398.87651 863.57921,450.44719 817.65287,428.99209 828.99526,458.05608 803.15886,478.58737 770.33739,469.76685 796.50034,487.6213 794.08091,527.3406 741.75501,522.03729" style="fill:none;stroke:#bb1c76;stroke-width:2.5;stroke-miterlimit:20" />
      <path d="M 774.49219,423.69922 C 770.07028,423.70321 765.87805,424.36206 762.57227,425.86914 776.8963,444.503 802.21165,444.24408 802.69922,436.0332 803.08364,429.55941 787.75791,423.68724 774.49219,423.69922 Z" style="fill:#eb458b;stroke:#bb1c76;stroke-width:3.4000001;stroke-miterlimit:20" sodipodi:type="inkscape:offset" inkscape:original="M 774.49219 423.69922 C 770.07028 423.70321 765.87805 424.36206 762.57227 425.86914 C 776.8963 444.503 802.21165 444.24408 802.69922 436.0332 C 803.08364 429.55941 787.75791 423.68724 774.49219 423.69922 z " inkscape:radius="-0.80000001" />
    </g>
  </g>
  <g>
    <g>
      <g>
        <path d="M 1148.6261,711.74195 1135.933,712.83305 C 1128.0628,713.50957 1120.8815,736.57393 1123.5205,769.52001 1126.1639,802.52006 1137.8983,826.05058 1146.0225,825.3796 L 1157.2954,824.44856 Z" fill="#4d4d4d" />
        <ellipse cx="853.24189" cy="-1091.4519" fill="#313332" rx="56.519941" ry="19.691579" transform="rotate(85.654805)" />
        <ellipse cx="1091.6869" cy="853.48718" fill="#3bd0f5" rx="14.666814" ry="45.74638" transform="rotate(-4.3555188)" />
        <path d="M 1138.6985,749.47645 C 1146.097,744.43701 1153.7818,740.1516 1161.7321,736.28198 1164.2702,743.19414 1165.8699,750.64257 1167.1226,758.28925 1157.7504,763.68167 1148.2227,769.85242 1139.4112,776.12485 1138.2586,767.15886 1137.825,758.25824 1138.6985,749.47645 Z" fill="#d4f4fa" />
        <path d="M 1138.4609,765.86705 C 1146.9692,759.18117 1155.9448,753.63093 1165.3257,748.63245 1166.7664,754.88418 1167.7199,761.2171 1168.0536,767.65332 1158.6238,773.66469 1149.7207,780.05542 1141.2503,786.75783 1139.7045,779.88222 1138.7153,772.92712 1138.4609,765.86705 Z" fill="#74dff7" />
        <ellipse cx="1091.6869" cy="853.48718" rx="14.666814" ry="45.74638" style="fill:none;stroke:#06b2d7;stroke-width:3;stroke-miterlimit:20" transform="rotate(-4.3555188)" />
      </g>
      <g clip-path="url(#clipPath1001)">
        <path d="M 1129.5125,805.01882 C 1138.3634,822.99758 1162.5341,815.59324 1159.1849,829.1011 1148.6907,871.42625 1062.5241,902.23359 955.96218,832.27084 Z" fill="#f8ea62" />
        <path d="M 1147.234,829.27832 C 1143.9998,831.36956 1141.7224,830.42471 1140.7612,827.12291 1139.2498,833.19472 1143.9701,834.71095 1147.234,829.27832 Z M 1108.1288,851.51593 C 1118.5555,846.50483 1133.3206,847.78198 1143.8208,852.85496 L 1139.2843,856.52174 C 1129.9859,851.25079 1119.409,850.19228 1108.1288,851.51593 Z" fill="#beb205" />
        <path fill="#beb205" inkscape:original-d="M 1129.5125,805.01882 C 1138.3634,822.99758 1162.5341,815.59324 1159.1849,829.1011 1148.6907,871.42625 1062.5241,902.23359 955.96218,832.27084" inkscape:path-effect="#path-effect129" />
      </g>
      <path d="M 1131.7078,805.91011 C 1107.2584,817.23595 1096.7303,839.2809 1107.3371,877.93259" style="clip-path:url(#clipPath996);fill:none;stroke:#335295;stroke-width:3.5" />
    </g>
    <g>
      <path d="M 980.62743,713.76134 C 1006.4467,690.44876 1050.8259,690.02819 1074.9074,705.25462 1130.8075,740.59949 1170.3923,667.64289 1155.6026,624.02579 1150.5891,644.07963 1146.8291,654.60791 1129.7833,669.14694 1136.5914,618.65011 1134.6698,568.52386 1094.1931,553.34139 1099.4968,565.70614 1102.4088,583.3054 1098.9478,597.92619 L 1053.8962,584.9314 C 976.88778,556.44542 958.54433,626.69312 890.65204,602.18872 898.76228,656.58409 920.34105,662.00498 939.64636,687.87427 923.50729,688.95142 908.92963,689.31276 890.87149,687.56278 922.42245,733.64845 939.53915,780.48006 982.07976,789.34269 970.94602,763.1676 969.99575,737.62123 980.62743,713.76134 Z" fill="#ed7b00" />
      <path d="M 980.62743,713.76134 C 1006.4467,690.44876 1050.8259,690.02819 1074.9074,705.25462 1130.8075,740.59949 1170.3923,667.64289 1155.6026,624.02579 1151.2276,641.52566 1147.8071,651.77174 1135.6795,663.75925 1125.6261,682.78389 1110.1912,690.23201 1094.407,693.82138 1115.4386,684.25615 1121.7978,638.4626 1105.3001,610.19034 1105.51,623.69979 1102.0922,635.09306 1096.6911,645.32943 1087.1756,587.12029 1036.6423,631.64931 988.81406,629.34114 L 1005.1537,646.3836 C 989.89123,649.81811 971.39208,651.48266 953.49927,650.07321 Z" fill="#fbbe33" />
      <path d="M 980.62743,713.76134 C 1006.4467,690.44876 1050.8259,690.02819 1074.9074,705.25462 1130.8075,740.59949 1170.3923,667.64289 1155.6026,624.02579 1150.5891,644.07963 1146.8291,654.60791 1129.7833,669.14694 1136.5914,618.65011 1134.6698,568.52386 1094.1931,553.34139 1099.4968,565.70614 1102.4088,583.3054 1098.9478,597.92619 L 1053.8962,584.9314 C 976.88778,556.44542 958.54433,626.69312 890.65204,602.18872 898.76228,656.58409 920.34105,662.00498 939.64636,687.87427 923.50729,688.95142 908.92963,689.31276 890.87149,687.56278 922.42245,733.64845 939.53915,780.48006 982.07976,789.34269 970.97504,763.1311 969.89825,737.88382 980.62743,713.76134 Z" style="fill:none;stroke:#a40;stroke-width:5;stroke-miterlimit:20" />
      <path d="M 1109.1985,607.17686 C 1088.7509,558.21771 1044.7381,533.89025 996.92926,537.79428 1019.3297,553.58969 1040.2716,572.5694 1055.3307,597.20378" fill="#ed7b00" />
      <path fill="#a40" inkscape:original-d="M 1109.1985,607.17686 C 1088.7509,558.21771 1044.7381,533.89025 996.92926,537.79428 1019.3297,553.58969 1040.2716,572.5694 1055.3307,597.20378" inkscape:path-effect="#path-effect929" />
      <g clip-path="url(#clipPath965)">
        <path d="M 1008.4575,728.30308 C 991.9131,685.18732 949.29869,660.62944 943.53321,664.13886 937.76773,667.64828 931.25023,732.31923 985.3956,763.90403 Z" fill="#f8ea62" />
        <path d="M 956.42896,695.64945 C 958.99418,715.36711 966.60242,729.87656 982.66452,739.0261 970.22099,727.11122 961.52948,712.279 956.42896,695.64945 Z" fill="#beb205" />
        <path fill="#beb205" inkscape:original-d="M 1008.4575,728.30308 C 991.9131,685.18732 949.29869,660.62944 943.53321,664.13886 937.76773,667.64828 931.25023,732.31923 985.3956,763.90403" inkscape:path-effect="#path-effect950" />
      </g>
      <path d="M 1005.5618,715.928 C 1003.574,742.76286 992.64738,755.62123 977.86336,762.95112 997.86797,761.65892 1011.166,739.8871 1005.5618,715.928 Z" fill="#335295" />
      <path d="M 1128.6675,795.23305 C 1021.3148,803.62282 983.64166,805.91495 958.97346,775.74738 950.47857,765.35869 953.3355,748.85698 956.68206,741.72822 1001.3224,785.31616 1027.6024,781.0062 1125.0657,778.36944 1125.845,783.99064 1127.1534,789.61185 1128.6675,795.23305 Z" fill="#ffffbd" />
      <ellipse cx="664.27856" cy="1135.7318" fill="#313332" rx="50.855148" ry="63.472157" transform="rotate(-23.327709)" />
      <ellipse cx="650.3689" cy="1145.6832" fill="#3bd0f5" rx="39.606003" ry="49.412216" transform="rotate(-24.090045)" />
      <path d="M 1024.8766,796.48883 C 1039.4441,772.35245 1056.2267,753.69915 1076.5153,738.95937 1083.6725,744.20134 1089.6613,750.80644 1094.8144,758.38653 L 1040.1677,817.42002 C 1033.1588,809.87039 1027.2962,802.66402 1024.8766,796.48883 Z" fill="#d4f4fa" />
      <path d="M 1085.7901,746.85557 C 1093.0054,754.22859 1098.0422,762.67084 1100.5799,773.0509 1080.4866,788.30637 1065.0808,804.39014 1051.6986,824.5642 1043.1493,819.78412 1036.2669,814.55451 1030.3914,805.88907 1046.9573,782.17883 1063.1246,764.54972 1085.7901,746.85557 Z" fill="#74dff7" />
      <ellipse cx="650.3689" cy="1145.6832" rx="39.606003" ry="49.412216" style="fill:none;stroke:#06b2d7;stroke-width:4;stroke-miterlimit:20" transform="rotate(-24.090045)" />
    </g>
    <g>
      <path d="M 858.53391,800.517 C 753.23302,907.85974 680.2675,914.06897 735.98072,865.93975 681.72597,892.19205 631.57674,893.46648 627.05521,877.14898 622.5151,860.76445 688.65323,857.37595 747.02379,836.1453 663.89151,851.89668 598.0688,828.60665 604.0946,806.55946 611.27741,780.27903 664.1832,819.81053 752.27425,812.22654 667.97519,802.60069 668.88556,757.48536 683.6435,745.42841 703.77557,728.98091 736.27303,806.39269 855.28345,785.09916 Z" fill="#f8ea62" />
      <path fill="#beb205" inkscape:original-d="M 858.53391,800.517 C 753.23302,907.85974 680.2675,914.06897 735.98072,865.93975 681.72597,892.19205 631.57674,893.46648 627.05521,877.14898 622.5151,860.76445 688.65323,857.37595 747.02379,836.1453 663.89151,851.89668 598.0688,828.60665 604.0946,806.55946 611.27741,780.27903 664.1832,819.81053 752.27425,812.22654 667.97519,802.60069 668.88556,757.48536 683.6435,745.42841 703.77557,728.98091 736.27303,806.39269 855.28345,785.09916" inkscape:path-effect="#path-effect932" />
      <path d="M 739.48389,787.55657 C 720.51301,796.22785 726.63035,813.98785 779.24103,811.86518 710.75233,837.53644 719.01772,870.90223 782.27232,839.53498 777.65794,847.56848 777.93281,852.74399 781.79855,854.68956 L 836.13577,802.16315 Z" fill="#f8ea62" />
      <path d="M 770.98652,783.21104 C 722.6177,779.77124 706.54697,814.79815 779.24103,811.86518 710.75233,837.53644 719.01772,870.90223 782.27232,839.53498 772.79004,856.04336 783.95401,860.48309 804.49753,849.62636" style="fill:none;stroke:#beb205;stroke-width:5;stroke-miterlimit:20" />
    </g>
    <g clip-path="url(#clipPath924)">
      <path d="M 868.32862,810.52652 C 944.78389,829.07632 1010.6986,841.14834 1075.894,834.58843 1124.2168,829.72622 1111.3504,914.25423 1077.6217,912.55312 993.93699,908.33247 907.24449,877.01076 856.04833,841.10862 Z" fill="#227eb9" />
      <path fill="#335295" inkscape:original-d="M 868.32862,810.52652 C 944.78389,829.07632 1010.6986,841.14834 1075.894,834.58843 1124.2168,829.72622 1111.3504,914.25423 1077.6217,912.55312 993.93699,908.33247 907.24449,877.01076 856.04833,841.10862" inkscape:path-effect="#path-effect1532" />
      <path d="M 1083.586,846.30654 C 1074.6162,862.45591 1072.8448,881.90955 1080.5198,899.29969 1067.5058,884.60137 1069.6064,858.52394 1083.586,846.30654 Z" fill="#335295" />
      <path d="M 1054.6132,830.16561 1026.6108,870.71083 1040.3203,868.52313 1022.3813,904.69298 1042.6538,898.7342 1030.9862,912.42282 1045.5708,915.04804 1059.7178,887.62898 1047.0292,892.87944 1063.9474,853.79267 1045.2791,859.33483 1062.9265,830.60315 Z" fill="#ffff98" />
    </g>
  </g>
</svg>