<svg xmlns="http://www.w3.org/2000/svg" xmlns:inkscape="http://www.inkscape.org/namespaces/inkscape" xmlns:sodipodi="http://sodipodi.sourceforge.net/DTD/sodipodi-0.dtd" xmlns:xlink="http://www.w3.org/1999/xlink" width="800" height="1000" viewBox="0 0 800 1000">
  <defs>
    <linearGradient id="linearGradient2556">
      <stop offset="0" stop-color="#13151f" stop-opacity=".2" />
      <stop offset="1" stop-color="#13151f" stop-opacity="0" />
    </linearGradient>
    <inkscape:path-effect linejoin_type="extrp_arc" interpolator_type="CubicBezierSmooth" offset_points="0.41,5 | 1.77,5" id="path-effect1882" effect="powerstroke" />
    <linearGradient id="linearGradient1880">
      <stop offset="0" stop-color="#580d36" />
      <stop offset="1" stop-color="#bc1d75" />
    </linearGradient>
    <inkscape:path-effect linejoin_type="extrp_arc" start_linecap_type="butt" interpolator_type="CubicBezierSmooth" offset_points="0,5 | 0.92,5" id="path-effect871" effect="powerstroke" />
    <inkscape:path-effect linejoin_type="extrp_arc" interpolator_type="CubicBezierSmooth" offset_points="0.2,5 | 1.63,5" id="path-effect19" effect="powerstroke" />
    <linearGradient gradientUnits="userSpaceOnUse" y2="104.85217" x2="812.12616" y1="100.92503" x1="693.21478" id="linearGradient2125" xlink:href="#linearGradient1880" />
    <clipPath id="clipPath2141">
      <use xlink:href="#path2043" />
    </clipPath>
    <linearGradient gradientUnits="userSpaceOnUse" y2="-217.02835" x2="797.42419" y1="-211.31398" x1="691.25647" id="linearGradient2313" xlink:href="#linearGradient1880" />
    <clipPath id="clipPath2325">
      <use xlink:href="#path2224" />
    </clipPath>
    <clipPath id="clipPath2415">
      <use xlink:href="#path2329" />
    </clipPath>
    <clipPath id="clipPath2431">
      <use xlink:href="#path1032" />
    </clipPath>
    <linearGradient gradientUnits="userSpaceOnUse" y2="785.76624" x2="251.57669" y1="965.7677" x1="161.13959" id="linearGradient2558" xlink:href="#linearGradient2556" />
    <filter height="1.176421" y="-0.088210505" width="1.0755961" x="-0.037798071" id="filter2711" color-interpolation-filters="sRGB">
      <feGaussianBlur stdDeviation="14.987487" />
    </filter>
  </defs>
  <rect width="800" height="1000" fill="#13151f" />
  <g id="g2579">
    <path d="M 218.34302,184.81162 H -171.51584 V 158.21772 H 218.34302 C 231.96188,158.21772 231.96188,184.81162 218.34302,184.81162 Z" fill="#cfd8fa" />
    <path d="M 337.07254,286.55065 H -171.51584 V 259.95675 H 337.07254 C 350.6914,259.95675 350.6914,286.55065 337.07254,286.55065 Z" fill="#a0b1f5" />
    <path d="M 508.50327,375.55131 H -171.51584 V 348.95741 H 508.50327 C 522.12213,348.95741 522.12213,375.55131 508.50327,375.55131 Z" fill="#718af0" />
    <path d="M 769.90506,446.63462 H -171.51584 V 420.04072 H 769.90506 C 783.52392,420.04072 783.52392,446.63462 769.90506,446.63462 Z" fill="#4164eb" />
    <path d="M 125.98331,65.454312 -171.51584,65.45431 V 38.86041 L 125.98331,38.860412 C 139.60217,38.860412 139.60217,65.454312 125.98331,65.454312 Z" fill="#fff" />
  </g>
  <use xlink:href="#g2579" filter="url(#filter2711)" />
  <text y="209.98012" x="397.73877" xml:space="preserve" style="font-size:100px;line-height:1.25;font-family:Junction;fill:#a0b1f5"><tspan y="209.98012" x="397.73877" sodipodi:role="line" font-family="Cantarell">80</tspan></text>
  <text xml:space="preserve" x="523.57465" y="171.17361" style="font-size:180px;line-height:1.25;font-family:Junction;fill:#a0b1f5"><tspan sodipodi:role="line" x="523.57465" y="171.17361" font-family="Cantarell"><tspan fill="#a0b1f5" letter-spacing="-9px">H</tspan>g</tspan></text>
  <g transform="translate(20)">
    <g>
      <path d="M 405.21634,511.75985 C 509.15637,573.28758 603.24896,710.11136 629.61735,878.11143 601.82842,835.77956 566.89864,799.9018 531.29951,763.48107 572.41594,864.86387 573.18877,994.85753 503.2333,1082.6189 499.0267,1025.2766 492.26357,965.57715 472.69512,912.08788 466.23593,949.3659 450.99939,984.82856 426.38497,1016.6029 430.53198,981.01954 428.89565,942.49457 416.96832,909.14019 L 397.16538,953.17781 357.44362,906.25089 C 341.75709,945.8354 322.7637,968.04777 280.71888,974.58562 299.39647,958.07908 306.44098,945.57182 314.95298,922.94371 297.40122,932.50575 279.19579,937.04492 255.36534,936.91949 L 325.44269,505.53412 Z" fill="#3167cc" />
      <path d="M 531.29951,763.48107 C 566.89864,799.9018 601.82842,835.77956 629.61735,878.11143 603.24896,710.11136 509.15637,573.28758 405.21634,511.75985 L 325.44269,505.53412 312.92586,583.18535 C 441.78646,670.02608 533.5035,804.65444 554.11366,968.14896 566.73215,899.87144 556.73606,826.20122 531.29951,763.48107 Z" fill="#05ece6" />
      <path d="M 405.21634,511.75985 C 509.15637,573.28758 603.24896,710.11136 629.61735,878.11143 601.82842,835.77956 566.89864,799.9018 531.29951,763.48107 572.41594,864.86387 573.18877,994.85753 503.2333,1082.6189 499.0267,1025.2766 492.26357,965.57715 472.69512,912.08788 466.23593,949.3659 450.99939,984.82856 426.38497,1016.6029 430.53198,981.01954 428.89565,942.49457 416.96832,909.14019 L 397.16538,953.17781 357.44362,906.25089 C 341.75709,945.8354 322.7637,968.04777 280.71888,974.58562 299.39647,958.07908 306.44098,945.57182 314.95298,922.94371 297.40122,932.50575 279.19579,937.04492 255.36534,936.91949 L 325.44269,505.53412 Z" style="fill:none;stroke:#1f3e7d;stroke-width:10;stroke-miterlimit:20" />
    </g>
    <path d="M 296.07952,897.65837 C 310.32294,953.45657 341.34464,998.04015 375.59704,1029.7202 L 178.25573,1053.645 C 129.32884,963.88219 104.0233,856.85294 94.192014,742.57617 70.508644,467.28577 484.07022,469.93892 446.7833,769.76129" fill="#ffffe2" stroke="#bea2b0" stroke-width="10" />
    <g>
      <g clip-path="url(#clipPath2415)">
        <ellipse ry="71.582825" rx="95.415123" cy="221.29797" cx="758.65338" id="path2329" transform="rotate(54.134331)" fill="#fff" />
        <g clip-path="url(#clipPath2141)">
          <ellipse id="path2043" cx="752.68109" cy="82.811234" rx="77.049278" ry="60.430363" transform="rotate(62.791095)" fill="url(#linearGradient2125)" />
          <path d="M 290.64228,711.40105 268.54539,789.27064 231.67697,766.75633 Z" fill="#fcb6df" />
          <path d="M 290.64228,711.40105 220.02632,751.90921 241.31543,773.71831 Z" fill="#d9539d" />
          <ellipse cx="749.46747" cy="102.21985" rx="61.481422" ry="47.586109" transform="rotate(61.097005)" />
          <ellipse ry="20.038427" rx="31.040274" cy="300.52219" cx="-659.29614" transform="rotate(-84.799327)" fill="#fff" />
          <ellipse ry="6.7211733" rx="9.9979563" cy="343.15518" cx="-684.11249" transform="rotate(-83.94216)" fill="#fff" />
        </g>
      </g>
      <path d="M 187.38196,695.56181 C 134.8517,671.45411 137.89758,663.54572 191.68957,687.50035 M 178.15047,733.97014 C 174.38881,691.40005 201.59542,649.15648 249.08877,652.68682 305.66564,656.89236 357.70779,720.34362 344.34599,783.0512 347.06936,717.78454 297.16497,665.06463 247.70274,660.84839 210.03446,657.63749 180.19794,694.50855 186.76304,741.22343 131.98165,754.26892 131.32601,747.135 178.15047,733.97014 Z M 182.18338,718.54547 C 122.29237,710.8849 125.02261,702.28503 183.80552,709.50568" />
      <path d="M 424.88282,644.23026 C 465.82287,628.01937 464.64426,622.56256 422.35893,635.99828 Z M 416.09454,624.61998 C 454.06907,592.44015 449.52457,587.20515 411.34545,617.92136 Z" />
      <g clip-path="url(#clipPath2431)">
        <path id="path1032" d="M 402.9998,599.07687 C 382.23872,636.39998 376.61031,702.37241 415.53613,754.87069 424.69477,763.43627 436.54459,767.75656 447.02092,769.70834 453.82637,704.5769 444.81029,647.54625 402.9998,599.07687 Z" fill="#fff" />
        <g clip-path="url(#clipPath2325)">
          <ellipse id="path2224" cx="742.95691" cy="-222.20322" rx="68.265846" ry="26.49235" transform="rotate(74.598875)" fill="url(#linearGradient2313)" />
          <path d="M 423.18059,668.02859 416.55536,730.00271 389.60662,702.74764 Z" fill="#fcb6df" />
          <path d="M 423.18059,668.02859 382.48179,687.16417 399.65796,710.65485 Z" fill="#d9539d" />
          <ellipse cx="740.94171" cy="-222.27069" rx="56.111008" ry="21.062878" transform="rotate(74.48735)" />
          <ellipse ry="8.4583826" rx="26.596453" cy="346.22888" cx="-661.35187" transform="rotate(-94.374335)" fill="#fff" />
          <ellipse ry="2.8335342" rx="8.4521399" cy="376.19101" cx="-684.9057" transform="rotate(-93.102523)" fill="#fff" />
        </g>
      </g>
      <path d="M 415.53613,754.87069 C 378.478,713.98029 374.75626,632.20314 400.63141,595.26683 423.15873,563.10957 428.61253,567.90996 406.60483,600.18789 382.22768,635.941 387.94136,711.49247 415.53613,754.87069 Z" />
      <path d="M 415.53613,754.87069 C 442.64285,780.0548 470.6423,759.12661 471.01469,786.05622 471.7375,838.3265 386.04756,917.83818 237.85256,891.42261 Z" fill="#ffffe2" />
      <path d="M 433.17473,789.0013 C 436.18751,796.00423 440.65213,797.39125 446.61328,791.47442 442.51088,803.79868 432.45021,801.0081 433.17473,789.0013 Z M 396.89065,814.89516 C 403.61007,837.44402 425.09564,845.75798 444.39053,843.17449 L 451.20136,833.19013 C 427.768,839.15715 408.39092,830.70636 396.89065,814.89516 Z" fill="#bea2b0" />
      <path inkscape:original-d="M 415.53613,754.87069 C 442.64285,780.0548 470.6423,759.12661 471.01469,786.05622 471.7375,838.3265 386.04756,917.83818 237.85256,891.42261" inkscape:path-effect="#path-effect1882" d="M 415.53613,754.87069 C 415.53613,754.87069 416.93517,759.32042 424.15777,765.05556 V 765.05556 C 426.80715,767.15931 430.13037,769.2154 434.25808,770.86431 V 770.86431 C 437.30836,772.08281 440.56389,772.98796 444.11498,773.61958 L 444.11498,773.61958 C 444.96649,773.77103 445.82088,773.90438 446.68094,774.02263 V 774.02263 C 448.84235,774.3198 450.25574,774.47234 452.691,774.77157 V 774.77157 C 454.98874,775.0539 457.31359,775.36832 459.23715,775.84699 V 775.84699 C 460.09601,776.06071 460.85496,776.30125 461.51739,776.57753 L 461.5174,776.57753 C 462.14266,776.83831 462.66029,777.1219 463.09166,777.43052 V 777.43052 C 463.50004,777.72269 463.85181,778.05175 464.15967,778.44049 V 778.44049 C 464.4588,778.81822 464.75365,779.29915 465.01897,779.9372 V 779.9372 C 465.54364,781.19894 465.97371,783.12741 466.01517,786.12535 L 466.01517,786.12536 C 466.0958,791.95621 464.97508,798.31635 462.57706,804.98178 V 804.98178 C 460.16284,811.69225 456.50139,818.5792 451.65493,825.38586 V 825.38586 C 441.17376,840.10627 425.95862,853.3748 407.76978,863.92112 V 863.92112 C 383.85055,877.79007 358.35285,885.00603 336.12589,888.51485 V 888.51485 C 333.76468,888.8876 331.47171,889.21395 329.25609,889.50017 V 889.50017 C 300.43476,893.22333 273.96445,892.57506 260.02487,892.13819 244.70563,891.65809 237.85256,891.42261 237.85256,891.42261 237.85256,891.42261 244.06265,894.09026 259.46119,897.10632 273.93025,899.94032 299.77558,903.39158 330.53725,899.41776 V 899.41776 C 332.8413,899.12012 335.22712,898.78057 337.68521,898.39253 V 898.39253 C 360.78302,894.74624 387.53301,887.21428 412.78583,872.57209 V 872.57209 C 431.97702,861.44458 448.34907,847.2698 459.801,831.186 V 831.186 C 465.10668,823.73438 469.22497,816.04322 471.98662,808.36706 V 808.36706 C 474.72874,800.74518 476.11381,793.18951 476.01421,785.98709 L 476.01421,785.98708 C 475.96125,782.15692 475.40956,778.8802 474.25248,776.09763 V 776.09763 C 473.65295,774.65585 472.90004,773.36985 471.99919,772.23228 V 772.23228 C 471.0706,771.05969 470.02415,770.09455 468.91023,769.29761 V 769.29761 C 467.75774,768.47308 466.55317,767.84292 465.36674,767.34809 L 465.36673,767.34809 C 464.12093,766.8285 462.85842,766.44316 461.65196,766.14294 V 766.14294 C 459.05096,765.49569 456.15592,765.12211 453.91057,764.84622 V 764.84622 C 451.36115,764.53296 450.10997,764.40001 448.04303,764.11582 V 764.11582 C 447.23334,764.0045 446.4749,763.90025 445.69269,763.78971 L 445.69269,763.7897 C 442.43214,763.32892 439.7048,762.88632 436.91779,762.29769 V 762.29769 C 433.20874,761.51431 430.07258,760.60575 427.21682,759.61795 V 759.61795 C 419.5265,756.95787 415.53613,754.87069 415.53613,754.87069 Z" fill="#bea2b0" />
    </g>
    <g>
      <path d="M 124.93314,625.20969 C 168.86844,612.50821 215.45981,612.5343 267.20941,622.36301 250.87417,595.89382 231.94688,580.03683 204.62491,570.65718 335.98347,525.27018 465.1049,547.71794 579.8101,595.87411 546.30454,546.63035 490.88034,513.59029 432.11764,490.82678 460.18454,486.47239 487.84742,486.38537 510.52271,491.75137 456.78439,445.38068 401.8027,411.64764 321.41987,419.48111 342.27263,404.70818 361.83,394.97579 390.55165,384.14833 295.00104,378.97082 133.29446,465.29097 68.012331,553.90404 Z M 72.074462,715.74523 C 103.9868,776.13075 174.28525,819.88738 229.9855,852.48526 212.48982,851.11323 192.42169,845.5125 176.31635,837.70191 198.6389,861.60913 228.77708,885.55684 258.09576,903.18655 222.26022,902.32233 190.25601,889.11461 157.88471,870.00218 170.85472,887.7023 183.77316,899.87754 199.10296,912.44759 162.64157,904.94893 124.45496,884.37288 98.47311,858.09638 128.69109,921.78793 159.90429,962.04951 200.66551,1008.1284 153.65524,988.41446 122.34267,961.62276 99.971896,918.19817 105.89027,950.4916 112.32295,976.69639 124.87338,1007.8294 84.617021,963.35786 60.177028,927.0739 41.080245,875.71829 L 30.886581,941.88376 C -15.303726,826.56299 -3.5559544,690.96729 37.805939,600.56142 Z" fill="#3167cc" />
      <path d="M 98.47311,858.09638 C 128.69109,921.78793 159.90429,962.04951 200.66551,1008.1284 153.65524,988.41446 122.34267,961.62276 99.971896,918.19817 105.89027,950.4916 112.32295,976.69639 124.87338,1007.8294 84.617021,963.35786 60.177028,927.0739 41.080245,875.71829 11.368077,826.0037 14.545526,693.02037 44.38912,622.83107 L 62.69919,684.8335 C 47.816262,719.0009 55.722227,809.86676 98.47311,858.09638 Z M 432.11764,490.82678 C 460.18454,486.47239 487.84742,486.38537 510.52271,491.75137 456.78439,445.38068 401.8027,411.64764 321.41987,419.48111 219.87635,445.21445 148.21422,504.3068 82.225575,571.70921 L 110.98192,608.57087 C 193.63464,528.07683 282.52359,503.35365 432.11764,490.82678 Z" fill="#05ece6" />
      <path d="M 72.074462,715.74523 C 103.9868,776.13075 174.28525,819.88738 229.9855,852.48526 212.48982,851.11323 192.42169,845.5125 176.31635,837.70191 198.6389,861.60913 228.77708,885.55684 258.09576,903.18655 222.26022,902.32233 190.25601,889.11461 157.88471,870.00218 170.85472,887.7023 183.77316,899.87754 199.10296,912.44759 162.64157,904.94893 124.45496,884.37288 98.47311,858.09638 128.69109,921.78793 159.90429,962.04951 200.66551,1008.1284 153.65524,988.41446 122.34267,961.62276 99.971896,918.19817 105.89027,950.4916 112.32295,976.69639 124.87338,1007.8294 84.617021,963.35786 60.177028,927.0739 41.080245,875.71829 L 30.886581,941.88376 C -15.303726,826.56299 -3.5559544,690.96729 37.805939,600.56142 Z M 124.93314,625.20969 C 168.86844,612.50821 215.45981,612.5343 267.20941,622.36301 250.87417,595.89382 231.94688,580.03683 204.62491,570.65718 335.98347,525.27018 465.1049,547.71794 579.8101,595.87411 546.30454,546.63035 490.88034,513.59029 432.11764,490.82678 460.18454,486.47239 487.84742,486.38537 510.52271,491.75137 456.78439,445.38068 401.8027,411.64764 321.41987,419.48111 342.27263,404.70818 361.83,394.97579 390.55165,384.14833 295.00104,378.97082 133.29446,465.29097 68.012331,553.90404 Z" style="fill:none;stroke:#1f3e7d;stroke-width:10;stroke-miterlimit:20" />
      <path d="M 112.26787,759.3928 C -10.543527,668.73126 36.197573,535.70294 55.499449,525.28286 66.925904,519.11431 139.48739,574.38447 156.47634,634.33243 Z" fill="#ffffe2" />
      <path inkscape:original-d="M 112.26787,759.3928 C -10.354385,669.96641 36.197573,535.70294 55.499449,525.28286 66.925904,519.11431 139.48739,574.38447 156.47634,634.33243" inkscape:path-effect="#path-effect19" d="M 112.26787,759.3928 C 112.26787,759.3928 107.97644,755.09067 98.758564,745.5166 90.199988,736.62731 74.968519,720.36833 61.665424,699.05822 V 699.05822 C 58.887639,694.60851 56.098244,689.69946 53.430338,684.32763 V 684.32763 C 43.243114,663.81569 36.411652,639.66724 35.660189,612.57185 V 612.57185 C 35.360444,601.76401 36.057078,591.1773 37.590047,581.10929 L 37.590057,581.10923 C 39.033724,571.62774 41.177279,562.89207 43.725031,555.26756 V 555.26756 C 46.198354,547.86579 48.977698,541.73992 51.664852,537.22209 V 537.22209 C 52.994817,534.98606 54.254765,533.22443 55.382612,531.92691 H 55.382612 C 55.944079,531.28098 56.448369,530.77833 56.886295,530.39969 L 56.886299,530.39968 C 57.329718,530.01629 57.661832,529.79757 57.874674,529.68267 L 57.874674,529.68267 C 57.644635,529.80685 57.507374,529.82458 57.524309,529.82191 L 57.524309,529.82191 C 57.54133,529.81923 57.704394,529.80104 57.984243,529.82043 L 57.984246,529.82043 C 58.594043,529.86268 59.535181,530.04642 60.839501,530.48165 V 530.48165 C 62.14555,530.91746 63.674077,531.55737 65.39889,532.40557 V 532.40557 C 67.163817,533.27351 69.083086,534.33418 71.119467,535.56677 V 535.56677 C 75.453253,538.18995 80.153095,541.49078 84.912704,545.20947 L 84.912712,545.20947 C 90.301141,549.41947 95.561314,554.0022 100.46416,558.64459 L 100.46418,558.64461 C 106.99251,564.82614 112.50135,570.74303 116.92484,575.85736 V 575.85736 C 122.46554,582.26337 127.23539,588.2852 131.31436,593.78661 L 131.31436,593.78662 C 141.63362,607.70444 148.03971,619.03624 151.36783,625.05711 154.97603,631.58468 156.47634,634.33243 156.47634,634.33243 156.47634,634.33243 156.69719,631.15068 154.91709,623.69046 153.13326,616.21459 149.13265,604.14804 138.96231,588.48427 L 138.9623,588.48426 C 135.05564,582.46745 130.26695,575.99676 124.48826,569.3156 V 569.3156 C 119.87624,563.98329 114.13901,557.82138 107.33975,551.38331 L 107.33973,551.38329 C 102.2359,546.55058 96.736448,541.7571 91.069408,537.32943 L 91.069399,537.32942 C 86.073865,533.4264 81.0448,529.88525 76.297633,527.01186 V 527.01186 C 74.06235,525.65887 71.885423,524.45167 69.811815,523.43194 V 523.43194 C 67.798631,522.44193 65.84459,521.60973 64.004758,520.99581 V 520.99581 C 62.22355,520.40145 60.410647,519.96457 58.675441,519.84434 L 58.675433,519.84434 C 57.805978,519.7841 56.890144,519.79849 55.968147,519.94373 L 55.968139,519.94374 C 55.041399,520.08973 54.069892,520.37254 53.124232,520.88305 L 53.124214,520.88306 C 52.132486,521.41844 51.205164,522.09214 50.345829,522.83514 L 50.345821,522.83515 C 49.483984,523.58031 48.646268,524.4336 47.835319,525.36655 H 47.835319 C 46.219512,527.22544 44.619858,529.50475 43.070226,532.1101 V 532.1101 C 39.939407,537.37385 36.885948,544.18151 34.240532,552.09829 V 552.09829 C 31.504114,560.28741 29.230078,569.58121 27.703997,579.60396 L 27.703988,579.60402 C 26.082657,590.25236 25.34749,601.43558 25.664032,612.84908 V 612.84908 C 26.458129,641.4817 33.682251,667.0464 44.474091,688.77574 V 688.77574 C 47.29759,694.46085 50.247768,699.65238 53.182632,704.3537 V 704.3537 C 67.551645,727.37127 84.961964,741.81758 95.498797,749.3079 106.67551,757.25308 112.26787,759.3928 112.26787,759.3928 Z" fill="#bea2b0" />
      <path d="M 68.184519,591.31254 C 63.953444,632.93848 76.333541,669.34428 106.58863,695.06226 84.050122,665.01334 70.845025,630.43664 68.184519,591.31254 Z" fill="#bea2b0" />
      <path d="M 285.71578,565.06918 C 430.87905,347.05428 438.1941,354.05348 355.39402,596.52655 Z" fill="#ffffe2" />
      <path inkscape:original-d="M 285.71578,565.06918 C 430.87905,347.05428 438.1941,354.05348 355.39402,596.52655" inkscape:path-effect="#path-effect871" d="M 289.87762,567.8403 C 303.49452,547.38962 321.44311,520.58219 337.89966,496.72023 V 496.72023 C 350.6383,478.24923 362.9142,460.90584 373.47687,446.92574 L 373.47689,446.92571 C 378.29154,440.55333 382.72392,434.9137 386.71803,430.12352 V 430.12352 C 390.58909,425.48091 393.98672,421.71053 396.89641,418.84321 L 396.89642,418.8432 C 398.3256,417.43484 399.60656,416.27458 400.74265,415.34818 L 400.74266,415.34817 C 401.88036,414.42046 402.81333,413.77613 403.55356,413.35581 L 403.55357,413.35581 C 404.27386,412.94681 404.74905,412.81554 404.7889,412.80835 L 404.7889,412.80835 C 404.80883,412.80475 404.71462,412.82474 404.52765,412.8049 L 404.52765,412.8049 C 404.32973,412.7839 404.0752,412.72193 403.80695,412.58794 V 412.58794 C 403.53845,412.45383 403.33806,412.28847 403.20561,412.14662 V 412.14662 C 403.07978,412.01187 403.04207,411.92925 403.05331,411.95143 V 411.95143 C 403.07593,411.99606 403.26012,412.46486 403.37107,413.28697 L 403.37107,413.28697 C 403.4861,414.13938 403.53837,415.27642 403.4913,416.73733 L 403.49129,416.73734 C 403.44386,418.20943 403.29843,419.93125 403.04899,421.90703 L 403.04899,421.90704 C 402.53321,425.9925 401.59645,430.9806 400.285,436.77083 V 436.77083 C 398.89714,442.89839 397.11285,449.82249 395.03337,457.32399 L 395.03336,457.32401 C 390.1615,474.89872 383.65511,495.67227 377.36999,515.07579 V 515.07579 C 374.4022,524.23802 371.44697,533.2056 368.7665,541.27203 V 541.27203 C 356.07772,579.45686 355.39402,596.52655 355.39402,596.52655 355.39402,596.52655 365.53854,582.69745 378.25628,544.42548 V 544.42548 C 380.94222,536.34257 383.9057,527.35002 386.88336,518.15732 V 518.15732 C 393.1802,498.71759 399.73958,477.78112 404.66995,459.99536 L 404.66996,459.99534 C 406.7761,452.39767 408.6031,445.31493 410.03796,438.97982 V 438.97982 C 411.38797,433.01935 412.3987,427.68674 412.97024,423.15957 L 412.97024,423.15956 C 413.24765,420.96216 413.42617,418.91959 413.48611,417.05938 L 413.48611,417.05937 C 413.54483,415.23674 413.49245,413.51465 413.28123,411.94955 L 413.28123,411.94954 C 413.07588,410.42794 412.69467,408.85439 411.97312,407.4307 V 407.4307 C 411.60467,406.70371 411.13181,405.98277 410.51464,405.32181 V 405.32181 C 409.89223,404.65524 409.14612,404.07673 408.27536,403.64181 V 403.64181 C 407.40611,403.20763 406.4945,402.95746 405.58281,402.86072 L 405.58279,402.86072 C 404.68253,402.7652 403.81639,402.82237 403.01359,402.9672 L 403.01358,402.9672 C 401.44384,403.25038 399.95901,403.89722 398.61587,404.65988 L 398.61586,404.65988 C 397.24682,405.43725 395.84527,406.43845 394.42307,407.59815 L 394.42307,407.59815 C 392.98493,408.77085 391.4678,410.15323 389.87741,411.72046 L 389.8774,411.72047 C 386.65069,414.90019 383.02374,418.93892 379.03762,423.71951 V 423.71951 C 374.91017,428.66961 370.37495,434.44283 365.49819,440.89741 L 365.49817,440.89744 C 354.80591,455.04906 342.43478,472.53041 329.66754,491.04289 V 491.04289 C 313.16261,514.97499 295.17691,541.83828 281.55394,562.29806 Z" fill="#bea2b0" />
      <path d="M 360.52484,455.49656 C 370.73198,463.28939 390.19706,458.0515 406.22662,435.99968 M 328.72532,500.79788 C 342.94565,514.19465 371.24587,510.18635 392.22662,486.8004 M 298.8528,544.90245 C 317.29902,562.89817 348.15105,563.99572 375.38913,538.31262" fill="none" stroke="#bea2b0" stroke-width="5" />
      <path d="M 281.55394,562.29806 C 284.90099,573.28085 292.72562,582.00018 303.59991,586.4135 296.28272,578.48854 293.00261,569.54943 292.1264,558.73506 Z" fill="#bea2b0" />
    </g>
  </g>
  <path d="M 0,597.92535 800,1000 H 0 Z" fill="url(#linearGradient2558)" />
  <g transform="translate(692.19845 970.08631)scale(.41158204)">
    <path d="M -10,0 C -4,-6 -6,-14 -14,-18 3,-20 8,-28 -2,-39 8,-37 17,-42 18,-53 36,-20 5,-16 5,0 5,16 36,20 18,53 17,42 8,37 -2,39 8,28 3,20 -14,18 -6,14 -4,6 -10,0 Z" fill="#5a318e" />
    <path d="M -20,0 20,-7 11,0 20,7 Z" fill="#54a2e1" />
    <path d="M 0,-30 25.980762,-15 V 15 L 0,30 -25.980762,15 V -15 Z" fill="none" stroke="#576ab7" stroke-width="1.8" />
  </g>
  <text y="975.50415" x="711.18292" xml:space="preserve" style="font-size:14px;line-height:1.25;font-family:Junction;fill:#fff"><tspan y="975.50415" x="711.18292" sodipodi:role="line">Parcly Taxel</tspan></text>
</svg>
