<svg xmlns="http://www.w3.org/2000/svg" xmlns:xlink="http://www.w3.org/1999/xlink" viewBox="-50 -33 100 66">
  <path id="W" d="M-40.8-31.2c-.3 16.5 23.5 12.4 23 34S-1.4 16-.1 31.6c-2.3-4.1-9.2-7.1-14.3-8.2 2.3-.2 5.2.1 7.4.8-5.5-3.9-12.6-5.3-15.1-10.5s-.6-8.1-6.8-20.4c-6.2-12.3-14.9-9.2-11.9-24.5zM-45 3.5c4.6 9.7 13.3 6.4 20.8 8.1-5.7-6.4-14.3-2.8-20.8-8.1zm-3.7-10.9C-40.6 3.8-31.9-2.6-25 8.5c-8.4-5.4-17.6 2-23.7-15.9zm.7-8.3C-46.9 1.9-35.3-4.7-26.7 4-32.8-8.5-41-3.8-48-15.7zm-.5-12.3c3.6 13.6 14.7 10.8 20.3 26.7C-35-10.7-48.9-8.4-48.5-28zm30.1 47.5c-9.5.4-6.2 5.5-4.5 4.5 1.7-1 1.1-3.4 4.5-4.5zm-1.5-1.3c-12.7-.9-10.6 3.4-8.3 3.5 2.3.1 2.7-2.9 8.3-3.5zm-2.2-1.8c-12.3-4.4-13.6-.1-11.2 1.3 2.4 1.4 4.9-1.2 11.2-1.3z" fill="#ececec"/>
  <use xlink:href="#W" transform="scale(-1 1)"/>
  <path d="M-.6 13.5l-1.7.5v-32.2c0-5.2.7-9.7 2.3-14.3 1.6 4.6 2.3 9.1 2.3 14.3V14l-1.7-.5L0-22.3zM-8.1 17c-1.1 0-1.8-1-1.4-1.9.4-.9 2-.8 2 .3H-1c.5-.8 1.5-.8 2 0h6.5c0-1.1 1.6-1.2 2-.3.4.9-.3 1.9-1.4 1.9zm7.2 13.3l-.6-11.8h3L.9 30.3z" fill="#bebebe"/>
  <circle cy="30.8" r="2" fill="#bebebe"/>
</svg>
